^D:\YUU\DOCUMENTS\学生制作\2年ときのやつ\企業提出パック\ソース\SOURCE\CACHIEAPPLE.CPP
/c /I"C:\Users\master\Desktop\ProjectHobit\企業提出フォルダ\ソース\Effekseer\include" /I"Microsoft DirectX SDK\Include" /IHeader /I./BulletPhysicsEngine\src /Zi /nologo /W3 /WX- /sdl /O2 /Oi /Oy- /GL /D WIN32 /D NDEBUG /D _WINDOWS /D _MBCS /Gm- /EHsc /MT /GS /Gy /fp:precise /Zc:wchar_t /Zc:forScope /Fo"RELEASE\\" /Fd"RELEASE\VC120.PDB" /Gd /TP /FIstdafx.h /analyze- D:\YUU\DOCUMENTS\学生制作\2年ときのやつ\企業提出パック\ソース\SOURCE\CACHIEAPPLE.CPP
^D:\YUU\DOCUMENTS\学生制作\2年ときのやつ\企業提出パック\ソース\SOURCE\CACHIEVEMENTBASE.CPP
/c /I"C:\Users\master\Desktop\ProjectHobit\企業提出フォルダ\ソース\Effekseer\include" /I"Microsoft DirectX SDK\Include" /IHeader /I./BulletPhysicsEngine\src /Zi /nologo /W3 /WX- /sdl /O2 /Oi /Oy- /GL /D WIN32 /D NDEBUG /D _WINDOWS /D _MBCS /Gm- /EHsc /MT /GS /Gy /fp:precise /Zc:wchar_t /Zc:forScope /Fo"RELEASE\\" /Fd"RELEASE\VC120.PDB" /Gd /TP /FIstdafx.h /analyze- D:\YUU\DOCUMENTS\学生制作\2年ときのやつ\企業提出パック\ソース\SOURCE\CACHIEVEMENTBASE.CPP
^D:\YUU\DOCUMENTS\学生制作\2年ときのやつ\企業提出パック\ソース\SOURCE\CACHIEVEMENTMANAGER.CPP
/c /I"C:\Users\master\Desktop\ProjectHobit\企業提出フォルダ\ソース\Effekseer\include" /I"Microsoft DirectX SDK\Include" /IHeader /I./BulletPhysicsEngine\src /Zi /nologo /W3 /WX- /sdl /O2 /Oi /Oy- /GL /D WIN32 /D NDEBUG /D _WINDOWS /D _MBCS /Gm- /EHsc /MT /GS /Gy /fp:precise /Zc:wchar_t /Zc:forScope /Fo"RELEASE\\" /Fd"RELEASE\VC120.PDB" /Gd /TP /FIstdafx.h /analyze- D:\YUU\DOCUMENTS\学生制作\2年ときのやつ\企業提出パック\ソース\SOURCE\CACHIEVEMENTMANAGER.CPP
^D:\YUU\DOCUMENTS\学生制作\2年ときのやつ\企業提出パック\ソース\SOURCE\CACHIEVEMENTWORLD.CPP
/c /I"C:\Users\master\Desktop\ProjectHobit\企業提出フォルダ\ソース\Effekseer\include" /I"Microsoft DirectX SDK\Include" /IHeader /I./BulletPhysicsEngine\src /Zi /nologo /W3 /WX- /sdl /O2 /Oi /Oy- /GL /D WIN32 /D NDEBUG /D _WINDOWS /D _MBCS /Gm- /EHsc /MT /GS /Gy /fp:precise /Zc:wchar_t /Zc:forScope /Fo"RELEASE\\" /Fd"RELEASE\VC120.PDB" /Gd /TP /FIstdafx.h /analyze- D:\YUU\DOCUMENTS\学生制作\2年ときのやつ\企業提出パック\ソース\SOURCE\CACHIEVEMENTWORLD.CPP
^D:\YUU\DOCUMENTS\学生制作\2年ときのやつ\企業提出パック\ソース\SOURCE\CAIRFLOWER.CPP
/c /I"C:\Users\master\Desktop\ProjectHobit\企業提出フォルダ\ソース\Effekseer\include" /I"Microsoft DirectX SDK\Include" /IHeader /I./BulletPhysicsEngine\src /Zi /nologo /W3 /WX- /sdl /O2 /Oi /Oy- /GL /D WIN32 /D NDEBUG /D _WINDOWS /D _MBCS /Gm- /EHsc /MT /GS /Gy /fp:precise /Zc:wchar_t /Zc:forScope /Fo"RELEASE\\" /Fd"RELEASE\VC120.PDB" /Gd /TP /FIstdafx.h /analyze- D:\YUU\DOCUMENTS\学生制作\2年ときのやつ\企業提出パック\ソース\SOURCE\CAIRFLOWER.CPP
^D:\YUU\DOCUMENTS\学生制作\2年ときのやつ\企業提出パック\ソース\SOURCE\CAPPLE.CPP
/c /I"C:\Users\master\Desktop\ProjectHobit\企業提出フォルダ\ソース\Effekseer\include" /I"Microsoft DirectX SDK\Include" /IHeader /I./BulletPhysicsEngine\src /Zi /nologo /W3 /WX- /sdl /O2 /Oi /Oy- /GL /D WIN32 /D NDEBUG /D _WINDOWS /D _MBCS /Gm- /EHsc /MT /GS /Gy /fp:precise /Zc:wchar_t /Zc:forScope /Fo"RELEASE\\" /Fd"RELEASE\VC120.PDB" /Gd /TP /FIstdafx.h /analyze- D:\YUU\DOCUMENTS\学生制作\2年ときのやつ\企業提出パック\ソース\SOURCE\CAPPLE.CPP
^D:\YUU\DOCUMENTS\学生制作\2年ときのやつ\企業提出パック\ソース\SOURCE\CAPPLETREE.CPP
/c /I"C:\Users\master\Desktop\ProjectHobit\企業提出フォルダ\ソース\Effekseer\include" /I"Microsoft DirectX SDK\Include" /IHeader /I./BulletPhysicsEngine\src /Zi /nologo /W3 /WX- /sdl /O2 /Oi /Oy- /GL /D WIN32 /D NDEBUG /D _WINDOWS /D _MBCS /Gm- /EHsc /MT /GS /Gy /fp:precise /Zc:wchar_t /Zc:forScope /Fo"RELEASE\\" /Fd"RELEASE\VC120.PDB" /Gd /TP /FIstdafx.h /analyze- D:\YUU\DOCUMENTS\学生制作\2年ときのやつ\企業提出パック\ソース\SOURCE\CAPPLETREE.CPP
^D:\YUU\DOCUMENTS\学生制作\2年ときのやつ\企業提出パック\ソース\SOURCE\CBRANCH.CPP
/c /I"C:\Users\master\Desktop\ProjectHobit\企業提出フォルダ\ソース\Effekseer\include" /I"Microsoft DirectX SDK\Include" /IHeader /I./BulletPhysicsEngine\src /Zi /nologo /W3 /WX- /sdl /O2 /Oi /Oy- /GL /D WIN32 /D NDEBUG /D _WINDOWS /D _MBCS /Gm- /EHsc /MT /GS /Gy /fp:precise /Zc:wchar_t /Zc:forScope /Fo"RELEASE\\" /Fd"RELEASE\VC120.PDB" /Gd /TP /FIstdafx.h /analyze- D:\YUU\DOCUMENTS\学生制作\2年ときのやつ\企業提出パック\ソース\SOURCE\CBRANCH.CPP
^D:\YUU\DOCUMENTS\学生制作\2年ときのやつ\企業提出パック\ソース\SOURCE\CBREAKROCK.CPP
/c /I"C:\Users\master\Desktop\ProjectHobit\企業提出フォルダ\ソース\Effekseer\include" /I"Microsoft DirectX SDK\Include" /IHeader /I./BulletPhysicsEngine\src /Zi /nologo /W3 /WX- /sdl /O2 /Oi /Oy- /GL /D WIN32 /D NDEBUG /D _WINDOWS /D _MBCS /Gm- /EHsc /MT /GS /Gy /fp:precise /Zc:wchar_t /Zc:forScope /Fo"RELEASE\\" /Fd"RELEASE\VC120.PDB" /Gd /TP /FIstdafx.h /analyze- D:\YUU\DOCUMENTS\学生制作\2年ときのやつ\企業提出パック\ソース\SOURCE\CBREAKROCK.CPP
^D:\YUU\DOCUMENTS\学生制作\2年ときのやつ\企業提出パック\ソース\SOURCE\CBRIDGE.CPP
/c /I"C:\Users\master\Desktop\ProjectHobit\企業提出フォルダ\ソース\Effekseer\include" /I"Microsoft DirectX SDK\Include" /IHeader /I./BulletPhysicsEngine\src /Zi /nologo /W3 /WX- /sdl /O2 /Oi /Oy- /GL /D WIN32 /D NDEBUG /D _WINDOWS /D _MBCS /Gm- /EHsc /MT /GS /Gy /fp:precise /Zc:wchar_t /Zc:forScope /Fo"RELEASE\\" /Fd"RELEASE\VC120.PDB" /Gd /TP /FIstdafx.h /analyze- D:\YUU\DOCUMENTS\学生制作\2年ときのやつ\企業提出パック\ソース\SOURCE\CBRIDGE.CPP
^D:\YUU\DOCUMENTS\学生制作\2年ときのやつ\企業提出パック\ソース\SOURCE\CCLOUD.CPP
/c /I"C:\Users\master\Desktop\ProjectHobit\企業提出フォルダ\ソース\Effekseer\include" /I"Microsoft DirectX SDK\Include" /IHeader /I./BulletPhysicsEngine\src /Zi /nologo /W3 /WX- /sdl /O2 /Oi /Oy- /GL /D WIN32 /D NDEBUG /D _WINDOWS /D _MBCS /Gm- /EHsc /MT /GS /Gy /fp:precise /Zc:wchar_t /Zc:forScope /Fo"RELEASE\\" /Fd"RELEASE\VC120.PDB" /Gd /TP /FIstdafx.h /analyze- D:\YUU\DOCUMENTS\学生制作\2年ときのやつ\企業提出パック\ソース\SOURCE\CCLOUD.CPP
^D:\YUU\DOCUMENTS\学生制作\2年ときのやつ\企業提出パック\ソース\SOURCE\CCOLLISION.CPP
/c /I"C:\Users\master\Desktop\ProjectHobit\企業提出フォルダ\ソース\Effekseer\include" /I"Microsoft DirectX SDK\Include" /IHeader /I./BulletPhysicsEngine\src /Zi /nologo /W3 /WX- /sdl /O2 /Oi /Oy- /GL /D WIN32 /D NDEBUG /D _WINDOWS /D _MBCS /Gm- /EHsc /MT /GS /Gy /fp:precise /Zc:wchar_t /Zc:forScope /Fo"RELEASE\\" /Fd"RELEASE\VC120.PDB" /Gd /TP /FIstdafx.h /analyze- D:\YUU\DOCUMENTS\学生制作\2年ときのやつ\企業提出パック\ソース\SOURCE\CCOLLISION.CPP
^D:\YUU\DOCUMENTS\学生制作\2年ときのやつ\企業提出パック\ソース\SOURCE\CCRACKWALL.CPP
/c /I"C:\Users\master\Desktop\ProjectHobit\企業提出フォルダ\ソース\Effekseer\include" /I"Microsoft DirectX SDK\Include" /IHeader /I./BulletPhysicsEngine\src /Zi /nologo /W3 /WX- /sdl /O2 /Oi /Oy- /GL /D WIN32 /D NDEBUG /D _WINDOWS /D _MBCS /Gm- /EHsc /MT /GS /Gy /fp:precise /Zc:wchar_t /Zc:forScope /Fo"RELEASE\\" /Fd"RELEASE\VC120.PDB" /Gd /TP /FIstdafx.h /analyze- D:\YUU\DOCUMENTS\学生制作\2年ときのやつ\企業提出パック\ソース\SOURCE\CCRACKWALL.CPP
^D:\YUU\DOCUMENTS\学生制作\2年ときのやつ\企業提出パック\ソース\SOURCE\CEFFEKSEERMANAGER.CPP
/c /I"C:\Users\master\Desktop\ProjectHobit\企業提出フォルダ\ソース\Effekseer\include" /I"Microsoft DirectX SDK\Include" /IHeader /I./BulletPhysicsEngine\src /Zi /nologo /W3 /WX- /sdl /O2 /Oi /Oy- /GL /D WIN32 /D NDEBUG /D _WINDOWS /D _MBCS /Gm- /EHsc /MT /GS /Gy /fp:precise /Zc:wchar_t /Zc:forScope /Fo"RELEASE\\" /Fd"RELEASE\VC120.PDB" /Gd /TP /FIstdafx.h /analyze- D:\YUU\DOCUMENTS\学生制作\2年ときのやつ\企業提出パック\ソース\SOURCE\CEFFEKSEERMANAGER.CPP
^D:\YUU\DOCUMENTS\学生制作\2年ときのやつ\企業提出パック\ソース\SOURCE\CFACE.CPP
/c /I"C:\Users\master\Desktop\ProjectHobit\企業提出フォルダ\ソース\Effekseer\include" /I"Microsoft DirectX SDK\Include" /IHeader /I./BulletPhysicsEngine\src /Zi /nologo /W3 /WX- /sdl /O2 /Oi /Oy- /GL /D WIN32 /D NDEBUG /D _WINDOWS /D _MBCS /Gm- /EHsc /MT /GS /Gy /fp:precise /Zc:wchar_t /Zc:forScope /Fo"RELEASE\\" /Fd"RELEASE\VC120.PDB" /Gd /TP /FIstdafx.h /analyze- D:\YUU\DOCUMENTS\学生制作\2年ときのやつ\企業提出パック\ソース\SOURCE\CFACE.CPP
^D:\YUU\DOCUMENTS\学生制作\2年ときのやつ\企業提出パック\ソース\SOURCE\CGIMMICKMANAGER.CPP
/c /I"C:\Users\master\Desktop\ProjectHobit\企業提出フォルダ\ソース\Effekseer\include" /I"Microsoft DirectX SDK\Include" /IHeader /I./BulletPhysicsEngine\src /Zi /nologo /W3 /WX- /sdl /O2 /Oi /Oy- /GL /D WIN32 /D NDEBUG /D _WINDOWS /D _MBCS /Gm- /EHsc /MT /GS /Gy /fp:precise /Zc:wchar_t /Zc:forScope /Fo"RELEASE\\" /Fd"RELEASE\VC120.PDB" /Gd /TP /FIstdafx.h /analyze- D:\YUU\DOCUMENTS\学生制作\2年ときのやつ\企業提出パック\ソース\SOURCE\CGIMMICKMANAGER.CPP
^D:\YUU\DOCUMENTS\学生制作\2年ときのやつ\企業提出パック\ソース\SOURCE\CHELP.CPP
/c /I"C:\Users\master\Desktop\ProjectHobit\企業提出フォルダ\ソース\Effekseer\include" /I"Microsoft DirectX SDK\Include" /IHeader /I./BulletPhysicsEngine\src /Zi /nologo /W3 /WX- /sdl /O2 /Oi /Oy- /GL /D WIN32 /D NDEBUG /D _WINDOWS /D _MBCS /Gm- /EHsc /MT /GS /Gy /fp:precise /Zc:wchar_t /Zc:forScope /Fo"RELEASE\\" /Fd"RELEASE\VC120.PDB" /Gd /TP /FIstdafx.h /analyze- D:\YUU\DOCUMENTS\学生制作\2年ときのやつ\企業提出パック\ソース\SOURCE\CHELP.CPP
^D:\YUU\DOCUMENTS\学生制作\2年ときのやつ\企業提出パック\ソース\SOURCE\CLARGEROCK.CPP
/c /I"C:\Users\master\Desktop\ProjectHobit\企業提出フォルダ\ソース\Effekseer\include" /I"Microsoft DirectX SDK\Include" /IHeader /I./BulletPhysicsEngine\src /Zi /nologo /W3 /WX- /sdl /O2 /Oi /Oy- /GL /D WIN32 /D NDEBUG /D _WINDOWS /D _MBCS /Gm- /EHsc /MT /GS /Gy /fp:precise /Zc:wchar_t /Zc:forScope /Fo"RELEASE\\" /Fd"RELEASE\VC120.PDB" /Gd /TP /FIstdafx.h /analyze- D:\YUU\DOCUMENTS\学生制作\2年ときのやつ\企業提出パック\ソース\SOURCE\CLARGEROCK.CPP
^D:\YUU\DOCUMENTS\学生制作\2年ときのやつ\企業提出パック\ソース\SOURCE\CLEAF.CPP
/c /I"C:\Users\master\Desktop\ProjectHobit\企業提出フォルダ\ソース\Effekseer\include" /I"Microsoft DirectX SDK\Include" /IHeader /I./BulletPhysicsEngine\src /Zi /nologo /W3 /WX- /sdl /O2 /Oi /Oy- /GL /D WIN32 /D NDEBUG /D _WINDOWS /D _MBCS /Gm- /EHsc /MT /GS /Gy /fp:precise /Zc:wchar_t /Zc:forScope /Fo"RELEASE\\" /Fd"RELEASE\VC120.PDB" /Gd /TP /FIstdafx.h /analyze- D:\YUU\DOCUMENTS\学生制作\2年ときのやつ\企業提出パック\ソース\SOURCE\CLEAF.CPP
^D:\YUU\DOCUMENTS\学生制作\2年ときのやつ\企業提出パック\ソース\SOURCE\CMATERIALDATA.CPP
/c /I"C:\Users\master\Desktop\ProjectHobit\企業提出フォルダ\ソース\Effekseer\include" /I"Microsoft DirectX SDK\Include" /IHeader /I./BulletPhysicsEngine\src /Zi /nologo /W3 /WX- /sdl /O2 /Oi /Oy- /GL /D WIN32 /D NDEBUG /D _WINDOWS /D _MBCS /Gm- /EHsc /MT /GS /Gy /fp:precise /Zc:wchar_t /Zc:forScope /Fo"RELEASE\\" /Fd"RELEASE\VC120.PDB" /Gd /TP /FIstdafx.h /analyze- D:\YUU\DOCUMENTS\学生制作\2年ときのやつ\企業提出パック\ソース\SOURCE\CMATERIALDATA.CPP
^D:\YUU\DOCUMENTS\学生制作\2年ときのやつ\企業提出パック\ソース\SOURCE\CSELECTTABLE.CPP
/c /I"C:\Users\master\Desktop\ProjectHobit\企業提出フォルダ\ソース\Effekseer\include" /I"Microsoft DirectX SDK\Include" /IHeader /I./BulletPhysicsEngine\src /Zi /nologo /W3 /WX- /sdl /O2 /Oi /Oy- /GL /D WIN32 /D NDEBUG /D _WINDOWS /D _MBCS /Gm- /EHsc /MT /GS /Gy /fp:precise /Zc:wchar_t /Zc:forScope /Fo"RELEASE\\" /Fd"RELEASE\VC120.PDB" /Gd /TP /FIstdafx.h /analyze- D:\YUU\DOCUMENTS\学生制作\2年ときのやつ\企業提出パック\ソース\SOURCE\CSELECTTABLE.CPP
^D:\YUU\DOCUMENTS\学生制作\2年ときのやつ\企業提出パック\ソース\SOURCE\CBULLETPHYSICSENGINE.CPP
/c /I"C:\Users\master\Desktop\ProjectHobit\企業提出フォルダ\ソース\Effekseer\include" /I"Microsoft DirectX SDK\Include" /IHeader /I./BulletPhysicsEngine\src /Zi /nologo /W3 /WX- /sdl /O2 /Oi /Oy- /GL /D WIN32 /D NDEBUG /D _WINDOWS /D _MBCS /Gm- /EHsc /MT /GS /Gy /fp:precise /Zc:wchar_t /Zc:forScope /Fo"RELEASE\\" /Fd"RELEASE\VC120.PDB" /Gd /TP /FIstdafx.h /analyze- D:\YUU\DOCUMENTS\学生制作\2年ときのやつ\企業提出パック\ソース\SOURCE\CBULLETPHYSICSENGINE.CPP
^D:\YUU\DOCUMENTS\学生制作\2年ときのやつ\企業提出パック\ソース\SOURCE\CBULLETPHYSICSWORLD.CPP
/c /I"C:\Users\master\Desktop\ProjectHobit\企業提出フォルダ\ソース\Effekseer\include" /I"Microsoft DirectX SDK\Include" /IHeader /I./BulletPhysicsEngine\src /Zi /nologo /W3 /WX- /sdl /O2 /Oi /Oy- /GL /D WIN32 /D NDEBUG /D _WINDOWS /D _MBCS /Gm- /EHsc /MT /GS /Gy /fp:precise /Zc:wchar_t /Zc:forScope /Fo"RELEASE\\" /Fd"RELEASE\VC120.PDB" /Gd /TP /FIstdafx.h /analyze- D:\YUU\DOCUMENTS\学生制作\2年ときのやつ\企業提出パック\ソース\SOURCE\CBULLETPHYSICSWORLD.CPP
^D:\YUU\DOCUMENTS\学生制作\2年ときのやつ\企業提出パック\ソース\SOURCE\CFILELOADER.CPP
/c /I"C:\Users\master\Desktop\ProjectHobit\企業提出フォルダ\ソース\Effekseer\include" /I"Microsoft DirectX SDK\Include" /IHeader /I./BulletPhysicsEngine\src /Zi /nologo /W3 /WX- /sdl /O2 /Oi /Oy- /GL /D WIN32 /D NDEBUG /D _WINDOWS /D _MBCS /Gm- /EHsc /MT /GS /Gy /fp:precise /Zc:wchar_t /Zc:forScope /Fo"RELEASE\\" /Fd"RELEASE\VC120.PDB" /Gd /TP /FIstdafx.h /analyze- D:\YUU\DOCUMENTS\学生制作\2年ときのやつ\企業提出パック\ソース\SOURCE\CFILELOADER.CPP
^D:\YUU\DOCUMENTS\学生制作\2年ときのやつ\企業提出パック\ソース\SOURCE\CKABO.CPP
/c /I"C:\Users\master\Desktop\ProjectHobit\企業提出フォルダ\ソース\Effekseer\include" /I"Microsoft DirectX SDK\Include" /IHeader /I./BulletPhysicsEngine\src /Zi /nologo /W3 /WX- /sdl /O2 /Oi /Oy- /GL /D WIN32 /D NDEBUG /D _WINDOWS /D _MBCS /Gm- /EHsc /MT /GS /Gy /fp:precise /Zc:wchar_t /Zc:forScope /Fo"RELEASE\\" /Fd"RELEASE\VC120.PDB" /Gd /TP /FIstdafx.h /analyze- D:\YUU\DOCUMENTS\学生制作\2年ときのやつ\企業提出パック\ソース\SOURCE\CKABO.CPP
^D:\YUU\DOCUMENTS\学生制作\2年ときのやつ\企業提出パック\ソース\SOURCE\CMATRIX.CPP
/c /I"C:\Users\master\Desktop\ProjectHobit\企業提出フォルダ\ソース\Effekseer\include" /I"Microsoft DirectX SDK\Include" /IHeader /I./BulletPhysicsEngine\src /Zi /nologo /W3 /WX- /sdl /O2 /Oi /Oy- /GL /D WIN32 /D NDEBUG /D _WINDOWS /D _MBCS /Gm- /EHsc /MT /GS /Gy /fp:precise /Zc:wchar_t /Zc:forScope /Fo"RELEASE\\" /Fd"RELEASE\VC120.PDB" /Gd /TP /FIstdafx.h /analyze- D:\YUU\DOCUMENTS\学生制作\2年ときのやつ\企業提出パック\ソース\SOURCE\CMATRIX.CPP
^D:\YUU\DOCUMENTS\学生制作\2年ときのやつ\企業提出パック\ソース\SOURCE\CRIVER.CPP
/c /I"C:\Users\master\Desktop\ProjectHobit\企業提出フォルダ\ソース\Effekseer\include" /I"Microsoft DirectX SDK\Include" /IHeader /I./BulletPhysicsEngine\src /Zi /nologo /W3 /WX- /sdl /O2 /Oi /Oy- /GL /D WIN32 /D NDEBUG /D _WINDOWS /D _MBCS /Gm- /EHsc /MT /GS /Gy /fp:precise /Zc:wchar_t /Zc:forScope /Fo"RELEASE\\" /Fd"RELEASE\VC120.PDB" /Gd /TP /FIstdafx.h /analyze- D:\YUU\DOCUMENTS\学生制作\2年ときのやつ\企業提出パック\ソース\SOURCE\CRIVER.CPP
^D:\YUU\DOCUMENTS\学生制作\2年ときのやつ\企業提出パック\ソース\SOURCE\CSEESAW.CPP
/c /I"C:\Users\master\Desktop\ProjectHobit\企業提出フォルダ\ソース\Effekseer\include" /I"Microsoft DirectX SDK\Include" /IHeader /I./BulletPhysicsEngine\src /Zi /nologo /W3 /WX- /sdl /O2 /Oi /Oy- /GL /D WIN32 /D NDEBUG /D _WINDOWS /D _MBCS /Gm- /EHsc /MT /GS /Gy /fp:precise /Zc:wchar_t /Zc:forScope /Fo"RELEASE\\" /Fd"RELEASE\VC120.PDB" /Gd /TP /FIstdafx.h /analyze- D:\YUU\DOCUMENTS\学生制作\2年ときのやつ\企業提出パック\ソース\SOURCE\CSEESAW.CPP
^D:\YUU\DOCUMENTS\学生制作\2年ときのやつ\企業提出パック\ソース\SOURCE\CSEESAWFOUNDATION.CPP
/c /I"C:\Users\master\Desktop\ProjectHobit\企業提出フォルダ\ソース\Effekseer\include" /I"Microsoft DirectX SDK\Include" /IHeader /I./BulletPhysicsEngine\src /Zi /nologo /W3 /WX- /sdl /O2 /Oi /Oy- /GL /D WIN32 /D NDEBUG /D _WINDOWS /D _MBCS /Gm- /EHsc /MT /GS /Gy /fp:precise /Zc:wchar_t /Zc:forScope /Fo"RELEASE\\" /Fd"RELEASE\VC120.PDB" /Gd /TP /FIstdafx.h /analyze- D:\YUU\DOCUMENTS\学生制作\2年ときのやつ\企業提出パック\ソース\SOURCE\CSEESAWFOUNDATION.CPP
^D:\YUU\DOCUMENTS\学生制作\2年ときのやつ\企業提出パック\ソース\SOURCE\CSOUND.CPP
/c /I"C:\Users\master\Desktop\ProjectHobit\企業提出フォルダ\ソース\Effekseer\include" /I"Microsoft DirectX SDK\Include" /IHeader /I./BulletPhysicsEngine\src /Zi /nologo /W3 /WX- /sdl /O2 /Oi /Oy- /GL /D WIN32 /D NDEBUG /D _WINDOWS /D _MBCS /Gm- /EHsc /MT /GS /Gy /fp:precise /Zc:wchar_t /Zc:forScope /Fo"RELEASE\\" /Fd"RELEASE\VC120.PDB" /Gd /TP /FIstdafx.h /analyze- D:\YUU\DOCUMENTS\学生制作\2年ときのやつ\企業提出パック\ソース\SOURCE\CSOUND.CPP
^D:\YUU\DOCUMENTS\学生制作\2年ときのやつ\企業提出パック\ソース\SOURCE\CBOKASHISHADER.CPP
/c /I"C:\Users\master\Desktop\ProjectHobit\企業提出フォルダ\ソース\Effekseer\include" /I"Microsoft DirectX SDK\Include" /IHeader /I./BulletPhysicsEngine\src /Zi /nologo /W3 /WX- /sdl /O2 /Oi /Oy- /GL /D WIN32 /D NDEBUG /D _WINDOWS /D _MBCS /Gm- /EHsc /MT /GS /Gy /fp:precise /Zc:wchar_t /Zc:forScope /Fo"RELEASE\\" /Fd"RELEASE\VC120.PDB" /Gd /TP /FIstdafx.h /analyze- D:\YUU\DOCUMENTS\学生制作\2年ときのやつ\企業提出パック\ソース\SOURCE\CBOKASHISHADER.CPP
^D:\YUU\DOCUMENTS\学生制作\2年ときのやつ\企業提出パック\ソース\SOURCE\CCAMERA.CPP
/c /I"C:\Users\master\Desktop\ProjectHobit\企業提出フォルダ\ソース\Effekseer\include" /I"Microsoft DirectX SDK\Include" /IHeader /I./BulletPhysicsEngine\src /Zi /nologo /W3 /WX- /sdl /O2 /Oi /Oy- /GL /D WIN32 /D NDEBUG /D _WINDOWS /D _MBCS /Gm- /EHsc /MT /GS /Gy /fp:precise /Zc:wchar_t /Zc:forScope /Fo"RELEASE\\" /Fd"RELEASE\VC120.PDB" /Gd /TP /FIstdafx.h /analyze- D:\YUU\DOCUMENTS\学生制作\2年ときのやつ\企業提出パック\ソース\SOURCE\CCAMERA.CPP
^D:\YUU\DOCUMENTS\学生制作\2年ときのやつ\企業提出パック\ソース\SOURCE\CCLICKFONT.CPP
/c /I"C:\Users\master\Desktop\ProjectHobit\企業提出フォルダ\ソース\Effekseer\include" /I"Microsoft DirectX SDK\Include" /IHeader /I./BulletPhysicsEngine\src /Zi /nologo /W3 /WX- /sdl /O2 /Oi /Oy- /GL /D WIN32 /D NDEBUG /D _WINDOWS /D _MBCS /Gm- /EHsc /MT /GS /Gy /fp:precise /Zc:wchar_t /Zc:forScope /Fo"RELEASE\\" /Fd"RELEASE\VC120.PDB" /Gd /TP /FIstdafx.h /analyze- D:\YUU\DOCUMENTS\学生制作\2年ときのやつ\企業提出パック\ソース\SOURCE\CCLICKFONT.CPP
^D:\YUU\DOCUMENTS\学生制作\2年ときのやつ\企業提出パック\ソース\SOURCE\CHELPER.CPP
/c /I"C:\Users\master\Desktop\ProjectHobit\企業提出フォルダ\ソース\Effekseer\include" /I"Microsoft DirectX SDK\Include" /IHeader /I./BulletPhysicsEngine\src /Zi /nologo /W3 /WX- /sdl /O2 /Oi /Oy- /GL /D WIN32 /D NDEBUG /D _WINDOWS /D _MBCS /Gm- /EHsc /MT /GS /Gy /fp:precise /Zc:wchar_t /Zc:forScope /Fo"RELEASE\\" /Fd"RELEASE\VC120.PDB" /Gd /TP /FIstdafx.h /analyze- D:\YUU\DOCUMENTS\学生制作\2年ときのやつ\企業提出パック\ソース\SOURCE\CHELPER.CPP
^D:\YUU\DOCUMENTS\学生制作\2年ときのやつ\企業提出パック\ソース\SOURCE\CDIRECTX9.CPP
/c /I"C:\Users\master\Desktop\ProjectHobit\企業提出フォルダ\ソース\Effekseer\include" /I"Microsoft DirectX SDK\Include" /IHeader /I./BulletPhysicsEngine\src /Zi /nologo /W3 /WX- /sdl /O2 /Oi /Oy- /GL /D WIN32 /D NDEBUG /D _WINDOWS /D _MBCS /Gm- /EHsc /MT /GS /Gy /fp:precise /Zc:wchar_t /Zc:forScope /Fo"RELEASE\\" /Fd"RELEASE\VC120.PDB" /Gd /TP /FIstdafx.h /analyze- D:\YUU\DOCUMENTS\学生制作\2年ときのやつ\企業提出パック\ソース\SOURCE\CDIRECTX9.CPP
^D:\YUU\DOCUMENTS\学生制作\2年ときのやつ\企業提出パック\ソース\SOURCE\CABSORPTION.CPP
/c /I"C:\Users\master\Desktop\ProjectHobit\企業提出フォルダ\ソース\Effekseer\include" /I"Microsoft DirectX SDK\Include" /IHeader /I./BulletPhysicsEngine\src /Zi /nologo /W3 /WX- /sdl /O2 /Oi /Oy- /GL /D WIN32 /D NDEBUG /D _WINDOWS /D _MBCS /Gm- /EHsc /MT /GS /Gy /fp:precise /Zc:wchar_t /Zc:forScope /Fo"RELEASE\\" /Fd"RELEASE\VC120.PDB" /Gd /TP /FIstdafx.h /analyze- D:\YUU\DOCUMENTS\学生制作\2年ときのやつ\企業提出パック\ソース\SOURCE\CABSORPTION.CPP
^D:\YUU\DOCUMENTS\学生制作\2年ときのやつ\企業提出パック\ソース\SOURCE\CEFFECTMANAGER.CPP
/c /I"C:\Users\master\Desktop\ProjectHobit\企業提出フォルダ\ソース\Effekseer\include" /I"Microsoft DirectX SDK\Include" /IHeader /I./BulletPhysicsEngine\src /Zi /nologo /W3 /WX- /sdl /O2 /Oi /Oy- /GL /D WIN32 /D NDEBUG /D _WINDOWS /D _MBCS /Gm- /EHsc /MT /GS /Gy /fp:precise /Zc:wchar_t /Zc:forScope /Fo"RELEASE\\" /Fd"RELEASE\VC120.PDB" /Gd /TP /FIstdafx.h /analyze- D:\YUU\DOCUMENTS\学生制作\2年ときのやつ\企業提出パック\ソース\SOURCE\CEFFECTMANAGER.CPP
^D:\YUU\DOCUMENTS\学生制作\2年ときのやつ\企業提出パック\ソース\SOURCE\CEFFECTWORLD.CPP
/c /I"C:\Users\master\Desktop\ProjectHobit\企業提出フォルダ\ソース\Effekseer\include" /I"Microsoft DirectX SDK\Include" /IHeader /I./BulletPhysicsEngine\src /Zi /nologo /W3 /WX- /sdl /O2 /Oi /Oy- /GL /D WIN32 /D NDEBUG /D _WINDOWS /D _MBCS /Gm- /EHsc /MT /GS /Gy /fp:precise /Zc:wchar_t /Zc:forScope /Fo"RELEASE\\" /Fd"RELEASE\VC120.PDB" /Gd /TP /FIstdafx.h /analyze- D:\YUU\DOCUMENTS\学生制作\2年ときのやつ\企業提出パック\ソース\SOURCE\CEFFECTWORLD.CPP
^D:\YUU\DOCUMENTS\学生制作\2年ときのやつ\企業提出パック\ソース\SOURCE\CEVENTFRAME.CPP
/c /I"C:\Users\master\Desktop\ProjectHobit\企業提出フォルダ\ソース\Effekseer\include" /I"Microsoft DirectX SDK\Include" /IHeader /I./BulletPhysicsEngine\src /Zi /nologo /W3 /WX- /sdl /O2 /Oi /Oy- /GL /D WIN32 /D NDEBUG /D _WINDOWS /D _MBCS /Gm- /EHsc /MT /GS /Gy /fp:precise /Zc:wchar_t /Zc:forScope /Fo"RELEASE\\" /Fd"RELEASE\VC120.PDB" /Gd /TP /FIstdafx.h /analyze- D:\YUU\DOCUMENTS\学生制作\2年ときのやつ\企業提出パック\ソース\SOURCE\CEVENTFRAME.CPP
^D:\YUU\DOCUMENTS\学生制作\2年ときのやつ\企業提出パック\ソース\SOURCE\CFADE.CPP
/c /I"C:\Users\master\Desktop\ProjectHobit\企業提出フォルダ\ソース\Effekseer\include" /I"Microsoft DirectX SDK\Include" /IHeader /I./BulletPhysicsEngine\src /Zi /nologo /W3 /WX- /sdl /O2 /Oi /Oy- /GL /D WIN32 /D NDEBUG /D _WINDOWS /D _MBCS /Gm- /EHsc /MT /GS /Gy /fp:precise /Zc:wchar_t /Zc:forScope /Fo"RELEASE\\" /Fd"RELEASE\VC120.PDB" /Gd /TP /FIstdafx.h /analyze- D:\YUU\DOCUMENTS\学生制作\2年ときのやつ\企業提出パック\ソース\SOURCE\CFADE.CPP
^D:\YUU\DOCUMENTS\学生制作\2年ときのやつ\企業提出パック\ソース\SOURCE\CSPRINGFLOWER.CPP
/c /I"C:\Users\master\Desktop\ProjectHobit\企業提出フォルダ\ソース\Effekseer\include" /I"Microsoft DirectX SDK\Include" /IHeader /I./BulletPhysicsEngine\src /Zi /nologo /W3 /WX- /sdl /O2 /Oi /Oy- /GL /D WIN32 /D NDEBUG /D _WINDOWS /D _MBCS /Gm- /EHsc /MT /GS /Gy /fp:precise /Zc:wchar_t /Zc:forScope /Fo"RELEASE\\" /Fd"RELEASE\VC120.PDB" /Gd /TP /FIstdafx.h /analyze- D:\YUU\DOCUMENTS\学生制作\2年ときのやつ\企業提出パック\ソース\SOURCE\CSPRINGFLOWER.CPP
^D:\YUU\DOCUMENTS\学生制作\2年ときのやつ\企業提出パック\ソース\SOURCE\CSTAGE1COLLISION.CPP
/c /I"C:\Users\master\Desktop\ProjectHobit\企業提出フォルダ\ソース\Effekseer\include" /I"Microsoft DirectX SDK\Include" /IHeader /I./BulletPhysicsEngine\src /Zi /nologo /W3 /WX- /sdl /O2 /Oi /Oy- /GL /D WIN32 /D NDEBUG /D _WINDOWS /D _MBCS /Gm- /EHsc /MT /GS /Gy /fp:precise /Zc:wchar_t /Zc:forScope /Fo"RELEASE\\" /Fd"RELEASE\VC120.PDB" /Gd /TP /FIstdafx.h /analyze- D:\YUU\DOCUMENTS\学生制作\2年ときのやつ\企業提出パック\ソース\SOURCE\CSTAGE1COLLISION.CPP
^D:\YUU\DOCUMENTS\学生制作\2年ときのやつ\企業提出パック\ソース\SOURCE\CSTOMACH.CPP
/c /I"C:\Users\master\Desktop\ProjectHobit\企業提出フォルダ\ソース\Effekseer\include" /I"Microsoft DirectX SDK\Include" /IHeader /I./BulletPhysicsEngine\src /Zi /nologo /W3 /WX- /sdl /O2 /Oi /Oy- /GL /D WIN32 /D NDEBUG /D _WINDOWS /D _MBCS /Gm- /EHsc /MT /GS /Gy /fp:precise /Zc:wchar_t /Zc:forScope /Fo"RELEASE\\" /Fd"RELEASE\VC120.PDB" /Gd /TP /FIstdafx.h /analyze- D:\YUU\DOCUMENTS\学生制作\2年ときのやつ\企業提出パック\ソース\SOURCE\CSTOMACH.CPP
^D:\YUU\DOCUMENTS\学生制作\2年ときのやつ\企業提出パック\ソース\SOURCE\CSTOMACHGAUGE.CPP
/c /I"C:\Users\master\Desktop\ProjectHobit\企業提出フォルダ\ソース\Effekseer\include" /I"Microsoft DirectX SDK\Include" /IHeader /I./BulletPhysicsEngine\src /Zi /nologo /W3 /WX- /sdl /O2 /Oi /Oy- /GL /D WIN32 /D NDEBUG /D _WINDOWS /D _MBCS /Gm- /EHsc /MT /GS /Gy /fp:precise /Zc:wchar_t /Zc:forScope /Fo"RELEASE\\" /Fd"RELEASE\VC120.PDB" /Gd /TP /FIstdafx.h /analyze- D:\YUU\DOCUMENTS\学生制作\2年ときのやつ\企業提出パック\ソース\SOURCE\CSTOMACHGAUGE.CPP
^D:\YUU\DOCUMENTS\学生制作\2年ときのやつ\企業提出パック\ソース\SOURCE\CSTONE.CPP
/c /I"C:\Users\master\Desktop\ProjectHobit\企業提出フォルダ\ソース\Effekseer\include" /I"Microsoft DirectX SDK\Include" /IHeader /I./BulletPhysicsEngine\src /Zi /nologo /W3 /WX- /sdl /O2 /Oi /Oy- /GL /D WIN32 /D NDEBUG /D _WINDOWS /D _MBCS /Gm- /EHsc /MT /GS /Gy /fp:precise /Zc:wchar_t /Zc:forScope /Fo"RELEASE\\" /Fd"RELEASE\VC120.PDB" /Gd /TP /FIstdafx.h /analyze- D:\YUU\DOCUMENTS\学生制作\2年ときのやつ\企業提出パック\ソース\SOURCE\CSTONE.CPP
^D:\YUU\DOCUMENTS\学生制作\2年ときのやつ\企業提出パック\ソース\SOURCE\CSTRAWBERRY.CPP
/c /I"C:\Users\master\Desktop\ProjectHobit\企業提出フォルダ\ソース\Effekseer\include" /I"Microsoft DirectX SDK\Include" /IHeader /I./BulletPhysicsEngine\src /Zi /nologo /W3 /WX- /sdl /O2 /Oi /Oy- /GL /D WIN32 /D NDEBUG /D _WINDOWS /D _MBCS /Gm- /EHsc /MT /GS /Gy /fp:precise /Zc:wchar_t /Zc:forScope /Fo"RELEASE\\" /Fd"RELEASE\VC120.PDB" /Gd /TP /FIstdafx.h /analyze- D:\YUU\DOCUMENTS\学生制作\2年ときのやつ\企業提出パック\ソース\SOURCE\CSTRAWBERRY.CPP
^D:\YUU\DOCUMENTS\学生制作\2年ときのやつ\企業提出パック\ソース\SOURCE\CSTRAWBERRYIVY.CPP
/c /I"C:\Users\master\Desktop\ProjectHobit\企業提出フォルダ\ソース\Effekseer\include" /I"Microsoft DirectX SDK\Include" /IHeader /I./BulletPhysicsEngine\src /Zi /nologo /W3 /WX- /sdl /O2 /Oi /Oy- /GL /D WIN32 /D NDEBUG /D _WINDOWS /D _MBCS /Gm- /EHsc /MT /GS /Gy /fp:precise /Zc:wchar_t /Zc:forScope /Fo"RELEASE\\" /Fd"RELEASE\VC120.PDB" /Gd /TP /FIstdafx.h /analyze- D:\YUU\DOCUMENTS\学生制作\2年ときのやつ\企業提出パック\ソース\SOURCE\CSTRAWBERRYIVY.CPP
^D:\YUU\DOCUMENTS\学生制作\2年ときのやつ\企業提出パック\ソース\SOURCE\CSWITCH.CPP
/c /I"C:\Users\master\Desktop\ProjectHobit\企業提出フォルダ\ソース\Effekseer\include" /I"Microsoft DirectX SDK\Include" /IHeader /I./BulletPhysicsEngine\src /Zi /nologo /W3 /WX- /sdl /O2 /Oi /Oy- /GL /D WIN32 /D NDEBUG /D _WINDOWS /D _MBCS /Gm- /EHsc /MT /GS /Gy /fp:precise /Zc:wchar_t /Zc:forScope /Fo"RELEASE\\" /Fd"RELEASE\VC120.PDB" /Gd /TP /FIstdafx.h /analyze- D:\YUU\DOCUMENTS\学生制作\2年ときのやつ\企業提出パック\ソース\SOURCE\CSWITCH.CPP
^D:\YUU\DOCUMENTS\学生制作\2年ときのやつ\企業提出パック\ソース\SOURCE\CSCENESHADER.CPP
/c /I"C:\Users\master\Desktop\ProjectHobit\企業提出フォルダ\ソース\Effekseer\include" /I"Microsoft DirectX SDK\Include" /IHeader /I./BulletPhysicsEngine\src /Zi /nologo /W3 /WX- /sdl /O2 /Oi /Oy- /GL /D WIN32 /D NDEBUG /D _WINDOWS /D _MBCS /Gm- /EHsc /MT /GS /Gy /fp:precise /Zc:wchar_t /Zc:forScope /Fo"RELEASE\\" /Fd"RELEASE\VC120.PDB" /Gd /TP /FIstdafx.h /analyze- D:\YUU\DOCUMENTS\学生制作\2年ときのやつ\企業提出パック\ソース\SOURCE\CSCENESHADER.CPP
^D:\YUU\DOCUMENTS\学生制作\2年ときのやつ\企業提出パック\ソース\SOURCE\CTREENUTS.CPP
/c /I"C:\Users\master\Desktop\ProjectHobit\企業提出フォルダ\ソース\Effekseer\include" /I"Microsoft DirectX SDK\Include" /IHeader /I./BulletPhysicsEngine\src /Zi /nologo /W3 /WX- /sdl /O2 /Oi /Oy- /GL /D WIN32 /D NDEBUG /D _WINDOWS /D _MBCS /Gm- /EHsc /MT /GS /Gy /fp:precise /Zc:wchar_t /Zc:forScope /Fo"RELEASE\\" /Fd"RELEASE\VC120.PDB" /Gd /TP /FIstdafx.h /analyze- D:\YUU\DOCUMENTS\学生制作\2年ときのやつ\企業提出パック\ソース\SOURCE\CTREENUTS.CPP
^D:\YUU\DOCUMENTS\学生制作\2年ときのやつ\企業提出パック\ソース\SOURCE\CGAMESCENE.CPP
/c /I"C:\Users\master\Desktop\ProjectHobit\企業提出フォルダ\ソース\Effekseer\include" /I"Microsoft DirectX SDK\Include" /IHeader /I./BulletPhysicsEngine\src /Zi /nologo /W3 /WX- /sdl /O2 /Oi /Oy- /GL /D WIN32 /D NDEBUG /D _WINDOWS /D _MBCS /Gm- /EHsc /MT /GS /Gy /fp:precise /Zc:wchar_t /Zc:forScope /Fo"RELEASE\\" /Fd"RELEASE\VC120.PDB" /Gd /TP /FIstdafx.h /analyze- D:\YUU\DOCUMENTS\学生制作\2年ときのやつ\企業提出パック\ソース\SOURCE\CGAMESCENE.CPP
^D:\YUU\DOCUMENTS\学生制作\2年ときのやつ\企業提出パック\ソース\SOURCE\CGOAL.CPP
/c /I"C:\Users\master\Desktop\ProjectHobit\企業提出フォルダ\ソース\Effekseer\include" /I"Microsoft DirectX SDK\Include" /IHeader /I./BulletPhysicsEngine\src /Zi /nologo /W3 /WX- /sdl /O2 /Oi /Oy- /GL /D WIN32 /D NDEBUG /D _WINDOWS /D _MBCS /Gm- /EHsc /MT /GS /Gy /fp:precise /Zc:wchar_t /Zc:forScope /Fo"RELEASE\\" /Fd"RELEASE\VC120.PDB" /Gd /TP /FIstdafx.h /analyze- D:\YUU\DOCUMENTS\学生制作\2年ときのやつ\企業提出パック\ソース\SOURCE\CGOAL.CPP
^D:\YUU\DOCUMENTS\学生制作\2年ときのやつ\企業提出パック\ソース\SOURCE\CSTAGESELECTSCENE.CPP
/c /I"C:\Users\master\Desktop\ProjectHobit\企業提出フォルダ\ソース\Effekseer\include" /I"Microsoft DirectX SDK\Include" /IHeader /I./BulletPhysicsEngine\src /Zi /nologo /W3 /WX- /sdl /O2 /Oi /Oy- /GL /D WIN32 /D NDEBUG /D _WINDOWS /D _MBCS /Gm- /EHsc /MT /GS /Gy /fp:precise /Zc:wchar_t /Zc:forScope /Fo"RELEASE\\" /Fd"RELEASE\VC120.PDB" /Gd /TP /FIstdafx.h /analyze- D:\YUU\DOCUMENTS\学生制作\2年ときのやつ\企業提出パック\ソース\SOURCE\CSTAGESELECTSCENE.CPP
^D:\YUU\DOCUMENTS\学生制作\2年ときのやつ\企業提出パック\ソース\SOURCE\CGAMEWORLD.CPP
/c /I"C:\Users\master\Desktop\ProjectHobit\企業提出フォルダ\ソース\Effekseer\include" /I"Microsoft DirectX SDK\Include" /IHeader /I./BulletPhysicsEngine\src /Zi /nologo /W3 /WX- /sdl /O2 /Oi /Oy- /GL /D WIN32 /D NDEBUG /D _WINDOWS /D _MBCS /Gm- /EHsc /MT /GS /Gy /fp:precise /Zc:wchar_t /Zc:forScope /Fo"RELEASE\\" /Fd"RELEASE\VC120.PDB" /Gd /TP /FIstdafx.h /analyze- D:\YUU\DOCUMENTS\学生制作\2年ときのやつ\企業提出パック\ソース\SOURCE\CGAMEWORLD.CPP
^D:\YUU\DOCUMENTS\学生制作\2年ときのやつ\企業提出パック\ソース\SOURCE\CMESHANIMATIONCONTROLLER.CPP
/c /I"C:\Users\master\Desktop\ProjectHobit\企業提出フォルダ\ソース\Effekseer\include" /I"Microsoft DirectX SDK\Include" /IHeader /I./BulletPhysicsEngine\src /Zi /nologo /W3 /WX- /sdl /O2 /Oi /Oy- /GL /D WIN32 /D NDEBUG /D _WINDOWS /D _MBCS /Gm- /EHsc /MT /GS /Gy /fp:precise /Zc:wchar_t /Zc:forScope /Fo"RELEASE\\" /Fd"RELEASE\VC120.PDB" /Gd /TP /FIstdafx.h /analyze- D:\YUU\DOCUMENTS\学生制作\2年ときのやつ\企業提出パック\ソース\SOURCE\CMESHANIMATIONCONTROLLER.CPP
^D:\YUU\DOCUMENTS\学生制作\2年ときのやつ\企業提出パック\ソース\SOURCE\CMUSHROOM.CPP
/c /I"C:\Users\master\Desktop\ProjectHobit\企業提出フォルダ\ソース\Effekseer\include" /I"Microsoft DirectX SDK\Include" /IHeader /I./BulletPhysicsEngine\src /Zi /nologo /W3 /WX- /sdl /O2 /Oi /Oy- /GL /D WIN32 /D NDEBUG /D _WINDOWS /D _MBCS /Gm- /EHsc /MT /GS /Gy /fp:precise /Zc:wchar_t /Zc:forScope /Fo"RELEASE\\" /Fd"RELEASE\VC120.PDB" /Gd /TP /FIstdafx.h /analyze- D:\YUU\DOCUMENTS\学生制作\2年ときのやつ\企業提出パック\ソース\SOURCE\CMUSHROOM.CPP
^D:\YUU\DOCUMENTS\学生制作\2年ときのやつ\企業提出パック\ソース\SOURCE\CMUSHROOMS.CPP
/c /I"C:\Users\master\Desktop\ProjectHobit\企業提出フォルダ\ソース\Effekseer\include" /I"Microsoft DirectX SDK\Include" /IHeader /I./BulletPhysicsEngine\src /Zi /nologo /W3 /WX- /sdl /O2 /Oi /Oy- /GL /D WIN32 /D NDEBUG /D _WINDOWS /D _MBCS /Gm- /EHsc /MT /GS /Gy /fp:precise /Zc:wchar_t /Zc:forScope /Fo"RELEASE\\" /Fd"RELEASE\VC120.PDB" /Gd /TP /FIstdafx.h /analyze- D:\YUU\DOCUMENTS\学生制作\2年ときのやつ\企業提出パック\ソース\SOURCE\CMUSHROOMS.CPP
^D:\YUU\DOCUMENTS\学生制作\2年ときのやつ\企業提出パック\ソース\SOURCE\CMYSHADER.CPP
/c /I"C:\Users\master\Desktop\ProjectHobit\企業提出フォルダ\ソース\Effekseer\include" /I"Microsoft DirectX SDK\Include" /IHeader /I./BulletPhysicsEngine\src /Zi /nologo /W3 /WX- /sdl /O2 /Oi /Oy- /GL /D WIN32 /D NDEBUG /D _WINDOWS /D _MBCS /Gm- /EHsc /MT /GS /Gy /fp:precise /Zc:wchar_t /Zc:forScope /Fo"RELEASE\\" /Fd"RELEASE\VC120.PDB" /Gd /TP /FIstdafx.h /analyze- D:\YUU\DOCUMENTS\学生制作\2年ときのやつ\企業提出パック\ソース\SOURCE\CMYSHADER.CPP
^D:\YUU\DOCUMENTS\学生制作\2年ときのやつ\企業提出パック\ソース\SOURCE\COBJECTBASE.CPP
/c /I"C:\Users\master\Desktop\ProjectHobit\企業提出フォルダ\ソース\Effekseer\include" /I"Microsoft DirectX SDK\Include" /IHeader /I./BulletPhysicsEngine\src /Zi /nologo /W3 /WX- /sdl /O2 /Oi /Oy- /GL /D WIN32 /D NDEBUG /D _WINDOWS /D _MBCS /Gm- /EHsc /MT /GS /Gy /fp:precise /Zc:wchar_t /Zc:forScope /Fo"RELEASE\\" /Fd"RELEASE\VC120.PDB" /Gd /TP /FIstdafx.h /analyze- D:\YUU\DOCUMENTS\学生制作\2年ときのやつ\企業提出パック\ソース\SOURCE\COBJECTBASE.CPP
^D:\YUU\DOCUMENTS\学生制作\2年ときのやつ\企業提出パック\ソース\SOURCE\COBJECTMANAGER.CPP
/c /I"C:\Users\master\Desktop\ProjectHobit\企業提出フォルダ\ソース\Effekseer\include" /I"Microsoft DirectX SDK\Include" /IHeader /I./BulletPhysicsEngine\src /Zi /nologo /W3 /WX- /sdl /O2 /Oi /Oy- /GL /D WIN32 /D NDEBUG /D _WINDOWS /D _MBCS /Gm- /EHsc /MT /GS /Gy /fp:precise /Zc:wchar_t /Zc:forScope /Fo"RELEASE\\" /Fd"RELEASE\VC120.PDB" /Gd /TP /FIstdafx.h /analyze- D:\YUU\DOCUMENTS\学生制作\2年ときのやつ\企業提出パック\ソース\SOURCE\COBJECTMANAGER.CPP
^D:\YUU\DOCUMENTS\学生制作\2年ときのやつ\企業提出パック\ソース\SOURCE\CPLAYER.CPP
/c /I"C:\Users\master\Desktop\ProjectHobit\企業提出フォルダ\ソース\Effekseer\include" /I"Microsoft DirectX SDK\Include" /IHeader /I./BulletPhysicsEngine\src /Zi /nologo /W3 /WX- /sdl /O2 /Oi /Oy- /GL /D WIN32 /D NDEBUG /D _WINDOWS /D _MBCS /Gm- /EHsc /MT /GS /Gy /fp:precise /Zc:wchar_t /Zc:forScope /Fo"RELEASE\\" /Fd"RELEASE\VC120.PDB" /Gd /TP /FIstdafx.h /analyze- D:\YUU\DOCUMENTS\学生制作\2年ときのやつ\企業提出パック\ソース\SOURCE\CPLAYER.CPP
^D:\YUU\DOCUMENTS\学生制作\2年ときのやつ\企業提出パック\ソース\SOURCE\CMESH.CPP
/c /I"C:\Users\master\Desktop\ProjectHobit\企業提出フォルダ\ソース\Effekseer\include" /I"Microsoft DirectX SDK\Include" /IHeader /I./BulletPhysicsEngine\src /Zi /nologo /W3 /WX- /sdl /O2 /Oi /Oy- /GL /D WIN32 /D NDEBUG /D _WINDOWS /D _MBCS /Gm- /EHsc /MT /GS /Gy /fp:precise /Zc:wchar_t /Zc:forScope /Fo"RELEASE\\" /Fd"RELEASE\VC120.PDB" /Gd /TP /FIstdafx.h /analyze- D:\YUU\DOCUMENTS\学生制作\2年ときのやつ\企業提出パック\ソース\SOURCE\CMESH.CPP
^D:\YUU\DOCUMENTS\学生制作\2年ときのやつ\企業提出パック\ソース\SOURCE\CRESULTSCENE.CPP
/c /I"C:\Users\master\Desktop\ProjectHobit\企業提出フォルダ\ソース\Effekseer\include" /I"Microsoft DirectX SDK\Include" /IHeader /I./BulletPhysicsEngine\src /Zi /nologo /W3 /WX- /sdl /O2 /Oi /Oy- /GL /D WIN32 /D NDEBUG /D _WINDOWS /D _MBCS /Gm- /EHsc /MT /GS /Gy /fp:precise /Zc:wchar_t /Zc:forScope /Fo"RELEASE\\" /Fd"RELEASE\VC120.PDB" /Gd /TP /FIstdafx.h /analyze- D:\YUU\DOCUMENTS\学生制作\2年ときのやつ\企業提出パック\ソース\SOURCE\CRESULTSCENE.CPP
^D:\YUU\DOCUMENTS\学生制作\2年ときのやつ\企業提出パック\ソース\SOURCE\CSCENEBASE.CPP
/c /I"C:\Users\master\Desktop\ProjectHobit\企業提出フォルダ\ソース\Effekseer\include" /I"Microsoft DirectX SDK\Include" /IHeader /I./BulletPhysicsEngine\src /Zi /nologo /W3 /WX- /sdl /O2 /Oi /Oy- /GL /D WIN32 /D NDEBUG /D _WINDOWS /D _MBCS /Gm- /EHsc /MT /GS /Gy /fp:precise /Zc:wchar_t /Zc:forScope /Fo"RELEASE\\" /Fd"RELEASE\VC120.PDB" /Gd /TP /FIstdafx.h /analyze- D:\YUU\DOCUMENTS\学生制作\2年ときのやつ\企業提出パック\ソース\SOURCE\CSCENEBASE.CPP
^D:\YUU\DOCUMENTS\学生制作\2年ときのやつ\企業提出パック\ソース\SOURCE\CSCENEMANAGER.CPP
/c /I"C:\Users\master\Desktop\ProjectHobit\企業提出フォルダ\ソース\Effekseer\include" /I"Microsoft DirectX SDK\Include" /IHeader /I./BulletPhysicsEngine\src /Zi /nologo /W3 /WX- /sdl /O2 /Oi /Oy- /GL /D WIN32 /D NDEBUG /D _WINDOWS /D _MBCS /Gm- /EHsc /MT /GS /Gy /fp:precise /Zc:wchar_t /Zc:forScope /Fo"RELEASE\\" /Fd"RELEASE\VC120.PDB" /Gd /TP /FIstdafx.h /analyze- D:\YUU\DOCUMENTS\学生制作\2年ときのやつ\企業提出パック\ソース\SOURCE\CSCENEMANAGER.CPP
^D:\YUU\DOCUMENTS\学生制作\2年ときのやつ\企業提出パック\ソース\SOURCE\CSHADERBASE.CPP
/c /I"C:\Users\master\Desktop\ProjectHobit\企業提出フォルダ\ソース\Effekseer\include" /I"Microsoft DirectX SDK\Include" /IHeader /I./BulletPhysicsEngine\src /Zi /nologo /W3 /WX- /sdl /O2 /Oi /Oy- /GL /D WIN32 /D NDEBUG /D _WINDOWS /D _MBCS /Gm- /EHsc /MT /GS /Gy /fp:precise /Zc:wchar_t /Zc:forScope /Fo"RELEASE\\" /Fd"RELEASE\VC120.PDB" /Gd /TP /FIstdafx.h /analyze- D:\YUU\DOCUMENTS\学生制作\2年ときのやつ\企業提出パック\ソース\SOURCE\CSHADERBASE.CPP
^D:\YUU\DOCUMENTS\学生制作\2年ときのやつ\企業提出パック\ソース\SOURCE\CSHADOWMAPSHADER.CPP
/c /I"C:\Users\master\Desktop\ProjectHobit\企業提出フォルダ\ソース\Effekseer\include" /I"Microsoft DirectX SDK\Include" /IHeader /I./BulletPhysicsEngine\src /Zi /nologo /W3 /WX- /sdl /O2 /Oi /Oy- /GL /D WIN32 /D NDEBUG /D _WINDOWS /D _MBCS /Gm- /EHsc /MT /GS /Gy /fp:precise /Zc:wchar_t /Zc:forScope /Fo"RELEASE\\" /Fd"RELEASE\VC120.PDB" /Gd /TP /FIstdafx.h /analyze- D:\YUU\DOCUMENTS\学生制作\2年ときのやつ\企業提出パック\ソース\SOURCE\CSHADOWMAPSHADER.CPP
^D:\YUU\DOCUMENTS\学生制作\2年ときのやつ\企業提出パック\ソース\SOURCE\CSTAGESELECTMANAGER.CPP
/c /I"C:\Users\master\Desktop\ProjectHobit\企業提出フォルダ\ソース\Effekseer\include" /I"Microsoft DirectX SDK\Include" /IHeader /I./BulletPhysicsEngine\src /Zi /nologo /W3 /WX- /sdl /O2 /Oi /Oy- /GL /D WIN32 /D NDEBUG /D _WINDOWS /D _MBCS /Gm- /EHsc /MT /GS /Gy /fp:precise /Zc:wchar_t /Zc:forScope /Fo"RELEASE\\" /Fd"RELEASE\VC120.PDB" /Gd /TP /FIstdafx.h /analyze- D:\YUU\DOCUMENTS\学生制作\2年ときのやつ\企業提出パック\ソース\SOURCE\CSTAGESELECTMANAGER.CPP
^D:\YUU\DOCUMENTS\学生制作\2年ときのやつ\企業提出パック\ソース\SOURCE\CSTAGESELECTWORLD.CPP
/c /I"C:\Users\master\Desktop\ProjectHobit\企業提出フォルダ\ソース\Effekseer\include" /I"Microsoft DirectX SDK\Include" /IHeader /I./BulletPhysicsEngine\src /Zi /nologo /W3 /WX- /sdl /O2 /Oi /Oy- /GL /D WIN32 /D NDEBUG /D _WINDOWS /D _MBCS /Gm- /EHsc /MT /GS /Gy /fp:precise /Zc:wchar_t /Zc:forScope /Fo"RELEASE\\" /Fd"RELEASE\VC120.PDB" /Gd /TP /FIstdafx.h /analyze- D:\YUU\DOCUMENTS\学生制作\2年ときのやつ\企業提出パック\ソース\SOURCE\CSTAGESELECTWORLD.CPP
^D:\YUU\DOCUMENTS\学生制作\2年ときのやつ\企業提出パック\ソース\SOURCE\CLOADTEXTUREMANAGER.CPP
/c /I"C:\Users\master\Desktop\ProjectHobit\企業提出フォルダ\ソース\Effekseer\include" /I"Microsoft DirectX SDK\Include" /IHeader /I./BulletPhysicsEngine\src /Zi /nologo /W3 /WX- /sdl /O2 /Oi /Oy- /GL /D WIN32 /D NDEBUG /D _WINDOWS /D _MBCS /Gm- /EHsc /MT /GS /Gy /fp:precise /Zc:wchar_t /Zc:forScope /Fo"RELEASE\\" /Fd"RELEASE\VC120.PDB" /Gd /TP /FIstdafx.h /analyze- D:\YUU\DOCUMENTS\学生制作\2年ときのやつ\企業提出パック\ソース\SOURCE\CLOADTEXTUREMANAGER.CPP
^D:\YUU\DOCUMENTS\学生制作\2年ときのやつ\企業提出パック\ソース\SOURCE\CSTART.CPP
/c /I"C:\Users\master\Desktop\ProjectHobit\企業提出フォルダ\ソース\Effekseer\include" /I"Microsoft DirectX SDK\Include" /IHeader /I./BulletPhysicsEngine\src /Zi /nologo /W3 /WX- /sdl /O2 /Oi /Oy- /GL /D WIN32 /D NDEBUG /D _WINDOWS /D _MBCS /Gm- /EHsc /MT /GS /Gy /fp:precise /Zc:wchar_t /Zc:forScope /Fo"RELEASE\\" /Fd"RELEASE\VC120.PDB" /Gd /TP /FIstdafx.h /analyze- D:\YUU\DOCUMENTS\学生制作\2年ときのやつ\企業提出パック\ソース\SOURCE\CSTART.CPP
^D:\YUU\DOCUMENTS\学生制作\2年ときのやつ\企業提出パック\ソース\SOURCE\CTITLEMANAGER.CPP
/c /I"C:\Users\master\Desktop\ProjectHobit\企業提出フォルダ\ソース\Effekseer\include" /I"Microsoft DirectX SDK\Include" /IHeader /I./BulletPhysicsEngine\src /Zi /nologo /W3 /WX- /sdl /O2 /Oi /Oy- /GL /D WIN32 /D NDEBUG /D _WINDOWS /D _MBCS /Gm- /EHsc /MT /GS /Gy /fp:precise /Zc:wchar_t /Zc:forScope /Fo"RELEASE\\" /Fd"RELEASE\VC120.PDB" /Gd /TP /FIstdafx.h /analyze- D:\YUU\DOCUMENTS\学生制作\2年ときのやつ\企業提出パック\ソース\SOURCE\CTITLEMANAGER.CPP
^D:\YUU\DOCUMENTS\学生制作\2年ときのやつ\企業提出パック\ソース\SOURCE\CTITLEFONT.CPP
/c /I"C:\Users\master\Desktop\ProjectHobit\企業提出フォルダ\ソース\Effekseer\include" /I"Microsoft DirectX SDK\Include" /IHeader /I./BulletPhysicsEngine\src /Zi /nologo /W3 /WX- /sdl /O2 /Oi /Oy- /GL /D WIN32 /D NDEBUG /D _WINDOWS /D _MBCS /Gm- /EHsc /MT /GS /Gy /fp:precise /Zc:wchar_t /Zc:forScope /Fo"RELEASE\\" /Fd"RELEASE\VC120.PDB" /Gd /TP /FIstdafx.h /analyze- D:\YUU\DOCUMENTS\学生制作\2年ときのやつ\企業提出パック\ソース\SOURCE\CTITLEFONT.CPP
^D:\YUU\DOCUMENTS\学生制作\2年ときのやつ\企業提出パック\ソース\SOURCE\CTITLESCENE.CPP
/c /I"C:\Users\master\Desktop\ProjectHobit\企業提出フォルダ\ソース\Effekseer\include" /I"Microsoft DirectX SDK\Include" /IHeader /I./BulletPhysicsEngine\src /Zi /nologo /W3 /WX- /sdl /O2 /Oi /Oy- /GL /D WIN32 /D NDEBUG /D _WINDOWS /D _MBCS /Gm- /EHsc /MT /GS /Gy /fp:precise /Zc:wchar_t /Zc:forScope /Fo"RELEASE\\" /Fd"RELEASE\VC120.PDB" /Gd /TP /FIstdafx.h /analyze- D:\YUU\DOCUMENTS\学生制作\2年ときのやつ\企業提出パック\ソース\SOURCE\CTITLESCENE.CPP
^D:\YUU\DOCUMENTS\学生制作\2年ときのやつ\企業提出パック\ソース\SOURCE\CTITLEWORLD.CPP
/c /I"C:\Users\master\Desktop\ProjectHobit\企業提出フォルダ\ソース\Effekseer\include" /I"Microsoft DirectX SDK\Include" /IHeader /I./BulletPhysicsEngine\src /Zi /nologo /W3 /WX- /sdl /O2 /Oi /Oy- /GL /D WIN32 /D NDEBUG /D _WINDOWS /D _MBCS /Gm- /EHsc /MT /GS /Gy /fp:precise /Zc:wchar_t /Zc:forScope /Fo"RELEASE\\" /Fd"RELEASE\VC120.PDB" /Gd /TP /FIstdafx.h /analyze- D:\YUU\DOCUMENTS\学生制作\2年ときのやつ\企業提出パック\ソース\SOURCE\CTITLEWORLD.CPP
^D:\YUU\DOCUMENTS\学生制作\2年ときのやつ\企業提出パック\ソース\SOURCE\CVECTOR3.CPP
/c /I"C:\Users\master\Desktop\ProjectHobit\企業提出フォルダ\ソース\Effekseer\include" /I"Microsoft DirectX SDK\Include" /IHeader /I./BulletPhysicsEngine\src /Zi /nologo /W3 /WX- /sdl /O2 /Oi /Oy- /GL /D WIN32 /D NDEBUG /D _WINDOWS /D _MBCS /Gm- /EHsc /MT /GS /Gy /fp:precise /Zc:wchar_t /Zc:forScope /Fo"RELEASE\\" /Fd"RELEASE\VC120.PDB" /Gd /TP /FIstdafx.h /analyze- D:\YUU\DOCUMENTS\学生制作\2年ときのやつ\企業提出パック\ソース\SOURCE\CVECTOR3.CPP
^D:\YUU\DOCUMENTS\学生制作\2年ときのやつ\企業提出パック\ソース\SOURCE\CWATERSHADER.CPP
/c /I"C:\Users\master\Desktop\ProjectHobit\企業提出フォルダ\ソース\Effekseer\include" /I"Microsoft DirectX SDK\Include" /IHeader /I./BulletPhysicsEngine\src /Zi /nologo /W3 /WX- /sdl /O2 /Oi /Oy- /GL /D WIN32 /D NDEBUG /D _WINDOWS /D _MBCS /Gm- /EHsc /MT /GS /Gy /fp:precise /Zc:wchar_t /Zc:forScope /Fo"RELEASE\\" /Fd"RELEASE\VC120.PDB" /Gd /TP /FIstdafx.h /analyze- D:\YUU\DOCUMENTS\学生制作\2年ときのやつ\企業提出パック\ソース\SOURCE\CWATERSHADER.CPP
^D:\YUU\DOCUMENTS\学生制作\2年ときのやつ\企業提出パック\ソース\SOURCE\CWINDHOLE.CPP
/c /I"C:\Users\master\Desktop\ProjectHobit\企業提出フォルダ\ソース\Effekseer\include" /I"Microsoft DirectX SDK\Include" /IHeader /I./BulletPhysicsEngine\src /Zi /nologo /W3 /WX- /sdl /O2 /Oi /Oy- /GL /D WIN32 /D NDEBUG /D _WINDOWS /D _MBCS /Gm- /EHsc /MT /GS /Gy /fp:precise /Zc:wchar_t /Zc:forScope /Fo"RELEASE\\" /Fd"RELEASE\VC120.PDB" /Gd /TP /FIstdafx.h /analyze- D:\YUU\DOCUMENTS\学生制作\2年ときのやつ\企業提出パック\ソース\SOURCE\CWINDHOLE.CPP
^D:\YUU\DOCUMENTS\学生制作\2年ときのやつ\企業提出パック\ソース\SOURCE\CWINDZONE.CPP
/c /I"C:\Users\master\Desktop\ProjectHobit\企業提出フォルダ\ソース\Effekseer\include" /I"Microsoft DirectX SDK\Include" /IHeader /I./BulletPhysicsEngine\src /Zi /nologo /W3 /WX- /sdl /O2 /Oi /Oy- /GL /D WIN32 /D NDEBUG /D _WINDOWS /D _MBCS /Gm- /EHsc /MT /GS /Gy /fp:precise /Zc:wchar_t /Zc:forScope /Fo"RELEASE\\" /Fd"RELEASE\VC120.PDB" /Gd /TP /FIstdafx.h /analyze- D:\YUU\DOCUMENTS\学生制作\2年ときのやつ\企業提出パック\ソース\SOURCE\CWINDZONE.CPP
^D:\YUU\DOCUMENTS\学生制作\2年ときのやつ\企業提出パック\ソース\SOURCE\CWORLDMANAGER.CPP
/c /I"C:\Users\master\Desktop\ProjectHobit\企業提出フォルダ\ソース\Effekseer\include" /I"Microsoft DirectX SDK\Include" /IHeader /I./BulletPhysicsEngine\src /Zi /nologo /W3 /WX- /sdl /O2 /Oi /Oy- /GL /D WIN32 /D NDEBUG /D _WINDOWS /D _MBCS /Gm- /EHsc /MT /GS /Gy /fp:precise /Zc:wchar_t /Zc:forScope /Fo"RELEASE\\" /Fd"RELEASE\VC120.PDB" /Gd /TP /FIstdafx.h /analyze- D:\YUU\DOCUMENTS\学生制作\2年ときのやつ\企業提出パック\ソース\SOURCE\CWORLDMANAGER.CPP
^D:\YUU\DOCUMENTS\学生制作\2年ときのやつ\企業提出パック\ソース\SOURCE\RAND.CPP
/c /I"C:\Users\master\Desktop\ProjectHobit\企業提出フォルダ\ソース\Effekseer\include" /I"Microsoft DirectX SDK\Include" /IHeader /I./BulletPhysicsEngine\src /Zi /nologo /W3 /WX- /sdl /O2 /Oi /Oy- /GL /D WIN32 /D NDEBUG /D _WINDOWS /D _MBCS /Gm- /EHsc /MT /GS /Gy /fp:precise /Zc:wchar_t /Zc:forScope /Fo"RELEASE\\" /Fd"RELEASE\VC120.PDB" /Gd /TP /FIstdafx.h /analyze- D:\YUU\DOCUMENTS\学生制作\2年ときのやつ\企業提出パック\ソース\SOURCE\RAND.CPP
^D:\YUU\DOCUMENTS\学生制作\2年ときのやつ\企業提出パック\ソース\SOURCE\SCENE.CPP
/c /I"C:\Users\master\Desktop\ProjectHobit\企業提出フォルダ\ソース\Effekseer\include" /I"Microsoft DirectX SDK\Include" /IHeader /I./BulletPhysicsEngine\src /Zi /nologo /W3 /WX- /sdl /O2 /Oi /Oy- /GL /D WIN32 /D NDEBUG /D _WINDOWS /D _MBCS /Gm- /EHsc /MT /GS /Gy /fp:precise /Zc:wchar_t /Zc:forScope /Fo"RELEASE\\" /Fd"RELEASE\VC120.PDB" /Gd /TP /FIstdafx.h /analyze- D:\YUU\DOCUMENTS\学生制作\2年ときのやつ\企業提出パック\ソース\SOURCE\SCENE.CPP
^D:\YUU\DOCUMENTS\学生制作\2年ときのやつ\企業提出パック\ソース\SOURCE\SHADER.CPP
/c /I"C:\Users\master\Desktop\ProjectHobit\企業提出フォルダ\ソース\Effekseer\include" /I"Microsoft DirectX SDK\Include" /IHeader /I./BulletPhysicsEngine\src /Zi /nologo /W3 /WX- /sdl /O2 /Oi /Oy- /GL /D WIN32 /D NDEBUG /D _WINDOWS /D _MBCS /Gm- /EHsc /MT /GS /Gy /fp:precise /Zc:wchar_t /Zc:forScope /Fo"RELEASE\\" /Fd"RELEASE\VC120.PDB" /Gd /TP /FIstdafx.h /analyze- D:\YUU\DOCUMENTS\学生制作\2年ときのやつ\企業提出パック\ソース\SOURCE\SHADER.CPP
^D:\YUU\DOCUMENTS\学生制作\2年ときのやつ\企業提出パック\ソース\SOURCE\CSHADERMANAGER.CPP
/c /I"C:\Users\master\Desktop\ProjectHobit\企業提出フォルダ\ソース\Effekseer\include" /I"Microsoft DirectX SDK\Include" /IHeader /I./BulletPhysicsEngine\src /Zi /nologo /W3 /WX- /sdl /O2 /Oi /Oy- /GL /D WIN32 /D NDEBUG /D _WINDOWS /D _MBCS /Gm- /EHsc /MT /GS /Gy /fp:precise /Zc:wchar_t /Zc:forScope /Fo"RELEASE\\" /Fd"RELEASE\VC120.PDB" /Gd /TP /FIstdafx.h /analyze- D:\YUU\DOCUMENTS\学生制作\2年ときのやつ\企業提出パック\ソース\SOURCE\CSHADERMANAGER.CPP
^D:\YUU\DOCUMENTS\学生制作\2年ときのやつ\企業提出パック\ソース\SOURCE\CSKY.CPP
/c /I"C:\Users\master\Desktop\ProjectHobit\企業提出フォルダ\ソース\Effekseer\include" /I"Microsoft DirectX SDK\Include" /IHeader /I./BulletPhysicsEngine\src /Zi /nologo /W3 /WX- /sdl /O2 /Oi /Oy- /GL /D WIN32 /D NDEBUG /D _WINDOWS /D _MBCS /Gm- /EHsc /MT /GS /Gy /fp:precise /Zc:wchar_t /Zc:forScope /Fo"RELEASE\\" /Fd"RELEASE\VC120.PDB" /Gd /TP /FIstdafx.h /analyze- D:\YUU\DOCUMENTS\学生制作\2年ときのやつ\企業提出パック\ソース\SOURCE\CSKY.CPP
^D:\YUU\DOCUMENTS\学生制作\2年ときのやつ\企業提出パック\ソース\SOURCE\CSOUNDBASE.CPP
/c /I"C:\Users\master\Desktop\ProjectHobit\企業提出フォルダ\ソース\Effekseer\include" /I"Microsoft DirectX SDK\Include" /IHeader /I./BulletPhysicsEngine\src /Zi /nologo /W3 /WX- /sdl /O2 /Oi /Oy- /GL /D WIN32 /D NDEBUG /D _WINDOWS /D _MBCS /Gm- /EHsc /MT /GS /Gy /fp:precise /Zc:wchar_t /Zc:forScope /Fo"RELEASE\\" /Fd"RELEASE\VC120.PDB" /Gd /TP /FIstdafx.h /analyze- D:\YUU\DOCUMENTS\学生制作\2年ときのやつ\企業提出パック\ソース\SOURCE\CSOUNDBASE.CPP
^D:\YUU\DOCUMENTS\学生制作\2年ときのやつ\企業提出パック\ソース\SOURCE\CSURFACE.CPP
/c /I"C:\Users\master\Desktop\ProjectHobit\企業提出フォルダ\ソース\Effekseer\include" /I"Microsoft DirectX SDK\Include" /IHeader /I./BulletPhysicsEngine\src /Zi /nologo /W3 /WX- /sdl /O2 /Oi /Oy- /GL /D WIN32 /D NDEBUG /D _WINDOWS /D _MBCS /Gm- /EHsc /MT /GS /Gy /fp:precise /Zc:wchar_t /Zc:forScope /Fo"RELEASE\\" /Fd"RELEASE\VC120.PDB" /Gd /TP /FIstdafx.h /analyze- D:\YUU\DOCUMENTS\学生制作\2年ときのやつ\企業提出パック\ソース\SOURCE\CSURFACE.CPP
^D:\YUU\DOCUMENTS\学生制作\2年ときのやつ\企業提出パック\ソース\SOURCE\CSYSTEM.CPP
/c /I"C:\Users\master\Desktop\ProjectHobit\企業提出フォルダ\ソース\Effekseer\include" /I"Microsoft DirectX SDK\Include" /IHeader /I./BulletPhysicsEngine\src /Zi /nologo /W3 /WX- /sdl /O2 /Oi /Oy- /GL /D WIN32 /D NDEBUG /D _WINDOWS /D _MBCS /Gm- /EHsc /MT /GS /Gy /fp:precise /Zc:wchar_t /Zc:forScope /Fo"RELEASE\\" /Fd"RELEASE\VC120.PDB" /Gd /TP /FIstdafx.h /analyze- D:\YUU\DOCUMENTS\学生制作\2年ときのやつ\企業提出パック\ソース\SOURCE\CSYSTEM.CPP
^D:\YUU\DOCUMENTS\学生制作\2年ときのやつ\企業提出パック\ソース\SOURCE\CSTAGE1.CPP
/c /I"C:\Users\master\Desktop\ProjectHobit\企業提出フォルダ\ソース\Effekseer\include" /I"Microsoft DirectX SDK\Include" /IHeader /I./BulletPhysicsEngine\src /Zi /nologo /W3 /WX- /sdl /O2 /Oi /Oy- /GL /D WIN32 /D NDEBUG /D _WINDOWS /D _MBCS /Gm- /EHsc /MT /GS /Gy /fp:precise /Zc:wchar_t /Zc:forScope /Fo"RELEASE\\" /Fd"RELEASE\VC120.PDB" /Gd /TP /FIstdafx.h /analyze- D:\YUU\DOCUMENTS\学生制作\2年ときのやつ\企業提出パック\ソース\SOURCE\CSTAGE1.CPP
^D:\YUU\DOCUMENTS\学生制作\2年ときのやつ\企業提出パック\ソース\SOURCE\CTEXTURE.CPP
/c /I"C:\Users\master\Desktop\ProjectHobit\企業提出フォルダ\ソース\Effekseer\include" /I"Microsoft DirectX SDK\Include" /IHeader /I./BulletPhysicsEngine\src /Zi /nologo /W3 /WX- /sdl /O2 /Oi /Oy- /GL /D WIN32 /D NDEBUG /D _WINDOWS /D _MBCS /Gm- /EHsc /MT /GS /Gy /fp:precise /Zc:wchar_t /Zc:forScope /Fo"RELEASE\\" /Fd"RELEASE\VC120.PDB" /Gd /TP /FIstdafx.h /analyze- D:\YUU\DOCUMENTS\学生制作\2年ときのやつ\企業提出パック\ソース\SOURCE\CTEXTURE.CPP
^D:\YUU\DOCUMENTS\学生制作\2年ときのやつ\企業提出パック\ソース\SOURCE\CTEXTUREBASE.CPP
/c /I"C:\Users\master\Desktop\ProjectHobit\企業提出フォルダ\ソース\Effekseer\include" /I"Microsoft DirectX SDK\Include" /IHeader /I./BulletPhysicsEngine\src /Zi /nologo /W3 /WX- /sdl /O2 /Oi /Oy- /GL /D WIN32 /D NDEBUG /D _WINDOWS /D _MBCS /Gm- /EHsc /MT /GS /Gy /fp:precise /Zc:wchar_t /Zc:forScope /Fo"RELEASE\\" /Fd"RELEASE\VC120.PDB" /Gd /TP /FIstdafx.h /analyze- D:\YUU\DOCUMENTS\学生制作\2年ときのやつ\企業提出パック\ソース\SOURCE\CTEXTUREBASE.CPP
^D:\YUU\DOCUMENTS\学生制作\2年ときのやつ\企業提出パック\ソース\SOURCE\CTREEMULTIPLE.CPP
/c /I"C:\Users\master\Desktop\ProjectHobit\企業提出フォルダ\ソース\Effekseer\include" /I"Microsoft DirectX SDK\Include" /IHeader /I./BulletPhysicsEngine\src /Zi /nologo /W3 /WX- /sdl /O2 /Oi /Oy- /GL /D WIN32 /D NDEBUG /D _WINDOWS /D _MBCS /Gm- /EHsc /MT /GS /Gy /fp:precise /Zc:wchar_t /Zc:forScope /Fo"RELEASE\\" /Fd"RELEASE\VC120.PDB" /Gd /TP /FIstdafx.h /analyze- D:\YUU\DOCUMENTS\学生制作\2年ときのやつ\企業提出パック\ソース\SOURCE\CTREEMULTIPLE.CPP
^D:\YUU\DOCUMENTS\学生制作\2年ときのやつ\企業提出パック\ソース\SOURCE\CWINDOW.CPP
/c /I"C:\Users\master\Desktop\ProjectHobit\企業提出フォルダ\ソース\Effekseer\include" /I"Microsoft DirectX SDK\Include" /IHeader /I./BulletPhysicsEngine\src /Zi /nologo /W3 /WX- /sdl /O2 /Oi /Oy- /GL /D WIN32 /D NDEBUG /D _WINDOWS /D _MBCS /Gm- /EHsc /MT /GS /Gy /fp:precise /Zc:wchar_t /Zc:forScope /Fo"RELEASE\\" /Fd"RELEASE\VC120.PDB" /Gd /TP /FIstdafx.h /analyze- D:\YUU\DOCUMENTS\学生制作\2年ときのやつ\企業提出パック\ソース\SOURCE\CWINDOW.CPP
^D:\YUU\DOCUMENTS\学生制作\2年ときのやつ\企業提出パック\ソース\SOURCE\CBOX.CPP
/c /I"C:\Users\master\Desktop\ProjectHobit\企業提出フォルダ\ソース\Effekseer\include" /I"Microsoft DirectX SDK\Include" /IHeader /I./BulletPhysicsEngine\src /Zi /nologo /W3 /WX- /sdl /O2 /Oi /Oy- /GL /D WIN32 /D NDEBUG /D _WINDOWS /D _MBCS /Gm- /EHsc /MT /GS /Gy /fp:precise /Zc:wchar_t /Zc:forScope /Fo"RELEASE\\" /Fd"RELEASE\VC120.PDB" /Gd /TP /FIstdafx.h /analyze- D:\YUU\DOCUMENTS\学生制作\2年ときのやつ\企業提出パック\ソース\SOURCE\CBOX.CPP
^D:\YUU\DOCUMENTS\学生制作\2年ときのやつ\企業提出パック\ソース\SOURCE\CLOADXFILEMANAGER.CPP
/c /I"C:\Users\master\Desktop\ProjectHobit\企業提出フォルダ\ソース\Effekseer\include" /I"Microsoft DirectX SDK\Include" /IHeader /I./BulletPhysicsEngine\src /Zi /nologo /W3 /WX- /sdl /O2 /Oi /Oy- /GL /D WIN32 /D NDEBUG /D _WINDOWS /D _MBCS /Gm- /EHsc /MT /GS /Gy /fp:precise /Zc:wchar_t /Zc:forScope /Fo"RELEASE\\" /Fd"RELEASE\VC120.PDB" /Gd /TP /FIstdafx.h /analyze- D:\YUU\DOCUMENTS\学生制作\2年ときのやつ\企業提出パック\ソース\SOURCE\CLOADXFILEMANAGER.CPP
^D:\YUU\DOCUMENTS\学生制作\2年ときのやつ\企業提出パック\ソース\SOURCE\GAME.CPP
/c /I"C:\Users\master\Desktop\ProjectHobit\企業提出フォルダ\ソース\Effekseer\include" /I"Microsoft DirectX SDK\Include" /IHeader /I./BulletPhysicsEngine\src /Zi /nologo /W3 /WX- /sdl /O2 /Oi /Oy- /GL /D WIN32 /D NDEBUG /D _WINDOWS /D _MBCS /Gm- /EHsc /MT /GS /Gy /fp:precise /Zc:wchar_t /Zc:forScope /Fo"RELEASE\\" /Fd"RELEASE\VC120.PDB" /Gd /TP /FIstdafx.h /analyze- D:\YUU\DOCUMENTS\学生制作\2年ときのやつ\企業提出パック\ソース\SOURCE\GAME.CPP
^D:\YUU\DOCUMENTS\学生制作\2年ときのやつ\企業提出パック\ソース\SOURCE\MAIN.CPP
/c /I"C:\Users\master\Desktop\ProjectHobit\企業提出フォルダ\ソース\Effekseer\include" /I"Microsoft DirectX SDK\Include" /IHeader /I./BulletPhysicsEngine\src /Zi /nologo /W3 /WX- /sdl /O2 /Oi /Oy- /GL /D WIN32 /D NDEBUG /D _WINDOWS /D _MBCS /Gm- /EHsc /MT /GS /Gy /fp:precise /Zc:wchar_t /Zc:forScope /Fo"RELEASE\\" /Fd"RELEASE\VC120.PDB" /Gd /TP /FIstdafx.h /analyze- D:\YUU\DOCUMENTS\学生制作\2年ときのやつ\企業提出パック\ソース\SOURCE\MAIN.CPP
^D:\YUU\DOCUMENTS\学生制作\2年ときのやつ\企業提出パック\ソース\SOURCE\CROCK.CPP
/c /I"C:\Users\master\Desktop\ProjectHobit\企業提出フォルダ\ソース\Effekseer\include" /I"Microsoft DirectX SDK\Include" /IHeader /I./BulletPhysicsEngine\src /Zi /nologo /W3 /WX- /sdl /O2 /Oi /Oy- /GL /D WIN32 /D NDEBUG /D _WINDOWS /D _MBCS /Gm- /EHsc /MT /GS /Gy /fp:precise /Zc:wchar_t /Zc:forScope /Fo"RELEASE\\" /Fd"RELEASE\VC120.PDB" /Gd /TP /FIstdafx.h /analyze- D:\YUU\DOCUMENTS\学生制作\2年ときのやつ\企業提出パック\ソース\SOURCE\CROCK.CPP
^D:\YUU\DOCUMENTS\学生制作\2年ときのやつ\企業提出パック\ソース\SOURCE\CSHINE.CPP
/c /I"C:\Users\master\Desktop\ProjectHobit\企業提出フォルダ\ソース\Effekseer\include" /I"Microsoft DirectX SDK\Include" /IHeader /I./BulletPhysicsEngine\src /Zi /nologo /W3 /WX- /sdl /O2 /Oi /Oy- /GL /D WIN32 /D NDEBUG /D _WINDOWS /D _MBCS /Gm- /EHsc /MT /GS /Gy /fp:precise /Zc:wchar_t /Zc:forScope /Fo"RELEASE\\" /Fd"RELEASE\VC120.PDB" /Gd /TP /FIstdafx.h /analyze- D:\YUU\DOCUMENTS\学生制作\2年ときのやつ\企業提出パック\ソース\SOURCE\CSHINE.CPP
^D:\YUU\DOCUMENTS\学生制作\2年ときのやつ\企業提出パック\ソース\SOURCE\CPICTURE.CPP
/c /I"C:\Users\master\Desktop\ProjectHobit\企業提出フォルダ\ソース\Effekseer\include" /I"Microsoft DirectX SDK\Include" /IHeader /I./BulletPhysicsEngine\src /Zi /nologo /W3 /WX- /sdl /O2 /Oi /Oy- /GL /D WIN32 /D NDEBUG /D _WINDOWS /D _MBCS /Gm- /EHsc /MT /GS /Gy /fp:precise /Zc:wchar_t /Zc:forScope /Fo"RELEASE\\" /Fd"RELEASE\VC120.PDB" /Gd /TP /FIstdafx.h /analyze- D:\YUU\DOCUMENTS\学生制作\2年ときのやつ\企業提出パック\ソース\SOURCE\CPICTURE.CPP
^D:\YUU\DOCUMENTS\学生制作\2年ときのやつ\企業提出パック\ソース\SOURCE\CJOINTMANAGER.CPP
/c /I"C:\Users\master\Desktop\ProjectHobit\企業提出フォルダ\ソース\Effekseer\include" /I"Microsoft DirectX SDK\Include" /IHeader /I./BulletPhysicsEngine\src /Zi /nologo /W3 /WX- /sdl /O2 /Oi /Oy- /GL /D WIN32 /D NDEBUG /D _WINDOWS /D _MBCS /Gm- /EHsc /MT /GS /Gy /fp:precise /Zc:wchar_t /Zc:forScope /Fo"RELEASE\\" /Fd"RELEASE\VC120.PDB" /Gd /TP /FIstdafx.h /analyze- D:\YUU\DOCUMENTS\学生制作\2年ときのやつ\企業提出パック\ソース\SOURCE\CJOINTMANAGER.CPP
^D:\YUU\DOCUMENTS\学生制作\2年ときのやつ\企業提出パック\ソース\SOURCE\CSTAGEGROUND.CPP
/c /I"C:\Users\master\Desktop\ProjectHobit\企業提出フォルダ\ソース\Effekseer\include" /I"Microsoft DirectX SDK\Include" /IHeader /I./BulletPhysicsEngine\src /Zi /nologo /W3 /WX- /sdl /O2 /Oi /Oy- /GL /D WIN32 /D NDEBUG /D _WINDOWS /D _MBCS /Gm- /EHsc /MT /GS /Gy /fp:precise /Zc:wchar_t /Zc:forScope /Fo"RELEASE\\" /Fd"RELEASE\VC120.PDB" /Gd /TP /FIstdafx.h /analyze- D:\YUU\DOCUMENTS\学生制作\2年ときのやつ\企業提出パック\ソース\SOURCE\CSTAGEGROUND.CPP
^D:\YUU\DOCUMENTS\学生制作\2年ときのやつ\企業提出パック\ソース\SOURCE\STDAFX.CPP
/c /I"C:\Users\master\Desktop\ProjectHobit\企業提出フォルダ\ソース\Effekseer\include" /I"Microsoft DirectX SDK\Include" /IHeader /I./BulletPhysicsEngine\src /Zi /nologo /W3 /WX- /sdl /O2 /Oi /Oy- /GL /D WIN32 /D NDEBUG /D _WINDOWS /D _MBCS /Gm- /EHsc /MT /GS /Gy /fp:precise /Zc:wchar_t /Zc:forScope /Fo"RELEASE\\" /Fd"RELEASE\VC120.PDB" /Gd /TP /FIstdafx.h /analyze- D:\YUU\DOCUMENTS\学生制作\2年ときのやつ\企業提出パック\ソース\SOURCE\STDAFX.CPP
^D:\YUU\DOCUMENTS\学生制作\2年ときのやつ\企業提出パック\ソース\SOURCE\TEXTURE.CPP
/c /I"C:\Users\master\Desktop\ProjectHobit\企業提出フォルダ\ソース\Effekseer\include" /I"Microsoft DirectX SDK\Include" /IHeader /I./BulletPhysicsEngine\src /Zi /nologo /W3 /WX- /sdl /O2 /Oi /Oy- /GL /D WIN32 /D NDEBUG /D _WINDOWS /D _MBCS /Gm- /EHsc /MT /GS /Gy /fp:precise /Zc:wchar_t /Zc:forScope /Fo"RELEASE\\" /Fd"RELEASE\VC120.PDB" /Gd /TP /FIstdafx.h /analyze- D:\YUU\DOCUMENTS\学生制作\2年ときのやつ\企業提出パック\ソース\SOURCE\TEXTURE.CPP
^D:\YUU\DOCUMENTS\学生制作\2年ときのやつ\企業提出パック\ソース\SOURCE\FONT.CPP
/c /I"C:\Users\master\Desktop\ProjectHobit\企業提出フォルダ\ソース\Effekseer\include" /I"Microsoft DirectX SDK\Include" /IHeader /I./BulletPhysicsEngine\src /Zi /nologo /W3 /WX- /sdl /O2 /Oi /Oy- /GL /D WIN32 /D NDEBUG /D _WINDOWS /D _MBCS /Gm- /EHsc /MT /GS /Gy /fp:precise /Zc:wchar_t /Zc:forScope /Fo"RELEASE\\" /Fd"RELEASE\VC120.PDB" /Gd /TP /FIstdafx.h /analyze- D:\YUU\DOCUMENTS\学生制作\2年ときのやつ\企業提出パック\ソース\SOURCE\FONT.CPP
