xof 0302txt 0064
template Header {
 <3D82AB43-62DA-11cf-AB39-0020AF71E433>
 WORD major;
 WORD minor;
 DWORD flags;
}

template Vector {
 <3D82AB5E-62DA-11cf-AB39-0020AF71E433>
 FLOAT x;
 FLOAT y;
 FLOAT z;
}

template Coords2d {
 <F6F23F44-7686-11cf-8F52-0040333594A3>
 FLOAT u;
 FLOAT v;
}

template Matrix4x4 {
 <F6F23F45-7686-11cf-8F52-0040333594A3>
 array FLOAT matrix[16];
}

template ColorRGBA {
 <35FF44E0-6C7C-11cf-8F52-0040333594A3>
 FLOAT red;
 FLOAT green;
 FLOAT blue;
 FLOAT alpha;
}

template ColorRGB {
 <D3E16E81-7835-11cf-8F52-0040333594A3>
 FLOAT red;
 FLOAT green;
 FLOAT blue;
}

template IndexedColor {
 <1630B820-7842-11cf-8F52-0040333594A3>
 DWORD index;
 ColorRGBA indexColor;
}

template Boolean {
 <4885AE61-78E8-11cf-8F52-0040333594A3>
 WORD truefalse;
}

template Boolean2d {
 <4885AE63-78E8-11cf-8F52-0040333594A3>
 Boolean u;
 Boolean v;
}

template MaterialWrap {
 <4885AE60-78E8-11cf-8F52-0040333594A3>
 Boolean u;
 Boolean v;
}

template TextureFilename {
 <A42790E1-7810-11cf-8F52-0040333594A3>
 STRING filename;
}

template Material {
 <3D82AB4D-62DA-11cf-AB39-0020AF71E433>
 ColorRGBA faceColor;
 FLOAT power;
 ColorRGB specularColor;
 ColorRGB emissiveColor;
 [...]
}

template MeshFace {
 <3D82AB5F-62DA-11cf-AB39-0020AF71E433>
 DWORD nFaceVertexIndices;
 array DWORD faceVertexIndices[nFaceVertexIndices];
}

template MeshFaceWraps {
 <4885AE62-78E8-11cf-8F52-0040333594A3>
 DWORD nFaceWrapValues;
 Boolean2d faceWrapValues;
}

template MeshTextureCoords {
 <F6F23F40-7686-11cf-8F52-0040333594A3>
 DWORD nTextureCoords;
 array Coords2d textureCoords[nTextureCoords];
}

template MeshMaterialList {
 <F6F23F42-7686-11cf-8F52-0040333594A3>
 DWORD nMaterials;
 DWORD nFaceIndexes;
 array DWORD faceIndexes[nFaceIndexes];
 [Material]
}

template MeshNormals {
 <F6F23F43-7686-11cf-8F52-0040333594A3>
 DWORD nNormals;
 array Vector normals[nNormals];
 DWORD nFaceNormals;
 array MeshFace faceNormals[nFaceNormals];
}

template MeshVertexColors {
 <1630B821-7842-11cf-8F52-0040333594A3>
 DWORD nVertexColors;
 array IndexedColor vertexColors[nVertexColors];
}

template Mesh {
 <3D82AB44-62DA-11cf-AB39-0020AF71E433>
 DWORD nVertices;
 array Vector vertices[nVertices];
 DWORD nFaces;
 array MeshFace faces[nFaces];
 [...]
}

Header{
1;
0;
1;
}

Mesh {
 418;
 0.02708;0.01230;0.03318;,
 -0.07265;-0.00474;0.02725;,
 0.01260;0.00978;0.06563;,
 0.03014;0.02311;0.07104;,
 0.05034;0.03199;0.04671;,
 0.05581;0.03750;0.07694;,
 0.07023;0.04433;0.06169;,
 0.09617;0.05585;0.08149;,
 0.08182;0.03391;0.04874;,
 0.06720;0.01994;0.02998;,
 0.05343;0.00601;0.01613;,
 0.00974;0.00772;0.03126;,
 0.01022;0.00776;0.02348;,
 0.00839;0.02818;0.02201;,
 0.00789;0.02829;0.02979;,
 0.00229;0.00734;0.03324;,
 0.00039;0.02817;0.03176;,
 -0.00191;0.00716;0.02654;,
 -0.00380;0.02798;0.02506;,
 0.00306;0.00742;0.02058;,
 0.00120;0.02799;0.01911;,
 0.00789;0.02829;0.02979;,
 0.00839;0.02818;0.02201;,
 0.00927;0.04857;0.01883;,
 0.00877;0.04883;0.02658;,
 0.00039;0.02817;0.03176;,
 0.00127;0.04897;0.02853;,
 -0.00380;0.02798;0.02506;,
 -0.00293;0.04878;0.02183;,
 0.00120;0.02799;0.01911;,
 0.00209;0.04853;0.01591;,
 0.04964;0.09377;-0.01387;,
 0.00655;0.05281;0.02001;,
 0.07010;0.09454;0.05356;,
 0.10868;0.11664;0.02714;,
 0.11006;0.12739;-0.04152;,
 0.16006;0.13908;-0.00978;,
 0.16406;0.14822;-0.01823;,
 0.23266;0.16646;-0.03147;,
 0.15883;0.12461;-0.08008;,
 0.10669;0.09964;-0.07606;,
 0.06222;0.07496;-0.06605;,
 -0.03833;0.09656;0.04411;,
 0.00115;0.05298;0.02340;,
 -0.05889;0.09317;-0.02290;,
 -0.09549;0.11752;-0.00371;,
 -0.09575;0.13279;0.06089;,
 -0.14481;0.14216;0.06328;,
 -0.14792;0.15334;0.10734;,
 -0.21489;0.17326;0.11750;,
 -0.14461;0.13355;0.09977;,
 -0.09465;0.10762;0.10367;,
 -0.05234;0.08171;0.10154;,
 -0.00395;0.04879;0.02269;,
 0.00161;0.04892;0.02972;,
 0.00229;0.07272;0.02723;,
 -0.00327;0.07259;0.02020;,
 0.00095;0.04859;0.01519;,
 0.00163;0.07239;0.01270;,
 0.00970;0.04859;0.01767;,
 0.01038;0.07239;0.01517;,
 0.01000;0.04880;0.02663;,
 0.01068;0.07260;0.02414;,
 -0.00327;0.07259;0.02020;,
 0.00229;0.07272;0.02723;,
 0.00263;0.09645;0.02595;,
 -0.00293;0.09639;0.01891;,
 0.00163;0.07239;0.01270;,
 0.00198;0.09628;0.01141;,
 0.01038;0.07239;0.01517;,
 0.01073;0.09629;0.01388;,
 0.01068;0.07260;0.02414;,
 0.01102;0.09639;0.02286;,
 -0.00293;0.09639;0.01891;,
 0.00263;0.09645;0.02595;,
 0.00263;0.12020;0.02587;,
 -0.00292;0.12019;0.01883;,
 0.00198;0.09628;0.01141;,
 0.00198;0.12019;0.01132;,
 0.01073;0.09629;0.01388;,
 0.01073;0.12019;0.01380;,
 0.01102;0.09639;0.02286;,
 0.01102;0.12019;0.02278;,
 0.00120;0.12572;0.01417;,
 0.00173;0.12301;0.01227;,
 -0.00334;0.12336;0.02040;,
 0.01018;0.12437;0.01568;,
 0.00912;0.12824;0.01946;,
 0.00992;0.12573;0.01663;,
 0.00080;0.12698;0.01558;,
 0.01002;0.12534;0.02622;,
 -0.01625;0.19215;0.14120;,
 0.00332;0.12683;0.02337;,
 -0.11207;0.19096;0.08360;,
 -0.13208;0.22697;0.15362;,
 -0.06203;0.24649;0.23480;,
 -0.15608;0.26386;0.24973;,
 -0.11252;0.27947;0.30773;,
 -0.18004;0.30851;0.39652;,
 -0.07833;0.24335;0.33296;,
 -0.01820;0.20359;0.27510;,
 0.02647;0.16406;0.21839;,
 -0.00052;0.12573;0.02031;,
 -0.00105;0.12302;0.02223;,
 0.00793;0.12438;0.02373;,
 -0.00116;0.12336;0.01263;,
 0.00028;0.12824;0.01746;,
 -0.00052;0.12573;0.02031;,
 0.00859;0.12698;0.02135;,
 -0.00063;0.12533;0.01072;,
 0.02567;0.19469;-0.02194;,
 0.00607;0.12683;0.01356;,
 0.12149;0.19170;0.03537;,
 0.14151;0.22980;-0.02935;,
 0.07147;0.25181;-0.10756;,
 0.16553;0.26960;-0.11997;,
 0.12197;0.28698;-0.17561;,
 0.18950;0.31871;-0.26005;,
 0.08777;0.25172;-0.20594;,
 0.02763;0.21026;-0.15390;,
 -0.01706;0.16906;-0.10297;,
 0.01012;0.12010;0.01310;,
 0.00130;0.11992;0.01165;,
 -0.00036;0.14299;0.04581;,
 0.00845;0.14315;0.04727;,
 0.01149;0.12040;0.02195;,
 0.00983;0.14330;0.05614;,
 0.00335;0.12041;0.02602;,
 0.00169;0.14324;0.06021;,
 -0.00285;0.12011;0.01959;,
 -0.00452;0.14305;0.05376;,
 0.00845;0.14315;0.04727;,
 -0.00036;0.14299;0.04581;,
 -0.00365;0.16639;0.04082;,
 0.00514;0.16673;0.04226;,
 0.00983;0.14330;0.05614;,
 0.00648;0.16718;0.05109;,
 0.00169;0.14324;0.06021;,
 -0.00165;0.16712;0.05516;,
 -0.00452;0.14305;0.05376;,
 -0.00783;0.16663;0.04875;,
 0.00514;0.16673;0.04226;,
 -0.00365;0.16639;0.04082;,
 -0.00857;0.18953;0.03254;,
 0.00019;0.19004;0.03393;,
 0.00648;0.16718;0.05109;,
 0.00148;0.19078;0.04267;,
 -0.00165;0.16712;0.05516;,
 -0.00666;0.19072;0.04675;,
 -0.00783;0.16663;0.04875;,
 -0.01278;0.18994;0.04042;,
 -0.05849;0.25513;-0.05950;,
 -0.00882;0.19624;0.03252;,
 0.05043;0.25641;-0.08113;,
 0.01345;0.28642;-0.15611;,
 -0.09482;0.30101;-0.17426;,
 -0.03784;0.31536;-0.25300;,
 -0.11067;0.32731;-0.27078;,
 -0.12371;0.34831;-0.38903;,
 -0.14675;0.29063;-0.25561;,
 -0.14684;0.25678;-0.16162;,
 -0.13631;0.22279;-0.07883;,
 0.01728;0.26999;0.08639;,
 -0.00444;0.19713;0.04143;,
 -0.09077;0.26463;0.10948;,
 -0.06916;0.30700;0.15861;,
 0.03051;0.33297;0.16227;,
 -0.03376;0.35296;0.22874;,
 0.03224;0.37323;0.23501;,
 0.03269;0.41159;0.33206;,
 0.08311;0.34019;0.24474;,
 0.10004;0.29473;0.17908;,
 0.10623;0.24987;0.12446;,
 -0.00572;0.19069;0.04687;,
 0.00183;0.19048;0.04208;,
 0.00033;0.21408;0.03507;,
 -0.00722;0.21428;0.03987;,
 -0.01263;0.19023;0.04126;,
 -0.01412;0.21382;0.03425;,
 -0.00925;0.18973;0.03284;,
 -0.01075;0.21333;0.02583;,
 -0.00034;0.18990;0.03346;,
 -0.00184;0.21349;0.02645;,
 -0.00722;0.21428;0.03987;,
 0.00033;0.21408;0.03507;,
 0.00231;0.23749;0.02953;,
 -0.00524;0.23787;0.03427;,
 -0.01412;0.21382;0.03425;,
 -0.01214;0.23770;0.02857;,
 -0.01075;0.21333;0.02583;,
 -0.00877;0.23721;0.02016;,
 -0.00184;0.21349;0.02645;,
 0.00014;0.23708;0.02086;,
 -0.00524;0.23787;0.03427;,
 0.00231;0.23749;0.02953;,
 0.00772;0.26084;0.02538;,
 0.00020;0.26140;0.03009;,
 -0.01214;0.23770;0.02857;,
 -0.00666;0.26152;0.02433;,
 -0.00877;0.23721;0.02016;,
 -0.00329;0.26103;0.01591;,
 0.00014;0.23708;0.02086;,
 0.00557;0.26061;0.01667;,
 -0.00266;0.26692;0.02447;,
 -0.00510;0.26430;0.02419;,
 0.00243;0.26449;0.03012;,
 -0.00174;0.26380;0.01581;,
 0.00070;0.26642;0.01608;,
 0.00779;0.26370;0.01676;,
 0.00062;0.26931;0.02515;,
 -0.00266;0.26692;0.02447;,
 0.00470;0.26638;0.03053;,
 0.00070;0.26642;0.01608;,
 0.00398;0.26882;0.01676;,
 0.01005;0.26559;0.01716;,
 0.09566;0.33176;0.03977;,
 0.00687;0.26750;0.02323;,
 0.02833;0.33650;0.12877;,
 0.10097;0.37107;0.15000;,
 0.19169;0.38497;0.08594;,
 0.19906;0.40592;0.17802;,
 0.26344;0.41779;0.13839;,
 0.34839;0.44696;0.21031;,
 0.28630;0.37963;0.11390;,
 0.22938;0.33922;0.05483;,
 0.17198;0.29967;0.01121;,
 0.00655;0.26622;0.01851;,
 0.00776;0.26347;0.01974;,
 0.00038;0.26396;0.01369;,
 0.00439;0.26397;0.02812;,
 0.00319;0.26671;0.02689;,
 -0.00498;0.26475;0.02705;,
 0.00442;0.26880;0.01694;,
 0.00655;0.26622;0.01851;,
 -0.00098;0.26597;0.01259;,
 0.00319;0.26671;0.02689;,
 0.00106;0.26930;0.02533;,
 -0.00634;0.26676;0.02595;,
 -0.06041;0.33732;-0.02097;,
 -0.00248;0.26782;0.01936;,
 0.00597;0.32843;-0.10924;,
 -0.04972;0.36735;-0.14355;,
 -0.13094;0.39463;-0.08681;,
 -0.13027;0.40856;-0.18509;,
 -0.18710;0.42940;-0.15128;,
 -0.25815;0.46050;-0.23393;,
 -0.22629;0.39677;-0.11420;,
 -0.18795;0.35666;-0.04080;,
 -0.14901;0.31615;0.01706;,
 -0.00406;0.26100;0.01646;,
 -0.00648;0.26128;0.02509;,
 -0.00453;0.28505;0.02217;,
 -0.00212;0.28478;0.01354;,
 0.00486;0.26084;0.01607;,
 0.00681;0.28461;0.01315;,
 0.00799;0.26101;0.02464;,
 0.00994;0.28478;0.02172;,
 0.00093;0.26128;0.03012;,
 0.00287;0.28505;0.02719;,
 -0.00212;0.28478;0.01354;,
 -0.00453;0.28505;0.02217;,
 -0.00611;0.30860;0.02056;,
 -0.00369;0.30850;0.01192;,
 0.00681;0.28461;0.01315;,
 0.00523;0.30863;0.01150;,
 0.00994;0.28478;0.02172;,
 0.00836;0.30880;0.02007;,
 0.00287;0.28505;0.02719;,
 0.00130;0.30878;0.02557;,
 -0.00369;0.30850;0.01192;,
 -0.00611;0.30860;0.02056;,
 -0.01115;0.33205;0.02025;,
 -0.00876;0.33213;0.01159;,
 0.00523;0.30863;0.01150;,
 0.00013;0.33255;0.01117;,
 0.00836;0.30880;0.02007;,
 0.00326;0.33272;0.01974;,
 0.00130;0.30878;0.02557;,
 -0.00377;0.33241;0.02525;,
 -0.08224;0.39112;0.04263;,
 -0.00917;0.33772;0.01899;,
 -0.09017;0.38871;-0.05083;,
 -0.15178;0.41705;-0.03170;,
 -0.17471;0.43371;0.05495;,
 -0.23302;0.44559;-0.00252;,
 -0.25278;0.45872;0.05490;,
 -0.34936;0.47974;0.05125;,
 -0.24833;0.42900;0.09225;,
 -0.17480;0.39832;0.10658;,
 -0.10963;0.36743;0.11096;,
 0.04774;0.39707;-0.00914;,
 -0.00125;0.33808;0.01603;,
 0.05642;0.39600;0.08436;,
 0.10481;0.42941;0.06439;,
 0.12032;0.44735;-0.02273;,
 0.17236;0.46476;0.03434;,
 0.18624;0.47913;-0.02346;,
 0.27196;0.50874;-0.02050;,
 0.19452;0.44937;-0.06000;,
 0.13548;0.41238;-0.07340;,
 0.08472;0.37601;-0.07685;,
 0.00260;0.33261;0.01868;,
 -0.00088;0.33227;0.01160;,
 -0.00384;0.35322;0.00837;,
 -0.00035;0.35357;0.01545;,
 -0.00301;0.33263;0.02426;,
 -0.00597;0.35358;0.02103;,
 -0.01010;0.33228;0.02053;,
 -0.01305;0.35324;0.01730;,
 -0.00869;0.33207;0.01274;,
 -0.01164;0.35302;0.00951;,
 -0.00035;0.35357;0.01545;,
 -0.00384;0.35322;0.00837;,
 -0.00522;0.37384;0.00226;,
 -0.00175;0.37435;0.00931;,
 -0.00597;0.35358;0.02103;,
 -0.00739;0.37462;0.01483;,
 -0.01305;0.35324;0.01730;,
 -0.01447;0.37427;0.01110;,
 -0.01164;0.35302;0.00951;,
 -0.01304;0.37380;0.00336;,
 -0.00175;0.37435;0.00931;,
 -0.00522;0.37384;0.00226;,
 -0.00506;0.39424;-0.00671;,
 -0.00159;0.39490;0.00028;,
 -0.00739;0.37462;0.01483;,
 -0.00724;0.39543;0.00571;,
 -0.01447;0.37427;0.01110;,
 -0.01432;0.39508;0.00198;,
 -0.01304;0.37380;0.00336;,
 -0.01288;0.39435;-0.00567;,
 0.00433;0.41622;-0.03534;,
 -0.00743;0.39679;-0.00323;,
 0.03090;0.41785;-0.01044;,
 0.04209;0.42783;-0.03534;,
 0.02534;0.43167;-0.06805;,
 0.05636;0.43746;-0.06828;,
 0.04646;0.44078;-0.09140;,
 0.07413;0.44833;-0.11809;,
 0.03740;0.42830;-0.09744;,
 0.01427;0.41658;-0.07870;,
 -0.00385;0.40498;-0.05928;,
 -0.02044;0.42085;0.01279;,
 -0.00900;0.39707;-0.00035;,
 -0.04702;0.41788;-0.01153;,
 -0.05802;0.43165;0.00295;,
 -0.04118;0.44111;0.02982;,
 -0.07211;0.44658;0.02511;,
 -0.06214;0.45384;0.04358;,
 -0.08966;0.46576;0.06173;,
 -0.05325;0.44344;0.05966;,
 -0.03031;0.42915;0.05235;,
 -0.01238;0.41488;0.04428;,
 0.02478;0.50995;-0.05559;,
 -0.00926;0.38816;-0.00257;,
 -0.04015;0.51137;-0.05266;,
 -0.03256;0.45542;-0.00717;,
 0.01689;0.45957;0.00877;,
 -0.06570;0.51170;-0.12204;,
 -0.02154;0.52080;-0.22853;,
 0.07460;0.51116;-0.00850;,
 0.08919;0.51730;-0.09456;,
 0.01704;0.51878;-0.10621;,
 -0.01070;0.52355;-0.20643;,
 0.09901;0.52326;-0.14567;,
 0.07077;0.51535;-0.28364;,
 0.04512;0.50954;0.03023;,
 -0.00926;0.38816;-0.00257;,
 0.02219;0.51128;-0.03323;,
 -0.00958;0.45558;-0.02428;,
 -0.00897;0.45939;0.02802;,
 0.07718;0.51151;-0.08037;,
 0.18834;0.52004;-0.06945;,
 0.01809;0.51066;0.09455;,
 0.10122;0.51645;0.08237;,
 0.08926;0.51824;0.00715;,
 0.17188;0.52282;-0.05160;,
 0.15112;0.52220;0.07640;,
 0.26692;0.51397;0.00460;,
 -0.02643;0.50931;0.07736;,
 -0.00926;0.38816;-0.00257;,
 0.02411;0.51095;0.03476;,
 0.01380;0.45543;-0.00773;,
 -0.03527;0.45956;0.00939;,
 0.08416;0.51076;0.07457;,
 0.10973;0.51879;0.18884;,
 -0.09321;0.51077;0.07077;,
 -0.05566;0.51611;0.14981;,
 0.00899;0.51772;0.11442;,
 0.08856;0.52170;0.17826;,
 -0.03417;0.52160;0.19779;,
 0.06672;0.51258;0.28978;,
 -0.09167;0.50958;0.02109;,
 -0.00926;0.38816;-0.00257;,
 -0.03703;0.51083;0.05799;,
 0.00548;0.45518;0.01977;,
 -0.02591;0.45984;-0.02154;,
 -0.05435;0.51049;0.13010;,
 -0.14947;0.51876;0.19181;,
 -0.10653;0.51134;-0.04721;,
 -0.16611;0.51675;0.01520;,
 -0.11359;0.51793;0.06837;,
 -0.14629;0.52174;0.16763;,
 -0.20253;0.52229;0.05189;,
 -0.25502;0.51309;0.18046;,
 -0.05954;0.50998;-0.06232;,
 -0.00926;0.38816;-0.00257;,
 -0.07734;0.51110;0.00315;,
 -0.02360;0.45517;0.02012;,
 0.00681;0.45985;-0.02193;,
 -0.14836;0.51107;0.00675;,
 -0.23182;0.52002;-0.07004;,
 -0.00125;0.51158;-0.09693;,
 -0.07524;0.51750;-0.13812;,
 -0.10855;0.51860;-0.07005;,
 -0.20857;0.52290;-0.07371;,
 -0.11898;0.52334;-0.16359;,
 -0.25249;0.51482;-0.17928;;
 
 646;
 3;0,1,2;,
 3;2,1,0;,
 3;3,0,2;,
 3;2,0,3;,
 3;4,0,3;,
 3;3,0,4;,
 3;5,4,3;,
 3;3,4,5;,
 3;6,4,5;,
 3;5,4,6;,
 3;7,6,5;,
 3;5,6,7;,
 3;7,8,6;,
 3;6,8,7;,
 3;6,8,4;,
 3;4,8,6;,
 3;4,8,9;,
 3;9,8,4;,
 3;0,4,9;,
 3;9,4,0;,
 3;10,0,9;,
 3;9,0,10;,
 3;1,0,10;,
 3;10,0,1;,
 3;11,12,13;,
 3;14,11,13;,
 3;15,11,14;,
 3;16,15,14;,
 3;17,15,16;,
 3;18,17,16;,
 3;19,17,18;,
 3;20,19,18;,
 3;12,19,20;,
 3;13,12,20;,
 3;21,22,23;,
 3;24,21,23;,
 3;25,21,24;,
 3;26,25,24;,
 3;27,25,26;,
 3;28,27,26;,
 3;29,27,28;,
 3;30,29,28;,
 3;22,29,30;,
 3;23,22,30;,
 3;31,32,33;,
 3;33,32,31;,
 3;34,31,33;,
 3;33,31,34;,
 3;35,31,34;,
 3;34,31,35;,
 3;36,35,34;,
 3;34,35,36;,
 3;37,35,36;,
 3;36,35,37;,
 3;38,37,36;,
 3;36,37,38;,
 3;38,39,37;,
 3;37,39,38;,
 3;37,39,35;,
 3;35,39,37;,
 3;35,39,40;,
 3;40,39,35;,
 3;31,35,40;,
 3;40,35,31;,
 3;41,31,40;,
 3;40,31,41;,
 3;32,31,41;,
 3;41,31,32;,
 3;42,43,44;,
 3;44,43,42;,
 3;45,42,44;,
 3;44,42,45;,
 3;46,42,45;,
 3;45,42,46;,
 3;47,46,45;,
 3;45,46,47;,
 3;48,46,47;,
 3;47,46,48;,
 3;49,48,47;,
 3;47,48,49;,
 3;49,50,48;,
 3;48,50,49;,
 3;48,50,46;,
 3;46,50,48;,
 3;46,50,51;,
 3;51,50,46;,
 3;42,46,51;,
 3;51,46,42;,
 3;52,42,51;,
 3;51,42,52;,
 3;43,42,52;,
 3;52,42,43;,
 3;53,54,55;,
 3;56,53,55;,
 3;57,53,56;,
 3;58,57,56;,
 3;59,57,58;,
 3;60,59,58;,
 3;61,59,60;,
 3;62,61,60;,
 3;54,61,62;,
 3;55,54,62;,
 3;63,64,65;,
 3;66,63,65;,
 3;67,63,66;,
 3;68,67,66;,
 3;69,67,68;,
 3;70,69,68;,
 3;71,69,70;,
 3;72,71,70;,
 3;64,71,72;,
 3;65,64,72;,
 3;73,74,75;,
 3;76,73,75;,
 3;77,73,76;,
 3;78,77,76;,
 3;79,77,78;,
 3;80,79,78;,
 3;81,79,80;,
 3;82,81,80;,
 3;74,81,82;,
 3;75,74,82;,
 3;83,84,85;,
 3;86,84,83;,
 3;87,88,89;,
 3;90,88,87;,
 3;91,92,93;,
 3;93,92,91;,
 3;94,91,93;,
 3;93,91,94;,
 3;95,91,94;,
 3;94,91,95;,
 3;96,95,94;,
 3;94,95,96;,
 3;97,95,96;,
 3;96,95,97;,
 3;98,97,96;,
 3;96,97,98;,
 3;98,99,97;,
 3;97,99,98;,
 3;97,99,95;,
 3;95,99,97;,
 3;95,99,100;,
 3;100,99,95;,
 3;91,95,100;,
 3;100,95,91;,
 3;101,91,100;,
 3;100,91,101;,
 3;92,91,101;,
 3;101,91,92;,
 3;102,103,104;,
 3;105,103,102;,
 3;106,107,108;,
 3;109,107,106;,
 3;110,111,112;,
 3;112,111,110;,
 3;113,110,112;,
 3;112,110,113;,
 3;114,110,113;,
 3;113,110,114;,
 3;115,114,113;,
 3;113,114,115;,
 3;116,114,115;,
 3;115,114,116;,
 3;117,116,115;,
 3;115,116,117;,
 3;117,118,116;,
 3;116,118,117;,
 3;116,118,114;,
 3;114,118,116;,
 3;114,118,119;,
 3;119,118,114;,
 3;110,114,119;,
 3;119,114,110;,
 3;120,110,119;,
 3;119,110,120;,
 3;111,110,120;,
 3;120,110,111;,
 3;121,122,123;,
 3;124,121,123;,
 3;125,121,124;,
 3;126,125,124;,
 3;127,125,126;,
 3;128,127,126;,
 3;129,127,128;,
 3;130,129,128;,
 3;122,129,130;,
 3;123,122,130;,
 3;131,132,133;,
 3;134,131,133;,
 3;135,131,134;,
 3;136,135,134;,
 3;137,135,136;,
 3;138,137,136;,
 3;139,137,138;,
 3;140,139,138;,
 3;132,139,140;,
 3;133,132,140;,
 3;141,142,143;,
 3;144,141,143;,
 3;145,141,144;,
 3;146,145,144;,
 3;147,145,146;,
 3;148,147,146;,
 3;149,147,148;,
 3;150,149,148;,
 3;142,149,150;,
 3;143,142,150;,
 3;151,152,153;,
 3;153,152,151;,
 3;154,151,153;,
 3;153,151,154;,
 3;155,151,154;,
 3;154,151,155;,
 3;156,155,154;,
 3;154,155,156;,
 3;157,155,156;,
 3;156,155,157;,
 3;158,157,156;,
 3;156,157,158;,
 3;158,159,157;,
 3;157,159,158;,
 3;157,159,155;,
 3;155,159,157;,
 3;155,159,160;,
 3;160,159,155;,
 3;151,155,160;,
 3;160,155,151;,
 3;161,151,160;,
 3;160,151,161;,
 3;152,151,161;,
 3;161,151,152;,
 3;162,163,164;,
 3;164,163,162;,
 3;165,162,164;,
 3;164,162,165;,
 3;166,162,165;,
 3;165,162,166;,
 3;167,166,165;,
 3;165,166,167;,
 3;168,166,167;,
 3;167,166,168;,
 3;169,168,167;,
 3;167,168,169;,
 3;169,170,168;,
 3;168,170,169;,
 3;168,170,166;,
 3;166,170,168;,
 3;166,170,171;,
 3;171,170,166;,
 3;162,166,171;,
 3;171,166,162;,
 3;172,162,171;,
 3;171,162,172;,
 3;163,162,172;,
 3;172,162,163;,
 3;173,174,175;,
 3;176,173,175;,
 3;177,173,176;,
 3;178,177,176;,
 3;179,177,178;,
 3;180,179,178;,
 3;181,179,180;,
 3;182,181,180;,
 3;174,181,182;,
 3;175,174,182;,
 3;183,184,185;,
 3;186,183,185;,
 3;187,183,186;,
 3;188,187,186;,
 3;189,187,188;,
 3;190,189,188;,
 3;191,189,190;,
 3;192,191,190;,
 3;184,191,192;,
 3;185,184,192;,
 3;193,194,195;,
 3;196,193,195;,
 3;197,193,196;,
 3;198,197,196;,
 3;199,197,198;,
 3;200,199,198;,
 3;201,199,200;,
 3;202,201,200;,
 3;194,201,202;,
 3;195,194,202;,
 3;203,204,205;,
 3;206,204,203;,
 3;207,206,203;,
 3;208,206,207;,
 3;209,210,211;,
 3;212,210,209;,
 3;213,212,209;,
 3;214,212,213;,
 3;215,216,217;,
 3;217,216,215;,
 3;218,215,217;,
 3;217,215,218;,
 3;219,215,218;,
 3;218,215,219;,
 3;220,219,218;,
 3;218,219,220;,
 3;221,219,220;,
 3;220,219,221;,
 3;222,221,220;,
 3;220,221,222;,
 3;222,223,221;,
 3;221,223,222;,
 3;221,223,219;,
 3;219,223,221;,
 3;219,223,224;,
 3;224,223,219;,
 3;215,219,224;,
 3;224,219,215;,
 3;225,215,224;,
 3;224,215,225;,
 3;216,215,225;,
 3;225,215,216;,
 3;226,227,228;,
 3;229,227,226;,
 3;230,229,226;,
 3;231,229,230;,
 3;232,233,234;,
 3;235,233,232;,
 3;236,235,232;,
 3;237,235,236;,
 3;238,239,240;,
 3;240,239,238;,
 3;241,238,240;,
 3;240,238,241;,
 3;242,238,241;,
 3;241,238,242;,
 3;243,242,241;,
 3;241,242,243;,
 3;244,242,243;,
 3;243,242,244;,
 3;245,244,243;,
 3;243,244,245;,
 3;245,246,244;,
 3;244,246,245;,
 3;244,246,242;,
 3;242,246,244;,
 3;242,246,247;,
 3;247,246,242;,
 3;238,242,247;,
 3;247,242,238;,
 3;248,238,247;,
 3;247,238,248;,
 3;239,238,248;,
 3;248,238,239;,
 3;249,250,251;,
 3;252,249,251;,
 3;253,249,252;,
 3;254,253,252;,
 3;255,253,254;,
 3;256,255,254;,
 3;257,255,256;,
 3;258,257,256;,
 3;250,257,258;,
 3;251,250,258;,
 3;259,260,261;,
 3;262,259,261;,
 3;263,259,262;,
 3;264,263,262;,
 3;265,263,264;,
 3;266,265,264;,
 3;267,265,266;,
 3;268,267,266;,
 3;260,267,268;,
 3;261,260,268;,
 3;269,270,271;,
 3;272,269,271;,
 3;273,269,272;,
 3;274,273,272;,
 3;275,273,274;,
 3;276,275,274;,
 3;277,275,276;,
 3;278,277,276;,
 3;270,277,278;,
 3;271,270,278;,
 3;279,280,281;,
 3;281,280,279;,
 3;282,279,281;,
 3;281,279,282;,
 3;283,279,282;,
 3;282,279,283;,
 3;284,283,282;,
 3;282,283,284;,
 3;285,283,284;,
 3;284,283,285;,
 3;286,285,284;,
 3;284,285,286;,
 3;286,287,285;,
 3;285,287,286;,
 3;285,287,283;,
 3;283,287,285;,
 3;283,287,288;,
 3;288,287,283;,
 3;279,283,288;,
 3;288,283,279;,
 3;289,279,288;,
 3;288,279,289;,
 3;280,279,289;,
 3;289,279,280;,
 3;290,291,292;,
 3;292,291,290;,
 3;293,290,292;,
 3;292,290,293;,
 3;294,290,293;,
 3;293,290,294;,
 3;295,294,293;,
 3;293,294,295;,
 3;296,294,295;,
 3;295,294,296;,
 3;297,296,295;,
 3;295,296,297;,
 3;297,298,296;,
 3;296,298,297;,
 3;296,298,294;,
 3;294,298,296;,
 3;294,298,299;,
 3;299,298,294;,
 3;290,294,299;,
 3;299,294,290;,
 3;300,290,299;,
 3;299,290,300;,
 3;291,290,300;,
 3;300,290,291;,
 3;301,302,303;,
 3;304,301,303;,
 3;305,301,304;,
 3;306,305,304;,
 3;307,305,306;,
 3;308,307,306;,
 3;309,307,308;,
 3;310,309,308;,
 3;302,309,310;,
 3;303,302,310;,
 3;311,312,313;,
 3;314,311,313;,
 3;315,311,314;,
 3;316,315,314;,
 3;317,315,316;,
 3;318,317,316;,
 3;319,317,318;,
 3;320,319,318;,
 3;312,319,320;,
 3;313,312,320;,
 3;321,322,323;,
 3;324,321,323;,
 3;325,321,324;,
 3;326,325,324;,
 3;327,325,326;,
 3;328,327,326;,
 3;329,327,328;,
 3;330,329,328;,
 3;322,329,330;,
 3;323,322,330;,
 3;331,332,333;,
 3;333,332,331;,
 3;334,331,333;,
 3;333,331,334;,
 3;335,331,334;,
 3;334,331,335;,
 3;336,335,334;,
 3;334,335,336;,
 3;337,335,336;,
 3;336,335,337;,
 3;338,337,336;,
 3;336,337,338;,
 3;338,339,337;,
 3;337,339,338;,
 3;337,339,335;,
 3;335,339,337;,
 3;335,339,340;,
 3;340,339,335;,
 3;331,335,340;,
 3;340,335,331;,
 3;341,331,340;,
 3;340,331,341;,
 3;332,331,341;,
 3;341,331,332;,
 3;342,343,344;,
 3;344,343,342;,
 3;345,342,344;,
 3;344,342,345;,
 3;346,342,345;,
 3;345,342,346;,
 3;347,346,345;,
 3;345,346,347;,
 3;348,346,347;,
 3;347,346,348;,
 3;349,348,347;,
 3;347,348,349;,
 3;349,350,348;,
 3;348,350,349;,
 3;348,350,346;,
 3;346,350,348;,
 3;346,350,351;,
 3;351,350,346;,
 3;342,346,351;,
 3;351,346,342;,
 3;352,342,351;,
 3;351,342,352;,
 3;343,342,352;,
 3;352,342,343;,
 3;353,354,355;,
 3;355,354,353;,
 3;355,354,356;,
 3;356,354,355;,
 3;354,353,357;,
 3;357,353,354;,
 3;355,356,358;,
 3;358,356,355;,
 3;355,358,359;,
 3;359,358,355;,
 3;360,353,361;,
 3;361,353,360;,
 3;353,360,357;,
 3;357,360,353;,
 3;362,359,363;,
 3;363,359,362;,
 3;364,363,365;,
 3;365,363,364;,
 3;361,362,364;,
 3;364,362,361;,
 3;364,362,363;,
 3;363,362,364;,
 3;362,355,359;,
 3;359,355,362;,
 3;361,353,362;,
 3;362,353,361;,
 3;353,355,362;,
 3;362,355,353;,
 3;366,367,368;,
 3;368,367,366;,
 3;368,367,369;,
 3;369,367,368;,
 3;367,366,370;,
 3;370,366,367;,
 3;368,369,371;,
 3;371,369,368;,
 3;368,371,372;,
 3;372,371,368;,
 3;373,366,374;,
 3;374,366,373;,
 3;366,373,370;,
 3;370,373,366;,
 3;375,372,376;,
 3;376,372,375;,
 3;377,376,378;,
 3;378,376,377;,
 3;374,375,377;,
 3;377,375,374;,
 3;377,375,376;,
 3;376,375,377;,
 3;375,368,372;,
 3;372,368,375;,
 3;374,366,375;,
 3;375,366,374;,
 3;366,368,375;,
 3;375,368,366;,
 3;379,380,381;,
 3;381,380,379;,
 3;381,380,382;,
 3;382,380,381;,
 3;380,379,383;,
 3;383,379,380;,
 3;381,382,384;,
 3;384,382,381;,
 3;381,384,385;,
 3;385,384,381;,
 3;386,379,387;,
 3;387,379,386;,
 3;379,386,383;,
 3;383,386,379;,
 3;388,385,389;,
 3;389,385,388;,
 3;390,389,391;,
 3;391,389,390;,
 3;387,388,390;,
 3;390,388,387;,
 3;390,388,389;,
 3;389,388,390;,
 3;388,381,385;,
 3;385,381,388;,
 3;387,379,388;,
 3;388,379,387;,
 3;379,381,388;,
 3;388,381,379;,
 3;392,393,394;,
 3;394,393,392;,
 3;394,393,395;,
 3;395,393,394;,
 3;393,392,396;,
 3;396,392,393;,
 3;394,395,397;,
 3;397,395,394;,
 3;394,397,398;,
 3;398,397,394;,
 3;399,392,400;,
 3;400,392,399;,
 3;392,399,396;,
 3;396,399,392;,
 3;401,398,402;,
 3;402,398,401;,
 3;403,402,404;,
 3;404,402,403;,
 3;400,401,403;,
 3;403,401,400;,
 3;403,401,402;,
 3;402,401,403;,
 3;401,394,398;,
 3;398,394,401;,
 3;400,392,401;,
 3;401,392,400;,
 3;392,394,401;,
 3;401,394,392;,
 3;405,406,407;,
 3;407,406,405;,
 3;407,406,408;,
 3;408,406,407;,
 3;406,405,409;,
 3;409,405,406;,
 3;407,408,410;,
 3;410,408,407;,
 3;407,410,411;,
 3;411,410,407;,
 3;412,405,413;,
 3;413,405,412;,
 3;405,412,409;,
 3;409,412,405;,
 3;414,411,415;,
 3;415,411,414;,
 3;416,415,417;,
 3;417,415,416;,
 3;413,414,416;,
 3;416,414,413;,
 3;416,414,415;,
 3;415,414,416;,
 3;414,407,411;,
 3;411,407,414;,
 3;413,405,414;,
 3;414,405,413;,
 3;405,407,414;,
 3;414,407,405;;
 
 MeshMaterialList {
  9;
  646;
  3,
  3,
  3,
  3,
  3,
  3,
  3,
  3,
  3,
  3,
  3,
  3,
  3,
  3,
  3,
  3,
  3,
  3,
  3,
  3,
  3,
  3,
  3,
  3,
  0,
  0,
  0,
  0,
  0,
  0,
  0,
  0,
  0,
  0,
  0,
  0,
  0,
  0,
  0,
  0,
  0,
  0,
  0,
  0,
  3,
  3,
  3,
  3,
  3,
  3,
  3,
  3,
  3,
  3,
  3,
  3,
  3,
  3,
  3,
  3,
  3,
  3,
  3,
  3,
  3,
  3,
  3,
  3,
  3,
  3,
  3,
  3,
  3,
  3,
  3,
  3,
  3,
  3,
  3,
  3,
  3,
  3,
  3,
  3,
  3,
  3,
  3,
  3,
  3,
  3,
  3,
  3,
  0,
  0,
  0,
  0,
  0,
  0,
  0,
  0,
  0,
  0,
  0,
  0,
  0,
  0,
  0,
  0,
  0,
  0,
  0,
  0,
  0,
  0,
  0,
  0,
  0,
  0,
  0,
  0,
  0,
  0,
  0,
  8,
  8,
  0,
  3,
  3,
  3,
  3,
  3,
  3,
  3,
  2,
  3,
  3,
  3,
  3,
  3,
  3,
  3,
  3,
  3,
  3,
  3,
  3,
  3,
  3,
  3,
  3,
  8,
  8,
  8,
  8,
  3,
  3,
  3,
  3,
  3,
  3,
  3,
  3,
  3,
  3,
  3,
  3,
  3,
  3,
  3,
  3,
  3,
  3,
  3,
  3,
  3,
  3,
  3,
  3,
  0,
  0,
  0,
  0,
  0,
  0,
  0,
  0,
  0,
  0,
  0,
  0,
  0,
  0,
  0,
  0,
  0,
  0,
  0,
  0,
  0,
  0,
  0,
  0,
  0,
  0,
  0,
  0,
  0,
  0,
  3,
  3,
  3,
  3,
  3,
  3,
  3,
  3,
  3,
  3,
  3,
  3,
  3,
  3,
  3,
  3,
  3,
  3,
  3,
  3,
  3,
  3,
  3,
  3,
  3,
  3,
  3,
  3,
  3,
  3,
  3,
  3,
  3,
  3,
  3,
  3,
  3,
  3,
  3,
  3,
  3,
  3,
  3,
  3,
  3,
  3,
  3,
  3,
  0,
  0,
  0,
  0,
  0,
  0,
  0,
  0,
  0,
  0,
  0,
  0,
  0,
  0,
  0,
  0,
  0,
  0,
  0,
  0,
  0,
  0,
  0,
  0,
  0,
  0,
  0,
  0,
  0,
  0,
  0,
  8,
  8,
  0,
  8,
  8,
  8,
  0,
  3,
  3,
  3,
  3,
  3,
  3,
  3,
  3,
  3,
  3,
  3,
  3,
  3,
  3,
  3,
  3,
  3,
  3,
  3,
  3,
  3,
  3,
  3,
  3,
  0,
  8,
  8,
  0,
  0,
  8,
  8,
  8,
  3,
  3,
  3,
  3,
  3,
  3,
  3,
  3,
  3,
  3,
  3,
  3,
  3,
  3,
  3,
  3,
  3,
  3,
  3,
  3,
  3,
  3,
  3,
  3,
  0,
  0,
  0,
  0,
  0,
  0,
  8,
  8,
  0,
  0,
  0,
  0,
  0,
  0,
  0,
  0,
  8,
  8,
  0,
  0,
  0,
  0,
  0,
  0,
  0,
  0,
  8,
  8,
  0,
  0,
  3,
  3,
  3,
  3,
  3,
  3,
  3,
  3,
  3,
  3,
  3,
  3,
  3,
  3,
  3,
  3,
  3,
  3,
  3,
  3,
  3,
  3,
  3,
  3,
  3,
  3,
  3,
  3,
  3,
  3,
  3,
  3,
  3,
  3,
  3,
  3,
  3,
  3,
  3,
  3,
  3,
  3,
  3,
  3,
  3,
  3,
  3,
  3,
  0,
  0,
  8,
  8,
  0,
  0,
  0,
  0,
  0,
  0,
  0,
  0,
  0,
  0,
  0,
  0,
  0,
  0,
  0,
  0,
  0,
  0,
  0,
  0,
  0,
  0,
  0,
  0,
  0,
  0,
  2,
  2,
  2,
  2,
  2,
  2,
  2,
  2,
  2,
  2,
  2,
  2,
  2,
  2,
  2,
  2,
  2,
  2,
  2,
  2,
  2,
  2,
  2,
  2,
  2,
  2,
  2,
  2,
  2,
  2,
  2,
  2,
  2,
  2,
  2,
  2,
  2,
  2,
  2,
  2,
  2,
  2,
  2,
  2,
  2,
  2,
  2,
  2,
  6,
  6,
  6,
  6,
  6,
  6,
  6,
  6,
  6,
  6,
  6,
  6,
  6,
  6,
  6,
  6,
  6,
  6,
  6,
  6,
  6,
  6,
  6,
  6,
  6,
  6,
  6,
  6,
  6,
  6,
  6,
  6,
  6,
  6,
  6,
  6,
  6,
  6,
  6,
  6,
  6,
  6,
  6,
  6,
  6,
  6,
  6,
  6,
  6,
  6,
  6,
  6,
  6,
  6,
  6,
  6,
  6,
  6,
  6,
  6,
  6,
  6,
  6,
  6,
  6,
  6,
  6,
  6,
  6,
  6,
  6,
  6,
  6,
  6,
  6,
  6,
  6,
  6,
  6,
  6,
  6,
  6,
  6,
  6,
  6,
  6,
  6,
  6,
  6,
  6,
  6,
  6,
  6,
  6,
  6,
  6,
  6,
  6,
  6,
  6,
  6,
  6,
  6,
  6,
  6,
  6,
  6,
  6,
  6,
  6,
  6,
  6,
  6,
  6,
  6,
  6,
  6,
  6,
  6,
  6,
  6,
  6,
  6,
  6,
  6,
  6,
  6,
  6,
  6,
  6,
  6,
  6,
  6,
  6,
  6,
  6,
  6,
  6,
  6,
  6;;
  Material {
   0.196000;0.392000;0.196000;1.000000;;
   5.000000;
   0.000000;0.000000;0.000000;;
   0.000000;0.000000;0.000000;;
  }
  Material {
   0.196000;0.392000;0.196000;1.000000;;
   5.000000;
   0.000000;0.000000;0.000000;;
   0.000000;0.000000;0.000000;;
  }
  Material {
   0.196000;0.980000;0.196000;1.000000;;
   5.000000;
   0.000000;0.000000;0.000000;;
   0.000000;0.000000;0.000000;;
  }
  Material {
   0.325490;0.890196;0.243137;1.000000;;
   5.000000;
   0.000000;0.000000;0.000000;;
   0.000000;0.000000;0.000000;;
  }
  Material {
   0.196000;0.392000;0.196000;1.000000;;
   5.000000;
   0.000000;0.000000;0.000000;;
   0.000000;0.000000;0.000000;;
  }
  Material {
   0.196000;0.392000;0.196000;1.000000;;
   5.000000;
   0.000000;0.000000;0.000000;;
   0.000000;0.000000;0.000000;;
  }
  Material {
   1.000000;1.000000;0.000000;1.000000;;
   5.000000;
   0.000000;0.000000;0.000000;;
   0.000000;0.000000;0.000000;;
  }
  Material {
   1.000000;1.000000;1.000000;0.550000;;
   100.000000;
   1.000000;1.000000;1.000000;;
   0.260000;0.260000;0.260000;;
  }
  Material {
   1.000000;1.000000;1.000000;1.000000;;
   0.000000;
   0.000000;0.000000;0.000000;;
   0.000000;0.000000;0.000000;;
  }
 }
 MeshNormals {
  742;
  -0.147943;0.954927;-0.257347;,
  -0.373299;0.922841;-0.094931;,
  -0.316992;0.869529;-0.378730;,
  -0.535946;0.831215;-0.147794;,
  -0.310487;0.862245;-0.400165;,
  -0.459587;0.887084;-0.043153;,
  -0.223990;0.912297;-0.342844;,
  -0.180902;0.934517;-0.306516;,
  0.021537;0.798725;-0.601311;,
  -0.132420;0.766301;-0.628688;,
  -0.157028;0.822575;-0.546546;,
  0.993739;0.093546;0.061082;,
  0.993675;0.093824;0.061706;,
  0.251550;0.091512;0.963508;,
  -0.846431;-0.039359;0.531041;,
  -0.760397;-0.114477;-0.639290;,
  0.993609;0.094101;0.062330;,
  0.251958;0.091388;0.963413;,
  -0.846410;-0.039370;0.531074;,
  -0.760157;-0.114328;-0.639602;,
  0.997365;-0.033419;0.064393;,
  0.997333;-0.033044;0.065084;,
  0.250255;0.138387;0.958239;,
  -0.843205;0.117086;0.524687;,
  -0.763216;-0.067420;-0.642617;,
  0.997300;-0.032669;0.065774;,
  0.250635;0.138214;0.958164;,
  -0.843201;0.117084;0.524694;,
  -0.762975;-0.067334;-0.642911;,
  -0.726785;0.678990;-0.103713;,
  -0.519605;0.841485;0.148034;,
  -0.590313;0.794168;-0.144321;,
  -0.392525;0.910373;0.130939;,
  -0.445713;0.889122;-0.103935;,
  -0.298241;0.820137;0.488290;,
  -0.306140;0.936082;0.173287;,
  -0.043468;0.688705;0.723737;,
  -0.305538;0.861390;-0.405775;,
  -0.499727;0.722923;-0.477133;,
  -0.655158;0.646479;-0.390938;,
  0.751395;0.658152;0.047346;,
  0.571255;0.791997;-0.215426;,
  0.609455;0.789078;0.076943;,
  0.379766;0.901545;-0.207353;,
  0.381940;0.923069;0.045443;,
  0.197087;0.953897;-0.226358;,
  0.142664;0.842664;-0.519196;,
  0.119851;0.740298;-0.661509;,
  0.339728;-0.286075;0.895961;,
  0.487493;0.775443;0.401296;,
  0.649934;0.682129;0.335089;,
  -0.782322;0.086992;0.616770;,
  -0.782316;0.086989;0.616777;,
  -0.836914;-0.033357;-0.546316;,
  0.270413;-0.107976;-0.956670;,
  0.998980;-0.031873;-0.031980;,
  -0.782311;0.086986;0.616784;,
  -0.836896;-0.033347;-0.546346;,
  0.270354;-0.107999;-0.956684;,
  0.998980;-0.031872;-0.031977;,
  -0.784136;0.044603;0.618984;,
  -0.784173;0.044624;0.618936;,
  -0.837052;-0.017537;-0.546843;,
  0.271585;-0.055911;-0.960789;,
  0.999347;-0.016110;-0.032355;,
  -0.784210;0.044645;0.618888;,
  -0.837066;-0.017545;-0.546821;,
  0.271660;-0.055882;-0.960770;,
  0.999346;-0.016115;-0.032366;,
  -0.784800;0.002146;0.619746;,
  -0.784851;0.002177;0.619680;,
  -0.837127;-0.001676;-0.547006;,
  0.272077;-0.003326;-0.962270;,
  0.999472;-0.000278;-0.032488;,
  -0.784903;0.002208;0.619615;,
  -0.837161;-0.001699;-0.546954;,
  0.272077;-0.003326;-0.962270;,
  0.999474;-0.000253;-0.032421;,
  -0.826692;0.204450;-0.524195;,
  0.219807;0.588829;-0.777795;,
  0.176796;0.759897;-0.625540;,
  0.953951;0.299958;0.001188;,
  0.537815;0.772060;-0.338643;,
  0.238844;0.877677;-0.415496;,
  0.492561;0.826853;-0.271472;,
  0.190142;0.906494;-0.376981;,
  0.443858;0.882844;-0.153546;,
  0.092021;0.943424;-0.318564;,
  0.394034;0.916326;-0.071304;,
  0.360172;0.932367;-0.031092;,
  0.642145;0.748758;0.164354;,
  0.660606;0.750694;0.007632;,
  0.701511;0.700034;-0.133543;,
  -0.219254;0.592250;0.775350;,
  -0.978366;0.206091;0.018089;,
  -0.176066;0.762332;0.622777;,
  -0.953822;0.300368;-0.001649;,
  -0.672701;0.486092;0.557842;,
  -0.343069;0.713544;0.610867;,
  -0.556239;0.740050;0.378054;,
  -0.197938;0.885263;0.420869;,
  -0.445349;0.875123;0.189272;,
  -0.095351;0.928157;0.359766;,
  -0.390084;0.914490;0.107440;,
  -0.353870;0.932851;0.067568;,
  -0.633883;0.760884;-0.138739;,
  -0.660819;0.750368;0.016343;,
  -0.761306;0.614397;0.207196;,
  -0.518478;0.697125;-0.495174;,
  0.075864;0.828258;-0.555188;,
  0.942450;0.296938;-0.153674;,
  0.032200;-0.830199;0.556536;,
  -0.465373;-0.745790;0.476682;,
  -0.219427;0.803707;-0.553088;,
  0.077314;0.828378;-0.554808;,
  0.943652;0.294368;-0.151222;,
  -0.232591;-0.813576;0.532913;,
  -0.471305;-0.742743;0.475610;,
  0.164238;-0.183417;-0.969218;,
  0.164921;-0.183048;-0.969172;,
  0.982418;0.105149;-0.154271;,
  0.432337;0.244322;0.867981;,
  -0.720975;0.045505;0.691465;,
  0.165604;-0.182680;-0.969125;,
  0.982384;0.104924;-0.154639;,
  0.432392;0.244303;0.867959;,
  -0.721307;0.045565;0.691115;,
  0.165246;-0.301086;-0.939171;,
  0.165840;-0.300732;-0.939179;,
  0.976053;0.151160;-0.156431;,
  0.411109;0.382182;0.827602;,
  -0.721011;0.092219;0.686760;,
  0.166433;-0.300378;-0.939187;,
  0.976037;0.150866;-0.156817;,
  0.411095;0.382187;0.827607;,
  -0.721274;0.092209;0.686484;,
  -0.175152;0.783606;0.596057;,
  0.074024;0.901759;0.425854;,
  -0.202207;0.859591;0.469271;,
  0.071564;0.946840;0.313644;,
  -0.259190;0.906653;0.332868;,
  0.103116;0.970856;0.216347;,
  -0.286116;0.925724;0.247330;,
  -0.292450;0.935462;0.198454;,
  -0.618750;0.741636;0.259083;,
  -0.512022;0.773101;0.374365;,
  -0.434760;0.735094;0.520212;,
  0.124625;0.493921;-0.860530;,
  -0.185711;0.677359;-0.711826;,
  0.139751;0.686448;-0.713624;,
  -0.185239;0.808296;-0.558878;,
  0.171167;0.829279;-0.531976;,
  -0.223669;0.875227;-0.428894;,
  0.176864;0.889046;-0.422276;,
  0.172757;0.915753;-0.362700;,
  0.541967;0.753326;-0.372521;,
  0.472297;0.710624;-0.521487;,
  0.429200;0.566499;-0.703467;,
  0.520893;0.273134;0.808745;,
  0.520890;0.273136;0.808747;,
  -0.627424;0.184845;0.756421;,
  -0.918837;-0.164719;-0.358617;,
  0.071471;-0.279755;-0.957407;,
  0.520886;0.273137;0.808748;,
  -0.627464;0.184852;0.756385;,
  -0.918827;-0.164716;-0.358644;,
  0.071408;-0.279783;-0.957404;,
  0.532687;0.152336;0.832489;,
  0.532096;0.152716;0.832797;,
  -0.622928;0.229643;0.747813;,
  -0.928390;-0.011157;-0.371440;,
  0.071919;-0.236129;-0.969057;,
  0.531505;0.153096;0.833105;,
  -0.622618;0.229528;0.748107;,
  -0.928421;-0.011168;-0.371362;,
  0.072422;-0.235982;-0.969055;,
  0.533000;0.026739;0.845693;,
  0.532423;0.027199;0.846041;,
  -0.615705;0.273428;0.739016;,
  -0.915630;0.143772;-0.375434;,
  0.074210;-0.191289;-0.978724;,
  0.531846;0.027660;0.846389;,
  -0.615446;0.273276;0.739287;,
  -0.915605;0.143780;-0.375492;,
  0.074600;-0.191229;-0.978706;,
  -0.560309;0.447722;0.696849;,
  -0.679054;0.664797;-0.311336;,
  -0.679137;0.664721;-0.311318;,
  0.099418;0.012389;-0.994969;,
  -0.604463;0.759963;0.238916;,
  -0.533509;0.804443;-0.261226;,
  -0.519972;0.520060;0.677619;,
  -0.596637;0.800388;0.058336;,
  -0.533502;0.804448;-0.261227;,
  0.123399;0.110204;-0.986219;,
  -0.336745;0.642364;-0.688456;,
  -0.412787;0.838006;-0.356866;,
  -0.217644;0.765438;-0.605587;,
  -0.321905;0.908913;-0.265054;,
  -0.065787;0.845628;-0.529702;,
  -0.270891;0.948809;-0.162419;,
  0.020261;0.880087;-0.474380;,
  0.061092;0.897736;-0.436277;,
  0.283601;0.649740;-0.705271;,
  0.114199;0.665246;-0.737839;,
  -0.056286;0.585541;-0.808687;,
  0.629911;-0.071556;-0.773364;,
  0.818072;0.491343;0.298898;,
  0.818125;0.491259;0.298890;,
  -0.073665;0.380678;0.921769;,
  0.616549;0.032855;-0.786631;,
  0.677321;0.698710;0.230307;,
  0.677157;0.698864;0.230319;,
  -0.084505;0.464264;0.881656;,
  0.408024;0.688228;0.599882;,
  0.524083;0.791517;0.314384;,
  0.305598;0.810520;0.499667;,
  0.435582;0.875210;0.210417;,
  0.177944;0.899666;0.398668;,
  0.390358;0.915214;0.100017;,
  0.110091;0.936739;0.332266;,
  0.077730;0.953297;0.291860;,
  -0.165600;0.830230;0.532254;,
  -0.026215;0.814516;0.579548;,
  0.115316;0.729126;0.674595;,
  -0.961592;0.045346;-0.270711;,
  -0.961605;0.045336;-0.270667;,
  -0.045054;-0.118216;-0.991965;,
  0.933469;-0.117952;-0.338707;,
  0.613042;0.046829;0.788661;,
  -0.961618;0.045325;-0.270623;,
  -0.045119;-0.118235;-0.991960;,
  0.933469;-0.117953;-0.338709;,
  0.613010;0.046850;0.788685;,
  -0.960384;-0.082374;-0.266227;,
  -0.960220;-0.082152;-0.266886;,
  -0.044732;-0.071182;-0.996460;,
  0.938337;0.037813;-0.343649;,
  0.611859;0.094079;0.785352;,
  -0.960056;-0.081930;-0.267545;,
  -0.045050;-0.071321;-0.996436;,
  0.938329;0.037803;-0.343670;,
  0.611610;0.094190;0.785532;,
  -0.942939;-0.206216;-0.261420;,
  -0.942824;-0.205961;-0.262037;,
  -0.046174;-0.023635;-0.998654;,
  0.920545;0.191800;-0.340308;,
  0.607803;0.140762;0.781512;,
  -0.942708;-0.205706;-0.262654;,
  -0.046536;-0.023850;-0.998632;,
  0.920537;0.191786;-0.340337;,
  0.607459;0.140851;0.781764;,
  0.620062;0.756733;0.207072;,
  0.490531;0.869063;-0.064096;,
  0.485609;0.847784;0.213182;,
  0.370205;0.925818;-0.076219;,
  0.336604;0.909846;0.242648;,
  0.271932;0.954684;-0.120963;,
  0.246578;0.935905;0.251556;,
  0.197018;0.948304;0.248806;,
  0.207632;0.786952;0.581029;,
  0.336456;0.796990;0.501602;,
  0.495250;0.739992;0.455125;,
  -0.794697;0.557127;-0.240970;,
  -0.656206;0.751367;0.069575;,
  -0.646456;0.721224;-0.248856;,
  -0.511757;0.855331;0.080708;,
  -0.469738;0.839043;-0.274505;,
  -0.393705;0.910331;0.127646;,
  -0.363481;0.889354;-0.277363;,
  -0.305988;0.912780;-0.270562;,
  -0.297435;0.717796;-0.629525;,
  -0.449976;0.694135;-0.561870;,
  -0.631493;0.572453;-0.522986;,
  0.894507;0.057656;-0.443321;,
  0.894508;0.057657;-0.443319;,
  0.690176;0.204336;0.694193;,
  -0.467236;0.070080;0.881351;,
  -0.971655;-0.163303;-0.170934;,
  0.894509;0.057659;-0.443317;,
  0.690144;0.204351;0.694220;,
  -0.467239;0.070081;0.881349;,
  -0.971647;-0.163288;-0.170993;,
  0.896276;-0.069788;-0.437971;,
  0.896562;-0.069381;-0.437451;,
  0.683260;0.248778;0.686488;,
  -0.462532;0.221846;0.858399;,
  -0.977802;-0.117180;-0.173702;,
  0.896847;-0.068973;-0.436930;,
  0.683651;0.248529;0.686189;,
  -0.462525;0.221845;0.858403;,
  -0.977752;-0.117151;-0.174000;,
  0.885597;-0.192799;-0.422547;,
  0.885954;-0.192315;-0.422020;,
  0.676462;0.291718;0.676240;,
  -0.448017;0.361609;0.817631;,
  -0.981482;-0.070833;-0.177978;,
  0.886310;-0.191831;-0.421492;,
  0.676739;0.291506;0.676054;,
  -0.448139;0.361631;0.817554;,
  -0.981403;-0.070856;-0.178401;,
  -0.647255;0.733708;0.206721;,
  -0.341246;0.888865;0.305727;,
  -0.559496;0.822334;0.103586;,
  -0.249631;0.939581;0.234249;,
  -0.482095;0.875524;-0.032280;,
  -0.149850;0.968325;0.199727;,
  -0.427282;0.897354;-0.110388;,
  -0.389733;0.909137;-0.146894;,
  -0.636639;0.672050;-0.378205;,
  -0.671129;0.709478;-0.215003;,
  -0.745416;0.664160;-0.056975;,
  0.721527;0.566863;-0.397574;,
  0.436714;0.701508;-0.563177;,
  0.605282;0.735055;-0.305495;,
  0.312660;0.820092;-0.479262;,
  0.475644;0.860089;-0.184417;,
  0.186573;0.878239;-0.440326;,
  0.392072;0.911802;-0.122050;,
  0.343210;0.934620;-0.093235;,
  0.557011;0.807146;0.195584;,
  0.633596;0.771238;0.061219;,
  0.757607;0.648873;-0.070681;,
  -0.050082;-0.386856;-0.920779;,
  -0.045118;-0.782764;-0.620681;,
  0.117271;-0.861633;-0.493798;,
  0.279170;-0.954848;-0.101631;,
  0.028255;-0.992870;-0.115805;,
  -0.994182;-0.097347;0.046107;,
  0.761097;-0.552780;-0.339360;,
  0.927212;-0.152386;-0.342134;,
  0.301225;-0.906650;-0.295380;,
  0.213316;-0.974514;-0.069416;,
  0.121618;-0.983877;-0.131129;,
  -0.038681;-0.997126;0.065142;,
  -0.004120;-0.999358;-0.035583;,
  0.637505;-0.335557;-0.693533;,
  0.526936;-0.848392;-0.050684;,
  0.178506;-0.960907;0.211644;,
  0.118148;-0.992898;-0.013928;,
  0.258085;-0.295035;-0.919971;,
  0.517423;-0.585579;0.623996;,
  0.631992;-0.242172;0.736165;,
  0.383931;-0.906208;0.177155;,
  0.125930;-0.978684;0.162230;,
  0.160255;-0.985046;0.063264;,
  -0.082030;-0.996465;-0.018116;,
  0.028830;-0.999418;-0.018233;,
  0.810563;-0.360559;0.461503;,
  0.208268;-0.879172;0.428580;,
  -0.158527;-0.961383;0.224971;,
  0.045593;-0.994076;0.098663;,
  0.935490;-0.307253;0.174511;,
  -0.517019;-0.657255;0.548367;,
  -0.309644;-0.830503;0.463017;,
  -0.055147;-0.934324;0.352133;,
  -0.126052;-0.978797;0.161452;,
  -0.017767;-0.986746;0.161298;,
  -0.012538;-0.996393;-0.083928;,
  0.022164;-0.999616;0.016638;,
  -0.093558;-0.457694;0.884174;,
  -0.095673;-0.717256;0.690211;,
  -0.286411;-0.927917;0.238617;,
  -0.285726;-0.955071;-0.078742;,
  -0.088563;-0.993679;0.068989;,
  0.314998;-0.361866;0.877399;,
  -0.693667;-0.648752;-0.312964;,
  -0.530216;-0.837618;-0.131404;,
  -0.337745;-0.939946;0.049286;,
  -0.212278;-0.974758;-0.069177;,
  -0.174028;-0.984272;0.030365;,
  0.074420;-0.996386;-0.040934;,
  -0.014422;-0.999653;0.022031;,
  -0.835826;-0.475643;0.274151;,
  -0.656850;-0.731857;0.181476;,
  -0.403982;-0.885390;-0.229963;,
  -0.008891;-0.954569;-0.297858;,
  -0.100617;-0.992797;-0.065038;,
  -0.321010;-0.021126;0.946840;,
  0.012413;-0.617259;-0.786662;,
  -0.047683;-0.331719;-0.942172;,
  -0.164129;-0.933263;-0.319501;,
  0.002597;-0.973728;-0.227702;,
  -0.086651;-0.983457;-0.159075;,
  0.057422;-0.996976;0.052367;,
  -0.031542;-0.999446;-0.010583;,
  0.373299;-0.922841;0.094931;,
  0.147943;-0.954927;0.257347;,
  0.316992;-0.869529;0.378730;,
  0.535946;-0.831215;0.147794;,
  0.310487;-0.862245;0.400165;,
  0.459587;-0.887084;0.043153;,
  0.223990;-0.912297;0.342844;,
  0.180902;-0.934517;0.306516;,
  -0.021537;-0.798725;0.601311;,
  0.132420;-0.766301;0.628688;,
  0.157028;-0.822575;0.546546;,
  0.251142;0.091637;0.963603;,
  -0.846453;-0.039349;0.531008;,
  -0.760637;-0.114625;-0.638978;,
  0.375997;-0.032560;-0.926049;,
  0.376586;-0.032249;-0.925820;,
  0.375409;-0.032872;-0.926276;,
  0.249874;0.138561;0.958313;,
  -0.843208;0.117088;0.524681;,
  -0.763456;-0.067507;-0.642322;,
  0.373043;-0.158736;-0.914135;,
  0.373694;-0.158468;-0.913915;,
  0.372391;-0.159003;-0.914354;,
  0.519605;-0.841485;-0.148034;,
  0.726785;-0.678990;0.103713;,
  0.590313;-0.794168;0.144321;,
  0.392525;-0.910373;-0.130939;,
  0.445713;-0.889122;0.103935;,
  0.298241;-0.820137;-0.488290;,
  0.306140;-0.936082;-0.173287;,
  0.043468;-0.688705;-0.723737;,
  -0.300457;0.899275;-0.317852;,
  0.305538;-0.861390;0.405775;,
  0.300457;-0.899275;0.317852;,
  0.499727;-0.722923;0.477133;,
  0.655158;-0.646479;0.390938;,
  -0.571255;-0.791997;0.215426;,
  -0.751395;-0.658152;-0.047346;,
  -0.609455;-0.789078;-0.076943;,
  -0.379766;-0.901545;0.207353;,
  -0.381940;-0.923069;-0.045443;,
  -0.197087;-0.953897;0.226358;,
  -0.142664;-0.842664;0.519196;,
  -0.119851;-0.740298;0.661509;,
  -0.339728;0.286075;-0.895961;,
  0.609088;-0.192585;0.769365;,
  -0.609088;0.192585;-0.769365;,
  0.379846;0.801493;0.461871;,
  -0.487493;-0.775443;-0.401296;,
  -0.379846;-0.801493;-0.461871;,
  -0.649934;-0.682129;-0.335089;,
  -0.836933;-0.033366;-0.546287;,
  0.270473;-0.107952;-0.956656;,
  0.998980;-0.031874;-0.031983;,
  0.345131;0.088037;0.934417;,
  0.345106;0.088048;0.934424;,
  0.345156;0.088025;0.934408;,
  -0.837038;-0.017529;-0.546864;,
  0.271510;-0.055941;-0.960809;,
  0.999347;-0.016105;-0.032344;,
  0.345684;0.045631;0.937241;,
  0.345587;0.045673;0.937275;,
  0.345782;0.045589;0.937207;,
  -0.837093;-0.001652;-0.547058;,
  0.272077;-0.003326;-0.962270;,
  0.999470;-0.000304;-0.032555;,
  0.345910;0.003044;0.938263;,
  0.345862;0.003063;0.938280;,
  0.345957;0.003025;0.938246;,
  -0.238844;-0.877677;0.415496;,
  -0.537815;-0.772060;0.338643;,
  -0.492561;-0.826853;0.271472;,
  -0.190142;-0.906494;0.376981;,
  -0.443858;-0.882844;0.153546;,
  -0.092021;-0.943424;0.318564;,
  -0.394034;-0.916326;0.071304;,
  -0.360172;-0.932367;0.031092;,
  -0.642145;-0.748758;-0.164354;,
  -0.660606;-0.750694;-0.007632;,
  -0.701511;-0.700034;0.133543;,
  0.343069;-0.713544;-0.610867;,
  0.672701;-0.486092;-0.557842;,
  0.556239;-0.740050;-0.378054;,
  0.197938;-0.885263;-0.420869;,
  0.445349;-0.875123;-0.189272;,
  0.095351;-0.928157;-0.359766;,
  0.390084;-0.914490;-0.107440;,
  0.353870;-0.932851;-0.067568;,
  0.633883;-0.760884;0.138739;,
  0.660819;-0.750368;-0.016343;,
  0.761306;-0.614397;-0.207196;,
  0.941234;0.299504;-0.156125;,
  0.272258;-0.793312;0.544547;,
  0.274988;-0.792958;0.543691;,
  -0.739456;0.541743;-0.399648;,
  -0.744300;0.536651;-0.397521;,
  0.982451;0.105374;-0.153902;,
  0.432283;0.244341;0.868003;,
  -0.720642;0.045446;0.691816;,
  -0.865943;-0.217651;-0.450302;,
  -0.865651;-0.217479;-0.450945;,
  -0.866234;-0.217823;-0.449658;,
  0.976069;0.151454;-0.156045;,
  0.411123;0.382178;0.827597;,
  -0.720747;0.092229;0.687035;,
  -0.838803;-0.332453;-0.431143;,
  -0.838565;-0.332370;-0.431670;,
  -0.839041;-0.332536;-0.430615;,
  -0.074024;-0.901759;-0.425854;,
  0.175152;-0.783606;-0.596057;,
  0.202207;-0.859591;-0.469271;,
  -0.071564;-0.946840;-0.313644;,
  0.259190;-0.906653;-0.332868;,
  -0.103116;-0.970856;-0.216347;,
  0.286116;-0.925724;-0.247330;,
  0.292450;-0.935462;-0.198454;,
  0.618750;-0.741636;-0.259083;,
  0.512022;-0.773101;-0.374365;,
  0.434760;-0.735094;-0.520212;,
  0.185711;-0.677359;0.711826;,
  -0.124625;-0.493921;0.860530;,
  -0.139751;-0.686448;0.713624;,
  0.185239;-0.808296;0.558878;,
  -0.171167;-0.829279;0.531976;,
  0.223669;-0.875227;0.428894;,
  -0.176864;-0.889046;0.422276;,
  -0.172757;-0.915753;0.362700;,
  -0.541967;-0.753326;0.372521;,
  -0.472297;-0.710624;0.521487;,
  -0.429200;-0.566499;0.703467;,
  -0.627383;0.184838;0.756456;,
  -0.918847;-0.164723;-0.358589;,
  0.071535;-0.279728;-0.957411;,
  0.969858;-0.010793;-0.243432;,
  0.969869;-0.010762;-0.243388;,
  0.969847;-0.010824;-0.243476;,
  -0.623238;0.229758;0.747520;,
  -0.928359;-0.011147;-0.371517;,
  0.071415;-0.236277;-0.969058;,
  0.962656;-0.136545;-0.233772;,
  0.962850;-0.136180;-0.233184;,
  0.962461;-0.136909;-0.234359;,
  -0.615963;0.273580;0.738745;,
  -0.915655;0.143764;-0.375376;,
  0.073821;-0.191348;-0.978742;,
  0.940087;-0.257159;-0.223844;,
  0.940335;-0.256827;-0.223183;,
  0.939838;-0.257492;-0.224505;,
  -0.678972;0.664873;-0.311355;,
  0.412787;-0.838006;0.356866;,
  0.336745;-0.642364;0.688456;,
  0.217644;-0.765438;0.605587;,
  0.321905;-0.908913;0.265054;,
  0.065787;-0.845628;0.529702;,
  0.270891;-0.948809;0.162419;,
  -0.020261;-0.880087;0.474380;,
  -0.061092;-0.897736;0.436277;,
  -0.283601;-0.649740;0.705271;,
  -0.114199;-0.665246;0.737839;,
  0.056286;-0.585541;0.808687;,
  0.818020;0.491426;0.298905;,
  0.677484;0.698556;0.230295;,
  -0.524083;-0.791517;-0.314384;,
  -0.408024;-0.688228;-0.599882;,
  -0.305598;-0.810520;-0.499667;,
  -0.435582;-0.875210;-0.210417;,
  -0.177944;-0.899666;-0.398668;,
  -0.390358;-0.915214;-0.100017;,
  -0.110091;-0.936739;-0.332266;,
  -0.077730;-0.953297;-0.291860;,
  0.165600;-0.830230;-0.532254;,
  0.026215;-0.814516;-0.579548;,
  -0.115316;-0.729126;-0.674595;,
  -0.044988;-0.118198;-0.991970;,
  0.933470;-0.117952;-0.338706;,
  0.613074;0.046808;0.788638;,
  -0.555620;0.146020;0.818514;,
  -0.555595;0.146008;0.818533;,
  -0.555645;0.146032;0.818495;,
  -0.044413;-0.071043;-0.996484;,
  0.938344;0.037824;-0.343628;,
  0.612107;0.093967;0.785172;,
  -0.560980;0.019069;0.827610;,
  -0.561547;0.019264;0.827221;,
  -0.560413;0.018873;0.827998;,
  -0.045813;-0.023420;-0.998675;,
  0.920553;0.191813;-0.340280;,
  0.608148;0.140672;0.781260;,
  -0.554631;-0.107942;0.825065;,
  -0.555111;-0.107834;0.824757;,
  -0.554152;-0.108050;0.825373;,
  -0.490531;-0.869063;0.064096;,
  -0.620062;-0.756733;-0.207072;,
  -0.485609;-0.847784;-0.213182;,
  -0.370205;-0.925818;0.076219;,
  -0.336604;-0.909846;-0.242648;,
  -0.271932;-0.954684;0.120963;,
  -0.246578;-0.935905;-0.251556;,
  -0.197018;-0.948304;-0.248806;,
  -0.207632;-0.786952;-0.581029;,
  -0.336456;-0.796990;-0.501602;,
  -0.495250;-0.739992;-0.455125;,
  0.656206;-0.751367;-0.069575;,
  0.794697;-0.557127;0.240970;,
  0.646456;-0.721224;0.248856;,
  0.511757;-0.855331;-0.080708;,
  0.469738;-0.839043;0.274505;,
  0.393705;-0.910331;-0.127646;,
  0.363481;-0.889354;0.277363;,
  0.305988;-0.912780;0.270562;,
  0.297435;-0.717796;0.629525;,
  0.449976;-0.694135;0.561870;,
  0.631493;-0.572453;0.522986;,
  0.690208;0.204320;0.694166;,
  -0.467234;0.070080;0.881352;,
  -0.971663;-0.163317;-0.170874;,
  -0.137811;-0.169946;-0.975770;,
  -0.137887;-0.169983;-0.975752;,
  -0.137735;-0.169908;-0.975787;,
  0.682868;0.249026;0.686788;,
  -0.462539;0.221847;0.858395;,
  -0.977851;-0.117209;-0.173404;,
  -0.131281;-0.289460;-0.948145;,
  -0.130618;-0.289205;-0.948314;,
  -0.131943;-0.289715;-0.947975;,
  0.676185;0.291930;0.676425;,
  -0.447894;0.361586;0.817708;,
  -0.981560;-0.070810;-0.177555;,
  -0.126364;-0.398309;-0.908505;,
  -0.125778;-0.398149;-0.908657;,
  -0.126950;-0.398470;-0.908353;,
  0.341246;-0.888865;-0.305727;,
  0.647255;-0.733708;-0.206721;,
  0.559496;-0.822334;-0.103586;,
  0.249631;-0.939581;-0.234249;,
  0.482095;-0.875524;0.032280;,
  0.149850;-0.968325;-0.199727;,
  0.427282;-0.897354;0.110388;,
  0.389733;-0.909137;0.146894;,
  0.636639;-0.672050;0.378205;,
  0.671129;-0.709478;0.215003;,
  0.745416;-0.664160;0.056975;,
  -0.436714;-0.701508;0.563177;,
  -0.721527;-0.566863;0.397574;,
  -0.605282;-0.735055;0.305495;,
  -0.312660;-0.820092;0.479262;,
  -0.475644;-0.860089;0.184417;,
  -0.186573;-0.878239;0.440326;,
  -0.392072;-0.911802;0.122050;,
  -0.343210;-0.934620;0.093235;,
  -0.557011;-0.807146;-0.195584;,
  -0.633596;-0.771238;-0.061219;,
  -0.757607;-0.648873;0.070681;,
  0.045118;0.782764;0.620681;,
  0.050082;0.386856;0.920779;,
  -0.117271;0.861633;0.493798;,
  -0.997859;-0.005774;-0.065148;,
  0.994182;0.097347;-0.046107;,
  0.997859;0.005774;0.065148;,
  0.937048;-0.321368;-0.136612;,
  -0.761097;0.552780;0.339360;,
  -0.937048;0.321368;0.136612;,
  -0.927212;0.152386;0.342134;,
  0.095043;-0.994533;-0.043265;,
  0.102373;-0.993840;-0.042452;,
  -0.279170;0.954848;0.101631;,
  -0.102373;0.993840;0.042452;,
  -0.095043;0.994533;0.043265;,
  0.078589;-0.995240;-0.057625;,
  -0.028255;0.992870;0.115805;,
  -0.078589;0.995240;0.057625;,
  -0.301225;0.906650;0.295380;,
  -0.213316;0.974514;0.069416;,
  -0.121618;0.983877;0.131129;,
  0.038681;0.997126;-0.065142;,
  0.004120;0.999358;0.035583;,
  -0.637505;0.335557;0.693533;,
  -0.526936;0.848392;0.050684;,
  -0.258085;0.295035;0.919971;,
  0.312858;-0.375926;0.872238;,
  -0.517423;0.585579;-0.623996;,
  -0.312858;0.375926;-0.872238;,
  -0.631992;0.242172;-0.736165;,
  0.095773;-0.995227;0.018707;,
  0.068958;-0.994751;0.075600;,
  -0.178506;0.960907;-0.211644;,
  -0.068958;0.994751;-0.075600;,
  -0.095773;0.995227;-0.018707;,
  0.076538;-0.995837;0.049500;,
  -0.118148;0.992898;0.013928;,
  -0.076538;0.995837;-0.049500;,
  -0.383931;0.906208;-0.177155;,
  -0.125930;0.978684;-0.162230;,
  -0.160255;0.985046;-0.063264;,
  0.082030;0.996465;0.018116;,
  -0.028830;0.999418;0.018233;,
  -0.810563;0.360559;-0.461503;,
  -0.208268;0.879172;-0.428580;,
  -0.935490;0.307253;-0.174511;,
  -0.845715;-0.372201;0.382403;,
  0.517019;0.657255;-0.548367;,
  0.845715;0.372201;-0.382403;,
  -0.129757;-0.952299;0.276205;,
  -0.488476;-0.471202;0.734411;,
  0.309644;0.830503;-0.463017;,
  0.488476;0.471202;-0.734411;,
  0.129757;0.952299;-0.276205;,
  0.158527;0.961383;-0.224971;,
  -0.029796;-0.996230;0.081472;,
  -0.045593;0.994076;-0.098663;,
  0.029796;0.996230;-0.081472;,
  0.055147;0.934324;-0.352133;,
  0.126052;0.978797;-0.161452;,
  0.017767;0.986746;-0.161298;,
  0.012538;0.996393;0.083928;,
  -0.022164;0.999616;-0.016638;,
  0.095673;0.717256;-0.690211;,
  0.093558;0.457694;-0.884174;,
  0.286411;0.927917;-0.238617;,
  -0.314998;0.361866;-0.877399;,
  -0.676826;-0.331268;-0.657394;,
  0.693667;0.648752;0.312964;,
  0.676826;0.331268;0.657394;,
  -0.384139;-0.918454;-0.094227;,
  -0.840572;-0.501687;-0.204325;,
  0.530216;0.837618;0.131404;,
  0.840572;0.501687;0.204325;,
  0.384139;0.918454;0.094227;,
  0.285726;0.955071;0.078742;,
  0.088563;0.993679;-0.068989;,
  0.337745;0.939946;-0.049286;,
  0.212278;0.974758;0.069177;,
  0.174028;0.984272;-0.030365;,
  -0.074420;0.996386;0.040934;,
  0.014422;0.999653;-0.022031;,
  0.656850;0.731857;-0.181476;,
  0.835826;0.475643;-0.274151;,
  0.403982;0.885390;0.229963;,
  0.321010;0.021126;-0.946840;,
  0.310708;-0.312087;-0.897810;,
  -0.012413;0.617259;0.786662;,
  -0.310708;0.312087;0.897810;,
  0.047683;0.331719;0.942172;,
  -0.008387;-0.994587;-0.103574;,
  -0.005273;-0.993910;-0.110065;,
  0.008891;0.954569;0.297858;,
  0.005273;0.993910;0.110065;,
  0.008387;0.994587;0.103574;,
  -0.027856;-0.995286;-0.092898;,
  0.100617;0.992797;0.065038;,
  0.027856;0.995286;0.092898;,
  0.164129;0.933263;0.319501;,
  -0.002597;0.973728;0.227702;,
  0.086651;0.983457;0.159075;,
  -0.057422;0.996976;-0.052367;,
  0.031542;0.999446;0.010583;;
  646;
  3;2,0,1;,
  3;386,387,388;,
  3;3,2,1;,
  3;386,388,389;,
  3;4,2,3;,
  3;389,388,390;,
  3;5,4,3;,
  3;389,390,391;,
  3;6,4,5;,
  3;391,390,392;,
  3;7,6,5;,
  3;391,392,393;,
  3;7,8,6;,
  3;392,394,393;,
  3;6,8,4;,
  3;390,394,392;,
  3;4,8,9;,
  3;395,394,390;,
  3;2,4,9;,
  3;395,390,388;,
  3;10,2,9;,
  3;395,388,396;,
  3;0,2,10;,
  3;396,388,387;,
  3;12,11,12;,
  3;16,12,12;,
  3;13,397,13;,
  3;17,13,13;,
  3;14,398,14;,
  3;18,14,14;,
  3;15,399,15;,
  3;19,15,15;,
  3;400,401,400;,
  3;402,400,400;,
  3;21,20,21;,
  3;25,21,21;,
  3;22,403,22;,
  3;26,22,22;,
  3;23,404,23;,
  3;27,23,23;,
  3;24,405,24;,
  3;28,24,24;,
  3;406,407,406;,
  3;408,406,406;,
  3;31,29,30;,
  3;409,410,411;,
  3;32,31,30;,
  3;409,411,412;,
  3;33,31,32;,
  3;412,411,413;,
  3;34,33,32;,
  3;412,413,414;,
  3;35,33,34;,
  3;414,413,415;,
  3;36,35,34;,
  3;414,415,416;,
  3;417,37,35;,
  3;415,418,419;,
  3;35,37,33;,
  3;413,418,415;,
  3;33,37,38;,
  3;420,418,413;,
  3;31,33,38;,
  3;420,413,411;,
  3;39,31,38;,
  3;420,411,421;,
  3;29,31,39;,
  3;421,411,410;,
  3;42,40,41;,
  3;422,423,424;,
  3;43,42,41;,
  3;422,424,425;,
  3;44,42,43;,
  3;425,424,426;,
  3;45,44,43;,
  3;425,426,427;,
  3;46,44,45;,
  3;427,426,428;,
  3;47,46,45;,
  3;427,428,429;,
  3;429,48,428;,
  3;46,430,47;,
  3;431,48,431;,
  3;432,430,432;,
  3;44,433,49;,
  3;434,435,426;,
  3;42,44,49;,
  3;434,426,424;,
  3;50,42,49;,
  3;434,424,436;,
  3;40,42,50;,
  3;436,424,423;,
  3;52,51,52;,
  3;56,52,52;,
  3;53,437,53;,
  3;57,53,53;,
  3;54,438,54;,
  3;58,54,54;,
  3;55,439,55;,
  3;59,55,55;,
  3;440,441,440;,
  3;442,440,440;,
  3;61,60,61;,
  3;65,61,61;,
  3;62,443,62;,
  3;66,62,62;,
  3;63,444,63;,
  3;67,63,63;,
  3;64,445,64;,
  3;68,64,64;,
  3;446,447,446;,
  3;448,446,446;,
  3;70,69,70;,
  3;74,70,70;,
  3;71,449,71;,
  3;75,71,71;,
  3;72,450,72;,
  3;76,72,72;,
  3;73,451,73;,
  3;77,73,73;,
  3;452,453,452;,
  3;454,452,452;,
  3;78,78,78;,
  3;79,79,79;,
  3;80,80,80;,
  3;81,81,81;,
  3;84,82,83;,
  3;455,456,457;,
  3;85,84,83;,
  3;455,457,458;,
  3;86,84,85;,
  3;458,457,459;,
  3;87,86,85;,
  3;458,459,460;,
  3;88,86,87;,
  3;460,459,461;,
  3;89,88,87;,
  3;460,461,462;,
  3;89,90,88;,
  3;461,463,462;,
  3;88,90,86;,
  3;459,463,461;,
  3;86,90,91;,
  3;464,463,459;,
  3;84,86,91;,
  3;464,459,457;,
  3;92,84,91;,
  3;464,457,465;,
  3;82,84,92;,
  3;465,457,456;,
  3;93,93,93;,
  3;94,94,94;,
  3;95,95,95;,
  3;96,96,96;,
  3;99,97,98;,
  3;466,467,468;,
  3;100,99,98;,
  3;466,468,469;,
  3;101,99,100;,
  3;469,468,470;,
  3;102,101,100;,
  3;469,470,471;,
  3;103,101,102;,
  3;471,470,472;,
  3;104,103,102;,
  3;471,472,473;,
  3;104,105,103;,
  3;472,474,473;,
  3;103,105,101;,
  3;470,474,472;,
  3;101,105,106;,
  3;475,474,470;,
  3;99,101,106;,
  3;475,470,468;,
  3;107,99,106;,
  3;475,468,476;,
  3;97,99,107;,
  3;476,468,467;,
  3;109,108,113;,
  3;114,109,113;,
  3;110,477,110;,
  3;115,110,110;,
  3;111,478,479;,
  3;116,111,479;,
  3;112,111,116;,
  3;117,112,116;,
  3;108,480,481;,
  3;113,108,481;,
  3;119,118,119;,
  3;123,119,119;,
  3;120,482,120;,
  3;124,120,120;,
  3;121,483,121;,
  3;125,121,121;,
  3;122,484,122;,
  3;126,122,122;,
  3;485,486,485;,
  3;487,485,485;,
  3;128,127,128;,
  3;132,128,128;,
  3;129,488,129;,
  3;133,129,129;,
  3;130,489,130;,
  3;134,130,130;,
  3;131,490,131;,
  3;135,131,131;,
  3;491,492,491;,
  3;493,491,491;,
  3;138,136,137;,
  3;494,495,496;,
  3;139,138,137;,
  3;494,496,497;,
  3;140,138,139;,
  3;497,496,498;,
  3;141,140,139;,
  3;497,498,499;,
  3;142,140,141;,
  3;499,498,500;,
  3;143,142,141;,
  3;499,500,501;,
  3;143,144,142;,
  3;500,502,501;,
  3;142,144,140;,
  3;498,502,500;,
  3;140,144,145;,
  3;503,502,498;,
  3;138,140,145;,
  3;503,498,496;,
  3;146,138,145;,
  3;503,496,504;,
  3;136,138,146;,
  3;504,496,495;,
  3;149,147,148;,
  3;505,506,507;,
  3;150,149,148;,
  3;505,507,508;,
  3;151,149,150;,
  3;508,507,509;,
  3;152,151,150;,
  3;508,509,510;,
  3;153,151,152;,
  3;510,509,511;,
  3;154,153,152;,
  3;510,511,512;,
  3;154,155,153;,
  3;511,513,512;,
  3;153,155,151;,
  3;509,513,511;,
  3;151,155,156;,
  3;514,513,509;,
  3;149,151,156;,
  3;514,509,507;,
  3;157,149,156;,
  3;514,507,515;,
  3;147,149,157;,
  3;515,507,506;,
  3;159,158,159;,
  3;163,159,159;,
  3;160,516,160;,
  3;164,160,160;,
  3;161,517,161;,
  3;165,161,161;,
  3;162,518,162;,
  3;166,162,162;,
  3;519,520,519;,
  3;521,519,519;,
  3;168,167,168;,
  3;172,168,168;,
  3;169,522,169;,
  3;173,169,169;,
  3;170,523,170;,
  3;174,170,170;,
  3;171,524,171;,
  3;175,171,171;,
  3;525,526,525;,
  3;527,525,525;,
  3;177,176,177;,
  3;181,177,177;,
  3;178,528,178;,
  3;182,178,178;,
  3;179,529,179;,
  3;183,179,179;,
  3;180,530,180;,
  3;184,180,180;,
  3;531,532,531;,
  3;533,531,531;,
  3;185,185,185;,
  3;186,534,186;,
  3;187,186,186;,
  3;188,188,188;,
  3;192,189,191;,
  3;190,189,192;,
  3;193,190,192;,
  3;194,194,194;,
  3;197,195,196;,
  3;535,536,537;,
  3;198,197,196;,
  3;535,537,538;,
  3;199,197,198;,
  3;538,537,539;,
  3;200,199,198;,
  3;538,539,540;,
  3;201,199,200;,
  3;540,539,541;,
  3;202,201,200;,
  3;540,541,542;,
  3;202,203,201;,
  3;541,543,542;,
  3;201,203,199;,
  3;539,543,541;,
  3;199,203,204;,
  3;544,543,539;,
  3;197,199,204;,
  3;544,539,537;,
  3;205,197,204;,
  3;544,537,545;,
  3;195,197,205;,
  3;545,537,536;,
  3;206,206,206;,
  3;207,546,207;,
  3;208,207,207;,
  3;209,209,209;,
  3;210,210,210;,
  3;211,547,211;,
  3;212,211,211;,
  3;213,213,213;,
  3;216,214,215;,
  3;548,549,550;,
  3;217,216,215;,
  3;548,550,551;,
  3;218,216,217;,
  3;551,550,552;,
  3;219,218,217;,
  3;551,552,553;,
  3;220,218,219;,
  3;553,552,554;,
  3;221,220,219;,
  3;553,554,555;,
  3;221,222,220;,
  3;554,556,555;,
  3;220,222,218;,
  3;552,556,554;,
  3;218,222,223;,
  3;557,556,552;,
  3;216,218,223;,
  3;557,552,550;,
  3;224,216,223;,
  3;557,550,558;,
  3;214,216,224;,
  3;558,550,549;,
  3;226,225,226;,
  3;230,226,226;,
  3;227,559,227;,
  3;231,227,227;,
  3;228,560,228;,
  3;232,228,228;,
  3;229,561,229;,
  3;233,229,229;,
  3;562,563,562;,
  3;564,562,562;,
  3;235,234,235;,
  3;239,235,235;,
  3;236,565,236;,
  3;240,236,236;,
  3;237,566,237;,
  3;241,237,237;,
  3;238,567,238;,
  3;242,238,238;,
  3;568,569,568;,
  3;570,568,568;,
  3;244,243,244;,
  3;248,244,244;,
  3;245,571,245;,
  3;249,245,245;,
  3;246,572,246;,
  3;250,246,246;,
  3;247,573,247;,
  3;251,247,247;,
  3;574,575,574;,
  3;576,574,574;,
  3;254,252,253;,
  3;577,578,579;,
  3;255,254,253;,
  3;577,579,580;,
  3;256,254,255;,
  3;580,579,581;,
  3;257,256,255;,
  3;580,581,582;,
  3;258,256,257;,
  3;582,581,583;,
  3;259,258,257;,
  3;582,583,584;,
  3;259,260,258;,
  3;583,585,584;,
  3;258,260,256;,
  3;581,585,583;,
  3;256,260,261;,
  3;586,585,581;,
  3;254,256,261;,
  3;586,581,579;,
  3;262,254,261;,
  3;586,579,587;,
  3;252,254,262;,
  3;587,579,578;,
  3;265,263,264;,
  3;588,589,590;,
  3;266,265,264;,
  3;588,590,591;,
  3;267,265,266;,
  3;591,590,592;,
  3;268,267,266;,
  3;591,592,593;,
  3;269,267,268;,
  3;593,592,594;,
  3;270,269,268;,
  3;593,594,595;,
  3;270,271,269;,
  3;594,596,595;,
  3;269,271,267;,
  3;592,596,594;,
  3;267,271,272;,
  3;597,596,592;,
  3;265,267,272;,
  3;597,592,590;,
  3;273,265,272;,
  3;597,590,598;,
  3;263,265,273;,
  3;598,590,589;,
  3;275,274,275;,
  3;279,275,275;,
  3;276,599,276;,
  3;280,276,276;,
  3;277,600,277;,
  3;281,277,277;,
  3;278,601,278;,
  3;282,278,278;,
  3;602,603,602;,
  3;604,602,602;,
  3;284,283,284;,
  3;288,284,284;,
  3;285,605,285;,
  3;289,285,285;,
  3;286,606,286;,
  3;290,286,286;,
  3;287,607,287;,
  3;291,287,287;,
  3;608,609,608;,
  3;610,608,608;,
  3;293,292,293;,
  3;297,293,293;,
  3;294,611,294;,
  3;298,294,294;,
  3;295,612,295;,
  3;299,295,295;,
  3;296,613,296;,
  3;300,296,296;,
  3;614,615,614;,
  3;616,614,614;,
  3;303,301,302;,
  3;617,618,619;,
  3;304,303,302;,
  3;617,619,620;,
  3;305,303,304;,
  3;620,619,621;,
  3;306,305,304;,
  3;620,621,622;,
  3;307,305,306;,
  3;622,621,623;,
  3;308,307,306;,
  3;622,623,624;,
  3;308,309,307;,
  3;623,625,624;,
  3;307,309,305;,
  3;621,625,623;,
  3;305,309,310;,
  3;626,625,621;,
  3;303,305,310;,
  3;626,621,619;,
  3;311,303,310;,
  3;626,619,627;,
  3;301,303,311;,
  3;627,619,618;,
  3;314,312,313;,
  3;628,629,630;,
  3;315,314,313;,
  3;628,630,631;,
  3;316,314,315;,
  3;631,630,632;,
  3;317,316,315;,
  3;631,632,633;,
  3;318,316,317;,
  3;633,632,634;,
  3;319,318,317;,
  3;633,634,635;,
  3;319,320,318;,
  3;634,636,635;,
  3;318,320,316;,
  3;632,636,634;,
  3;316,320,321;,
  3;637,636,632;,
  3;314,316,321;,
  3;637,632,630;,
  3;322,314,321;,
  3;637,630,638;,
  3;312,314,322;,
  3;638,630,629;,
  3;325,323,324;,
  3;639,640,641;,
  3;328,642,328;,
  3;643,644,643;,
  3;644,645,329;,
  3;646,647,642;,
  3;643,643,330;,
  3;648,328,328;,
  3;649,650,326;,
  3;651,652,653;,
  3;331,654,327;,
  3;655,656,657;,
  3;325,331,329;,
  3;646,657,641;,
  3;333,326,332;,
  3;658,651,659;,
  3;335,332,334;,
  3;660,658,661;,
  3;327,333,335;,
  3;661,659,655;,
  3;335,333,332;,
  3;658,659,661;,
  3;333,649,326;,
  3;651,653,659;,
  3;327,325,333;,
  3;659,641,655;,
  3;325,324,333;,
  3;659,639,641;,
  3;337,336,336;,
  3;662,662,663;,
  3;336,336,340;,
  3;664,662,662;,
  3;665,665,341;,
  3;666,667,667;,
  3;342,342,342;,
  3;668,668,668;,
  3;669,670,338;,
  3;671,672,673;,
  3;343,674,339;,
  3;675,676,677;,
  3;337,343,341;,
  3;666,677,663;,
  3;345,338,344;,
  3;678,671,679;,
  3;347,344,346;,
  3;680,678,681;,
  3;339,345,347;,
  3;681,679,675;,
  3;347,345,344;,
  3;678,679,681;,
  3;345,669,338;,
  3;671,673,679;,
  3;339,337,345;,
  3;679,663,675;,
  3;337,669,345;,
  3;679,673,663;,
  3;349,348,348;,
  3;682,682,683;,
  3;348,348,352;,
  3;684,682,682;,
  3;685,685,353;,
  3;686,687,687;,
  3;688,689,354;,
  3;690,691,692;,
  3;688,354,350;,
  3;693,690,692;,
  3;355,694,351;,
  3;695,696,697;,
  3;349,355,353;,
  3;686,697,683;,
  3;357,350,356;,
  3;698,693,699;,
  3;359,356,358;,
  3;700,698,701;,
  3;351,357,359;,
  3;701,699,695;,
  3;359,357,356;,
  3;698,699,701;,
  3;357,688,350;,
  3;693,692,699;,
  3;351,349,357;,
  3;699,683,695;,
  3;349,688,357;,
  3;699,692,683;,
  3;362,360,361;,
  3;702,703,704;,
  3;361,360,365;,
  3;705,703,702;,
  3;706,706,366;,
  3;707,708,708;,
  3;709,710,367;,
  3;711,712,713;,
  3;709,367,363;,
  3;714,711,713;,
  3;368,362,364;,
  3;715,704,716;,
  3;362,368,366;,
  3;707,716,704;,
  3;370,363,369;,
  3;717,714,718;,
  3;372,369,371;,
  3;719,717,720;,
  3;364,370,372;,
  3;720,718,715;,
  3;372,370,369;,
  3;717,718,720;,
  3;370,709,363;,
  3;714,713,718;,
  3;364,362,370;,
  3;718,704,715;,
  3;362,361,370;,
  3;718,702,704;,
  3;375,373,374;,
  3;721,722,723;,
  3;374,373,378;,
  3;724,722,721;,
  3;725,725,379;,
  3;726,727,727;,
  3;380,724,380;,
  3;728,378,728;,
  3;729,730,376;,
  3;731,732,733;,
  3;381,734,377;,
  3;735,736,737;,
  3;375,381,379;,
  3;726,737,723;,
  3;383,376,382;,
  3;738,731,739;,
  3;385,382,384;,
  3;740,738,741;,
  3;377,383,385;,
  3;741,739,735;,
  3;385,383,382;,
  3;738,739,741;,
  3;383,729,376;,
  3;731,733,739;,
  3;377,375,383;,
  3;739,723,735;,
  3;375,374,383;,
  3;739,721,723;;
 }
 MeshTextureCoords {
  418;
  0.000000;0.000000;,
  0.000000;0.000000;,
  0.000000;0.000000;,
  0.000000;0.000000;,
  0.000000;0.000000;,
  0.000000;0.000000;,
  0.000000;0.000000;,
  0.000000;0.000000;,
  0.000000;0.000000;,
  0.000000;0.000000;,
  0.000000;0.000000;,
  0.000000;0.000000;,
  0.000000;0.000000;,
  0.000000;0.000000;,
  0.000000;0.000000;,
  0.000000;0.000000;,
  0.000000;0.000000;,
  0.000000;0.000000;,
  0.000000;0.000000;,
  0.000000;0.000000;,
  0.000000;0.000000;,
  0.000000;0.000000;,
  0.000000;0.000000;,
  0.000000;0.000000;,
  0.000000;0.000000;,
  0.000000;0.000000;,
  0.000000;0.000000;,
  0.000000;0.000000;,
  0.000000;0.000000;,
  0.000000;0.000000;,
  0.000000;0.000000;,
  0.000000;0.000000;,
  0.000000;0.000000;,
  0.000000;0.000000;,
  0.000000;0.000000;,
  0.000000;0.000000;,
  0.000000;0.000000;,
  0.000000;0.000000;,
  0.000000;0.000000;,
  0.000000;0.000000;,
  0.000000;0.000000;,
  0.000000;0.000000;,
  0.000000;0.000000;,
  0.000000;0.000000;,
  0.000000;0.000000;,
  0.000000;0.000000;,
  0.000000;0.000000;,
  0.000000;0.000000;,
  0.000000;0.000000;,
  0.000000;0.000000;,
  0.000000;0.000000;,
  0.000000;0.000000;,
  0.000000;0.000000;,
  0.000000;0.000000;,
  0.000000;0.000000;,
  0.000000;0.000000;,
  0.000000;0.000000;,
  0.000000;0.000000;,
  0.000000;0.000000;,
  0.000000;0.000000;,
  0.000000;0.000000;,
  0.000000;0.000000;,
  0.000000;0.000000;,
  0.000000;0.000000;,
  0.000000;0.000000;,
  0.000000;0.000000;,
  0.000000;0.000000;,
  0.000000;0.000000;,
  0.000000;0.000000;,
  0.000000;0.000000;,
  0.000000;0.000000;,
  0.000000;0.000000;,
  0.000000;0.000000;,
  0.000000;0.000000;,
  0.000000;0.000000;,
  0.000000;0.000000;,
  0.000000;0.000000;,
  0.000000;0.000000;,
  0.000000;0.000000;,
  0.000000;0.000000;,
  0.000000;0.000000;,
  0.000000;0.000000;,
  0.000000;0.000000;,
  0.000000;0.000000;,
  0.000000;0.000000;,
  0.000000;0.000000;,
  0.000000;0.000000;,
  0.000000;0.000000;,
  0.000000;0.000000;,
  0.000000;0.000000;,
  0.000000;0.000000;,
  0.000000;0.000000;,
  0.000000;0.000000;,
  0.000000;0.000000;,
  0.000000;0.000000;,
  0.000000;0.000000;,
  0.000000;0.000000;,
  0.000000;0.000000;,
  0.000000;0.000000;,
  0.000000;0.000000;,
  0.000000;0.000000;,
  0.000000;0.000000;,
  0.000000;0.000000;,
  0.000000;0.000000;,
  0.000000;0.000000;,
  0.000000;0.000000;,
  0.000000;0.000000;,
  0.000000;0.000000;,
  0.000000;0.000000;,
  0.000000;0.000000;,
  0.000000;0.000000;,
  0.000000;0.000000;,
  0.000000;0.000000;,
  0.000000;0.000000;,
  0.000000;0.000000;,
  0.000000;0.000000;,
  0.000000;0.000000;,
  0.000000;0.000000;,
  0.000000;0.000000;,
  0.000000;0.000000;,
  0.000000;0.000000;,
  0.000000;0.000000;,
  0.000000;0.000000;,
  0.000000;0.000000;,
  0.000000;0.000000;,
  0.000000;0.000000;,
  0.000000;0.000000;,
  0.000000;0.000000;,
  0.000000;0.000000;,
  0.000000;0.000000;,
  0.000000;0.000000;,
  0.000000;0.000000;,
  0.000000;0.000000;,
  0.000000;0.000000;,
  0.000000;0.000000;,
  0.000000;0.000000;,
  0.000000;0.000000;,
  0.000000;0.000000;,
  0.000000;0.000000;,
  0.000000;0.000000;,
  0.000000;0.000000;,
  0.000000;0.000000;,
  0.000000;0.000000;,
  0.000000;0.000000;,
  0.000000;0.000000;,
  0.000000;0.000000;,
  0.000000;0.000000;,
  0.000000;0.000000;,
  0.000000;0.000000;,
  0.000000;0.000000;,
  0.000000;0.000000;,
  0.000000;0.000000;,
  0.000000;0.000000;,
  0.000000;0.000000;,
  0.000000;0.000000;,
  0.000000;0.000000;,
  0.000000;0.000000;,
  0.000000;0.000000;,
  0.000000;0.000000;,
  0.000000;0.000000;,
  0.000000;0.000000;,
  0.000000;0.000000;,
  0.000000;0.000000;,
  0.000000;0.000000;,
  0.000000;0.000000;,
  0.000000;0.000000;,
  0.000000;0.000000;,
  0.000000;0.000000;,
  0.000000;0.000000;,
  0.000000;0.000000;,
  0.000000;0.000000;,
  0.000000;0.000000;,
  0.000000;0.000000;,
  0.000000;0.000000;,
  0.000000;0.000000;,
  0.000000;0.000000;,
  0.000000;0.000000;,
  0.000000;0.000000;,
  0.000000;0.000000;,
  0.000000;0.000000;,
  0.000000;0.000000;,
  0.000000;0.000000;,
  0.000000;0.000000;,
  0.000000;0.000000;,
  0.000000;0.000000;,
  0.000000;0.000000;,
  0.000000;0.000000;,
  0.000000;0.000000;,
  0.000000;0.000000;,
  0.000000;0.000000;,
  0.000000;0.000000;,
  0.000000;0.000000;,
  0.000000;0.000000;,
  0.000000;0.000000;,
  0.000000;0.000000;,
  0.000000;0.000000;,
  0.000000;0.000000;,
  0.000000;0.000000;,
  0.000000;0.000000;,
  0.000000;0.000000;,
  0.000000;0.000000;,
  0.000000;0.000000;,
  0.000000;0.000000;,
  0.000000;0.000000;,
  0.000000;0.000000;,
  0.000000;0.000000;,
  0.000000;0.000000;,
  0.000000;0.000000;,
  0.000000;0.000000;,
  0.000000;0.000000;,
  0.000000;0.000000;,
  0.000000;0.000000;,
  0.000000;0.000000;,
  0.000000;0.000000;,
  0.000000;0.000000;,
  0.000000;0.000000;,
  0.000000;0.000000;,
  0.000000;0.000000;,
  0.000000;0.000000;,
  0.000000;0.000000;,
  0.000000;0.000000;,
  0.000000;0.000000;,
  0.000000;0.000000;,
  0.000000;0.000000;,
  0.000000;0.000000;,
  0.000000;0.000000;,
  0.000000;0.000000;,
  0.000000;0.000000;,
  0.000000;0.000000;,
  0.000000;0.000000;,
  0.000000;0.000000;,
  0.000000;0.000000;,
  0.000000;0.000000;,
  0.000000;0.000000;,
  0.000000;0.000000;,
  0.000000;0.000000;,
  0.000000;0.000000;,
  0.000000;0.000000;,
  0.000000;0.000000;,
  0.000000;0.000000;,
  0.000000;0.000000;,
  0.000000;0.000000;,
  0.000000;0.000000;,
  0.000000;0.000000;,
  0.000000;0.000000;,
  0.000000;0.000000;,
  0.000000;0.000000;,
  0.000000;0.000000;,
  0.000000;0.000000;,
  0.000000;0.000000;,
  0.000000;0.000000;,
  0.000000;0.000000;,
  0.000000;0.000000;,
  0.000000;0.000000;,
  0.000000;0.000000;,
  0.000000;0.000000;,
  0.000000;0.000000;,
  0.000000;0.000000;,
  0.000000;0.000000;,
  0.000000;0.000000;,
  0.000000;0.000000;,
  0.000000;0.000000;,
  0.000000;0.000000;,
  0.000000;0.000000;,
  0.000000;0.000000;,
  0.000000;0.000000;,
  0.000000;0.000000;,
  0.000000;0.000000;,
  0.000000;0.000000;,
  0.000000;0.000000;,
  0.000000;0.000000;,
  0.000000;0.000000;,
  0.000000;0.000000;,
  0.000000;0.000000;,
  0.000000;0.000000;,
  0.000000;0.000000;,
  0.000000;0.000000;,
  0.000000;0.000000;,
  0.000000;0.000000;,
  0.000000;0.000000;,
  0.000000;0.000000;,
  0.000000;0.000000;,
  0.000000;0.000000;,
  0.000000;0.000000;,
  0.000000;0.000000;,
  0.000000;0.000000;,
  0.000000;0.000000;,
  0.000000;0.000000;,
  0.000000;0.000000;,
  0.000000;0.000000;,
  0.000000;0.000000;,
  0.000000;0.000000;,
  0.000000;0.000000;,
  0.000000;0.000000;,
  0.000000;0.000000;,
  0.000000;0.000000;,
  0.000000;0.000000;,
  0.000000;0.000000;,
  0.000000;0.000000;,
  0.000000;0.000000;,
  0.000000;0.000000;,
  0.000000;0.000000;,
  0.000000;0.000000;,
  0.000000;0.000000;,
  0.000000;0.000000;,
  0.000000;0.000000;,
  0.000000;0.000000;,
  0.000000;0.000000;,
  0.000000;0.000000;,
  0.000000;0.000000;,
  0.000000;0.000000;,
  0.000000;0.000000;,
  0.000000;0.000000;,
  0.000000;0.000000;,
  0.000000;0.000000;,
  0.000000;0.000000;,
  0.000000;0.000000;,
  0.000000;0.000000;,
  0.000000;0.000000;,
  0.000000;0.000000;,
  0.000000;0.000000;,
  0.000000;0.000000;,
  0.000000;0.000000;,
  0.000000;0.000000;,
  0.000000;0.000000;,
  0.000000;0.000000;,
  0.000000;0.000000;,
  0.000000;0.000000;,
  0.000000;0.000000;,
  0.000000;0.000000;,
  0.000000;0.000000;,
  0.000000;0.000000;,
  0.000000;0.000000;,
  0.000000;0.000000;,
  0.000000;0.000000;,
  0.000000;0.000000;,
  0.000000;0.000000;,
  0.000000;0.000000;,
  0.000000;0.000000;,
  0.000000;0.000000;,
  0.000000;0.000000;,
  0.000000;0.000000;,
  0.000000;0.000000;,
  0.000000;0.000000;,
  0.000000;0.000000;,
  0.000000;0.000000;,
  0.000000;0.000000;,
  0.000000;0.000000;,
  0.000000;0.000000;,
  0.000000;0.000000;,
  0.000000;0.000000;,
  0.000000;0.000000;,
  0.000000;0.000000;,
  0.000000;0.000000;,
  0.000000;0.000000;,
  0.000000;0.000000;,
  0.000000;0.000000;,
  0.000000;0.000000;,
  0.000000;0.000000;,
  0.000000;0.000000;,
  0.000000;0.000000;,
  0.000000;0.000000;,
  0.000000;0.000000;,
  0.000000;0.000000;,
  0.000000;0.000000;,
  0.000000;0.000000;,
  0.000000;0.000000;,
  0.000000;0.000000;,
  0.000000;0.000000;,
  0.000000;0.000000;,
  0.000000;0.000000;,
  0.000000;0.000000;,
  0.000000;0.000000;,
  0.000000;0.000000;,
  0.000000;0.000000;,
  0.000000;0.000000;,
  0.000000;0.000000;,
  0.000000;0.000000;,
  0.000000;0.000000;,
  0.000000;0.000000;,
  0.000000;0.000000;,
  0.000000;0.000000;,
  0.000000;0.000000;,
  0.000000;0.000000;,
  0.000000;0.000000;,
  0.000000;0.000000;,
  0.000000;0.000000;,
  0.000000;0.000000;,
  0.000000;0.000000;,
  0.000000;0.000000;,
  0.000000;0.000000;,
  0.000000;0.000000;,
  0.000000;0.000000;,
  0.000000;0.000000;,
  0.000000;0.000000;,
  0.000000;0.000000;,
  0.000000;0.000000;,
  0.000000;0.000000;,
  0.000000;0.000000;,
  0.000000;0.000000;,
  0.000000;0.000000;,
  0.000000;0.000000;,
  0.000000;0.000000;,
  0.000000;0.000000;,
  0.000000;0.000000;,
  0.000000;0.000000;,
  0.000000;0.000000;,
  0.000000;0.000000;,
  0.000000;0.000000;,
  0.000000;0.000000;,
  0.000000;0.000000;,
  0.000000;0.000000;,
  0.000000;0.000000;,
  0.000000;0.000000;,
  0.000000;0.000000;,
  0.000000;0.000000;,
  0.000000;0.000000;,
  0.000000;0.000000;;
 }
 MeshVertexColors {
  418;
  0;1.000000;1.000000;1.000000;1.000000;,
  1;1.000000;1.000000;1.000000;1.000000;,
  2;1.000000;1.000000;1.000000;1.000000;,
  3;1.000000;1.000000;1.000000;1.000000;,
  4;1.000000;1.000000;1.000000;1.000000;,
  5;1.000000;1.000000;1.000000;1.000000;,
  6;1.000000;1.000000;1.000000;1.000000;,
  7;1.000000;1.000000;1.000000;1.000000;,
  8;1.000000;1.000000;1.000000;1.000000;,
  9;1.000000;1.000000;1.000000;1.000000;,
  10;1.000000;1.000000;1.000000;1.000000;,
  11;1.000000;1.000000;1.000000;1.000000;,
  12;1.000000;1.000000;1.000000;1.000000;,
  13;1.000000;1.000000;1.000000;1.000000;,
  14;1.000000;1.000000;1.000000;1.000000;,
  15;1.000000;1.000000;1.000000;1.000000;,
  16;1.000000;1.000000;1.000000;1.000000;,
  17;1.000000;1.000000;1.000000;1.000000;,
  18;1.000000;1.000000;1.000000;1.000000;,
  19;1.000000;1.000000;1.000000;1.000000;,
  20;1.000000;1.000000;1.000000;1.000000;,
  21;1.000000;1.000000;1.000000;1.000000;,
  22;1.000000;1.000000;1.000000;1.000000;,
  23;1.000000;1.000000;1.000000;1.000000;,
  24;1.000000;1.000000;1.000000;1.000000;,
  25;1.000000;1.000000;1.000000;1.000000;,
  26;1.000000;1.000000;1.000000;1.000000;,
  27;1.000000;1.000000;1.000000;1.000000;,
  28;1.000000;1.000000;1.000000;1.000000;,
  29;1.000000;1.000000;1.000000;1.000000;,
  30;1.000000;1.000000;1.000000;1.000000;,
  31;1.000000;1.000000;1.000000;1.000000;,
  32;1.000000;1.000000;1.000000;1.000000;,
  33;1.000000;1.000000;1.000000;1.000000;,
  34;1.000000;1.000000;1.000000;1.000000;,
  35;1.000000;1.000000;1.000000;1.000000;,
  36;1.000000;1.000000;1.000000;1.000000;,
  37;1.000000;1.000000;1.000000;1.000000;,
  38;1.000000;1.000000;1.000000;1.000000;,
  39;1.000000;1.000000;1.000000;1.000000;,
  40;1.000000;1.000000;1.000000;1.000000;,
  41;1.000000;1.000000;1.000000;1.000000;,
  42;1.000000;1.000000;1.000000;1.000000;,
  43;1.000000;1.000000;1.000000;1.000000;,
  44;1.000000;1.000000;1.000000;1.000000;,
  45;1.000000;1.000000;1.000000;1.000000;,
  46;1.000000;1.000000;1.000000;1.000000;,
  47;1.000000;1.000000;1.000000;1.000000;,
  48;1.000000;1.000000;1.000000;1.000000;,
  49;1.000000;1.000000;1.000000;1.000000;,
  50;1.000000;1.000000;1.000000;1.000000;,
  51;1.000000;1.000000;1.000000;1.000000;,
  52;1.000000;1.000000;1.000000;1.000000;,
  53;1.000000;1.000000;1.000000;1.000000;,
  54;1.000000;1.000000;1.000000;1.000000;,
  55;1.000000;1.000000;1.000000;1.000000;,
  56;1.000000;1.000000;1.000000;1.000000;,
  57;1.000000;1.000000;1.000000;1.000000;,
  58;1.000000;1.000000;1.000000;1.000000;,
  59;1.000000;1.000000;1.000000;1.000000;,
  60;1.000000;1.000000;1.000000;1.000000;,
  61;1.000000;1.000000;1.000000;1.000000;,
  62;1.000000;1.000000;1.000000;1.000000;,
  63;1.000000;1.000000;1.000000;1.000000;,
  64;1.000000;1.000000;1.000000;1.000000;,
  65;1.000000;1.000000;1.000000;1.000000;,
  66;1.000000;1.000000;1.000000;1.000000;,
  67;1.000000;1.000000;1.000000;1.000000;,
  68;1.000000;1.000000;1.000000;1.000000;,
  69;1.000000;1.000000;1.000000;1.000000;,
  70;1.000000;1.000000;1.000000;1.000000;,
  71;1.000000;1.000000;1.000000;1.000000;,
  72;1.000000;1.000000;1.000000;1.000000;,
  73;1.000000;1.000000;1.000000;1.000000;,
  74;1.000000;1.000000;1.000000;1.000000;,
  75;1.000000;1.000000;1.000000;1.000000;,
  76;1.000000;1.000000;1.000000;1.000000;,
  77;1.000000;1.000000;1.000000;1.000000;,
  78;1.000000;1.000000;1.000000;1.000000;,
  79;1.000000;1.000000;1.000000;1.000000;,
  80;1.000000;1.000000;1.000000;1.000000;,
  81;1.000000;1.000000;1.000000;1.000000;,
  82;1.000000;1.000000;1.000000;1.000000;,
  83;1.000000;1.000000;1.000000;1.000000;,
  84;1.000000;1.000000;1.000000;1.000000;,
  85;1.000000;1.000000;1.000000;1.000000;,
  86;1.000000;1.000000;1.000000;1.000000;,
  87;1.000000;1.000000;1.000000;1.000000;,
  88;1.000000;1.000000;1.000000;1.000000;,
  89;1.000000;1.000000;1.000000;1.000000;,
  90;1.000000;1.000000;1.000000;1.000000;,
  91;1.000000;1.000000;1.000000;1.000000;,
  92;1.000000;1.000000;1.000000;1.000000;,
  93;1.000000;1.000000;1.000000;1.000000;,
  94;1.000000;1.000000;1.000000;1.000000;,
  95;1.000000;1.000000;1.000000;1.000000;,
  96;1.000000;1.000000;1.000000;1.000000;,
  97;1.000000;1.000000;1.000000;1.000000;,
  98;1.000000;1.000000;1.000000;1.000000;,
  99;1.000000;1.000000;1.000000;1.000000;,
  100;1.000000;1.000000;1.000000;1.000000;,
  101;1.000000;1.000000;1.000000;1.000000;,
  102;1.000000;1.000000;1.000000;1.000000;,
  103;1.000000;1.000000;1.000000;1.000000;,
  104;1.000000;1.000000;1.000000;1.000000;,
  105;1.000000;1.000000;1.000000;1.000000;,
  106;1.000000;1.000000;1.000000;1.000000;,
  107;1.000000;1.000000;1.000000;1.000000;,
  108;1.000000;1.000000;1.000000;1.000000;,
  109;1.000000;1.000000;1.000000;1.000000;,
  110;1.000000;1.000000;1.000000;1.000000;,
  111;1.000000;1.000000;1.000000;1.000000;,
  112;1.000000;1.000000;1.000000;1.000000;,
  113;1.000000;1.000000;1.000000;1.000000;,
  114;1.000000;1.000000;1.000000;1.000000;,
  115;1.000000;1.000000;1.000000;1.000000;,
  116;1.000000;1.000000;1.000000;1.000000;,
  117;1.000000;1.000000;1.000000;1.000000;,
  118;1.000000;1.000000;1.000000;1.000000;,
  119;1.000000;1.000000;1.000000;1.000000;,
  120;1.000000;1.000000;1.000000;1.000000;,
  121;1.000000;1.000000;1.000000;1.000000;,
  122;1.000000;1.000000;1.000000;1.000000;,
  123;1.000000;1.000000;1.000000;1.000000;,
  124;1.000000;1.000000;1.000000;1.000000;,
  125;1.000000;1.000000;1.000000;1.000000;,
  126;1.000000;1.000000;1.000000;1.000000;,
  127;1.000000;1.000000;1.000000;1.000000;,
  128;1.000000;1.000000;1.000000;1.000000;,
  129;1.000000;1.000000;1.000000;1.000000;,
  130;1.000000;1.000000;1.000000;1.000000;,
  131;1.000000;1.000000;1.000000;1.000000;,
  132;1.000000;1.000000;1.000000;1.000000;,
  133;1.000000;1.000000;1.000000;1.000000;,
  134;1.000000;1.000000;1.000000;1.000000;,
  135;1.000000;1.000000;1.000000;1.000000;,
  136;1.000000;1.000000;1.000000;1.000000;,
  137;1.000000;1.000000;1.000000;1.000000;,
  138;1.000000;1.000000;1.000000;1.000000;,
  139;1.000000;1.000000;1.000000;1.000000;,
  140;1.000000;1.000000;1.000000;1.000000;,
  141;1.000000;1.000000;1.000000;1.000000;,
  142;1.000000;1.000000;1.000000;1.000000;,
  143;1.000000;1.000000;1.000000;1.000000;,
  144;1.000000;1.000000;1.000000;1.000000;,
  145;1.000000;1.000000;1.000000;1.000000;,
  146;1.000000;1.000000;1.000000;1.000000;,
  147;1.000000;1.000000;1.000000;1.000000;,
  148;1.000000;1.000000;1.000000;1.000000;,
  149;1.000000;1.000000;1.000000;1.000000;,
  150;1.000000;1.000000;1.000000;1.000000;,
  151;1.000000;1.000000;1.000000;1.000000;,
  152;1.000000;1.000000;1.000000;1.000000;,
  153;1.000000;1.000000;1.000000;1.000000;,
  154;1.000000;1.000000;1.000000;1.000000;,
  155;1.000000;1.000000;1.000000;1.000000;,
  156;1.000000;1.000000;1.000000;1.000000;,
  157;1.000000;1.000000;1.000000;1.000000;,
  158;1.000000;1.000000;1.000000;1.000000;,
  159;1.000000;1.000000;1.000000;1.000000;,
  160;1.000000;1.000000;1.000000;1.000000;,
  161;1.000000;1.000000;1.000000;1.000000;,
  162;1.000000;1.000000;1.000000;1.000000;,
  163;1.000000;1.000000;1.000000;1.000000;,
  164;1.000000;1.000000;1.000000;1.000000;,
  165;1.000000;1.000000;1.000000;1.000000;,
  166;1.000000;1.000000;1.000000;1.000000;,
  167;1.000000;1.000000;1.000000;1.000000;,
  168;1.000000;1.000000;1.000000;1.000000;,
  169;1.000000;1.000000;1.000000;1.000000;,
  170;1.000000;1.000000;1.000000;1.000000;,
  171;1.000000;1.000000;1.000000;1.000000;,
  172;1.000000;1.000000;1.000000;1.000000;,
  173;1.000000;1.000000;1.000000;1.000000;,
  174;1.000000;1.000000;1.000000;1.000000;,
  175;1.000000;1.000000;1.000000;1.000000;,
  176;1.000000;1.000000;1.000000;1.000000;,
  177;1.000000;1.000000;1.000000;1.000000;,
  178;1.000000;1.000000;1.000000;1.000000;,
  179;1.000000;1.000000;1.000000;1.000000;,
  180;1.000000;1.000000;1.000000;1.000000;,
  181;1.000000;1.000000;1.000000;1.000000;,
  182;1.000000;1.000000;1.000000;1.000000;,
  183;1.000000;1.000000;1.000000;1.000000;,
  184;1.000000;1.000000;1.000000;1.000000;,
  185;1.000000;1.000000;1.000000;1.000000;,
  186;1.000000;1.000000;1.000000;1.000000;,
  187;1.000000;1.000000;1.000000;1.000000;,
  188;1.000000;1.000000;1.000000;1.000000;,
  189;1.000000;1.000000;1.000000;1.000000;,
  190;1.000000;1.000000;1.000000;1.000000;,
  191;1.000000;1.000000;1.000000;1.000000;,
  192;1.000000;1.000000;1.000000;1.000000;,
  193;1.000000;1.000000;1.000000;1.000000;,
  194;1.000000;1.000000;1.000000;1.000000;,
  195;1.000000;1.000000;1.000000;1.000000;,
  196;1.000000;1.000000;1.000000;1.000000;,
  197;1.000000;1.000000;1.000000;1.000000;,
  198;1.000000;1.000000;1.000000;1.000000;,
  199;1.000000;1.000000;1.000000;1.000000;,
  200;1.000000;1.000000;1.000000;1.000000;,
  201;1.000000;1.000000;1.000000;1.000000;,
  202;1.000000;1.000000;1.000000;1.000000;,
  203;1.000000;1.000000;1.000000;1.000000;,
  204;1.000000;1.000000;1.000000;1.000000;,
  205;1.000000;1.000000;1.000000;1.000000;,
  206;1.000000;1.000000;1.000000;1.000000;,
  207;1.000000;1.000000;1.000000;1.000000;,
  208;1.000000;1.000000;1.000000;1.000000;,
  209;1.000000;1.000000;1.000000;1.000000;,
  210;1.000000;1.000000;1.000000;1.000000;,
  211;1.000000;1.000000;1.000000;1.000000;,
  212;1.000000;1.000000;1.000000;1.000000;,
  213;1.000000;1.000000;1.000000;1.000000;,
  214;1.000000;1.000000;1.000000;1.000000;,
  215;1.000000;1.000000;1.000000;1.000000;,
  216;1.000000;1.000000;1.000000;1.000000;,
  217;1.000000;1.000000;1.000000;1.000000;,
  218;1.000000;1.000000;1.000000;1.000000;,
  219;1.000000;1.000000;1.000000;1.000000;,
  220;1.000000;1.000000;1.000000;1.000000;,
  221;1.000000;1.000000;1.000000;1.000000;,
  222;1.000000;1.000000;1.000000;1.000000;,
  223;1.000000;1.000000;1.000000;1.000000;,
  224;1.000000;1.000000;1.000000;1.000000;,
  225;1.000000;1.000000;1.000000;1.000000;,
  226;1.000000;1.000000;1.000000;1.000000;,
  227;1.000000;1.000000;1.000000;1.000000;,
  228;1.000000;1.000000;1.000000;1.000000;,
  229;1.000000;1.000000;1.000000;1.000000;,
  230;1.000000;1.000000;1.000000;1.000000;,
  231;1.000000;1.000000;1.000000;1.000000;,
  232;1.000000;1.000000;1.000000;1.000000;,
  233;1.000000;1.000000;1.000000;1.000000;,
  234;1.000000;1.000000;1.000000;1.000000;,
  235;1.000000;1.000000;1.000000;1.000000;,
  236;1.000000;1.000000;1.000000;1.000000;,
  237;1.000000;1.000000;1.000000;1.000000;,
  238;1.000000;1.000000;1.000000;1.000000;,
  239;1.000000;1.000000;1.000000;1.000000;,
  240;1.000000;1.000000;1.000000;1.000000;,
  241;1.000000;1.000000;1.000000;1.000000;,
  242;1.000000;1.000000;1.000000;1.000000;,
  243;1.000000;1.000000;1.000000;1.000000;,
  244;1.000000;1.000000;1.000000;1.000000;,
  245;1.000000;1.000000;1.000000;1.000000;,
  246;1.000000;1.000000;1.000000;1.000000;,
  247;1.000000;1.000000;1.000000;1.000000;,
  248;1.000000;1.000000;1.000000;1.000000;,
  249;1.000000;1.000000;1.000000;1.000000;,
  250;1.000000;1.000000;1.000000;1.000000;,
  251;1.000000;1.000000;1.000000;1.000000;,
  252;1.000000;1.000000;1.000000;1.000000;,
  253;1.000000;1.000000;1.000000;1.000000;,
  254;1.000000;1.000000;1.000000;1.000000;,
  255;1.000000;1.000000;1.000000;1.000000;,
  256;1.000000;1.000000;1.000000;1.000000;,
  257;1.000000;1.000000;1.000000;1.000000;,
  258;1.000000;1.000000;1.000000;1.000000;,
  259;1.000000;1.000000;1.000000;1.000000;,
  260;1.000000;1.000000;1.000000;1.000000;,
  261;1.000000;1.000000;1.000000;1.000000;,
  262;1.000000;1.000000;1.000000;1.000000;,
  263;1.000000;1.000000;1.000000;1.000000;,
  264;1.000000;1.000000;1.000000;1.000000;,
  265;1.000000;1.000000;1.000000;1.000000;,
  266;1.000000;1.000000;1.000000;1.000000;,
  267;1.000000;1.000000;1.000000;1.000000;,
  268;1.000000;1.000000;1.000000;1.000000;,
  269;1.000000;1.000000;1.000000;1.000000;,
  270;1.000000;1.000000;1.000000;1.000000;,
  271;1.000000;1.000000;1.000000;1.000000;,
  272;1.000000;1.000000;1.000000;1.000000;,
  273;1.000000;1.000000;1.000000;1.000000;,
  274;1.000000;1.000000;1.000000;1.000000;,
  275;1.000000;1.000000;1.000000;1.000000;,
  276;1.000000;1.000000;1.000000;1.000000;,
  277;1.000000;1.000000;1.000000;1.000000;,
  278;1.000000;1.000000;1.000000;1.000000;,
  279;1.000000;1.000000;1.000000;1.000000;,
  280;1.000000;1.000000;1.000000;1.000000;,
  281;1.000000;1.000000;1.000000;1.000000;,
  282;1.000000;1.000000;1.000000;1.000000;,
  283;1.000000;1.000000;1.000000;1.000000;,
  284;1.000000;1.000000;1.000000;1.000000;,
  285;1.000000;1.000000;1.000000;1.000000;,
  286;1.000000;1.000000;1.000000;1.000000;,
  287;1.000000;1.000000;1.000000;1.000000;,
  288;1.000000;1.000000;1.000000;1.000000;,
  289;1.000000;1.000000;1.000000;1.000000;,
  290;1.000000;1.000000;1.000000;1.000000;,
  291;1.000000;1.000000;1.000000;1.000000;,
  292;1.000000;1.000000;1.000000;1.000000;,
  293;1.000000;1.000000;1.000000;1.000000;,
  294;1.000000;1.000000;1.000000;1.000000;,
  295;1.000000;1.000000;1.000000;1.000000;,
  296;1.000000;1.000000;1.000000;1.000000;,
  297;1.000000;1.000000;1.000000;1.000000;,
  298;1.000000;1.000000;1.000000;1.000000;,
  299;1.000000;1.000000;1.000000;1.000000;,
  300;1.000000;1.000000;1.000000;1.000000;,
  301;1.000000;1.000000;1.000000;1.000000;,
  302;1.000000;1.000000;1.000000;1.000000;,
  303;1.000000;1.000000;1.000000;1.000000;,
  304;1.000000;1.000000;1.000000;1.000000;,
  305;1.000000;1.000000;1.000000;1.000000;,
  306;1.000000;1.000000;1.000000;1.000000;,
  307;1.000000;1.000000;1.000000;1.000000;,
  308;1.000000;1.000000;1.000000;1.000000;,
  309;1.000000;1.000000;1.000000;1.000000;,
  310;1.000000;1.000000;1.000000;1.000000;,
  311;1.000000;1.000000;1.000000;1.000000;,
  312;1.000000;1.000000;1.000000;1.000000;,
  313;1.000000;1.000000;1.000000;1.000000;,
  314;1.000000;1.000000;1.000000;1.000000;,
  315;1.000000;1.000000;1.000000;1.000000;,
  316;1.000000;1.000000;1.000000;1.000000;,
  317;1.000000;1.000000;1.000000;1.000000;,
  318;1.000000;1.000000;1.000000;1.000000;,
  319;1.000000;1.000000;1.000000;1.000000;,
  320;1.000000;1.000000;1.000000;1.000000;,
  321;1.000000;1.000000;1.000000;1.000000;,
  322;1.000000;1.000000;1.000000;1.000000;,
  323;1.000000;1.000000;1.000000;1.000000;,
  324;1.000000;1.000000;1.000000;1.000000;,
  325;1.000000;1.000000;1.000000;1.000000;,
  326;1.000000;1.000000;1.000000;1.000000;,
  327;1.000000;1.000000;1.000000;1.000000;,
  328;1.000000;1.000000;1.000000;1.000000;,
  329;1.000000;1.000000;1.000000;1.000000;,
  330;1.000000;1.000000;1.000000;1.000000;,
  331;1.000000;1.000000;1.000000;1.000000;,
  332;1.000000;1.000000;1.000000;1.000000;,
  333;1.000000;1.000000;1.000000;1.000000;,
  334;1.000000;1.000000;1.000000;1.000000;,
  335;1.000000;1.000000;1.000000;1.000000;,
  336;1.000000;1.000000;1.000000;1.000000;,
  337;1.000000;1.000000;1.000000;1.000000;,
  338;1.000000;1.000000;1.000000;1.000000;,
  339;1.000000;1.000000;1.000000;1.000000;,
  340;1.000000;1.000000;1.000000;1.000000;,
  341;1.000000;1.000000;1.000000;1.000000;,
  342;1.000000;1.000000;1.000000;1.000000;,
  343;1.000000;1.000000;1.000000;1.000000;,
  344;1.000000;1.000000;1.000000;1.000000;,
  345;1.000000;1.000000;1.000000;1.000000;,
  346;1.000000;1.000000;1.000000;1.000000;,
  347;1.000000;1.000000;1.000000;1.000000;,
  348;1.000000;1.000000;1.000000;1.000000;,
  349;1.000000;1.000000;1.000000;1.000000;,
  350;1.000000;1.000000;1.000000;1.000000;,
  351;1.000000;1.000000;1.000000;1.000000;,
  352;1.000000;1.000000;1.000000;1.000000;,
  353;1.000000;1.000000;1.000000;1.000000;,
  354;1.000000;1.000000;1.000000;1.000000;,
  355;1.000000;1.000000;1.000000;1.000000;,
  356;1.000000;1.000000;1.000000;1.000000;,
  357;1.000000;1.000000;1.000000;1.000000;,
  358;1.000000;1.000000;1.000000;1.000000;,
  359;1.000000;1.000000;1.000000;1.000000;,
  360;1.000000;1.000000;1.000000;1.000000;,
  361;1.000000;1.000000;1.000000;1.000000;,
  362;1.000000;1.000000;1.000000;1.000000;,
  363;1.000000;1.000000;1.000000;1.000000;,
  364;1.000000;1.000000;1.000000;1.000000;,
  365;1.000000;1.000000;1.000000;1.000000;,
  366;1.000000;1.000000;1.000000;1.000000;,
  367;1.000000;1.000000;1.000000;1.000000;,
  368;1.000000;1.000000;1.000000;1.000000;,
  369;1.000000;1.000000;1.000000;1.000000;,
  370;1.000000;1.000000;1.000000;1.000000;,
  371;1.000000;1.000000;1.000000;1.000000;,
  372;1.000000;1.000000;1.000000;1.000000;,
  373;1.000000;1.000000;1.000000;1.000000;,
  374;1.000000;1.000000;1.000000;1.000000;,
  375;1.000000;1.000000;1.000000;1.000000;,
  376;1.000000;1.000000;1.000000;1.000000;,
  377;1.000000;1.000000;1.000000;1.000000;,
  378;1.000000;1.000000;1.000000;1.000000;,
  379;1.000000;1.000000;1.000000;1.000000;,
  380;1.000000;1.000000;1.000000;1.000000;,
  381;1.000000;1.000000;1.000000;1.000000;,
  382;1.000000;1.000000;1.000000;1.000000;,
  383;1.000000;1.000000;1.000000;1.000000;,
  384;1.000000;1.000000;1.000000;1.000000;,
  385;1.000000;1.000000;1.000000;1.000000;,
  386;1.000000;1.000000;1.000000;1.000000;,
  387;1.000000;1.000000;1.000000;1.000000;,
  388;1.000000;1.000000;1.000000;1.000000;,
  389;1.000000;1.000000;1.000000;1.000000;,
  390;1.000000;1.000000;1.000000;1.000000;,
  391;1.000000;1.000000;1.000000;1.000000;,
  392;1.000000;1.000000;1.000000;1.000000;,
  393;1.000000;1.000000;1.000000;1.000000;,
  394;1.000000;1.000000;1.000000;1.000000;,
  395;1.000000;1.000000;1.000000;1.000000;,
  396;1.000000;1.000000;1.000000;1.000000;,
  397;1.000000;1.000000;1.000000;1.000000;,
  398;1.000000;1.000000;1.000000;1.000000;,
  399;1.000000;1.000000;1.000000;1.000000;,
  400;1.000000;1.000000;1.000000;1.000000;,
  401;1.000000;1.000000;1.000000;1.000000;,
  402;1.000000;1.000000;1.000000;1.000000;,
  403;1.000000;1.000000;1.000000;1.000000;,
  404;1.000000;1.000000;1.000000;1.000000;,
  405;1.000000;1.000000;1.000000;1.000000;,
  406;1.000000;1.000000;1.000000;1.000000;,
  407;1.000000;1.000000;1.000000;1.000000;,
  408;1.000000;1.000000;1.000000;1.000000;,
  409;1.000000;1.000000;1.000000;1.000000;,
  410;1.000000;1.000000;1.000000;1.000000;,
  411;1.000000;1.000000;1.000000;1.000000;,
  412;1.000000;1.000000;1.000000;1.000000;,
  413;1.000000;1.000000;1.000000;1.000000;,
  414;1.000000;1.000000;1.000000;1.000000;,
  415;1.000000;1.000000;1.000000;1.000000;,
  416;1.000000;1.000000;1.000000;1.000000;,
  417;1.000000;1.000000;1.000000;1.000000;;
 }
}
