xof 0302txt 0064
template Header {
 <3D82AB43-62DA-11cf-AB39-0020AF71E433>
 WORD major;
 WORD minor;
 DWORD flags;
}

template Vector {
 <3D82AB5E-62DA-11cf-AB39-0020AF71E433>
 FLOAT x;
 FLOAT y;
 FLOAT z;
}

template Coords2d {
 <F6F23F44-7686-11cf-8F52-0040333594A3>
 FLOAT u;
 FLOAT v;
}

template Matrix4x4 {
 <F6F23F45-7686-11cf-8F52-0040333594A3>
 array FLOAT matrix[16];
}

template ColorRGBA {
 <35FF44E0-6C7C-11cf-8F52-0040333594A3>
 FLOAT red;
 FLOAT green;
 FLOAT blue;
 FLOAT alpha;
}

template ColorRGB {
 <D3E16E81-7835-11cf-8F52-0040333594A3>
 FLOAT red;
 FLOAT green;
 FLOAT blue;
}

template IndexedColor {
 <1630B820-7842-11cf-8F52-0040333594A3>
 DWORD index;
 ColorRGBA indexColor;
}

template Boolean {
 <4885AE61-78E8-11cf-8F52-0040333594A3>
 WORD truefalse;
}

template Boolean2d {
 <4885AE63-78E8-11cf-8F52-0040333594A3>
 Boolean u;
 Boolean v;
}

template MaterialWrap {
 <4885AE60-78E8-11cf-8F52-0040333594A3>
 Boolean u;
 Boolean v;
}

template TextureFilename {
 <A42790E1-7810-11cf-8F52-0040333594A3>
 STRING filename;
}

template Material {
 <3D82AB4D-62DA-11cf-AB39-0020AF71E433>
 ColorRGBA faceColor;
 FLOAT power;
 ColorRGB specularColor;
 ColorRGB emissiveColor;
 [...]
}

template MeshFace {
 <3D82AB5F-62DA-11cf-AB39-0020AF71E433>
 DWORD nFaceVertexIndices;
 array DWORD faceVertexIndices[nFaceVertexIndices];
}

template MeshFaceWraps {
 <4885AE62-78E8-11cf-8F52-0040333594A3>
 DWORD nFaceWrapValues;
 Boolean2d faceWrapValues;
}

template MeshTextureCoords {
 <F6F23F40-7686-11cf-8F52-0040333594A3>
 DWORD nTextureCoords;
 array Coords2d textureCoords[nTextureCoords];
}

template MeshMaterialList {
 <F6F23F42-7686-11cf-8F52-0040333594A3>
 DWORD nMaterials;
 DWORD nFaceIndexes;
 array DWORD faceIndexes[nFaceIndexes];
 [Material]
}

template MeshNormals {
 <F6F23F43-7686-11cf-8F52-0040333594A3>
 DWORD nNormals;
 array Vector normals[nNormals];
 DWORD nFaceNormals;
 array MeshFace faceNormals[nFaceNormals];
}

template MeshVertexColors {
 <1630B821-7842-11cf-8F52-0040333594A3>
 DWORD nVertexColors;
 array IndexedColor vertexColors[nVertexColors];
}

template Mesh {
 <3D82AB44-62DA-11cf-AB39-0020AF71E433>
 DWORD nVertices;
 array Vector vertices[nVertices];
 DWORD nFaces;
 array MeshFace faces[nFaces];
 [...]
}

Header{
1;
0;
1;
}

Mesh {
 142;
 -0.16608;1.63245;-0.26220;,
 -0.12883;1.35780;-0.03893;,
 -0.29149;1.63408;-0.60280;,
 -0.07473;1.67874;-1.12552;,
 0.39718;1.63144;-0.04543;,
 0.15265;1.62551;-0.27663;,
 0.46882;1.66155;-0.46792;,
 0.11389;1.37818;0.03933;,
 0.11463;1.66883;-0.52506;,
 -0.02154;1.69226;-1.01706;,
 0.51700;1.69085;-0.71880;,
 0.37837;1.65198;-1.39602;,
 0.13992;1.63201;-0.16686;,
 -0.01602;1.35858;-0.12293;,
 0.40986;1.63314;-0.39823;,
 0.95551;1.67503;-0.34463;,
 0.11978;1.62899;0.46042;,
 0.25250;1.62349;0.14470;,
 0.52789;1.65738;0.40060;,
 -0.01302;1.37729;0.13382;,
 0.46917;1.66618;0.03136;,
 0.87470;1.68865;-0.25702;,
 0.77282;1.68562;0.37129;,
 1.34125;1.64522;0.01887;,
 0.14934;1.63040;0.16689;,
 0.09873;1.35785;-0.04165;,
 0.44410;1.62947;0.36235;,
 0.56962;1.66890;0.92328;,
 -0.42655;1.62951;0.34366;,
 -0.09875;1.62236;0.37600;,
 -0.24220;1.65574;0.73167;,
 -0.14211;1.37812;0.04238;,
 0.07516;1.66362;0.55794;,
 0.46571;1.68319;0.87131;,
 -0.13675;1.68269;0.96721;,
 0.35853;1.63842;1.41877;,
 -0.15075;1.62984;0.28094;,
 0.05792;1.35661;0.09334;,
 -0.23577;1.62812;0.63492;,
 -0.70272;1.66875;0.93783;,
 -0.49192;1.63230;-0.23545;,
 -0.41897;1.62367;0.09980;,
 -0.78440;1.65889;0.07087;,
 -0.09620;1.37951;-0.10948;,
 -0.52659;1.66466;0.33188;,
 -0.68712;1.68336;0.81914;,
 -0.96320;1.68608;0.25102;,
 -1.22086;1.64091;0.88210;,
 -0.34863;1.63112;0.01174;,
 -0.08484;1.35659;0.09504;,
 -0.69725;1.63101;0.02942;,
 -1.10697;1.67493;-0.34751;,
 0.02488;1.63351;-0.47955;,
 -0.26125;1.62565;-0.30963;,
 -0.33832;1.66254;-0.68171;,
 0.06441;1.37954;-0.11139;,
 -0.50183;1.66793;-0.34757;,
 -0.99281;1.68906;-0.36556;,
 -0.55305;1.69121;-0.80673;,
 -1.20841;1.64942;-0.88378;,
 -0.01029;1.25904;-0.03874;,
 0.03012;1.25880;-0.04084;,
 -0.01745;1.25861;-0.01290;,
 0.03639;1.25792;0.00425;,
 0.02823;1.25855;-0.02660;,
 0.04247;1.25772;0.01258;,
 0.00849;1.25879;-0.03221;,
 0.00916;1.25772;0.02453;,
 0.02925;1.25776;0.01512;,
 -0.00175;1.25747;0.04164;,
 0.03475;1.25826;-0.01349;,
 -0.01869;1.25828;0.00496;,
 -0.00814;1.25775;0.02935;,
 -0.04254;1.25840;0.00705;,
 0.02536;1.25774;0.01732;,
 -0.00884;1.25883;-0.02785;,
 -0.03316;1.25855;-0.00417;,
 -0.02275;1.25925;-0.04525;,
 -0.00726;1.25796;0.01779;,
 0.02586;1.25860;-0.02820;,
 -0.00815;1.24568;0.02835;,
 0.00161;1.24621;0.02883;,
 0.01103;1.24690;0.02628;,
 0.01920;1.24769;0.02094;,
 0.02530;1.24851;0.01333;,
 0.02875;1.24928;0.00420;,
 0.02920;1.24991;-0.00555;,
 0.02661;1.25035;-0.01498;,
 0.02124;1.25055;-0.02316;,
 0.01361;1.25050;-0.02929;,
 0.00446;1.25020;-0.03277;,
 -0.00530;1.24967;-0.03325;,
 -0.01472;1.24898;-0.03070;,
 -0.03288;1.24597;0.00113;,
 -0.03243;1.24660;-0.00862;,
 -0.02899;1.24736;-0.01775;,
 -0.02288;1.24818;-0.02536;,
 -0.03030;1.24553;0.01057;,
 -0.01729;1.24538;0.02487;,
 -0.02493;1.24533;0.01874;,
 -0.03221;1.26204;-0.01237;,
 -0.02807;1.26204;-0.02265;,
 -0.02806;-0.00091;-0.02006;,
 -0.03220;-0.00091;-0.00977;,
 -0.02100;1.26204;-0.03116;,
 -0.02099;-0.00091;-0.02856;,
 -0.01169;1.26204;-0.03705;,
 -0.01168;-0.00091;-0.03446;,
 -0.00105;1.26204;-0.03976;,
 -0.00103;-0.00091;-0.03716;,
 0.00988;1.26204;-0.03901;,
 0.00989;-0.00091;-0.03641;,
 0.02002;1.26204;-0.03488;,
 0.02004;-0.00091;-0.03228;,
 0.02840;1.26204;-0.02777;,
 0.02841;-0.00091;-0.02518;,
 0.03417;1.26204;-0.01838;,
 0.03419;-0.00091;-0.01579;,
 0.03679;1.26204;-0.00763;,
 0.03680;-0.00091;-0.00504;,
 0.03599;1.26204;0.00343;,
 0.03600;-0.00091;0.00602;,
 0.03185;1.26204;0.01371;,
 0.03186;-0.00091;0.01631;,
 0.02478;1.26204;0.02222;,
 0.02479;-0.00091;0.02482;,
 0.01547;1.26204;0.02812;,
 0.01548;-0.00091;0.03071;,
 0.00482;1.26204;0.03082;,
 0.00484;-0.00091;0.03342;,
 -0.00610;1.26204;0.03007;,
 -0.00609;-0.00091;0.03267;,
 -0.01625;1.26204;0.02594;,
 -0.01624;-0.00091;0.02854;,
 -0.02462;1.26204;0.01883;,
 -0.02461;-0.00091;0.02143;,
 -0.03040;1.26204;0.00945;,
 -0.03038;-0.00091;0.01204;,
 -0.03301;1.26204;-0.00130;,
 -0.03300;-0.00091;0.00129;,
 -0.03221;1.26204;-0.01237;,
 -0.03220;-0.00091;-0.00977;;
 
 198;
 3;0,1,2;,
 3;2,1,0;,
 3;0,2,3;,
 3;3,2,0;,
 3;4,5,6;,
 3;6,5,4;,
 3;5,4,7;,
 3;7,4,5;,
 3;8,3,9;,
 3;9,3,8;,
 3;10,9,11;,
 3;11,9,10;,
 3;6,8,10;,
 3;10,8,6;,
 3;10,8,9;,
 3;9,8,10;,
 3;8,0,3;,
 3;3,0,8;,
 3;6,5,8;,
 3;8,5,6;,
 3;5,0,8;,
 3;8,0,5;,
 3;12,13,14;,
 3;14,13,12;,
 3;12,14,15;,
 3;15,14,12;,
 3;16,17,18;,
 3;18,17,16;,
 3;17,16,19;,
 3;19,16,17;,
 3;20,15,21;,
 3;21,15,20;,
 3;22,21,23;,
 3;23,21,22;,
 3;18,20,22;,
 3;22,20,18;,
 3;22,20,21;,
 3;21,20,22;,
 3;20,12,15;,
 3;15,12,20;,
 3;18,17,20;,
 3;20,17,18;,
 3;17,12,20;,
 3;20,12,17;,
 3;24,25,26;,
 3;26,25,24;,
 3;24,26,27;,
 3;27,26,24;,
 3;28,29,30;,
 3;30,29,28;,
 3;29,28,31;,
 3;31,28,29;,
 3;32,27,33;,
 3;33,27,32;,
 3;34,33,35;,
 3;35,33,34;,
 3;30,32,34;,
 3;34,32,30;,
 3;34,32,33;,
 3;33,32,34;,
 3;32,24,27;,
 3;27,24,32;,
 3;30,29,32;,
 3;32,29,30;,
 3;29,24,32;,
 3;32,24,29;,
 3;36,37,38;,
 3;38,37,36;,
 3;36,38,39;,
 3;39,38,36;,
 3;40,41,42;,
 3;42,41,40;,
 3;41,40,43;,
 3;43,40,41;,
 3;44,39,45;,
 3;45,39,44;,
 3;46,45,47;,
 3;47,45,46;,
 3;42,44,46;,
 3;46,44,42;,
 3;46,44,45;,
 3;45,44,46;,
 3;44,36,39;,
 3;39,36,44;,
 3;42,41,44;,
 3;44,41,42;,
 3;41,36,44;,
 3;44,36,41;,
 3;48,49,50;,
 3;50,49,48;,
 3;48,50,51;,
 3;51,50,48;,
 3;52,53,54;,
 3;54,53,52;,
 3;53,52,55;,
 3;55,52,53;,
 3;56,51,57;,
 3;57,51,56;,
 3;58,57,59;,
 3;59,57,58;,
 3;54,56,58;,
 3;58,56,54;,
 3;58,56,57;,
 3;57,56,58;,
 3;56,48,51;,
 3;51,48,56;,
 3;54,53,56;,
 3;56,53,54;,
 3;53,48,56;,
 3;56,48,53;,
 4;60,0,5,61;,
 4;61,5,0,60;,
 4;62,1,0,60;,
 4;60,0,1,62;,
 4;61,5,7,63;,
 4;63,7,5,61;,
 4;64,12,17,65;,
 4;65,17,12,64;,
 4;66,13,12,64;,
 4;64,12,13,66;,
 4;65,17,19,67;,
 4;67,19,17,65;,
 4;68,24,29,69;,
 4;69,29,24,68;,
 4;70,25,24,68;,
 4;68,24,25,70;,
 4;69,29,31,71;,
 4;71,31,29,69;,
 4;72,36,41,73;,
 4;73,41,36,72;,
 4;74,37,36,72;,
 4;72,36,37,74;,
 4;73,41,43,75;,
 4;75,43,41,73;,
 4;76,48,53,77;,
 4;77,53,48,76;,
 4;78,49,48,76;,
 4;76,48,49,78;,
 4;77,53,55,79;,
 4;79,55,53,77;,
 4;69,80,81,74;,
 3;65,74,81;,
 3;82,65,81;,
 3;82,83,65;,
 3;83,84,65;,
 4;84,85,63,65;,
 3;32,20,44;,
 3;44,20,56;,
 3;20,8,56;,
 3;84,85,65;,
 3;65,85,70;,
 3;85,86,70;,
 3;84,85,65;,
 3;65,85,64;,
 3;85,86,64;,
 3;86,87,70;,
 3;70,87,61;,
 3;87,88,61;,
 3;88,89,61;,
 3;89,90,61;,
 3;90,91,61;,
 3;91,60,61;,
 3;92,77,91;,
 3;91,77,90;,
 3;90,77,89;,
 3;77,60,89;,
 3;73,76,93;,
 3;93,76,94;,
 3;76,77,94;,
 3;94,77,95;,
 3;95,77,96;,
 3;77,92,96;,
 3;93,97,73;,
 3;80,69,98;,
 3;97,99,73;,
 3;98,69,99;,
 3;99,69,72;,
 3;72,73,99;,
 4;100,101,102,103;,
 4;101,104,105,102;,
 4;104,106,107,105;,
 4;106,108,109,107;,
 4;108,110,111,109;,
 4;110,112,113,111;,
 4;112,114,115,113;,
 4;114,116,117,115;,
 4;116,118,119,117;,
 4;118,120,121,119;,
 4;120,122,123,121;,
 4;122,124,125,123;,
 4;124,126,127,125;,
 4;126,128,129,127;,
 4;128,130,131,129;,
 4;130,132,133,131;,
 4;132,134,135,133;,
 4;134,136,137,135;,
 4;136,138,139,137;,
 4;138,140,141,139;;
 
 MeshMaterialList {
  12;
  198;
  6,
  6,
  6,
  6,
  6,
  6,
  6,
  6,
  6,
  6,
  6,
  6,
  6,
  6,
  6,
  6,
  6,
  6,
  6,
  6,
  6,
  6,
  6,
  6,
  6,
  6,
  6,
  6,
  6,
  6,
  6,
  6,
  6,
  6,
  6,
  6,
  6,
  6,
  6,
  6,
  6,
  6,
  6,
  6,
  6,
  6,
  6,
  6,
  6,
  6,
  6,
  6,
  6,
  6,
  6,
  6,
  6,
  6,
  6,
  6,
  6,
  6,
  6,
  6,
  6,
  6,
  6,
  6,
  6,
  6,
  6,
  6,
  6,
  6,
  6,
  6,
  6,
  6,
  6,
  6,
  6,
  6,
  6,
  6,
  6,
  6,
  6,
  6,
  6,
  6,
  6,
  6,
  6,
  6,
  6,
  6,
  6,
  6,
  6,
  6,
  6,
  6,
  6,
  6,
  6,
  6,
  6,
  6,
  6,
  6,
  6,
  6,
  6,
  6,
  6,
  6,
  6,
  6,
  6,
  6,
  6,
  6,
  6,
  6,
  6,
  6,
  6,
  6,
  6,
  6,
  6,
  6,
  6,
  6,
  6,
  6,
  6,
  6,
  6,
  6,
  2,
  2,
  2,
  2,
  2,
  2,
  9,
  9,
  9,
  2,
  2,
  2,
  2,
  2,
  2,
  2,
  2,
  2,
  2,
  2,
  2,
  2,
  2,
  2,
  2,
  2,
  2,
  2,
  2,
  2,
  2,
  2,
  2,
  2,
  2,
  2,
  2,
  2,
  2,
  2,
  2,
  2,
  2,
  2,
  2,
  2,
  2,
  2,
  2,
  2,
  2,
  2,
  2,
  2,
  2,
  2,
  2,
  2;;
  Material {
   0.196000;0.392000;0.196000;1.000000;;
   5.000000;
   0.000000;0.000000;0.000000;;
   0.000000;0.000000;0.000000;;
  }
  Material {
   0.196000;0.392000;0.196000;1.000000;;
   5.000000;
   0.000000;0.000000;0.000000;;
   0.000000;0.000000;0.000000;;
  }
  Material {
   0.196000;0.980000;0.196000;1.000000;;
   5.000000;
   0.000000;0.000000;0.000000;;
   0.000000;0.000000;0.000000;;
  }
  Material {
   0.325000;0.890000;0.243000;1.000000;;
   5.000000;
   0.000000;0.000000;0.000000;;
   0.000000;0.000000;0.000000;;
  }
  Material {
   0.196000;0.392000;0.196000;1.000000;;
   5.000000;
   0.000000;0.000000;0.000000;;
   0.000000;0.000000;0.000000;;
  }
  Material {
   0.196000;0.392000;0.196000;1.000000;;
   5.000000;
   0.000000;0.000000;0.000000;;
   0.000000;0.000000;0.000000;;
  }
  Material {
   1.000000;1.000000;0.000000;1.000000;;
   5.000000;
   0.000000;0.000000;0.000000;;
   0.000000;0.000000;0.000000;;
  }
  Material {
   1.000000;1.000000;1.000000;0.550000;;
   100.000000;
   1.000000;1.000000;1.000000;;
   0.260000;0.260000;0.260000;;
  }
  Material {
   0.800000;0.800000;0.800000;1.000000;;
   5.000000;
   0.000000;0.000000;0.000000;;
   0.000000;0.000000;0.000000;;
  }
  Material {
   0.800000;0.031200;0.021600;1.000000;;
   5.000000;
   0.000000;0.000000;0.000000;;
   0.000000;0.000000;0.000000;;
  }
  Material {
   0.840000;0.793800;0.068880;1.000000;;
   22.000000;
   0.480000;0.480000;0.480000;;
   0.440000;0.415800;0.036080;;
  }
  Material {
   1.000000;1.000000;1.000000;1.000000;;
   0.000000;
   0.000000;0.000000;0.000000;;
   0.000000;0.000000;0.000000;;
  }
 }
 MeshNormals {
  214;
  0.927215;-0.152378;-0.342129;,
  0.258581;-0.893221;-0.367820;,
  0.279181;-0.954845;-0.101635;,
  0.028256;-0.992870;-0.115802;,
  0.699996;-0.619365;-0.355517;,
  0.301234;-0.906652;-0.295364;,
  0.213326;-0.974511;-0.069422;,
  0.121620;-0.983877;-0.131132;,
  -0.038681;-0.997126;0.065141;,
  -0.004118;-0.999358;-0.035589;,
  0.631992;-0.242163;0.736167;,
  0.436909;-0.891762;0.117778;,
  0.178523;-0.960896;0.211680;,
  0.118154;-0.992898;-0.013927;,
  0.523484;-0.668062;0.528827;,
  0.383929;-0.906207;0.177167;,
  0.125952;-0.978675;0.162268;,
  0.160270;-0.985043;0.063278;,
  -0.082040;-0.996464;-0.018113;,
  0.028833;-0.999418;-0.018232;,
  0.198592;-0.897677;0.393366;,
  0.018757;-0.926421;0.376022;,
  -0.158560;-0.961370;0.225004;,
  0.045604;-0.994076;0.098658;,
  -0.488486;-0.471200;0.734406;,
  -0.348532;-0.777145;0.523995;,
  -0.309643;-0.830507;0.463011;,
  -0.055130;-0.934325;0.352133;,
  -0.126080;-0.978789;0.161478;,
  -0.017783;-0.986743;0.161314;,
  -0.012537;-0.996393;-0.083932;,
  0.022167;-0.999616;0.016629;,
  -0.277073;-0.924488;0.261826;,
  -0.343896;-0.932519;0.110196;,
  -0.285713;-0.955075;-0.078741;,
  -0.088560;-0.993679;0.068983;,
  -0.840581;-0.501669;-0.204332;,
  -0.605480;-0.778225;-0.166613;,
  -0.530224;-0.837612;-0.131411;,
  -0.337745;-0.939946;0.049290;,
  -0.212268;-0.974760;-0.069174;,
  -0.174019;-0.984274;0.030362;,
  0.074420;-0.996387;-0.040933;,
  -0.014421;-0.999653;0.022028;,
  -0.047679;-0.331710;-0.942176;,
  -0.225907;-0.921327;-0.316422;,
  -0.008900;-0.954570;-0.297855;,
  -0.100618;-0.992797;-0.065038;,
  -0.055839;-0.719268;-0.692485;,
  -0.164127;-0.933264;-0.319501;,
  0.002588;-0.973727;-0.227703;,
  -0.086657;-0.983457;-0.159072;,
  0.057424;-0.996975;0.052373;,
  -0.031552;-0.999446;-0.010589;,
  0.132752;-0.807309;-0.575004;,
  0.611840;-0.789522;-0.048030;,
  0.008889;-0.593540;0.804756;,
  -0.656862;-0.487543;0.575181;,
  -0.322752;-0.731299;-0.600860;,
  -0.237752;-0.616410;-0.750674;,
  -0.577878;-0.694417;-0.428768;,
  0.753350;-0.645520;-0.125570;,
  0.659881;-0.593389;-0.460919;,
  0.390766;-0.542946;-0.743311;,
  0.361133;-0.576015;0.733341;,
  0.742681;-0.474720;0.472298;,
  0.757515;-0.649805;-0.062650;,
  -0.593062;-0.692496;0.410762;,
  -0.308526;-0.442013;0.842280;,
  0.222283;-0.642861;0.733021;,
  -0.607131;-0.673984;-0.420876;,
  -0.916118;-0.365521;-0.164690;,
  -0.601743;-0.702250;0.380460;,
  0.181636;-0.571531;-0.800225;,
  0.027477;-0.695881;0.717631;,
  0.299719;-0.675758;0.673438;,
  0.189493;0.511275;0.838267;,
  0.486907;-0.729476;0.480402;,
  0.511618;-0.852261;0.109079;,
  0.614298;-0.787664;-0.047152;,
  0.930176;-0.362273;-0.059429;,
  0.297997;-0.913569;-0.276748;,
  0.595070;-0.776777;-0.206178;,
  0.290220;-0.748014;-0.596865;,
  0.181088;-0.696942;-0.693887;,
  0.003321;-0.730272;-0.683148;,
  -0.157070;-0.845627;-0.510142;,
  -0.914602;-0.360396;-0.183351;,
  -0.966288;-0.130442;-0.221976;,
  -0.680268;-0.603935;-0.415329;,
  -0.336721;-0.821882;-0.459487;,
  -0.440269;-0.483288;0.756701;,
  -0.645226;-0.278549;0.711403;,
  -0.729290;-0.607760;0.314267;,
  -0.927215;0.152378;0.342129;,
  -0.103589;-0.934464;-0.340656;,
  0.102394;-0.993838;-0.042451;,
  -0.279181;0.954845;0.101635;,
  -0.102394;0.993838;0.042451;,
  0.103589;0.934464;0.340656;,
  -0.028256;0.992870;0.115802;,
  -0.258581;0.893221;0.367820;,
  -0.301234;0.906652;0.295364;,
  -0.699996;0.619365;0.355517;,
  -0.213326;0.974511;0.069422;,
  -0.103979;0.988161;0.112808;,
  0.038681;0.997126;-0.065141;,
  0.004118;0.999358;0.035589;,
  -0.631992;0.242163;-0.736167;,
  0.185580;-0.964399;-0.188400;,
  0.068947;-0.994752;0.075599;,
  -0.178523;0.960896;-0.211680;,
  -0.068947;0.994752;-0.075599;,
  -0.185580;0.964399;0.188400;,
  -0.118154;0.992898;0.013927;,
  -0.436909;0.891762;-0.117778;,
  -0.383929;0.906207;-0.177167;,
  -0.523484;0.668062;-0.528827;,
  -0.125952;0.978675;-0.162268;,
  -0.106246;0.993523;-0.040301;,
  0.082040;0.996464;0.018113;,
  -0.028833;0.999418;0.018232;,
  0.309643;0.830507;-0.463011;,
  0.488486;0.471200;-0.734406;,
  -0.198592;0.897677;-0.393366;,
  0.158560;0.961370;-0.225004;,
  -0.045604;0.994076;-0.098658;,
  -0.018757;0.926421;-0.376022;,
  0.055130;0.934325;-0.352133;,
  0.348532;0.777145;-0.523995;,
  0.126080;0.978789;-0.161478;,
  0.015197;0.990420;-0.137246;,
  0.012537;0.996393;0.083932;,
  -0.022167;0.999616;-0.016629;,
  0.530224;0.837612;0.131411;,
  0.840581;0.501669;0.204332;,
  0.277073;0.924488;-0.261826;,
  0.285713;0.955075;0.078741;,
  0.088560;0.993679;-0.068983;,
  0.343896;0.932519;-0.110196;,
  0.337745;0.939946;-0.049290;,
  0.605480;0.778225;0.166613;,
  0.212268;0.974760;0.069174;,
  0.129867;0.991300;-0.021428;,
  -0.074420;0.996387;0.040933;,
  0.014421;0.999653;-0.022028;,
  0.047679;0.331710;0.942176;,
  -0.336606;-0.941574;-0.011664;,
  -0.005270;-0.993909;-0.110078;,
  0.008900;0.954570;0.297855;,
  0.005270;0.993909;0.110078;,
  0.336606;0.941574;0.011664;,
  0.100618;0.992797;0.065038;,
  0.225907;0.921327;0.316422;,
  0.164127;0.933264;0.319501;,
  0.055839;0.719268;0.692485;,
  -0.002588;0.973727;0.227703;,
  0.064649;0.990674;0.119939;,
  -0.057424;0.996975;-0.052373;,
  0.031552;0.999446;0.010589;,
  0.048493;0.528572;0.847502;,
  0.334004;0.652142;0.680553;,
  0.577878;0.694417;0.428768;,
  0.788294;-0.593967;-0.160611;,
  -0.858566;0.478076;0.185224;,
  0.866430;-0.380555;-0.323229;,
  -0.866430;0.380555;0.323229;,
  -0.665295;0.488706;0.564402;,
  -0.390766;0.542946;0.743311;,
  0.379554;-0.078595;0.921825;,
  -0.361133;0.576015;-0.733341;,
  -0.580049;0.460649;-0.671823;,
  -0.742681;0.474720;-0.472298;,
  0.855957;-0.457242;0.241386;,
  -0.855957;0.457242;-0.241386;,
  0.593062;0.692496;-0.410762;,
  0.435212;0.613010;-0.659401;,
  0.153211;0.636519;-0.755890;,
  0.142485;-0.603131;0.784813;,
  -0.142485;0.603131;-0.784813;,
  -0.690027;-0.488684;-0.533901;,
  0.607131;0.673984;0.420876;,
  0.752061;0.628780;0.197586;,
  0.709794;0.697854;-0.095880;,
  0.601743;0.702250;-0.380460;,
  0.352779;-0.145375;-0.924345;,
  -0.181636;0.571531;0.800225;,
  0.248086;0.378708;0.891647;,
  0.219445;0.446324;0.867548;,
  0.485057;-0.579799;0.654639;,
  0.964351;0.257439;0.061258;,
  0.444087;0.313680;-0.839280;,
  -0.968967;0.032202;-0.245082;,
  -0.692693;0.616783;0.373838;,
  -0.974258;-0.000474;-0.225437;,
  -0.858747;-0.001062;-0.512399;,
  -0.660008;-0.001551;-0.751257;,
  -0.395501;-0.001892;-0.918464;,
  -0.090071;-0.002047;-0.995933;,
  0.225599;-0.002000;-0.974218;,
  0.518609;-0.001752;-0.855010;,
  0.758857;-0.001330;-0.651255;,
  0.922970;-0.000781;-0.384871;,
  0.996541;-0.000160;-0.083100;,
  0.974279;0.000474;0.225346;,
  0.858742;0.001063;0.512407;,
  0.659974;0.001551;0.751287;,
  0.395483;0.001892;0.918471;,
  0.090101;0.002048;0.995931;,
  -0.225536;0.002000;0.974233;,
  -0.518667;0.001751;0.854974;,
  -0.758907;0.001329;0.651198;,
  -0.922950;0.000780;0.384920;,
  -0.996539;0.000159;0.083127;;
  198;
  3;0,0,0;,
  3;94,94,94;,
  3;95,96,2;,
  3;97,98,99;,
  3;5,1,3;,
  3;100,101,102;,
  3;1,5,4;,
  3;103,102,101;,
  3;7,2,6;,
  3;104,97,105;,
  3;9,6,8;,
  3;106,104,107;,
  3;3,7,9;,
  3;107,105,100;,
  3;9,7,6;,
  3;104,105,107;,
  3;7,95,2;,
  3;97,99,105;,
  3;3,1,7;,
  3;105,101,100;,
  3;1,95,7;,
  3;105,99,101;,
  3;10,10,10;,
  3;108,108,108;,
  3;109,110,12;,
  3;111,112,113;,
  3;15,11,13;,
  3;114,115,116;,
  3;11,15,14;,
  3;117,116,115;,
  3;17,12,16;,
  3;118,111,119;,
  3;19,16,18;,
  3;120,118,121;,
  3;13,17,19;,
  3;121,119,114;,
  3;19,17,16;,
  3;118,119,121;,
  3;17,109,12;,
  3;111,113,119;,
  3;13,11,17;,
  3;119,115,114;,
  3;11,109,17;,
  3;119,113,115;,
  3;20,24,26;,
  3;122,123,124;,
  3;20,26,22;,
  3;125,122,124;,
  3;27,21,23;,
  3;126,127,128;,
  3;21,27,25;,
  3;129,128,127;,
  3;29,22,28;,
  3;130,125,131;,
  3;31,28,30;,
  3;132,130,133;,
  3;23,29,31;,
  3;133,131,126;,
  3;31,29,28;,
  3;130,131,133;,
  3;29,20,22;,
  3;125,124,131;,
  3;23,21,29;,
  3;131,127,126;,
  3;21,20,29;,
  3;131,124,127;,
  3;32,36,38;,
  3;134,135,136;,
  3;32,38,34;,
  3;137,134,136;,
  3;39,33,35;,
  3;138,139,140;,
  3;33,39,37;,
  3;141,140,139;,
  3;41,34,40;,
  3;142,137,143;,
  3;43,40,42;,
  3;144,142,145;,
  3;35,41,43;,
  3;145,143,138;,
  3;43,41,40;,
  3;142,143,145;,
  3;41,32,34;,
  3;137,136,143;,
  3;35,33,41;,
  3;143,139,138;,
  3;33,32,41;,
  3;143,136,139;,
  3;44,44,44;,
  3;146,146,146;,
  3;147,148,46;,
  3;149,150,151;,
  3;49,45,47;,
  3;152,153,154;,
  3;45,49,48;,
  3;155,154,153;,
  3;51,46,50;,
  3;156,149,157;,
  3;53,50,52;,
  3;158,156,159;,
  3;47,51,53;,
  3;159,157,152;,
  3;53,51,50;,
  3;156,157,159;,
  3;51,147,46;,
  3;149,151,157;,
  3;47,45,51;,
  3;157,153,152;,
  3;45,147,51;,
  3;157,151,153;,
  4;59,95,1,54;,
  4;160,101,99,161;,
  4;60,60,95,59;,
  4;161,99,162,162;,
  4;163,1,4,61;,
  4;164,103,101,164;,
  4;62,165,11,55;,
  4;166,115,166,167;,
  4;63,63,109,62;,
  4;167,113,168,168;,
  4;169,11,14,64;,
  4;170,117,115,170;,
  4;65,20,21,56;,
  4;171,127,124,172;,
  4;66,173,20,65;,
  4;172,124,174,174;,
  4;67,21,25,67;,
  4;175,129,127,175;,
  4;68,32,33,57;,
  4;176,139,136,177;,
  4;69,178,32,68;,
  4;177,136,179,179;,
  4;180,33,37,70;,
  4;181,141,139,181;,
  4;71,147,45,58;,
  4;182,153,151,183;,
  4;72,72,147,71;,
  4;183,151,184,184;,
  4;185,45,48,73;,
  4;186,155,153,186;,
  4;56,74,75,69;,
  3;169,187,188;,
  3;76,169,188;,
  3;189,77,169;,
  3;77,78,55;,
  4;78,79,61,55;,
  3;131,119,143;,
  3;143,119,157;,
  3;119,105,157;,
  3;78,79,55;,
  3;55,79,66;,
  3;79,80,66;,
  3;78,79,55;,
  3;55,79,62;,
  3;190,80,190;,
  3;80,82,66;,
  3;66,82,163;,
  3;82,81,54;,
  3;81,83,54;,
  3;83,84,54;,
  3;84,85,54;,
  3;85,59,54;,
  3;86,58,85;,
  3;85,58,84;,
  3;84,58,83;,
  3;185,191,191;,
  3;180,71,87;,
  3;87,71,88;,
  3;71,192,88;,
  3;88,58,89;,
  3;89,58,90;,
  3;58,86,90;,
  3;87,93,57;,
  3;74,56,91;,
  3;93,92,57;,
  3;91,56,92;,
  3;193,193,193;,
  3;68,57,92;,
  4;194,195,195,194;,
  4;195,196,196,195;,
  4;196,197,197,196;,
  4;197,198,198,197;,
  4;198,199,199,198;,
  4;199,200,200,199;,
  4;200,201,201,200;,
  4;201,202,202,201;,
  4;202,203,203,202;,
  4;203,204,204,203;,
  4;204,205,205,204;,
  4;205,206,206,205;,
  4;206,207,207,206;,
  4;207,208,208,207;,
  4;208,209,209,208;,
  4;209,210,210,209;,
  4;210,211,211,210;,
  4;211,212,212,211;,
  4;212,213,213,212;,
  4;213,194,194,213;;
 }
 MeshTextureCoords {
  142;
  0.000000;0.000000;,
  0.000000;0.000000;,
  0.000000;0.000000;,
  0.000000;0.000000;,
  0.000000;0.000000;,
  0.000000;0.000000;,
  0.000000;0.000000;,
  0.000000;0.000000;,
  0.000000;0.000000;,
  0.000000;0.000000;,
  0.000000;0.000000;,
  0.000000;0.000000;,
  0.000000;0.000000;,
  0.000000;0.000000;,
  0.000000;0.000000;,
  0.000000;0.000000;,
  0.000000;0.000000;,
  0.000000;0.000000;,
  0.000000;0.000000;,
  0.000000;0.000000;,
  0.000000;0.000000;,
  0.000000;0.000000;,
  0.000000;0.000000;,
  0.000000;0.000000;,
  0.000000;0.000000;,
  0.000000;0.000000;,
  0.000000;0.000000;,
  0.000000;0.000000;,
  0.000000;0.000000;,
  0.000000;0.000000;,
  0.000000;0.000000;,
  0.000000;0.000000;,
  0.000000;0.000000;,
  0.000000;0.000000;,
  0.000000;0.000000;,
  0.000000;0.000000;,
  0.000000;0.000000;,
  0.000000;0.000000;,
  0.000000;0.000000;,
  0.000000;0.000000;,
  0.000000;0.000000;,
  0.000000;0.000000;,
  0.000000;0.000000;,
  0.000000;0.000000;,
  0.000000;0.000000;,
  0.000000;0.000000;,
  0.000000;0.000000;,
  0.000000;0.000000;,
  0.000000;0.000000;,
  0.000000;0.000000;,
  0.000000;0.000000;,
  0.000000;0.000000;,
  0.000000;0.000000;,
  0.000000;0.000000;,
  0.000000;0.000000;,
  0.000000;0.000000;,
  0.000000;0.000000;,
  0.000000;0.000000;,
  0.000000;0.000000;,
  0.000000;0.000000;,
  0.000000;0.000000;,
  0.000000;0.000000;,
  0.000000;0.000000;,
  0.000000;0.000000;,
  0.000000;0.000000;,
  0.000000;0.000000;,
  0.000000;0.000000;,
  0.000000;0.000000;,
  0.000000;0.000000;,
  0.000000;0.000000;,
  0.000000;0.000000;,
  0.000000;0.000000;,
  0.000000;0.000000;,
  0.000000;0.000000;,
  0.000000;0.000000;,
  0.000000;0.000000;,
  0.000000;0.000000;,
  0.000000;0.000000;,
  0.000000;0.000000;,
  0.000000;0.000000;,
  0.000000;0.000000;,
  0.000000;0.000000;,
  0.000000;0.000000;,
  0.000000;0.000000;,
  0.000000;0.000000;,
  0.000000;0.000000;,
  0.000000;0.000000;,
  0.000000;0.000000;,
  0.000000;0.000000;,
  0.000000;0.000000;,
  0.000000;0.000000;,
  0.000000;0.000000;,
  0.000000;0.000000;,
  0.000000;0.000000;,
  0.000000;0.000000;,
  0.000000;0.000000;,
  0.000000;0.000000;,
  0.000000;0.000000;,
  0.000000;0.000000;,
  0.000000;0.000000;,
  0.851520;0.000000;,
  0.851490;0.050000;,
  0.899630;0.050000;,
  0.899950;0.000000;,
  0.851760;0.100000;,
  0.899060;0.100000;,
  0.852270;0.150000;,
  0.898330;0.150000;,
  0.852960;0.200000;,
  0.897540;0.200000;,
  0.853730;0.250000;,
  0.896780;0.250000;,
  0.854500;0.300000;,
  0.896120;0.300000;,
  0.855190;0.350000;,
  0.895610;0.350000;,
  0.855770;0.400000;,
  0.895270;0.400000;,
  0.856190;0.450000;,
  0.895130;0.450000;,
  0.856440;0.500000;,
  0.895180;0.500000;,
  0.856490;0.550000;,
  0.895420;0.550000;,
  0.856330;0.600000;,
  0.895830;0.600000;,
  0.855990;0.650000;,
  0.896400;0.650000;,
  0.855460;0.700000;,
  0.897080;0.700000;,
  0.854770;0.750000;,
  0.897820;0.750000;,
  0.853990;0.800000;,
  0.898570;0.800000;,
  0.853180;0.850000;,
  0.899240;0.850000;,
  0.852430;0.900000;,
  0.899730;0.900000;,
  0.851850;0.950000;,
  0.899990;0.950000;,
  0.851520;1.000000;,
  0.899950;1.000000;;
 }
 MeshVertexColors {
  142;
  0;1.000000;1.000000;1.000000;1.000000;,
  1;1.000000;1.000000;1.000000;1.000000;,
  2;1.000000;1.000000;1.000000;1.000000;,
  3;1.000000;1.000000;1.000000;1.000000;,
  4;1.000000;1.000000;1.000000;1.000000;,
  5;1.000000;1.000000;1.000000;1.000000;,
  6;1.000000;1.000000;1.000000;1.000000;,
  7;1.000000;1.000000;1.000000;1.000000;,
  8;1.000000;1.000000;1.000000;1.000000;,
  9;1.000000;1.000000;1.000000;1.000000;,
  10;1.000000;1.000000;1.000000;1.000000;,
  11;1.000000;1.000000;1.000000;1.000000;,
  12;1.000000;1.000000;1.000000;1.000000;,
  13;1.000000;1.000000;1.000000;1.000000;,
  14;1.000000;1.000000;1.000000;1.000000;,
  15;1.000000;1.000000;1.000000;1.000000;,
  16;1.000000;1.000000;1.000000;1.000000;,
  17;1.000000;1.000000;1.000000;1.000000;,
  18;1.000000;1.000000;1.000000;1.000000;,
  19;1.000000;1.000000;1.000000;1.000000;,
  20;1.000000;1.000000;1.000000;1.000000;,
  21;1.000000;1.000000;1.000000;1.000000;,
  22;1.000000;1.000000;1.000000;1.000000;,
  23;1.000000;1.000000;1.000000;1.000000;,
  24;1.000000;1.000000;1.000000;1.000000;,
  25;1.000000;1.000000;1.000000;1.000000;,
  26;1.000000;1.000000;1.000000;1.000000;,
  27;1.000000;1.000000;1.000000;1.000000;,
  28;1.000000;1.000000;1.000000;1.000000;,
  29;1.000000;1.000000;1.000000;1.000000;,
  30;1.000000;1.000000;1.000000;1.000000;,
  31;1.000000;1.000000;1.000000;1.000000;,
  32;1.000000;1.000000;1.000000;1.000000;,
  33;1.000000;1.000000;1.000000;1.000000;,
  34;1.000000;1.000000;1.000000;1.000000;,
  35;1.000000;1.000000;1.000000;1.000000;,
  36;1.000000;1.000000;1.000000;1.000000;,
  37;1.000000;1.000000;1.000000;1.000000;,
  38;1.000000;1.000000;1.000000;1.000000;,
  39;1.000000;1.000000;1.000000;1.000000;,
  40;1.000000;1.000000;1.000000;1.000000;,
  41;1.000000;1.000000;1.000000;1.000000;,
  42;1.000000;1.000000;1.000000;1.000000;,
  43;1.000000;1.000000;1.000000;1.000000;,
  44;1.000000;1.000000;1.000000;1.000000;,
  45;1.000000;1.000000;1.000000;1.000000;,
  46;1.000000;1.000000;1.000000;1.000000;,
  47;1.000000;1.000000;1.000000;1.000000;,
  48;1.000000;1.000000;1.000000;1.000000;,
  49;1.000000;1.000000;1.000000;1.000000;,
  50;1.000000;1.000000;1.000000;1.000000;,
  51;1.000000;1.000000;1.000000;1.000000;,
  52;1.000000;1.000000;1.000000;1.000000;,
  53;1.000000;1.000000;1.000000;1.000000;,
  54;1.000000;1.000000;1.000000;1.000000;,
  55;1.000000;1.000000;1.000000;1.000000;,
  56;1.000000;1.000000;1.000000;1.000000;,
  57;1.000000;1.000000;1.000000;1.000000;,
  58;1.000000;1.000000;1.000000;1.000000;,
  59;1.000000;1.000000;1.000000;1.000000;,
  60;1.000000;1.000000;1.000000;1.000000;,
  61;1.000000;1.000000;1.000000;1.000000;,
  62;1.000000;1.000000;1.000000;1.000000;,
  63;1.000000;1.000000;1.000000;1.000000;,
  64;1.000000;1.000000;1.000000;1.000000;,
  65;1.000000;1.000000;1.000000;1.000000;,
  66;1.000000;1.000000;1.000000;1.000000;,
  67;1.000000;1.000000;1.000000;1.000000;,
  68;1.000000;1.000000;1.000000;1.000000;,
  69;1.000000;1.000000;1.000000;1.000000;,
  70;1.000000;1.000000;1.000000;1.000000;,
  71;1.000000;1.000000;1.000000;1.000000;,
  72;1.000000;1.000000;1.000000;1.000000;,
  73;1.000000;1.000000;1.000000;1.000000;,
  74;1.000000;1.000000;1.000000;1.000000;,
  75;1.000000;1.000000;1.000000;1.000000;,
  76;1.000000;1.000000;1.000000;1.000000;,
  77;1.000000;1.000000;1.000000;1.000000;,
  78;1.000000;1.000000;1.000000;1.000000;,
  79;1.000000;1.000000;1.000000;1.000000;,
  80;1.000000;1.000000;1.000000;1.000000;,
  81;1.000000;1.000000;1.000000;1.000000;,
  82;1.000000;1.000000;1.000000;1.000000;,
  83;1.000000;1.000000;1.000000;1.000000;,
  84;1.000000;1.000000;1.000000;1.000000;,
  85;1.000000;1.000000;1.000000;1.000000;,
  86;1.000000;1.000000;1.000000;1.000000;,
  87;1.000000;1.000000;1.000000;1.000000;,
  88;1.000000;1.000000;1.000000;1.000000;,
  89;1.000000;1.000000;1.000000;1.000000;,
  90;1.000000;1.000000;1.000000;1.000000;,
  91;1.000000;1.000000;1.000000;1.000000;,
  92;1.000000;1.000000;1.000000;1.000000;,
  93;1.000000;1.000000;1.000000;1.000000;,
  94;1.000000;1.000000;1.000000;1.000000;,
  95;1.000000;1.000000;1.000000;1.000000;,
  96;1.000000;1.000000;1.000000;1.000000;,
  97;1.000000;1.000000;1.000000;1.000000;,
  98;1.000000;1.000000;1.000000;1.000000;,
  99;1.000000;1.000000;1.000000;1.000000;,
  100;1.000000;1.000000;1.000000;1.000000;,
  101;1.000000;1.000000;1.000000;1.000000;,
  102;1.000000;1.000000;1.000000;1.000000;,
  103;1.000000;1.000000;1.000000;1.000000;,
  104;1.000000;1.000000;1.000000;1.000000;,
  105;1.000000;1.000000;1.000000;1.000000;,
  106;1.000000;1.000000;1.000000;1.000000;,
  107;1.000000;1.000000;1.000000;1.000000;,
  108;1.000000;1.000000;1.000000;1.000000;,
  109;1.000000;1.000000;1.000000;1.000000;,
  110;1.000000;1.000000;1.000000;1.000000;,
  111;1.000000;1.000000;1.000000;1.000000;,
  112;1.000000;1.000000;1.000000;1.000000;,
  113;1.000000;1.000000;1.000000;1.000000;,
  114;1.000000;1.000000;1.000000;1.000000;,
  115;1.000000;1.000000;1.000000;1.000000;,
  116;1.000000;1.000000;1.000000;1.000000;,
  117;1.000000;1.000000;1.000000;1.000000;,
  118;1.000000;1.000000;1.000000;1.000000;,
  119;1.000000;1.000000;1.000000;1.000000;,
  120;1.000000;1.000000;1.000000;1.000000;,
  121;1.000000;1.000000;1.000000;1.000000;,
  122;1.000000;1.000000;1.000000;1.000000;,
  123;1.000000;1.000000;1.000000;1.000000;,
  124;1.000000;1.000000;1.000000;1.000000;,
  125;1.000000;1.000000;1.000000;1.000000;,
  126;1.000000;1.000000;1.000000;1.000000;,
  127;1.000000;1.000000;1.000000;1.000000;,
  128;1.000000;1.000000;1.000000;1.000000;,
  129;1.000000;1.000000;1.000000;1.000000;,
  130;1.000000;1.000000;1.000000;1.000000;,
  131;1.000000;1.000000;1.000000;1.000000;,
  132;1.000000;1.000000;1.000000;1.000000;,
  133;1.000000;1.000000;1.000000;1.000000;,
  134;1.000000;1.000000;1.000000;1.000000;,
  135;1.000000;1.000000;1.000000;1.000000;,
  136;1.000000;1.000000;1.000000;1.000000;,
  137;1.000000;1.000000;1.000000;1.000000;,
  138;1.000000;1.000000;1.000000;1.000000;,
  139;1.000000;1.000000;1.000000;1.000000;,
  140;1.000000;1.000000;1.000000;1.000000;,
  141;1.000000;1.000000;1.000000;1.000000;;
 }
}
