xof 0302txt 0064
template Header {
 <3D82AB43-62DA-11cf-AB39-0020AF71E433>
 WORD major;
 WORD minor;
 DWORD flags;
}

template Vector {
 <3D82AB5E-62DA-11cf-AB39-0020AF71E433>
 FLOAT x;
 FLOAT y;
 FLOAT z;
}

template Coords2d {
 <F6F23F44-7686-11cf-8F52-0040333594A3>
 FLOAT u;
 FLOAT v;
}

template Matrix4x4 {
 <F6F23F45-7686-11cf-8F52-0040333594A3>
 array FLOAT matrix[16];
}

template ColorRGBA {
 <35FF44E0-6C7C-11cf-8F52-0040333594A3>
 FLOAT red;
 FLOAT green;
 FLOAT blue;
 FLOAT alpha;
}

template ColorRGB {
 <D3E16E81-7835-11cf-8F52-0040333594A3>
 FLOAT red;
 FLOAT green;
 FLOAT blue;
}

template IndexedColor {
 <1630B820-7842-11cf-8F52-0040333594A3>
 DWORD index;
 ColorRGBA indexColor;
}

template Boolean {
 <4885AE61-78E8-11cf-8F52-0040333594A3>
 WORD truefalse;
}

template Boolean2d {
 <4885AE63-78E8-11cf-8F52-0040333594A3>
 Boolean u;
 Boolean v;
}

template MaterialWrap {
 <4885AE60-78E8-11cf-8F52-0040333594A3>
 Boolean u;
 Boolean v;
}

template TextureFilename {
 <A42790E1-7810-11cf-8F52-0040333594A3>
 STRING filename;
}

template Material {
 <3D82AB4D-62DA-11cf-AB39-0020AF71E433>
 ColorRGBA faceColor;
 FLOAT power;
 ColorRGB specularColor;
 ColorRGB emissiveColor;
 [...]
}

template MeshFace {
 <3D82AB5F-62DA-11cf-AB39-0020AF71E433>
 DWORD nFaceVertexIndices;
 array DWORD faceVertexIndices[nFaceVertexIndices];
}

template MeshFaceWraps {
 <4885AE62-78E8-11cf-8F52-0040333594A3>
 DWORD nFaceWrapValues;
 Boolean2d faceWrapValues;
}

template MeshTextureCoords {
 <F6F23F40-7686-11cf-8F52-0040333594A3>
 DWORD nTextureCoords;
 array Coords2d textureCoords[nTextureCoords];
}

template MeshMaterialList {
 <F6F23F42-7686-11cf-8F52-0040333594A3>
 DWORD nMaterials;
 DWORD nFaceIndexes;
 array DWORD faceIndexes[nFaceIndexes];
 [Material]
}

template MeshNormals {
 <F6F23F43-7686-11cf-8F52-0040333594A3>
 DWORD nNormals;
 array Vector normals[nNormals];
 DWORD nFaceNormals;
 array MeshFace faceNormals[nFaceNormals];
}

template MeshVertexColors {
 <1630B821-7842-11cf-8F52-0040333594A3>
 DWORD nVertexColors;
 array IndexedColor vertexColors[nVertexColors];
}

template Mesh {
 <3D82AB44-62DA-11cf-AB39-0020AF71E433>
 DWORD nVertices;
 array Vector vertices[nVertices];
 DWORD nFaces;
 array MeshFace faces[nFaces];
 [...]
}

Header{
1;
0;
1;
}

Mesh {
 426;
 0.00000;2.95717;0.00000;,
 0.27060;2.88105;-0.27060;,
 0.00000;2.88105;-0.38268;,
 0.00000;2.95717;0.00000;,
 0.38268;2.88105;0.00000;,
 0.00000;2.95717;0.00000;,
 0.27060;2.88105;0.27060;,
 0.00000;2.95717;0.00000;,
 0.00000;2.88105;0.38268;,
 0.00000;2.95717;0.00000;,
 -0.27060;2.88105;0.27060;,
 0.00000;2.95717;0.00000;,
 -0.38268;2.88105;0.00000;,
 0.00000;2.95717;0.00000;,
 -0.27060;2.88105;-0.27060;,
 0.00000;2.95717;0.00000;,
 0.00000;2.88105;-0.38268;,
 0.50000;2.66428;-0.50000;,
 0.00000;2.66428;-0.70711;,
 0.70711;2.66428;0.00000;,
 0.50000;2.66428;0.50000;,
 0.00000;2.66428;0.70711;,
 -0.50000;2.66428;0.50000;,
 -0.70711;2.66428;0.00000;,
 -0.50000;2.66428;-0.50000;,
 0.00000;2.66428;-0.70711;,
 0.65328;2.33985;-0.65328;,
 0.00000;2.33985;-0.92388;,
 0.92388;2.33985;0.00000;,
 0.65328;2.33985;0.65328;,
 0.00000;2.33985;0.92388;,
 -0.65328;2.33985;0.65328;,
 -0.92388;2.33985;0.00000;,
 -0.65328;2.33985;-0.65328;,
 0.00000;2.33985;-0.92388;,
 0.70711;1.95717;-0.70711;,
 0.00000;1.95717;-1.00000;,
 1.00000;1.95717;0.00000;,
 0.70711;1.95717;0.70711;,
 0.00000;1.95717;1.00000;,
 -0.70711;1.95717;0.70711;,
 -1.00000;1.95717;0.00000;,
 -0.70711;1.95717;-0.70711;,
 0.00000;1.95717;-1.00000;,
 0.65328;1.57448;-0.65328;,
 0.00000;1.57448;-0.92388;,
 0.92388;1.57448;0.00000;,
 0.65328;1.57448;0.65328;,
 0.00000;1.57448;0.92388;,
 -0.65328;1.57448;0.65328;,
 -0.92388;1.57448;0.00000;,
 -0.65328;1.57448;-0.65328;,
 0.00000;1.57448;-0.92388;,
 0.50000;1.25006;-0.50000;,
 0.00000;1.25006;-0.70711;,
 0.70711;1.25006;0.00000;,
 0.50000;1.25006;0.50000;,
 0.00000;1.25006;0.70711;,
 -0.50000;1.25006;0.50000;,
 -0.70711;1.25006;0.00000;,
 -0.50000;1.25006;-0.50000;,
 0.00000;1.25006;-0.70711;,
 0.27060;1.03329;-0.27060;,
 0.00000;1.03329;-0.38268;,
 0.38268;1.03329;0.00000;,
 0.27060;1.03329;0.27060;,
 0.00000;1.03329;0.38268;,
 -0.27060;1.03329;0.27060;,
 -0.38268;1.03329;0.00000;,
 -0.27060;1.03329;-0.27060;,
 0.00000;1.03329;-0.38268;,
 0.00000;0.95717;0.00000;,
 0.00000;0.95717;0.00000;,
 0.00000;0.95717;0.00000;,
 0.00000;0.95717;0.00000;,
 0.00000;0.95717;0.00000;,
 0.00000;0.95717;0.00000;,
 0.00000;0.95717;0.00000;,
 0.00000;0.95717;0.00000;,
 0.02708;0.01230;0.03318;,
 -0.07265;-0.00474;0.02725;,
 0.01259;0.00978;0.06563;,
 0.03014;0.02311;0.07104;,
 0.05034;0.03199;0.04671;,
 0.05581;0.03749;0.07694;,
 0.07023;0.04433;0.06169;,
 0.09617;0.05584;0.08149;,
 0.08182;0.03391;0.04874;,
 0.06720;0.01994;0.02998;,
 0.05343;0.00600;0.01613;,
 0.00974;0.00772;0.03126;,
 0.01022;0.00776;0.02348;,
 0.00839;0.02818;0.02201;,
 0.00789;0.02829;0.02978;,
 0.00229;0.00734;0.03324;,
 0.00039;0.02817;0.03176;,
 -0.00191;0.00716;0.02654;,
 -0.00380;0.02798;0.02506;,
 0.00306;0.00742;0.02058;,
 0.00120;0.02799;0.01911;,
 0.00789;0.02829;0.02978;,
 0.00839;0.02818;0.02201;,
 0.00927;0.04857;0.01883;,
 0.00877;0.04883;0.02658;,
 0.00039;0.02817;0.03176;,
 0.00127;0.04897;0.02853;,
 -0.00380;0.02798;0.02506;,
 -0.00293;0.04878;0.02183;,
 0.00120;0.02799;0.01911;,
 0.00209;0.04853;0.01591;,
 0.04964;0.09377;-0.01387;,
 0.00654;0.05281;0.02001;,
 0.07010;0.09454;0.05356;,
 0.10868;0.11664;0.02714;,
 0.11006;0.12739;-0.04152;,
 0.16006;0.13908;-0.00978;,
 0.16406;0.14822;-0.01823;,
 0.23266;0.16646;-0.03147;,
 0.15883;0.12461;-0.08008;,
 0.10669;0.09965;-0.07606;,
 0.06222;0.07496;-0.06605;,
 -0.03833;0.09656;0.04411;,
 0.00115;0.05298;0.02340;,
 -0.05889;0.09317;-0.02290;,
 -0.09549;0.11752;-0.00371;,
 -0.09575;0.13279;0.06089;,
 -0.14481;0.14216;0.06328;,
 -0.14792;0.15334;0.10734;,
 -0.21489;0.17326;0.11750;,
 -0.14461;0.13355;0.09977;,
 -0.09465;0.10762;0.10367;,
 -0.05234;0.08171;0.10153;,
 -0.00395;0.04879;0.02269;,
 0.00161;0.04892;0.02972;,
 0.00229;0.07272;0.02723;,
 -0.00327;0.07259;0.02020;,
 0.00095;0.04859;0.01519;,
 0.00163;0.07239;0.01270;,
 0.00970;0.04859;0.01767;,
 0.01038;0.07239;0.01517;,
 0.01000;0.04879;0.02663;,
 0.01068;0.07259;0.02414;,
 -0.00327;0.07259;0.02020;,
 0.00229;0.07272;0.02723;,
 0.00263;0.09645;0.02595;,
 -0.00293;0.09639;0.01891;,
 0.00163;0.07239;0.01270;,
 0.00198;0.09628;0.01141;,
 0.01038;0.07239;0.01517;,
 0.01073;0.09629;0.01388;,
 0.01068;0.07259;0.02414;,
 0.01102;0.09639;0.02285;,
 -0.00293;0.09639;0.01891;,
 0.00263;0.09645;0.02595;,
 0.00263;0.12020;0.02587;,
 -0.00292;0.12019;0.01883;,
 0.00198;0.09628;0.01141;,
 0.00198;0.12019;0.01133;,
 0.01073;0.09629;0.01388;,
 0.01073;0.12019;0.01380;,
 0.01102;0.09639;0.02285;,
 0.01102;0.12019;0.02278;,
 0.00120;0.12572;0.01417;,
 0.00173;0.12301;0.01227;,
 -0.00333;0.12336;0.02040;,
 0.01018;0.12437;0.01568;,
 0.00912;0.12824;0.01946;,
 0.00991;0.12573;0.01663;,
 0.00080;0.12698;0.01558;,
 0.01003;0.12534;0.02622;,
 -0.01625;0.19215;0.14120;,
 0.00333;0.12683;0.02337;,
 -0.11208;0.19096;0.08360;,
 -0.13208;0.22697;0.15362;,
 -0.06203;0.24649;0.23480;,
 -0.15608;0.26386;0.24973;,
 -0.11252;0.27947;0.30773;,
 -0.18004;0.30851;0.39652;,
 -0.07833;0.24335;0.33296;,
 -0.01820;0.20360;0.27510;,
 0.02647;0.16406;0.21839;,
 -0.00052;0.12573;0.02031;,
 -0.00105;0.12302;0.02223;,
 0.00793;0.12438;0.02373;,
 -0.00116;0.12336;0.01263;,
 0.00028;0.12824;0.01746;,
 -0.00052;0.12573;0.02031;,
 0.00859;0.12698;0.02135;,
 -0.00063;0.12533;0.01072;,
 0.02567;0.19469;-0.02193;,
 0.00607;0.12683;0.01356;,
 0.12149;0.19170;0.03537;,
 0.14151;0.22980;-0.02935;,
 0.07147;0.25181;-0.10756;,
 0.16553;0.26960;-0.11997;,
 0.12197;0.28698;-0.17561;,
 0.18950;0.31871;-0.26006;,
 0.08777;0.25172;-0.20594;,
 0.02763;0.21027;-0.15390;,
 -0.01706;0.16906;-0.10296;,
 0.01012;0.12010;0.01310;,
 0.00131;0.11992;0.01165;,
 -0.00036;0.14299;0.04581;,
 0.00845;0.14315;0.04727;,
 0.01149;0.12040;0.02195;,
 0.00983;0.14330;0.05614;,
 0.00335;0.12041;0.02602;,
 0.00169;0.14324;0.06021;,
 -0.00285;0.12011;0.01959;,
 -0.00451;0.14305;0.05376;,
 0.00845;0.14315;0.04727;,
 -0.00036;0.14299;0.04581;,
 -0.00365;0.16639;0.04082;,
 0.00514;0.16673;0.04226;,
 0.00983;0.14330;0.05614;,
 0.00648;0.16718;0.05109;,
 0.00169;0.14324;0.06021;,
 -0.00165;0.16712;0.05516;,
 -0.00451;0.14305;0.05376;,
 -0.00783;0.16663;0.04875;,
 0.00514;0.16673;0.04226;,
 -0.00365;0.16639;0.04082;,
 -0.00857;0.18953;0.03254;,
 0.00019;0.19004;0.03393;,
 0.00648;0.16718;0.05109;,
 0.00148;0.19078;0.04267;,
 -0.00165;0.16712;0.05516;,
 -0.00666;0.19072;0.04674;,
 -0.00783;0.16663;0.04875;,
 -0.01278;0.18994;0.04042;,
 -0.05849;0.25513;-0.05950;,
 -0.00882;0.19624;0.03252;,
 0.05043;0.25641;-0.08113;,
 0.01345;0.28642;-0.15611;,
 -0.09482;0.30101;-0.17426;,
 -0.03784;0.31536;-0.25300;,
 -0.11067;0.32731;-0.27078;,
 -0.12371;0.34832;-0.38903;,
 -0.14675;0.29063;-0.25561;,
 -0.14684;0.25678;-0.16162;,
 -0.13631;0.22278;-0.07883;,
 0.01728;0.26999;0.08639;,
 -0.00444;0.19713;0.04143;,
 -0.09077;0.26463;0.10948;,
 -0.06916;0.30700;0.15861;,
 0.03051;0.33297;0.16227;,
 -0.03376;0.35296;0.22874;,
 0.03224;0.37323;0.23501;,
 0.03269;0.41159;0.33206;,
 0.08311;0.34019;0.24474;,
 0.10003;0.29473;0.17908;,
 0.10623;0.24987;0.12446;,
 -0.00572;0.19069;0.04687;,
 0.00183;0.19048;0.04208;,
 0.00033;0.21408;0.03507;,
 -0.00722;0.21428;0.03987;,
 -0.01263;0.19023;0.04126;,
 -0.01412;0.21382;0.03425;,
 -0.00925;0.18973;0.03284;,
 -0.01075;0.21333;0.02583;,
 -0.00034;0.18990;0.03346;,
 -0.00184;0.21349;0.02645;,
 -0.00722;0.21428;0.03987;,
 0.00033;0.21408;0.03507;,
 0.00231;0.23749;0.02953;,
 -0.00524;0.23787;0.03427;,
 -0.01412;0.21382;0.03425;,
 -0.01214;0.23770;0.02857;,
 -0.01075;0.21333;0.02583;,
 -0.00877;0.23721;0.02016;,
 -0.00184;0.21349;0.02645;,
 0.00014;0.23708;0.02085;,
 -0.00524;0.23787;0.03427;,
 0.00231;0.23749;0.02953;,
 0.00772;0.26084;0.02538;,
 0.00020;0.26140;0.03009;,
 -0.01214;0.23770;0.02857;,
 -0.00666;0.26152;0.02433;,
 -0.00877;0.23721;0.02016;,
 -0.00329;0.26103;0.01592;,
 0.00014;0.23708;0.02085;,
 0.00557;0.26061;0.01667;,
 -0.00266;0.26692;0.02447;,
 -0.00510;0.26429;0.02419;,
 0.00243;0.26449;0.03012;,
 -0.00174;0.26380;0.01581;,
 0.00070;0.26642;0.01608;,
 0.00779;0.26370;0.01676;,
 0.00062;0.26931;0.02515;,
 -0.00266;0.26692;0.02447;,
 0.00469;0.26638;0.03052;,
 0.00070;0.26642;0.01608;,
 0.00398;0.26882;0.01676;,
 0.01005;0.26559;0.01716;,
 0.09566;0.33176;0.03976;,
 0.00687;0.26750;0.02323;,
 0.02833;0.33650;0.12877;,
 0.10097;0.37107;0.15000;,
 0.19169;0.38497;0.08594;,
 0.19906;0.40592;0.17802;,
 0.26344;0.41778;0.13839;,
 0.34839;0.44696;0.21031;,
 0.28630;0.37963;0.11390;,
 0.22938;0.33922;0.05483;,
 0.17198;0.29966;0.01121;,
 0.00655;0.26622;0.01851;,
 0.00775;0.26347;0.01974;,
 0.00038;0.26396;0.01369;,
 0.00439;0.26397;0.02812;,
 0.00319;0.26671;0.02689;,
 -0.00498;0.26475;0.02705;,
 0.00442;0.26880;0.01694;,
 0.00655;0.26622;0.01851;,
 -0.00098;0.26597;0.01259;,
 0.00319;0.26671;0.02689;,
 0.00106;0.26930;0.02533;,
 -0.00634;0.26676;0.02595;,
 -0.06041;0.33732;-0.02097;,
 -0.00248;0.26782;0.01936;,
 0.00596;0.32843;-0.10925;,
 -0.04972;0.36735;-0.14355;,
 -0.13094;0.39463;-0.08681;,
 -0.13027;0.40855;-0.18509;,
 -0.18710;0.42940;-0.15128;,
 -0.25815;0.46050;-0.23393;,
 -0.22629;0.39677;-0.11420;,
 -0.18795;0.35665;-0.04080;,
 -0.14901;0.31615;0.01705;,
 -0.00406;0.26100;0.01646;,
 -0.00648;0.26128;0.02509;,
 -0.00453;0.28505;0.02216;,
 -0.00212;0.28478;0.01354;,
 0.00486;0.26083;0.01607;,
 0.00680;0.28461;0.01315;,
 0.00799;0.26101;0.02464;,
 0.00994;0.28478;0.02172;,
 0.00093;0.26128;0.03011;,
 0.00287;0.28505;0.02719;,
 -0.00212;0.28478;0.01354;,
 -0.00453;0.28505;0.02216;,
 -0.00611;0.30860;0.02056;,
 -0.00369;0.30850;0.01192;,
 0.00680;0.28461;0.01315;,
 0.00523;0.30863;0.01150;,
 0.00994;0.28478;0.02172;,
 0.00836;0.30880;0.02007;,
 0.00287;0.28505;0.02719;,
 0.00130;0.30878;0.02557;,
 -0.00369;0.30850;0.01192;,
 -0.00611;0.30860;0.02056;,
 -0.01115;0.33204;0.02025;,
 -0.00876;0.33213;0.01159;,
 0.00523;0.30863;0.01150;,
 0.00013;0.33255;0.01117;,
 0.00836;0.30880;0.02007;,
 0.00326;0.33272;0.01974;,
 0.00130;0.30878;0.02557;,
 -0.00377;0.33241;0.02525;,
 -0.08224;0.39112;0.04263;,
 -0.00917;0.33772;0.01899;,
 -0.09017;0.38870;-0.05083;,
 -0.15178;0.41705;-0.03170;,
 -0.17471;0.43371;0.05495;,
 -0.23302;0.44559;-0.00252;,
 -0.24833;0.42900;0.09225;,
 -0.17480;0.39832;0.10658;,
 -0.10963;0.36743;0.11096;,
 0.04774;0.39707;-0.00914;,
 -0.00125;0.33808;0.01603;,
 0.05642;0.39600;0.08436;,
 0.10481;0.42941;0.06439;,
 0.12032;0.44735;-0.02273;,
 0.19452;0.44937;-0.06000;,
 0.13548;0.41238;-0.07340;,
 0.08472;0.37601;-0.07685;,
 0.00260;0.33262;0.01868;,
 -0.00088;0.33227;0.01160;,
 -0.00384;0.35322;0.00837;,
 -0.00035;0.35357;0.01545;,
 -0.00301;0.33263;0.02426;,
 -0.00596;0.35358;0.02103;,
 -0.01010;0.33228;0.02053;,
 -0.01305;0.35324;0.01730;,
 -0.00869;0.33207;0.01274;,
 -0.01164;0.35302;0.00951;,
 -0.00035;0.35357;0.01545;,
 -0.00384;0.35322;0.00837;,
 -0.00522;0.37384;0.00226;,
 -0.00174;0.37435;0.00931;,
 -0.00596;0.35358;0.02103;,
 -0.00739;0.37462;0.01483;,
 -0.01305;0.35324;0.01730;,
 -0.01447;0.37427;0.01110;,
 -0.01164;0.35302;0.00951;,
 -0.01304;0.37380;0.00336;,
 -0.00174;0.37435;0.00931;,
 -0.00522;0.37384;0.00226;,
 -0.00506;0.39424;-0.00671;,
 -0.00159;0.39490;0.00028;,
 -0.00739;0.37462;0.01483;,
 -0.00724;0.39543;0.00571;,
 -0.01447;0.37427;0.01110;,
 -0.01432;0.39508;0.00198;,
 -0.01304;0.37380;0.00336;,
 -0.01288;0.39435;-0.00567;,
 0.00433;0.41622;-0.03534;,
 -0.00743;0.39679;-0.00323;,
 0.03091;0.41785;-0.01044;,
 0.04208;0.42783;-0.03534;,
 0.02534;0.43167;-0.06805;,
 0.05636;0.43746;-0.06828;,
 0.04646;0.44078;-0.09140;,
 0.07413;0.44833;-0.11809;,
 0.03740;0.42830;-0.09744;,
 0.01427;0.41658;-0.07870;,
 -0.00385;0.40498;-0.05928;,
 -0.02044;0.42085;0.01279;,
 -0.00899;0.39707;-0.00035;,
 -0.04702;0.41788;-0.01153;,
 -0.05802;0.43165;0.00296;,
 -0.04118;0.44111;0.02982;,
 -0.07211;0.44658;0.02511;,
 -0.06214;0.45384;0.04358;,
 -0.05324;0.44344;0.05966;,
 -0.03031;0.42915;0.05235;,
 -0.01238;0.41488;0.04428;;
 
 548;
 3;0,1,2;,
 3;3,4,1;,
 3;5,6,4;,
 3;7,8,6;,
 3;9,10,8;,
 3;11,12,10;,
 3;13,14,12;,
 3;15,16,14;,
 4;2,1,17,18;,
 4;1,4,19,17;,
 4;4,6,20,19;,
 4;6,8,21,20;,
 4;8,10,22,21;,
 4;10,12,23,22;,
 4;12,14,24,23;,
 4;14,16,25,24;,
 4;18,17,26,27;,
 4;17,19,28,26;,
 4;19,20,29,28;,
 4;20,21,30,29;,
 4;21,22,31,30;,
 4;22,23,32,31;,
 4;23,24,33,32;,
 4;24,25,34,33;,
 4;27,26,35,36;,
 4;26,28,37,35;,
 4;28,29,38,37;,
 4;29,30,39,38;,
 4;30,31,40,39;,
 4;31,32,41,40;,
 4;32,33,42,41;,
 4;33,34,43,42;,
 4;36,35,44,45;,
 4;35,37,46,44;,
 4;37,38,47,46;,
 4;38,39,48,47;,
 4;39,40,49,48;,
 4;40,41,50,49;,
 4;41,42,51,50;,
 4;42,43,52,51;,
 4;45,44,53,54;,
 4;44,46,55,53;,
 4;46,47,56,55;,
 4;47,48,57,56;,
 4;48,49,58,57;,
 4;49,50,59,58;,
 4;50,51,60,59;,
 4;51,52,61,60;,
 4;54,53,62,63;,
 4;53,55,64,62;,
 4;55,56,65,64;,
 4;56,57,66,65;,
 4;57,58,67,66;,
 4;58,59,68,67;,
 4;59,60,69,68;,
 4;60,61,70,69;,
 3;63,62,71;,
 3;62,64,72;,
 3;64,65,73;,
 3;65,66,74;,
 3;66,67,75;,
 3;67,68,76;,
 3;68,69,77;,
 3;69,70,78;,
 3;79,80,81;,
 3;81,80,79;,
 3;82,79,81;,
 3;81,79,82;,
 3;83,79,82;,
 3;82,79,83;,
 3;84,83,82;,
 3;82,83,84;,
 3;85,83,84;,
 3;84,83,85;,
 3;86,85,84;,
 3;84,85,86;,
 3;86,87,85;,
 3;85,87,86;,
 3;85,87,83;,
 3;83,87,85;,
 3;83,87,88;,
 3;88,87,83;,
 3;79,83,88;,
 3;88,83,79;,
 3;89,79,88;,
 3;88,79,89;,
 3;80,79,89;,
 3;89,79,80;,
 3;90,91,92;,
 3;93,90,92;,
 3;94,90,93;,
 3;95,94,93;,
 3;96,94,95;,
 3;97,96,95;,
 3;98,96,97;,
 3;99,98,97;,
 3;91,98,99;,
 3;92,91,99;,
 3;100,101,102;,
 3;103,100,102;,
 3;104,100,103;,
 3;105,104,103;,
 3;106,104,105;,
 3;107,106,105;,
 3;108,106,107;,
 3;109,108,107;,
 3;101,108,109;,
 3;102,101,109;,
 3;110,111,112;,
 3;112,111,110;,
 3;113,110,112;,
 3;112,110,113;,
 3;114,110,113;,
 3;113,110,114;,
 3;115,114,113;,
 3;113,114,115;,
 3;116,114,115;,
 3;115,114,116;,
 3;117,116,115;,
 3;115,116,117;,
 3;117,118,116;,
 3;116,118,117;,
 3;116,118,114;,
 3;114,118,116;,
 3;114,118,119;,
 3;119,118,114;,
 3;110,114,119;,
 3;119,114,110;,
 3;120,110,119;,
 3;119,110,120;,
 3;111,110,120;,
 3;120,110,111;,
 3;121,122,123;,
 3;123,122,121;,
 3;124,121,123;,
 3;123,121,124;,
 3;125,121,124;,
 3;124,121,125;,
 3;126,125,124;,
 3;124,125,126;,
 3;127,125,126;,
 3;126,125,127;,
 3;128,127,126;,
 3;126,127,128;,
 3;128,129,127;,
 3;127,129,128;,
 3;127,129,125;,
 3;125,129,127;,
 3;125,129,130;,
 3;130,129,125;,
 3;121,125,130;,
 3;130,125,121;,
 3;131,121,130;,
 3;130,121,131;,
 3;122,121,131;,
 3;131,121,122;,
 3;132,133,134;,
 3;135,132,134;,
 3;136,132,135;,
 3;137,136,135;,
 3;138,136,137;,
 3;139,138,137;,
 3;140,138,139;,
 3;141,140,139;,
 3;133,140,141;,
 3;134,133,141;,
 3;142,143,144;,
 3;145,142,144;,
 3;146,142,145;,
 3;147,146,145;,
 3;148,146,147;,
 3;149,148,147;,
 3;150,148,149;,
 3;151,150,149;,
 3;143,150,151;,
 3;144,143,151;,
 3;152,153,154;,
 3;155,152,154;,
 3;156,152,155;,
 3;157,156,155;,
 3;158,156,157;,
 3;159,158,157;,
 3;160,158,159;,
 3;161,160,159;,
 3;153,160,161;,
 3;154,153,161;,
 3;162,163,164;,
 3;165,163,162;,
 3;166,167,168;,
 3;169,167,166;,
 3;170,171,172;,
 3;172,171,170;,
 3;173,170,172;,
 3;172,170,173;,
 3;174,170,173;,
 3;173,170,174;,
 3;175,174,173;,
 3;173,174,175;,
 3;176,174,175;,
 3;175,174,176;,
 3;177,176,175;,
 3;175,176,177;,
 3;177,178,176;,
 3;176,178,177;,
 3;176,178,174;,
 3;174,178,176;,
 3;174,178,179;,
 3;179,178,174;,
 3;170,174,179;,
 3;179,174,170;,
 3;180,170,179;,
 3;179,170,180;,
 3;171,170,180;,
 3;180,170,171;,
 3;181,182,183;,
 3;184,182,181;,
 3;185,186,187;,
 3;188,186,185;,
 3;189,190,191;,
 3;191,190,189;,
 3;192,189,191;,
 3;191,189,192;,
 3;193,189,192;,
 3;192,189,193;,
 3;194,193,192;,
 3;192,193,194;,
 3;195,193,194;,
 3;194,193,195;,
 3;196,195,194;,
 3;194,195,196;,
 3;196,197,195;,
 3;195,197,196;,
 3;195,197,193;,
 3;193,197,195;,
 3;193,197,198;,
 3;198,197,193;,
 3;189,193,198;,
 3;198,193,189;,
 3;199,189,198;,
 3;198,189,199;,
 3;190,189,199;,
 3;199,189,190;,
 3;200,201,202;,
 3;203,200,202;,
 3;204,200,203;,
 3;205,204,203;,
 3;206,204,205;,
 3;207,206,205;,
 3;208,206,207;,
 3;209,208,207;,
 3;201,208,209;,
 3;202,201,209;,
 3;210,211,212;,
 3;213,210,212;,
 3;214,210,213;,
 3;215,214,213;,
 3;216,214,215;,
 3;217,216,215;,
 3;218,216,217;,
 3;219,218,217;,
 3;211,218,219;,
 3;212,211,219;,
 3;220,221,222;,
 3;223,220,222;,
 3;224,220,223;,
 3;225,224,223;,
 3;226,224,225;,
 3;227,226,225;,
 3;228,226,227;,
 3;229,228,227;,
 3;221,228,229;,
 3;222,221,229;,
 3;230,231,232;,
 3;232,231,230;,
 3;233,230,232;,
 3;232,230,233;,
 3;234,230,233;,
 3;233,230,234;,
 3;235,234,233;,
 3;233,234,235;,
 3;236,234,235;,
 3;235,234,236;,
 3;237,236,235;,
 3;235,236,237;,
 3;237,238,236;,
 3;236,238,237;,
 3;236,238,234;,
 3;234,238,236;,
 3;234,238,239;,
 3;239,238,234;,
 3;230,234,239;,
 3;239,234,230;,
 3;240,230,239;,
 3;239,230,240;,
 3;231,230,240;,
 3;240,230,231;,
 3;241,242,243;,
 3;243,242,241;,
 3;244,241,243;,
 3;243,241,244;,
 3;245,241,244;,
 3;244,241,245;,
 3;246,245,244;,
 3;244,245,246;,
 3;247,245,246;,
 3;246,245,247;,
 3;248,247,246;,
 3;246,247,248;,
 3;248,249,247;,
 3;247,249,248;,
 3;247,249,245;,
 3;245,249,247;,
 3;245,249,250;,
 3;250,249,245;,
 3;241,245,250;,
 3;250,245,241;,
 3;251,241,250;,
 3;250,241,251;,
 3;242,241,251;,
 3;251,241,242;,
 3;252,253,254;,
 3;255,252,254;,
 3;256,252,255;,
 3;257,256,255;,
 3;258,256,257;,
 3;259,258,257;,
 3;260,258,259;,
 3;261,260,259;,
 3;253,260,261;,
 3;254,253,261;,
 3;262,263,264;,
 3;265,262,264;,
 3;266,262,265;,
 3;267,266,265;,
 3;268,266,267;,
 3;269,268,267;,
 3;270,268,269;,
 3;271,270,269;,
 3;263,270,271;,
 3;264,263,271;,
 3;272,273,274;,
 3;275,272,274;,
 3;276,272,275;,
 3;277,276,275;,
 3;278,276,277;,
 3;279,278,277;,
 3;280,278,279;,
 3;281,280,279;,
 3;273,280,281;,
 3;274,273,281;,
 3;282,283,284;,
 3;285,283,282;,
 3;286,285,282;,
 3;287,285,286;,
 3;288,289,290;,
 3;291,289,288;,
 3;292,291,288;,
 3;293,291,292;,
 3;294,295,296;,
 3;296,295,294;,
 3;297,294,296;,
 3;296,294,297;,
 3;298,294,297;,
 3;297,294,298;,
 3;299,298,297;,
 3;297,298,299;,
 3;300,298,299;,
 3;299,298,300;,
 3;301,300,299;,
 3;299,300,301;,
 3;301,302,300;,
 3;300,302,301;,
 3;300,302,298;,
 3;298,302,300;,
 3;298,302,303;,
 3;303,302,298;,
 3;294,298,303;,
 3;303,298,294;,
 3;304,294,303;,
 3;303,294,304;,
 3;295,294,304;,
 3;304,294,295;,
 3;305,306,307;,
 3;308,306,305;,
 3;309,308,305;,
 3;310,308,309;,
 3;311,312,313;,
 3;314,312,311;,
 3;315,314,311;,
 3;316,314,315;,
 3;317,318,319;,
 3;319,318,317;,
 3;320,317,319;,
 3;319,317,320;,
 3;321,317,320;,
 3;320,317,321;,
 3;322,321,320;,
 3;320,321,322;,
 3;323,321,322;,
 3;322,321,323;,
 3;324,323,322;,
 3;322,323,324;,
 3;324,325,323;,
 3;323,325,324;,
 3;323,325,321;,
 3;321,325,323;,
 3;321,325,326;,
 3;326,325,321;,
 3;317,321,326;,
 3;326,321,317;,
 3;327,317,326;,
 3;326,317,327;,
 3;318,317,327;,
 3;327,317,318;,
 3;328,329,330;,
 3;331,328,330;,
 3;332,328,331;,
 3;333,332,331;,
 3;334,332,333;,
 3;335,334,333;,
 3;336,334,335;,
 3;337,336,335;,
 3;329,336,337;,
 3;330,329,337;,
 3;338,339,340;,
 3;341,338,340;,
 3;342,338,341;,
 3;343,342,341;,
 3;344,342,343;,
 3;345,344,343;,
 3;346,344,345;,
 3;347,346,345;,
 3;339,346,347;,
 3;340,339,347;,
 3;348,349,350;,
 3;351,348,350;,
 3;352,348,351;,
 3;353,352,351;,
 3;354,352,353;,
 3;355,354,353;,
 3;356,354,355;,
 3;357,356,355;,
 3;349,356,357;,
 3;350,349,357;,
 3;358,359,360;,
 3;360,359,358;,
 3;361,358,360;,
 3;360,358,361;,
 3;362,358,361;,
 3;361,358,362;,
 3;363,362,361;,
 3;361,362,363;,
 3;362,364,365;,
 3;365,364,362;,
 3;358,362,365;,
 3;365,362,358;,
 3;366,358,365;,
 3;365,358,366;,
 3;359,358,366;,
 3;366,358,359;,
 3;367,368,369;,
 3;369,368,367;,
 3;370,367,369;,
 3;369,367,370;,
 3;371,367,370;,
 3;370,367,371;,
 3;371,372,373;,
 3;373,372,371;,
 3;367,371,373;,
 3;373,371,367;,
 3;374,367,373;,
 3;373,367,374;,
 3;368,367,374;,
 3;374,367,368;,
 3;375,376,377;,
 3;378,375,377;,
 3;379,375,378;,
 3;380,379,378;,
 3;381,379,380;,
 3;382,381,380;,
 3;383,381,382;,
 3;384,383,382;,
 3;376,383,384;,
 3;377,376,384;,
 3;385,386,387;,
 3;388,385,387;,
 3;389,385,388;,
 3;390,389,388;,
 3;391,389,390;,
 3;392,391,390;,
 3;393,391,392;,
 3;394,393,392;,
 3;386,393,394;,
 3;387,386,394;,
 3;395,396,397;,
 3;398,395,397;,
 3;399,395,398;,
 3;400,399,398;,
 3;401,399,400;,
 3;402,401,400;,
 3;403,401,402;,
 3;404,403,402;,
 3;396,403,404;,
 3;397,396,404;,
 3;405,406,407;,
 3;407,406,405;,
 3;408,405,407;,
 3;407,405,408;,
 3;409,405,408;,
 3;408,405,409;,
 3;410,409,408;,
 3;408,409,410;,
 3;411,409,410;,
 3;410,409,411;,
 3;412,411,410;,
 3;410,411,412;,
 3;412,413,411;,
 3;411,413,412;,
 3;411,413,409;,
 3;409,413,411;,
 3;409,413,414;,
 3;414,413,409;,
 3;405,409,414;,
 3;414,409,405;,
 3;415,405,414;,
 3;414,405,415;,
 3;406,405,415;,
 3;415,405,406;,
 3;416,417,418;,
 3;418,417,416;,
 3;419,416,418;,
 3;418,416,419;,
 3;420,416,419;,
 3;419,416,420;,
 3;421,420,419;,
 3;419,420,421;,
 3;422,420,421;,
 3;421,420,422;,
 3;422,423,420;,
 3;420,423,422;,
 3;420,423,424;,
 3;424,423,420;,
 3;416,420,424;,
 3;424,420,416;,
 3;425,416,424;,
 3;424,416,425;,
 3;417,416,425;,
 3;425,416,417;;
 
 MeshMaterialList {
  9;
  548;
  0,
  0,
  0,
  0,
  0,
  0,
  0,
  0,
  0,
  0,
  0,
  0,
  0,
  0,
  0,
  0,
  0,
  0,
  0,
  0,
  0,
  0,
  0,
  0,
  0,
  0,
  0,
  0,
  0,
  0,
  0,
  0,
  0,
  0,
  0,
  0,
  0,
  0,
  0,
  0,
  0,
  0,
  0,
  0,
  0,
  0,
  0,
  0,
  0,
  0,
  0,
  0,
  0,
  0,
  0,
  0,
  0,
  0,
  0,
  0,
  0,
  0,
  0,
  0,
  4,
  4,
  4,
  4,
  4,
  4,
  4,
  4,
  4,
  4,
  4,
  4,
  4,
  4,
  4,
  4,
  4,
  4,
  4,
  4,
  4,
  4,
  4,
  4,
  1,
  1,
  1,
  1,
  1,
  1,
  1,
  1,
  1,
  1,
  1,
  1,
  1,
  1,
  1,
  1,
  1,
  1,
  1,
  1,
  4,
  4,
  4,
  4,
  4,
  4,
  4,
  4,
  4,
  4,
  4,
  4,
  4,
  4,
  4,
  4,
  4,
  4,
  4,
  4,
  4,
  4,
  4,
  4,
  4,
  4,
  4,
  4,
  4,
  4,
  4,
  4,
  4,
  4,
  4,
  4,
  4,
  4,
  4,
  4,
  4,
  4,
  4,
  4,
  4,
  4,
  4,
  4,
  1,
  1,
  1,
  1,
  1,
  1,
  1,
  1,
  1,
  1,
  1,
  1,
  1,
  1,
  1,
  1,
  1,
  1,
  1,
  1,
  1,
  1,
  1,
  1,
  1,
  1,
  1,
  1,
  1,
  1,
  1,
  8,
  8,
  1,
  4,
  4,
  4,
  4,
  4,
  4,
  4,
  3,
  4,
  4,
  4,
  4,
  4,
  4,
  4,
  4,
  4,
  4,
  4,
  4,
  4,
  4,
  4,
  4,
  8,
  8,
  8,
  8,
  4,
  4,
  4,
  4,
  4,
  4,
  4,
  4,
  4,
  4,
  4,
  4,
  4,
  4,
  4,
  4,
  4,
  4,
  4,
  4,
  4,
  4,
  4,
  4,
  1,
  1,
  1,
  1,
  1,
  1,
  1,
  1,
  1,
  1,
  1,
  1,
  1,
  1,
  1,
  1,
  1,
  1,
  1,
  1,
  1,
  1,
  1,
  1,
  1,
  1,
  1,
  1,
  1,
  1,
  4,
  4,
  4,
  4,
  4,
  4,
  4,
  4,
  4,
  4,
  4,
  4,
  4,
  4,
  4,
  4,
  4,
  4,
  4,
  4,
  4,
  4,
  4,
  4,
  4,
  4,
  4,
  4,
  4,
  4,
  4,
  4,
  4,
  4,
  4,
  4,
  4,
  4,
  4,
  4,
  4,
  4,
  4,
  4,
  4,
  4,
  4,
  4,
  1,
  1,
  1,
  1,
  1,
  1,
  1,
  1,
  1,
  1,
  1,
  1,
  1,
  1,
  1,
  1,
  1,
  1,
  1,
  1,
  1,
  1,
  1,
  1,
  1,
  1,
  1,
  1,
  1,
  1,
  1,
  8,
  8,
  1,
  8,
  8,
  8,
  1,
  4,
  4,
  4,
  4,
  4,
  4,
  4,
  4,
  4,
  4,
  4,
  4,
  4,
  4,
  4,
  4,
  4,
  4,
  4,
  4,
  4,
  4,
  4,
  4,
  1,
  8,
  8,
  1,
  1,
  8,
  8,
  8,
  4,
  4,
  4,
  4,
  4,
  4,
  4,
  4,
  4,
  4,
  4,
  4,
  4,
  4,
  4,
  4,
  4,
  4,
  4,
  4,
  4,
  4,
  4,
  4,
  1,
  1,
  1,
  1,
  1,
  1,
  8,
  8,
  1,
  1,
  1,
  1,
  1,
  1,
  1,
  1,
  8,
  8,
  1,
  1,
  1,
  1,
  1,
  1,
  1,
  1,
  8,
  8,
  1,
  1,
  4,
  4,
  4,
  4,
  4,
  4,
  4,
  4,
  4,
  4,
  4,
  4,
  4,
  4,
  4,
  4,
  4,
  4,
  4,
  4,
  4,
  4,
  4,
  4,
  4,
  4,
  4,
  4,
  4,
  4,
  1,
  1,
  8,
  8,
  1,
  1,
  1,
  1,
  1,
  1,
  1,
  1,
  1,
  1,
  1,
  1,
  1,
  1,
  1,
  1,
  1,
  1,
  1,
  1,
  1,
  1,
  1,
  1,
  1,
  1,
  3,
  3,
  3,
  3,
  3,
  3,
  3,
  3,
  3,
  3,
  3,
  3,
  3,
  3,
  3,
  3,
  3,
  3,
  3,
  3,
  3,
  3,
  3,
  3,
  3,
  3,
  3,
  3,
  3,
  3,
  3,
  3,
  3,
  3,
  3,
  3,
  3,
  3,
  3,
  3,
  3,
  3,
  3,
  3;;
  Material {
   1.000000;1.000000;1.000000;0.550000;;
   100.000000;
   1.000000;1.000000;1.000000;;
   0.260000;0.260000;0.260000;;
  }
  Material {
   0.196000;0.392000;0.196000;1.000000;;
   5.000000;
   0.000000;0.000000;0.000000;;
   0.000000;0.000000;0.000000;;
  }
  Material {
   0.196000;0.392000;0.196000;1.000000;;
   5.000000;
   0.000000;0.000000;0.000000;;
   0.000000;0.000000;0.000000;;
  }
  Material {
   0.196000;0.980000;0.196000;1.000000;;
   5.000000;
   0.000000;0.000000;0.000000;;
   0.000000;0.000000;0.000000;;
  }
  Material {
   0.325000;0.890000;0.243000;1.000000;;
   5.000000;
   0.000000;0.000000;0.000000;;
   0.000000;0.000000;0.000000;;
  }
  Material {
   0.196000;0.392000;0.196000;1.000000;;
   5.000000;
   0.000000;0.000000;0.000000;;
   0.000000;0.000000;0.000000;;
  }
  Material {
   0.196000;0.392000;0.196000;1.000000;;
   5.000000;
   0.000000;0.000000;0.000000;;
   0.000000;0.000000;0.000000;;
  }
  Material {
   1.000000;1.000000;0.000000;1.000000;;
   5.000000;
   0.000000;0.000000;0.000000;;
   0.000000;0.000000;0.000000;;
  }
  Material {
   1.000000;1.000000;1.000000;1.000000;;
   0.000000;
   0.000000;0.000000;0.000000;;
   0.000000;0.000000;0.000000;;
  }
 }
 MeshNormals {
  622;
  -0.000000;1.000000;0.000000;,
  0.000000;0.924735;-0.380612;,
  0.269133;0.924735;-0.269133;,
  0.380612;0.924735;0.000000;,
  0.269133;0.924735;0.269133;,
  0.000000;0.924735;0.380612;,
  -0.269133;0.924735;0.269133;,
  -0.380612;0.924735;0.000000;,
  -0.269133;0.924735;-0.269133;,
  0.000000;0.709230;-0.704977;,
  0.498494;0.709230;-0.498494;,
  0.704977;0.709230;0.000000;,
  0.498494;0.709230;0.498494;,
  0.000000;0.709230;0.704977;,
  -0.498494;0.709231;0.498494;,
  -0.704976;0.709231;0.000000;,
  -0.498494;0.709231;-0.498494;,
  0.000000;0.384551;-0.923104;,
  0.652733;0.384551;-0.652733;,
  0.923104;0.384551;0.000000;,
  0.652733;0.384551;0.652733;,
  0.000000;0.384551;0.923104;,
  -0.652733;0.384551;0.652733;,
  -0.923104;0.384551;0.000000;,
  -0.652733;0.384551;-0.652733;,
  0.000000;0.000000;-1.000000;,
  0.707107;0.000000;-0.707107;,
  1.000000;0.000000;0.000000;,
  0.707107;0.000000;0.707107;,
  0.000000;0.000000;1.000000;,
  -0.707107;0.000000;0.707107;,
  -1.000000;0.000000;0.000000;,
  -0.707107;0.000000;-0.707107;,
  0.000000;-0.384551;-0.923104;,
  0.652733;-0.384551;-0.652733;,
  0.923104;-0.384551;-0.000000;,
  0.652733;-0.384551;0.652733;,
  0.000000;-0.384551;0.923104;,
  -0.652733;-0.384551;0.652733;,
  -0.923104;-0.384551;0.000000;,
  -0.652733;-0.384551;-0.652733;,
  0.000000;-0.709231;-0.704976;,
  0.498494;-0.709231;-0.498494;,
  0.704976;-0.709231;-0.000000;,
  0.498494;-0.709231;0.498494;,
  0.000000;-0.709231;0.704976;,
  -0.498493;-0.709231;0.498493;,
  -0.704976;-0.709231;0.000000;,
  -0.498493;-0.709231;-0.498493;,
  0.000000;-0.924735;-0.380611;,
  0.269132;-0.924735;-0.269132;,
  0.380611;-0.924735;-0.000000;,
  0.269132;-0.924735;0.269132;,
  0.000000;-0.924735;0.380611;,
  -0.269132;-0.924735;0.269132;,
  -0.380611;-0.924735;0.000000;,
  -0.269132;-0.924735;-0.269132;,
  0.000000;-1.000000;-0.000000;,
  -0.147943;0.954925;-0.257353;,
  -0.373298;0.922841;-0.094940;,
  -0.316998;0.869524;-0.378735;,
  -0.535951;0.831213;-0.147788;,
  -0.310495;0.862245;-0.400158;,
  -0.459583;0.887087;-0.043136;,
  -0.223993;0.912303;-0.342827;,
  -0.180905;0.934522;-0.306499;,
  0.021524;0.798731;-0.601303;,
  -0.132430;0.766294;-0.628694;,
  -0.157034;0.822571;-0.546550;,
  0.993735;0.093567;0.061113;,
  0.993673;0.093836;0.061718;,
  0.251549;0.091534;0.963506;,
  -0.846431;-0.039367;0.531041;,
  -0.760396;-0.114456;-0.639295;,
  0.993610;0.094106;0.062323;,
  0.251943;0.091414;0.963415;,
  -0.846424;-0.039370;0.531052;,
  -0.760168;-0.114316;-0.639590;,
  0.997365;-0.033437;0.064385;,
  0.997332;-0.033050;0.065098;,
  0.250249;0.138344;0.958247;,
  -0.843209;0.117086;0.524680;,
  -0.763217;-0.067430;-0.642614;,
  0.997297;-0.032662;0.065811;,
  0.250635;0.138168;0.958171;,
  -0.843195;0.117079;0.524704;,
  -0.762968;-0.067341;-0.642919;,
  -0.726781;0.678995;-0.103709;,
  -0.519600;0.841487;0.148036;,
  -0.590308;0.794172;-0.144317;,
  -0.392525;0.910373;0.130940;,
  -0.445709;0.889124;-0.103935;,
  -0.298244;0.820143;0.488278;,
  -0.306140;0.936084;0.173275;,
  -0.043477;0.688725;0.723717;,
  -0.305536;0.861391;-0.405775;,
  -0.499721;0.722931;-0.477128;,
  -0.655155;0.646486;-0.390932;,
  0.751404;0.658142;0.047349;,
  0.571256;0.791996;-0.215430;,
  0.609457;0.789076;0.076947;,
  0.379755;0.901548;-0.207359;,
  0.381938;0.923070;0.045444;,
  0.197072;0.953896;-0.226373;,
  0.142646;0.842654;-0.519218;,
  0.119831;0.740281;-0.661532;,
  0.339743;-0.286036;0.895968;,
  0.487495;0.775433;0.401312;,
  0.649934;0.682125;0.335100;,
  -0.782292;0.086990;0.616808;,
  -0.782310;0.086999;0.616784;,
  -0.836924;-0.033346;-0.546302;,
  0.270382;-0.107970;-0.956680;,
  0.998980;-0.031872;-0.031978;,
  -0.782328;0.087008;0.616759;,
  -0.836908;-0.033338;-0.546328;,
  0.270396;-0.107964;-0.956676;,
  0.998978;-0.031897;-0.032031;,
  -0.784153;0.044615;0.618962;,
  -0.784193;0.044637;0.618910;,
  -0.837072;-0.017548;-0.546811;,
  0.271623;-0.055920;-0.960778;,
  0.999345;-0.016108;-0.032418;,
  -0.784232;0.044659;0.618859;,
  -0.837093;-0.017561;-0.546778;,
  0.271692;-0.055893;-0.960760;,
  0.999344;-0.016116;-0.032436;,
  -0.784822;0.002135;0.619717;,
  -0.784866;0.002162;0.619662;,
  -0.837123;-0.001677;-0.547012;,
  0.272105;-0.003318;-0.962262;,
  0.999471;-0.000277;-0.032512;,
  -0.784910;0.002188;0.619606;,
  -0.837126;-0.001679;-0.547007;,
  0.272105;-0.003318;-0.962262;,
  0.999475;-0.000234;-0.032399;,
  -0.826744;0.204382;-0.524139;,
  0.219821;0.588798;-0.777815;,
  0.176745;0.759965;-0.625471;,
  0.953913;0.300081;0.001168;,
  0.537814;0.772059;-0.338644;,
  0.238840;0.877675;-0.415501;,
  0.492560;0.826854;-0.271473;,
  0.190143;0.906495;-0.376978;,
  0.443856;0.882845;-0.153548;,
  0.092023;0.943423;-0.318566;,
  0.394039;0.916324;-0.071307;,
  0.360174;0.932367;-0.031090;,
  0.642145;0.748757;0.164353;,
  0.660601;0.750698;0.007627;,
  0.701517;0.700029;-0.133543;,
  -0.219213;0.592211;0.775392;,
  -0.978373;0.206060;0.018038;,
  -0.176073;0.762386;0.622708;,
  -0.953816;0.300387;-0.001620;,
  -0.672702;0.486089;0.557843;,
  -0.343071;0.713545;0.610865;,
  -0.556239;0.740049;0.378055;,
  -0.197938;0.885263;0.420868;,
  -0.445347;0.875123;0.189275;,
  -0.095348;0.928158;0.359766;,
  -0.390081;0.914491;0.107440;,
  -0.353865;0.932853;0.067565;,
  -0.633881;0.760886;-0.138735;,
  -0.660816;0.750370;0.016348;,
  -0.761306;0.614395;0.207199;,
  -0.518444;0.697137;-0.495193;,
  0.075823;0.828257;-0.555195;,
  0.942438;0.296965;-0.153694;,
  0.032260;-0.830201;0.556530;,
  -0.465385;-0.745788;0.476674;,
  -0.219443;0.803700;-0.553093;,
  0.077328;0.828382;-0.554800;,
  0.943639;0.294399;-0.151245;,
  -0.232572;-0.813583;0.532910;,
  -0.471350;-0.742723;0.475596;,
  0.164328;-0.183395;-0.969207;,
  0.164965;-0.183051;-0.969164;,
  0.982415;0.105126;-0.154300;,
  0.432370;0.244310;0.867968;,
  -0.720989;0.045483;0.691452;,
  0.165602;-0.182707;-0.969120;,
  0.982381;0.104899;-0.154673;,
  0.432405;0.244297;0.867954;,
  -0.721330;0.045545;0.691092;,
  0.165238;-0.301090;-0.939171;,
  0.165852;-0.300724;-0.939180;,
  0.976048;0.151174;-0.156451;,
  0.411099;0.382182;0.827608;,
  -0.720998;0.092237;0.686771;,
  0.166466;-0.300358;-0.939188;,
  0.976032;0.150891;-0.156822;,
  0.411056;0.382196;0.827623;,
  -0.721224;0.092228;0.686535;,
  -0.175151;0.783605;0.596058;,
  0.074024;0.901759;0.425853;,
  -0.202207;0.859592;0.469270;,
  0.071566;0.946841;0.313642;,
  -0.259189;0.906653;0.332868;,
  0.103113;0.970856;0.216350;,
  -0.286113;0.925725;0.247331;,
  -0.292447;0.935462;0.198459;,
  -0.618743;0.741641;0.259085;,
  -0.512023;0.773100;0.374366;,
  -0.434762;0.735093;0.520212;,
  0.124626;0.493921;-0.860529;,
  -0.185713;0.677362;-0.711823;,
  0.139749;0.686450;-0.713622;,
  -0.185241;0.808298;-0.558874;,
  0.171161;0.829280;-0.531976;,
  -0.223671;0.875225;-0.428896;,
  0.176860;0.889044;-0.422280;,
  0.172753;0.915751;-0.362706;,
  0.541959;0.753329;-0.372527;,
  0.472292;0.710626;-0.521490;,
  0.429203;0.566497;-0.703467;,
  0.520922;0.273139;0.808725;,
  0.520896;0.273152;0.808737;,
  -0.627400;0.184842;0.756441;,
  -0.918827;-0.164727;-0.358640;,
  0.071482;-0.279771;-0.957402;,
  0.520870;0.273165;0.808749;,
  -0.627427;0.184847;0.756417;,
  -0.918844;-0.164734;-0.358592;,
  0.071417;-0.279799;-0.957399;,
  0.532667;0.152345;0.832500;,
  0.532079;0.152723;0.832807;,
  -0.622886;0.229662;0.747843;,
  -0.928398;-0.011154;-0.371419;,
  0.071889;-0.236120;-0.969061;,
  0.531490;0.153101;0.833114;,
  -0.622572;0.229546;0.748139;,
  -0.928417;-0.011160;-0.371371;,
  0.072350;-0.235985;-0.969060;,
  0.532988;0.026740;0.845700;,
  0.532429;0.027186;0.846038;,
  -0.615683;0.273424;0.739036;,
  -0.915632;0.143765;-0.375434;,
  0.074157;-0.191273;-0.978732;,
  0.531870;0.027632;0.846375;,
  -0.615443;0.273284;0.739287;,
  -0.915611;0.143772;-0.375480;,
  0.074570;-0.191210;-0.978712;,
  -0.560297;0.447791;0.696815;,
  -0.679086;0.664779;-0.311305;,
  -0.679119;0.664749;-0.311297;,
  0.099393;0.012240;-0.994973;,
  -0.604549;0.759879;0.238966;,
  -0.533523;0.804443;-0.261200;,
  -0.520066;0.519901;0.677668;,
  -0.596694;0.800343;0.058375;,
  -0.533495;0.804459;-0.261205;,
  0.123424;0.110062;-0.986232;,
  -0.336747;0.642362;-0.688456;,
  -0.412791;0.838005;-0.356864;,
  -0.217645;0.765437;-0.605587;,
  -0.321904;0.908914;-0.265054;,
  -0.065786;0.845629;-0.529701;,
  -0.270893;0.948808;-0.162421;,
  0.020261;0.880086;-0.474383;,
  0.061091;0.897735;-0.436280;,
  0.283603;0.649740;-0.705271;,
  0.114198;0.665248;-0.737837;,
  -0.056285;0.585535;-0.808691;,
  0.629908;-0.071623;-0.773361;,
  0.818093;0.491309;0.298896;,
  0.817971;0.491502;0.298914;,
  -0.073611;0.381021;0.921632;,
  0.616465;0.033033;-0.786689;,
  0.677299;0.698722;0.230333;,
  0.677273;0.698747;0.230335;,
  -0.084446;0.464146;0.881724;,
  0.408022;0.688233;0.599878;,
  0.524081;0.791518;0.314385;,
  0.305599;0.810519;0.499667;,
  0.435584;0.875209;0.210418;,
  0.177944;0.899666;0.398668;,
  0.390356;0.915215;0.100017;,
  0.110091;0.936739;0.332265;,
  0.077734;0.953296;0.291864;,
  -0.165599;0.830231;0.532253;,
  -0.026214;0.814515;0.579550;,
  0.115318;0.729129;0.674591;,
  -0.961603;0.045322;-0.270675;,
  -0.961599;0.045326;-0.270689;,
  -0.044997;-0.118222;-0.991967;,
  0.933464;-0.117944;-0.338726;,
  0.613069;0.046814;0.788641;,
  -0.961595;0.045329;-0.270704;,
  -0.045053;-0.118237;-0.991963;,
  0.933441;-0.117971;-0.338778;,
  0.613042;0.046832;0.788661;,
  -0.960364;-0.082365;-0.266304;,
  -0.960205;-0.082150;-0.266942;,
  -0.044682;-0.071170;-0.996463;,
  0.938333;0.037808;-0.343659;,
  0.611897;0.094080;0.785323;,
  -0.960045;-0.081935;-0.267581;,
  -0.045015;-0.071315;-0.996438;,
  0.938344;0.037823;-0.343628;,
  0.611653;0.094189;0.785499;,
  -0.942926;-0.206229;-0.261457;,
  -0.942806;-0.205964;-0.262098;,
  -0.046162;-0.023653;-0.998654;,
  0.920555;0.191788;-0.340287;,
  0.607810;0.140757;0.781508;,
  -0.942686;-0.205699;-0.262739;,
  -0.046545;-0.023882;-0.998631;,
  0.920539;0.191760;-0.340348;,
  0.607425;0.140857;0.781789;,
  0.620065;0.756730;0.207072;,
  0.490529;0.869064;-0.064102;,
  0.485608;0.847785;0.213181;,
  0.370205;0.925818;-0.076226;,
  0.356951;0.903546;0.237045;,
  0.296123;0.949453;-0.104166;,
  0.227639;0.803029;0.550749;,
  0.336450;0.796990;0.501605;,
  0.495250;0.739990;0.455129;,
  -0.794692;0.557133;-0.240971;,
  -0.656203;0.751371;0.069571;,
  -0.646454;0.721227;-0.248855;,
  -0.554553;0.829556;0.065631;,
  -0.501629;0.769738;-0.394806;,
  -0.321811;0.731468;-0.601159;,
  -0.449977;0.694138;-0.561866;,
  -0.631492;0.572456;-0.522983;,
  0.894508;0.057677;-0.443315;,
  0.894498;0.057664;-0.443337;,
  0.690155;0.204341;0.694212;,
  -0.467219;0.070094;0.881359;,
  -0.971664;-0.163287;-0.170901;,
  0.894489;0.057650;-0.443359;,
  0.690199;0.204320;0.694175;,
  -0.467223;0.070095;0.881356;,
  -0.971664;-0.163287;-0.170900;,
  0.896252;-0.069798;-0.438019;,
  0.896534;-0.069396;-0.437505;,
  0.683295;0.248779;0.686453;,
  -0.462516;0.221839;0.858409;,
  -0.977813;-0.117178;-0.173639;,
  0.896816;-0.068994;-0.436991;,
  0.683673;0.248539;0.686163;,
  -0.462516;0.221839;0.858409;,
  -0.977758;-0.117146;-0.173969;,
  0.885563;-0.192830;-0.422606;,
  0.885930;-0.192331;-0.422062;,
  0.676459;0.291718;0.676242;,
  -0.447975;0.361623;0.817647;,
  -0.981488;-0.070823;-0.177951;,
  0.886297;-0.191832;-0.421518;,
  0.676705;0.291530;0.676077;,
  -0.448067;0.361640;0.817590;,
  -0.981409;-0.070846;-0.178377;,
  -0.647266;0.733700;0.206716;,
  -0.341247;0.888863;0.305734;,
  -0.559508;0.822327;0.103584;,
  -0.249631;0.939580;0.234253;,
  -0.482089;0.875528;-0.032272;,
  -0.149835;0.968326;0.199737;,
  -0.427260;0.897368;-0.110358;,
  -0.389715;0.909151;-0.146857;,
  -0.636630;0.672074;-0.378177;,
  -0.671141;0.709466;-0.215005;,
  -0.745435;0.664138;-0.056986;,
  0.721517;0.566880;-0.397569;,
  0.436707;0.701515;-0.563173;,
  0.605276;0.735062;-0.305493;,
  0.312657;0.820092;-0.479264;,
  0.475646;0.860086;-0.184427;,
  0.221537;0.864484;-0.451209;,
  0.439091;0.885798;-0.150203;,
  0.576335;0.799196;0.170659;,
  0.633600;0.771235;0.061214;,
  0.757600;0.648882;-0.070679;,
  0.373298;-0.922841;0.094940;,
  0.147943;-0.954925;0.257353;,
  0.316998;-0.869524;0.378735;,
  0.535951;-0.831213;0.147788;,
  0.310495;-0.862245;0.400158;,
  0.459583;-0.887087;0.043136;,
  0.223993;-0.912303;0.342827;,
  0.180905;-0.934522;0.306499;,
  -0.021524;-0.798731;0.601303;,
  0.132430;-0.766294;0.628694;,
  0.157034;-0.822571;0.546550;,
  0.251155;0.091655;0.963598;,
  -0.846439;-0.039363;0.531029;,
  -0.760623;-0.114596;-0.639000;,
  0.375970;-0.032552;-0.926060;,
  0.376588;-0.032225;-0.925820;,
  0.375352;-0.032880;-0.926299;,
  0.249862;0.138520;0.958322;,
  -0.843223;0.117093;0.524656;,
  -0.763466;-0.067519;-0.642309;,
  0.373012;-0.158730;-0.914148;,
  0.373641;-0.158472;-0.913936;,
  0.372383;-0.158988;-0.914360;,
  0.519600;-0.841487;-0.148036;,
  0.726781;-0.678995;0.103709;,
  0.590308;-0.794172;0.144317;,
  0.392525;-0.910373;-0.130940;,
  0.445709;-0.889124;0.103935;,
  0.298244;-0.820143;-0.488278;,
  0.306140;-0.936084;-0.173275;,
  0.043477;-0.688725;-0.723717;,
  -0.300462;0.899272;-0.317855;,
  0.305536;-0.861391;0.405775;,
  0.300462;-0.899272;0.317855;,
  0.499721;-0.722931;0.477128;,
  0.655155;-0.646486;0.390932;,
  -0.571256;-0.791996;0.215430;,
  -0.751404;-0.658142;-0.047349;,
  -0.609457;-0.789076;-0.076947;,
  -0.379755;-0.901548;0.207359;,
  -0.381938;-0.923070;-0.045444;,
  -0.197072;-0.953896;0.226373;,
  -0.142646;-0.842654;0.519218;,
  -0.119831;-0.740281;0.661532;,
  -0.339743;0.286036;-0.895968;,
  0.609094;-0.192548;0.769370;,
  -0.609094;0.192548;-0.769370;,
  0.379858;0.801477;0.461890;,
  -0.487495;-0.775433;-0.401312;,
  -0.379858;-0.801477;-0.461890;,
  -0.649934;-0.682125;-0.335100;,
  -0.836941;-0.033355;-0.546276;,
  0.270368;-0.107976;-0.956683;,
  0.998983;-0.031846;-0.031925;,
  0.345125;0.088009;0.934421;,
  0.345102;0.088019;0.934429;,
  0.345148;0.087998;0.934414;,
  -0.837050;-0.017536;-0.546845;,
  0.271555;-0.055947;-0.960796;,
  0.999345;-0.016100;-0.032399;,
  0.345687;0.045638;0.937239;,
  0.345577;0.045686;0.937278;,
  0.345798;0.045591;0.937201;,
  -0.837120;-0.001675;-0.547016;,
  0.272105;-0.003318;-0.962262;,
  0.999468;-0.000320;-0.032625;,
  0.345919;0.003055;0.938259;,
  0.345879;0.003071;0.938274;,
  0.345958;0.003039;0.938245;,
  -0.238840;-0.877675;0.415501;,
  -0.537814;-0.772059;0.338644;,
  -0.492560;-0.826854;0.271473;,
  -0.190143;-0.906495;0.376978;,
  -0.443856;-0.882845;0.153548;,
  -0.092023;-0.943423;0.318566;,
  -0.394039;-0.916324;0.071307;,
  -0.360174;-0.932367;0.031090;,
  -0.642145;-0.748757;-0.164353;,
  -0.660601;-0.750698;-0.007627;,
  -0.701517;-0.700029;0.133543;,
  0.343071;-0.713545;-0.610865;,
  0.672702;-0.486089;-0.557843;,
  0.556239;-0.740049;-0.378055;,
  0.197938;-0.885263;-0.420868;,
  0.445347;-0.875123;-0.189275;,
  0.095348;-0.928158;-0.359766;,
  0.390081;-0.914491;-0.107440;,
  0.353865;-0.932853;-0.067565;,
  0.633881;-0.760886;0.138735;,
  0.660816;-0.750370;-0.016348;,
  0.761306;-0.614395;-0.207199;,
  0.941224;0.299528;-0.156141;,
  0.272311;-0.793300;0.544538;,
  0.275060;-0.792943;0.543676;,
  -0.739353;0.541841;-0.399707;,
  -0.744235;0.536710;-0.397564;,
  0.982449;0.105354;-0.153928;,
  0.432336;0.244322;0.867982;,
  -0.720647;0.045422;0.691812;,
  -0.865943;-0.217646;-0.450303;,
  -0.865643;-0.217468;-0.450966;,
  -0.866243;-0.217823;-0.449639;,
  0.976063;0.151456;-0.156081;,
  0.411142;0.382168;0.827593;,
  -0.720772;0.092246;0.687007;,
  -0.838816;-0.332465;-0.431108;,
  -0.838568;-0.332379;-0.431656;,
  -0.839063;-0.332552;-0.430560;,
  -0.074024;-0.901759;-0.425853;,
  0.175151;-0.783605;-0.596058;,
  0.202207;-0.859592;-0.469270;,
  -0.071566;-0.946841;-0.313642;,
  0.259189;-0.906653;-0.332868;,
  -0.103113;-0.970856;-0.216350;,
  0.286113;-0.925725;-0.247331;,
  0.292447;-0.935462;-0.198459;,
  0.618743;-0.741641;-0.259085;,
  0.512023;-0.773100;-0.374366;,
  0.434762;-0.735093;-0.520212;,
  0.185713;-0.677362;0.711823;,
  -0.124626;-0.493921;0.860529;,
  -0.139749;-0.686450;0.713622;,
  0.185241;-0.808298;0.558874;,
  -0.171161;-0.829280;0.531976;,
  0.223671;-0.875225;0.428896;,
  -0.176860;-0.889044;0.422280;,
  -0.172753;-0.915751;0.362706;,
  -0.541959;-0.753329;0.372527;,
  -0.472292;-0.710626;0.521490;,
  -0.429203;-0.566497;0.703467;,
  -0.627373;0.184837;0.756464;,
  -0.918809;-0.164721;-0.358688;,
  0.071547;-0.279744;-0.957405;,
  0.969851;-0.010803;-0.243457;,
  0.969874;-0.010740;-0.243370;,
  0.969829;-0.010866;-0.243545;,
  -0.623199;0.229778;0.747546;,
  -0.928379;-0.011148;-0.371467;,
  0.071428;-0.236255;-0.969062;,
  0.962648;-0.136547;-0.233803;,
  0.962831;-0.136204;-0.233250;,
  0.962465;-0.136891;-0.234356;,
  -0.615922;0.273565;0.738785;,
  -0.915652;0.143759;-0.375387;,
  0.073744;-0.191336;-0.978750;,
  0.940091;-0.257158;-0.223829;,
  0.940331;-0.256836;-0.223188;,
  0.939850;-0.257480;-0.224469;,
  -0.679054;0.664809;-0.311312;,
  0.412791;-0.838005;0.356864;,
  0.336747;-0.642362;0.688456;,
  0.217645;-0.765437;0.605587;,
  0.321904;-0.908914;0.265054;,
  0.065786;-0.845629;0.529701;,
  0.270893;-0.948808;0.162421;,
  -0.020261;-0.880086;0.474383;,
  -0.061091;-0.897735;0.436280;,
  -0.283603;-0.649740;0.705271;,
  -0.114198;-0.665248;0.737837;,
  0.056285;-0.585535;0.808691;,
  0.818216;0.491115;0.298879;,
  0.677325;0.698698;0.230331;,
  -0.524081;-0.791518;-0.314385;,
  -0.408022;-0.688233;-0.599878;,
  -0.305599;-0.810519;-0.499667;,
  -0.435584;-0.875209;-0.210418;,
  -0.177944;-0.899666;-0.398668;,
  -0.390356;-0.915215;-0.100017;,
  -0.110091;-0.936739;-0.332265;,
  -0.077734;-0.953296;-0.291864;,
  0.165599;-0.830231;-0.532253;,
  0.026214;-0.814515;-0.579550;,
  -0.115318;-0.729129;-0.674591;,
  -0.044941;-0.118206;-0.991972;,
  0.933486;-0.117917;-0.338673;,
  0.613096;0.046796;0.788621;,
  -0.555642;0.146014;0.818500;,
  -0.555648;0.146017;0.818495;,
  -0.555635;0.146011;0.818505;,
  -0.044349;-0.071025;-0.996488;,
  0.938323;0.037793;-0.343690;,
  0.612140;0.093971;0.785146;,
  -0.560958;0.019054;0.827625;,
  -0.561538;0.019254;0.827227;,
  -0.560377;0.018854;0.828023;,
  -0.045779;-0.023425;-0.998677;,
  0.920572;0.191817;-0.340227;,
  0.608194;0.140657;0.781227;,
  -0.554577;-0.107919;0.825105;,
  -0.555075;-0.107806;0.824784;,
  -0.554079;-0.108031;0.825425;,
  -0.490529;-0.869064;0.064102;,
  -0.620065;-0.756730;-0.207072;,
  -0.485608;-0.847785;-0.213181;,
  -0.370205;-0.925818;0.076226;,
  -0.356951;-0.903546;-0.237045;,
  -0.296123;-0.949453;0.104166;,
  -0.336450;-0.796990;-0.501605;,
  -0.227639;-0.803029;-0.550749;,
  -0.495250;-0.739990;-0.455129;,
  0.656203;-0.751371;-0.069571;,
  0.794692;-0.557133;0.240971;,
  0.646454;-0.721227;0.248855;,
  0.554553;-0.829556;-0.065631;,
  0.501629;-0.769738;0.394806;,
  0.449977;-0.694138;0.561866;,
  0.321811;-0.731468;0.601159;,
  0.631492;-0.572456;0.522983;,
  0.690112;0.204362;0.694249;,
  -0.467215;0.070093;0.881361;,
  -0.971664;-0.163287;-0.170901;,
  -0.137786;-0.169931;-0.975776;,
  -0.137846;-0.169961;-0.975762;,
  -0.137727;-0.169902;-0.975789;,
  0.682917;0.249019;0.686742;,
  -0.462516;0.221839;0.858409;,
  -0.977868;-0.117210;-0.173309;,
  -0.131263;-0.289470;-0.948144;,
  -0.130605;-0.289216;-0.948312;,
  -0.131922;-0.289723;-0.947975;,
  0.676213;0.291907;0.676407;,
  -0.447883;0.361606;0.817705;,
  -0.981566;-0.070800;-0.177525;,
  -0.126361;-0.398284;-0.908517;,
  -0.125759;-0.398120;-0.908672;,
  -0.126962;-0.398449;-0.908361;,
  0.341247;-0.888863;-0.305734;,
  0.647266;-0.733700;-0.206716;,
  0.559508;-0.822327;-0.103584;,
  0.249631;-0.939580;-0.234253;,
  0.482089;-0.875528;0.032272;,
  0.149835;-0.968326;-0.199737;,
  0.427260;-0.897368;0.110358;,
  0.389715;-0.909151;0.146857;,
  0.636630;-0.672074;0.378177;,
  0.671141;-0.709466;0.215005;,
  0.745435;-0.664138;0.056986;,
  -0.436707;-0.701515;0.563173;,
  -0.721517;-0.566880;0.397569;,
  -0.605276;-0.735062;0.305493;,
  -0.312657;-0.820092;0.479264;,
  -0.475646;-0.860086;0.184427;,
  -0.221537;-0.864484;0.451209;,
  -0.439091;-0.885798;0.150203;,
  -0.576335;-0.799196;-0.170659;,
  -0.633600;-0.771235;-0.061214;,
  -0.757600;-0.648882;0.070679;;
  548;
  3;0,2,1;,
  3;0,3,2;,
  3;0,4,3;,
  3;0,5,4;,
  3;0,6,5;,
  3;0,7,6;,
  3;0,8,7;,
  3;0,1,8;,
  4;1,2,10,9;,
  4;2,3,11,10;,
  4;3,4,12,11;,
  4;4,5,13,12;,
  4;5,6,14,13;,
  4;6,7,15,14;,
  4;7,8,16,15;,
  4;8,1,9,16;,
  4;9,10,18,17;,
  4;10,11,19,18;,
  4;11,12,20,19;,
  4;12,13,21,20;,
  4;13,14,22,21;,
  4;14,15,23,22;,
  4;15,16,24,23;,
  4;16,9,17,24;,
  4;17,18,26,25;,
  4;18,19,27,26;,
  4;19,20,28,27;,
  4;20,21,29,28;,
  4;21,22,30,29;,
  4;22,23,31,30;,
  4;23,24,32,31;,
  4;24,17,25,32;,
  4;25,26,34,33;,
  4;26,27,35,34;,
  4;27,28,36,35;,
  4;28,29,37,36;,
  4;29,30,38,37;,
  4;30,31,39,38;,
  4;31,32,40,39;,
  4;32,25,33,40;,
  4;33,34,42,41;,
  4;34,35,43,42;,
  4;35,36,44,43;,
  4;36,37,45,44;,
  4;37,38,46,45;,
  4;38,39,47,46;,
  4;39,40,48,47;,
  4;40,33,41,48;,
  4;41,42,50,49;,
  4;42,43,51,50;,
  4;43,44,52,51;,
  4;44,45,53,52;,
  4;45,46,54,53;,
  4;46,47,55,54;,
  4;47,48,56,55;,
  4;48,41,49,56;,
  3;49,50,57;,
  3;50,51,57;,
  3;51,52,57;,
  3;52,53,57;,
  3;53,54,57;,
  3;54,55,57;,
  3;55,56,57;,
  3;56,49,57;,
  3;60,58,59;,
  3;375,376,377;,
  3;61,60,59;,
  3;375,377,378;,
  3;62,60,61;,
  3;378,377,379;,
  3;63,62,61;,
  3;378,379,380;,
  3;64,62,63;,
  3;380,379,381;,
  3;65,64,63;,
  3;380,381,382;,
  3;65,66,64;,
  3;381,383,382;,
  3;64,66,62;,
  3;379,383,381;,
  3;62,66,67;,
  3;384,383,379;,
  3;60,62,67;,
  3;384,379,377;,
  3;68,60,67;,
  3;384,377,385;,
  3;58,60,68;,
  3;385,377,376;,
  3;70,69,70;,
  3;74,70,70;,
  3;71,386,71;,
  3;75,71,71;,
  3;72,387,72;,
  3;76,72,72;,
  3;73,388,73;,
  3;77,73,73;,
  3;389,390,389;,
  3;391,389,389;,
  3;79,78,79;,
  3;83,79,79;,
  3;80,392,80;,
  3;84,80,80;,
  3;81,393,81;,
  3;85,81,81;,
  3;82,394,82;,
  3;86,82,82;,
  3;395,396,395;,
  3;397,395,395;,
  3;89,87,88;,
  3;398,399,400;,
  3;90,89,88;,
  3;398,400,401;,
  3;91,89,90;,
  3;401,400,402;,
  3;92,91,90;,
  3;401,402,403;,
  3;93,91,92;,
  3;403,402,404;,
  3;94,93,92;,
  3;403,404,405;,
  3;406,95,93;,
  3;404,407,408;,
  3;93,95,91;,
  3;402,407,404;,
  3;91,95,96;,
  3;409,407,402;,
  3;89,91,96;,
  3;409,402,400;,
  3;97,89,96;,
  3;409,400,410;,
  3;87,89,97;,
  3;410,400,399;,
  3;100,98,99;,
  3;411,412,413;,
  3;101,100,99;,
  3;411,413,414;,
  3;102,100,101;,
  3;414,413,415;,
  3;103,102,101;,
  3;414,415,416;,
  3;104,102,103;,
  3;416,415,417;,
  3;105,104,103;,
  3;416,417,418;,
  3;418,106,417;,
  3;104,419,105;,
  3;420,106,420;,
  3;421,419,421;,
  3;102,422,107;,
  3;423,424,415;,
  3;100,102,107;,
  3;423,415,413;,
  3;108,100,107;,
  3;423,413,425;,
  3;98,100,108;,
  3;425,413,412;,
  3;110,109,110;,
  3;114,110,110;,
  3;111,426,111;,
  3;115,111,111;,
  3;112,427,112;,
  3;116,112,112;,
  3;113,428,113;,
  3;117,113,113;,
  3;429,430,429;,
  3;431,429,429;,
  3;119,118,119;,
  3;123,119,119;,
  3;120,432,120;,
  3;124,120,120;,
  3;121,433,121;,
  3;125,121,121;,
  3;122,434,122;,
  3;126,122,122;,
  3;435,436,435;,
  3;437,435,435;,
  3;128,127,128;,
  3;132,128,128;,
  3;129,438,129;,
  3;133,129,129;,
  3;130,439,130;,
  3;134,130,130;,
  3;131,440,131;,
  3;135,131,131;,
  3;441,442,441;,
  3;443,441,441;,
  3;136,136,136;,
  3;137,137,137;,
  3;138,138,138;,
  3;139,139,139;,
  3;142,140,141;,
  3;444,445,446;,
  3;143,142,141;,
  3;444,446,447;,
  3;144,142,143;,
  3;447,446,448;,
  3;145,144,143;,
  3;447,448,449;,
  3;146,144,145;,
  3;449,448,450;,
  3;147,146,145;,
  3;449,450,451;,
  3;147,148,146;,
  3;450,452,451;,
  3;146,148,144;,
  3;448,452,450;,
  3;144,148,149;,
  3;453,452,448;,
  3;142,144,149;,
  3;453,448,446;,
  3;150,142,149;,
  3;453,446,454;,
  3;140,142,150;,
  3;454,446,445;,
  3;151,151,151;,
  3;152,152,152;,
  3;153,153,153;,
  3;154,154,154;,
  3;157,155,156;,
  3;455,456,457;,
  3;158,157,156;,
  3;455,457,458;,
  3;159,157,158;,
  3;458,457,459;,
  3;160,159,158;,
  3;458,459,460;,
  3;161,159,160;,
  3;460,459,461;,
  3;162,161,160;,
  3;460,461,462;,
  3;162,163,161;,
  3;461,463,462;,
  3;161,163,159;,
  3;459,463,461;,
  3;159,163,164;,
  3;464,463,459;,
  3;157,159,164;,
  3;464,459,457;,
  3;165,157,164;,
  3;464,457,465;,
  3;155,157,165;,
  3;465,457,456;,
  3;167,166,171;,
  3;172,167,171;,
  3;168,466,168;,
  3;173,168,168;,
  3;169,467,468;,
  3;174,169,468;,
  3;170,169,174;,
  3;175,170,174;,
  3;166,469,470;,
  3;171,166,470;,
  3;177,176,177;,
  3;181,177,177;,
  3;178,471,178;,
  3;182,178,178;,
  3;179,472,179;,
  3;183,179,179;,
  3;180,473,180;,
  3;184,180,180;,
  3;474,475,474;,
  3;476,474,474;,
  3;186,185,186;,
  3;190,186,186;,
  3;187,477,187;,
  3;191,187,187;,
  3;188,478,188;,
  3;192,188,188;,
  3;189,479,189;,
  3;193,189,189;,
  3;480,481,480;,
  3;482,480,480;,
  3;196,194,195;,
  3;483,484,485;,
  3;197,196,195;,
  3;483,485,486;,
  3;198,196,197;,
  3;486,485,487;,
  3;199,198,197;,
  3;486,487,488;,
  3;200,198,199;,
  3;488,487,489;,
  3;201,200,199;,
  3;488,489,490;,
  3;201,202,200;,
  3;489,491,490;,
  3;200,202,198;,
  3;487,491,489;,
  3;198,202,203;,
  3;492,491,487;,
  3;196,198,203;,
  3;492,487,485;,
  3;204,196,203;,
  3;492,485,493;,
  3;194,196,204;,
  3;493,485,484;,
  3;207,205,206;,
  3;494,495,496;,
  3;208,207,206;,
  3;494,496,497;,
  3;209,207,208;,
  3;497,496,498;,
  3;210,209,208;,
  3;497,498,499;,
  3;211,209,210;,
  3;499,498,500;,
  3;212,211,210;,
  3;499,500,501;,
  3;212,213,211;,
  3;500,502,501;,
  3;211,213,209;,
  3;498,502,500;,
  3;209,213,214;,
  3;503,502,498;,
  3;207,209,214;,
  3;503,498,496;,
  3;215,207,214;,
  3;503,496,504;,
  3;205,207,215;,
  3;504,496,495;,
  3;217,216,217;,
  3;221,217,217;,
  3;218,505,218;,
  3;222,218,218;,
  3;219,506,219;,
  3;223,219,219;,
  3;220,507,220;,
  3;224,220,220;,
  3;508,509,508;,
  3;510,508,508;,
  3;226,225,226;,
  3;230,226,226;,
  3;227,511,227;,
  3;231,227,227;,
  3;228,512,228;,
  3;232,228,228;,
  3;229,513,229;,
  3;233,229,229;,
  3;514,515,514;,
  3;516,514,514;,
  3;235,234,235;,
  3;239,235,235;,
  3;236,517,236;,
  3;240,236,236;,
  3;237,518,237;,
  3;241,237,237;,
  3;238,519,238;,
  3;242,238,238;,
  3;520,521,520;,
  3;522,520,520;,
  3;243,243,243;,
  3;244,523,244;,
  3;245,244,244;,
  3;246,246,246;,
  3;250,247,249;,
  3;248,247,250;,
  3;251,248,250;,
  3;252,252,252;,
  3;255,253,254;,
  3;524,525,526;,
  3;256,255,254;,
  3;524,526,527;,
  3;257,255,256;,
  3;527,526,528;,
  3;258,257,256;,
  3;527,528,529;,
  3;259,257,258;,
  3;529,528,530;,
  3;260,259,258;,
  3;529,530,531;,
  3;260,261,259;,
  3;530,532,531;,
  3;259,261,257;,
  3;528,532,530;,
  3;257,261,262;,
  3;533,532,528;,
  3;255,257,262;,
  3;533,528,526;,
  3;263,255,262;,
  3;533,526,534;,
  3;253,255,263;,
  3;534,526,525;,
  3;264,264,264;,
  3;265,535,265;,
  3;266,265,265;,
  3;267,267,267;,
  3;268,268,268;,
  3;269,536,269;,
  3;270,269,269;,
  3;271,271,271;,
  3;274,272,273;,
  3;537,538,539;,
  3;275,274,273;,
  3;537,539,540;,
  3;276,274,275;,
  3;540,539,541;,
  3;277,276,275;,
  3;540,541,542;,
  3;278,276,277;,
  3;542,541,543;,
  3;279,278,277;,
  3;542,543,544;,
  3;279,280,278;,
  3;543,545,544;,
  3;278,280,276;,
  3;541,545,543;,
  3;276,280,281;,
  3;546,545,541;,
  3;274,276,281;,
  3;546,541,539;,
  3;282,274,281;,
  3;546,539,547;,
  3;272,274,282;,
  3;547,539,538;,
  3;284,283,284;,
  3;288,284,284;,
  3;285,548,285;,
  3;289,285,285;,
  3;286,549,286;,
  3;290,286,286;,
  3;287,550,287;,
  3;291,287,287;,
  3;551,552,551;,
  3;553,551,551;,
  3;293,292,293;,
  3;297,293,293;,
  3;294,554,294;,
  3;298,294,294;,
  3;295,555,295;,
  3;299,295,295;,
  3;296,556,296;,
  3;300,296,296;,
  3;557,558,557;,
  3;559,557,557;,
  3;302,301,302;,
  3;306,302,302;,
  3;303,560,303;,
  3;307,303,303;,
  3;304,561,304;,
  3;308,304,304;,
  3;305,562,305;,
  3;309,305,305;,
  3;563,564,563;,
  3;565,563,563;,
  3;312,310,311;,
  3;566,567,568;,
  3;313,312,311;,
  3;566,568,569;,
  3;314,312,313;,
  3;569,568,570;,
  3;315,314,313;,
  3;569,570,571;,
  3;314,316,317;,
  3;572,573,570;,
  3;312,314,317;,
  3;572,570,568;,
  3;318,312,317;,
  3;572,568,574;,
  3;310,312,318;,
  3;574,568,567;,
  3;321,319,320;,
  3;575,576,577;,
  3;322,321,320;,
  3;575,577,578;,
  3;323,321,322;,
  3;578,577,579;,
  3;323,324,325;,
  3;580,581,579;,
  3;321,323,325;,
  3;580,579,577;,
  3;326,321,325;,
  3;580,577,582;,
  3;319,321,326;,
  3;582,577,576;,
  3;328,327,328;,
  3;332,328,328;,
  3;329,583,329;,
  3;333,329,329;,
  3;330,584,330;,
  3;334,330,330;,
  3;331,585,331;,
  3;335,331,331;,
  3;586,587,586;,
  3;588,586,586;,
  3;337,336,337;,
  3;341,337,337;,
  3;338,589,338;,
  3;342,338,338;,
  3;339,590,339;,
  3;343,339,339;,
  3;340,591,340;,
  3;344,340,340;,
  3;592,593,592;,
  3;594,592,592;,
  3;346,345,346;,
  3;350,346,346;,
  3;347,595,347;,
  3;351,347,347;,
  3;348,596,348;,
  3;352,348,348;,
  3;349,597,349;,
  3;353,349,349;,
  3;598,599,598;,
  3;600,598,598;,
  3;356,354,355;,
  3;601,602,603;,
  3;357,356,355;,
  3;601,603,604;,
  3;358,356,357;,
  3;604,603,605;,
  3;359,358,357;,
  3;604,605,606;,
  3;360,358,359;,
  3;606,605,607;,
  3;361,360,359;,
  3;606,607,608;,
  3;361,362,360;,
  3;607,609,608;,
  3;360,362,358;,
  3;605,609,607;,
  3;358,362,363;,
  3;610,609,605;,
  3;356,358,363;,
  3;610,605,603;,
  3;364,356,363;,
  3;610,603,611;,
  3;354,356,364;,
  3;611,603,602;,
  3;367,365,366;,
  3;612,613,614;,
  3;368,367,366;,
  3;612,614,615;,
  3;369,367,368;,
  3;615,614,616;,
  3;370,369,368;,
  3;615,616,617;,
  3;371,369,370;,
  3;617,616,618;,
  3;371,372,369;,
  3;616,619,618;,
  3;369,372,373;,
  3;620,619,616;,
  3;367,369,373;,
  3;620,616,614;,
  3;374,367,373;,
  3;620,614,621;,
  3;365,367,374;,
  3;621,614,613;;
 }
 MeshTextureCoords {
  426;
  0.062500;0.000000;,
  0.125000;0.125000;,
  0.000000;0.125000;,
  0.187500;0.000000;,
  0.250000;0.125000;,
  0.312500;0.000000;,
  0.375000;0.125000;,
  0.437500;0.000000;,
  0.500000;0.125000;,
  0.562500;0.000000;,
  0.625000;0.125000;,
  0.687500;0.000000;,
  0.750000;0.125000;,
  0.812500;0.000000;,
  0.875000;0.125000;,
  0.937500;0.000000;,
  1.000000;0.125000;,
  0.125000;0.250000;,
  0.000000;0.250000;,
  0.250000;0.250000;,
  0.375000;0.250000;,
  0.500000;0.250000;,
  0.625000;0.250000;,
  0.750000;0.250000;,
  0.875000;0.250000;,
  1.000000;0.250000;,
  0.125000;0.375000;,
  0.000000;0.375000;,
  0.250000;0.375000;,
  0.375000;0.375000;,
  0.500000;0.375000;,
  0.625000;0.375000;,
  0.750000;0.375000;,
  0.875000;0.375000;,
  1.000000;0.375000;,
  0.125000;0.500000;,
  0.000000;0.500000;,
  0.250000;0.500000;,
  0.375000;0.500000;,
  0.500000;0.500000;,
  0.625000;0.500000;,
  0.750000;0.500000;,
  0.875000;0.500000;,
  1.000000;0.500000;,
  0.125000;0.625000;,
  0.000000;0.625000;,
  0.250000;0.625000;,
  0.375000;0.625000;,
  0.500000;0.625000;,
  0.625000;0.625000;,
  0.750000;0.625000;,
  0.875000;0.625000;,
  1.000000;0.625000;,
  0.125000;0.750000;,
  0.000000;0.750000;,
  0.250000;0.750000;,
  0.375000;0.750000;,
  0.500000;0.750000;,
  0.625000;0.750000;,
  0.750000;0.750000;,
  0.875000;0.750000;,
  1.000000;0.750000;,
  0.125000;0.875000;,
  0.000000;0.875000;,
  0.250000;0.875000;,
  0.375000;0.875000;,
  0.500000;0.875000;,
  0.625000;0.875000;,
  0.750000;0.875000;,
  0.875000;0.875000;,
  1.000000;0.875000;,
  0.062500;1.000000;,
  0.187500;1.000000;,
  0.312500;1.000000;,
  0.437500;1.000000;,
  0.562500;1.000000;,
  0.687500;1.000000;,
  0.812500;1.000000;,
  0.937500;1.000000;,
  0.000000;0.000000;,
  0.000000;0.000000;,
  0.000000;0.000000;,
  0.000000;0.000000;,
  0.000000;0.000000;,
  0.000000;0.000000;,
  0.000000;0.000000;,
  0.000000;0.000000;,
  0.000000;0.000000;,
  0.000000;0.000000;,
  0.000000;0.000000;,
  0.000000;0.000000;,
  0.000000;0.000000;,
  0.000000;0.000000;,
  0.000000;0.000000;,
  0.000000;0.000000;,
  0.000000;0.000000;,
  0.000000;0.000000;,
  0.000000;0.000000;,
  0.000000;0.000000;,
  0.000000;0.000000;,
  0.000000;0.000000;,
  0.000000;0.000000;,
  0.000000;0.000000;,
  0.000000;0.000000;,
  0.000000;0.000000;,
  0.000000;0.000000;,
  0.000000;0.000000;,
  0.000000;0.000000;,
  0.000000;0.000000;,
  0.000000;0.000000;,
  0.000000;0.000000;,
  0.000000;0.000000;,
  0.000000;0.000000;,
  0.000000;0.000000;,
  0.000000;0.000000;,
  0.000000;0.000000;,
  0.000000;0.000000;,
  0.000000;0.000000;,
  0.000000;0.000000;,
  0.000000;0.000000;,
  0.000000;0.000000;,
  0.000000;0.000000;,
  0.000000;0.000000;,
  0.000000;0.000000;,
  0.000000;0.000000;,
  0.000000;0.000000;,
  0.000000;0.000000;,
  0.000000;0.000000;,
  0.000000;0.000000;,
  0.000000;0.000000;,
  0.000000;0.000000;,
  0.000000;0.000000;,
  0.000000;0.000000;,
  0.000000;0.000000;,
  0.000000;0.000000;,
  0.000000;0.000000;,
  0.000000;0.000000;,
  0.000000;0.000000;,
  0.000000;0.000000;,
  0.000000;0.000000;,
  0.000000;0.000000;,
  0.000000;0.000000;,
  0.000000;0.000000;,
  0.000000;0.000000;,
  0.000000;0.000000;,
  0.000000;0.000000;,
  0.000000;0.000000;,
  0.000000;0.000000;,
  0.000000;0.000000;,
  0.000000;0.000000;,
  0.000000;0.000000;,
  0.000000;0.000000;,
  0.000000;0.000000;,
  0.000000;0.000000;,
  0.000000;0.000000;,
  0.000000;0.000000;,
  0.000000;0.000000;,
  0.000000;0.000000;,
  0.000000;0.000000;,
  0.000000;0.000000;,
  0.000000;0.000000;,
  0.000000;0.000000;,
  0.000000;0.000000;,
  0.000000;0.000000;,
  0.000000;0.000000;,
  0.000000;0.000000;,
  0.000000;0.000000;,
  0.000000;0.000000;,
  0.000000;0.000000;,
  0.000000;0.000000;,
  0.000000;0.000000;,
  0.000000;0.000000;,
  0.000000;0.000000;,
  0.000000;0.000000;,
  0.000000;0.000000;,
  0.000000;0.000000;,
  0.000000;0.000000;,
  0.000000;0.000000;,
  0.000000;0.000000;,
  0.000000;0.000000;,
  0.000000;0.000000;,
  0.000000;0.000000;,
  0.000000;0.000000;,
  0.000000;0.000000;,
  0.000000;0.000000;,
  0.000000;0.000000;,
  0.000000;0.000000;,
  0.000000;0.000000;,
  0.000000;0.000000;,
  0.000000;0.000000;,
  0.000000;0.000000;,
  0.000000;0.000000;,
  0.000000;0.000000;,
  0.000000;0.000000;,
  0.000000;0.000000;,
  0.000000;0.000000;,
  0.000000;0.000000;,
  0.000000;0.000000;,
  0.000000;0.000000;,
  0.000000;0.000000;,
  0.000000;0.000000;,
  0.000000;0.000000;,
  0.000000;0.000000;,
  0.000000;0.000000;,
  0.000000;0.000000;,
  0.000000;0.000000;,
  0.000000;0.000000;,
  0.000000;0.000000;,
  0.000000;0.000000;,
  0.000000;0.000000;,
  0.000000;0.000000;,
  0.000000;0.000000;,
  0.000000;0.000000;,
  0.000000;0.000000;,
  0.000000;0.000000;,
  0.000000;0.000000;,
  0.000000;0.000000;,
  0.000000;0.000000;,
  0.000000;0.000000;,
  0.000000;0.000000;,
  0.000000;0.000000;,
  0.000000;0.000000;,
  0.000000;0.000000;,
  0.000000;0.000000;,
  0.000000;0.000000;,
  0.000000;0.000000;,
  0.000000;0.000000;,
  0.000000;0.000000;,
  0.000000;0.000000;,
  0.000000;0.000000;,
  0.000000;0.000000;,
  0.000000;0.000000;,
  0.000000;0.000000;,
  0.000000;0.000000;,
  0.000000;0.000000;,
  0.000000;0.000000;,
  0.000000;0.000000;,
  0.000000;0.000000;,
  0.000000;0.000000;,
  0.000000;0.000000;,
  0.000000;0.000000;,
  0.000000;0.000000;,
  0.000000;0.000000;,
  0.000000;0.000000;,
  0.000000;0.000000;,
  0.000000;0.000000;,
  0.000000;0.000000;,
  0.000000;0.000000;,
  0.000000;0.000000;,
  0.000000;0.000000;,
  0.000000;0.000000;,
  0.000000;0.000000;,
  0.000000;0.000000;,
  0.000000;0.000000;,
  0.000000;0.000000;,
  0.000000;0.000000;,
  0.000000;0.000000;,
  0.000000;0.000000;,
  0.000000;0.000000;,
  0.000000;0.000000;,
  0.000000;0.000000;,
  0.000000;0.000000;,
  0.000000;0.000000;,
  0.000000;0.000000;,
  0.000000;0.000000;,
  0.000000;0.000000;,
  0.000000;0.000000;,
  0.000000;0.000000;,
  0.000000;0.000000;,
  0.000000;0.000000;,
  0.000000;0.000000;,
  0.000000;0.000000;,
  0.000000;0.000000;,
  0.000000;0.000000;,
  0.000000;0.000000;,
  0.000000;0.000000;,
  0.000000;0.000000;,
  0.000000;0.000000;,
  0.000000;0.000000;,
  0.000000;0.000000;,
  0.000000;0.000000;,
  0.000000;0.000000;,
  0.000000;0.000000;,
  0.000000;0.000000;,
  0.000000;0.000000;,
  0.000000;0.000000;,
  0.000000;0.000000;,
  0.000000;0.000000;,
  0.000000;0.000000;,
  0.000000;0.000000;,
  0.000000;0.000000;,
  0.000000;0.000000;,
  0.000000;0.000000;,
  0.000000;0.000000;,
  0.000000;0.000000;,
  0.000000;0.000000;,
  0.000000;0.000000;,
  0.000000;0.000000;,
  0.000000;0.000000;,
  0.000000;0.000000;,
  0.000000;0.000000;,
  0.000000;0.000000;,
  0.000000;0.000000;,
  0.000000;0.000000;,
  0.000000;0.000000;,
  0.000000;0.000000;,
  0.000000;0.000000;,
  0.000000;0.000000;,
  0.000000;0.000000;,
  0.000000;0.000000;,
  0.000000;0.000000;,
  0.000000;0.000000;,
  0.000000;0.000000;,
  0.000000;0.000000;,
  0.000000;0.000000;,
  0.000000;0.000000;,
  0.000000;0.000000;,
  0.000000;0.000000;,
  0.000000;0.000000;,
  0.000000;0.000000;,
  0.000000;0.000000;,
  0.000000;0.000000;,
  0.000000;0.000000;,
  0.000000;0.000000;,
  0.000000;0.000000;,
  0.000000;0.000000;,
  0.000000;0.000000;,
  0.000000;0.000000;,
  0.000000;0.000000;,
  0.000000;0.000000;,
  0.000000;0.000000;,
  0.000000;0.000000;,
  0.000000;0.000000;,
  0.000000;0.000000;,
  0.000000;0.000000;,
  0.000000;0.000000;,
  0.000000;0.000000;,
  0.000000;0.000000;,
  0.000000;0.000000;,
  0.000000;0.000000;,
  0.000000;0.000000;,
  0.000000;0.000000;,
  0.000000;0.000000;,
  0.000000;0.000000;,
  0.000000;0.000000;,
  0.000000;0.000000;,
  0.000000;0.000000;,
  0.000000;0.000000;,
  0.000000;0.000000;,
  0.000000;0.000000;,
  0.000000;0.000000;,
  0.000000;0.000000;,
  0.000000;0.000000;,
  0.000000;0.000000;,
  0.000000;0.000000;,
  0.000000;0.000000;,
  0.000000;0.000000;,
  0.000000;0.000000;,
  0.000000;0.000000;,
  0.000000;0.000000;,
  0.000000;0.000000;,
  0.000000;0.000000;,
  0.000000;0.000000;,
  0.000000;0.000000;,
  0.000000;0.000000;,
  0.000000;0.000000;,
  0.000000;0.000000;,
  0.000000;0.000000;,
  0.000000;0.000000;,
  0.000000;0.000000;,
  0.000000;0.000000;,
  0.000000;0.000000;,
  0.000000;0.000000;,
  0.000000;0.000000;,
  0.000000;0.000000;,
  0.000000;0.000000;,
  0.000000;0.000000;,
  0.000000;0.000000;,
  0.000000;0.000000;,
  0.000000;0.000000;,
  0.000000;0.000000;,
  0.000000;0.000000;,
  0.000000;0.000000;,
  0.000000;0.000000;,
  0.000000;0.000000;,
  0.000000;0.000000;,
  0.000000;0.000000;,
  0.000000;0.000000;,
  0.000000;0.000000;,
  0.000000;0.000000;,
  0.000000;0.000000;,
  0.000000;0.000000;,
  0.000000;0.000000;,
  0.000000;0.000000;,
  0.000000;0.000000;,
  0.000000;0.000000;,
  0.000000;0.000000;,
  0.000000;0.000000;,
  0.000000;0.000000;,
  0.000000;0.000000;,
  0.000000;0.000000;,
  0.000000;0.000000;,
  0.000000;0.000000;,
  0.000000;0.000000;,
  0.000000;0.000000;,
  0.000000;0.000000;,
  0.000000;0.000000;,
  0.000000;0.000000;,
  0.000000;0.000000;,
  0.000000;0.000000;,
  0.000000;0.000000;,
  0.000000;0.000000;,
  0.000000;0.000000;,
  0.000000;0.000000;,
  0.000000;0.000000;,
  0.000000;0.000000;,
  0.000000;0.000000;,
  0.000000;0.000000;,
  0.000000;0.000000;,
  0.000000;0.000000;,
  0.000000;0.000000;,
  0.000000;0.000000;,
  0.000000;0.000000;,
  0.000000;0.000000;,
  0.000000;0.000000;,
  0.000000;0.000000;;
 }
 MeshVertexColors {
  426;
  0;1.000000;1.000000;1.000000;1.000000;,
  1;1.000000;1.000000;1.000000;1.000000;,
  2;1.000000;1.000000;1.000000;1.000000;,
  3;1.000000;1.000000;1.000000;1.000000;,
  4;1.000000;1.000000;1.000000;1.000000;,
  5;1.000000;1.000000;1.000000;1.000000;,
  6;1.000000;1.000000;1.000000;1.000000;,
  7;1.000000;1.000000;1.000000;1.000000;,
  8;1.000000;1.000000;1.000000;1.000000;,
  9;1.000000;1.000000;1.000000;1.000000;,
  10;1.000000;1.000000;1.000000;1.000000;,
  11;1.000000;1.000000;1.000000;1.000000;,
  12;1.000000;1.000000;1.000000;1.000000;,
  13;1.000000;1.000000;1.000000;1.000000;,
  14;1.000000;1.000000;1.000000;1.000000;,
  15;1.000000;1.000000;1.000000;1.000000;,
  16;1.000000;1.000000;1.000000;1.000000;,
  17;1.000000;1.000000;1.000000;1.000000;,
  18;1.000000;1.000000;1.000000;1.000000;,
  19;1.000000;1.000000;1.000000;1.000000;,
  20;1.000000;1.000000;1.000000;1.000000;,
  21;1.000000;1.000000;1.000000;1.000000;,
  22;1.000000;1.000000;1.000000;1.000000;,
  23;1.000000;1.000000;1.000000;1.000000;,
  24;1.000000;1.000000;1.000000;1.000000;,
  25;1.000000;1.000000;1.000000;1.000000;,
  26;1.000000;1.000000;1.000000;1.000000;,
  27;1.000000;1.000000;1.000000;1.000000;,
  28;1.000000;1.000000;1.000000;1.000000;,
  29;1.000000;1.000000;1.000000;1.000000;,
  30;1.000000;1.000000;1.000000;1.000000;,
  31;1.000000;1.000000;1.000000;1.000000;,
  32;1.000000;1.000000;1.000000;1.000000;,
  33;1.000000;1.000000;1.000000;1.000000;,
  34;1.000000;1.000000;1.000000;1.000000;,
  35;1.000000;1.000000;1.000000;1.000000;,
  36;1.000000;1.000000;1.000000;1.000000;,
  37;1.000000;1.000000;1.000000;1.000000;,
  38;1.000000;1.000000;1.000000;1.000000;,
  39;1.000000;1.000000;1.000000;1.000000;,
  40;1.000000;1.000000;1.000000;1.000000;,
  41;1.000000;1.000000;1.000000;1.000000;,
  42;1.000000;1.000000;1.000000;1.000000;,
  43;1.000000;1.000000;1.000000;1.000000;,
  44;1.000000;1.000000;1.000000;1.000000;,
  45;1.000000;1.000000;1.000000;1.000000;,
  46;1.000000;1.000000;1.000000;1.000000;,
  47;1.000000;1.000000;1.000000;1.000000;,
  48;1.000000;1.000000;1.000000;1.000000;,
  49;1.000000;1.000000;1.000000;1.000000;,
  50;1.000000;1.000000;1.000000;1.000000;,
  51;1.000000;1.000000;1.000000;1.000000;,
  52;1.000000;1.000000;1.000000;1.000000;,
  53;1.000000;1.000000;1.000000;1.000000;,
  54;1.000000;1.000000;1.000000;1.000000;,
  55;1.000000;1.000000;1.000000;1.000000;,
  56;1.000000;1.000000;1.000000;1.000000;,
  57;1.000000;1.000000;1.000000;1.000000;,
  58;1.000000;1.000000;1.000000;1.000000;,
  59;1.000000;1.000000;1.000000;1.000000;,
  60;1.000000;1.000000;1.000000;1.000000;,
  61;1.000000;1.000000;1.000000;1.000000;,
  62;1.000000;1.000000;1.000000;1.000000;,
  63;1.000000;1.000000;1.000000;1.000000;,
  64;1.000000;1.000000;1.000000;1.000000;,
  65;1.000000;1.000000;1.000000;1.000000;,
  66;1.000000;1.000000;1.000000;1.000000;,
  67;1.000000;1.000000;1.000000;1.000000;,
  68;1.000000;1.000000;1.000000;1.000000;,
  69;1.000000;1.000000;1.000000;1.000000;,
  70;1.000000;1.000000;1.000000;1.000000;,
  71;1.000000;1.000000;1.000000;1.000000;,
  72;1.000000;1.000000;1.000000;1.000000;,
  73;1.000000;1.000000;1.000000;1.000000;,
  74;1.000000;1.000000;1.000000;1.000000;,
  75;1.000000;1.000000;1.000000;1.000000;,
  76;1.000000;1.000000;1.000000;1.000000;,
  77;1.000000;1.000000;1.000000;1.000000;,
  78;1.000000;1.000000;1.000000;1.000000;,
  79;1.000000;1.000000;1.000000;1.000000;,
  80;1.000000;1.000000;1.000000;1.000000;,
  81;1.000000;1.000000;1.000000;1.000000;,
  82;1.000000;1.000000;1.000000;1.000000;,
  83;1.000000;1.000000;1.000000;1.000000;,
  84;1.000000;1.000000;1.000000;1.000000;,
  85;1.000000;1.000000;1.000000;1.000000;,
  86;1.000000;1.000000;1.000000;1.000000;,
  87;1.000000;1.000000;1.000000;1.000000;,
  88;1.000000;1.000000;1.000000;1.000000;,
  89;1.000000;1.000000;1.000000;1.000000;,
  90;1.000000;1.000000;1.000000;1.000000;,
  91;1.000000;1.000000;1.000000;1.000000;,
  92;1.000000;1.000000;1.000000;1.000000;,
  93;1.000000;1.000000;1.000000;1.000000;,
  94;1.000000;1.000000;1.000000;1.000000;,
  95;1.000000;1.000000;1.000000;1.000000;,
  96;1.000000;1.000000;1.000000;1.000000;,
  97;1.000000;1.000000;1.000000;1.000000;,
  98;1.000000;1.000000;1.000000;1.000000;,
  99;1.000000;1.000000;1.000000;1.000000;,
  100;1.000000;1.000000;1.000000;1.000000;,
  101;1.000000;1.000000;1.000000;1.000000;,
  102;1.000000;1.000000;1.000000;1.000000;,
  103;1.000000;1.000000;1.000000;1.000000;,
  104;1.000000;1.000000;1.000000;1.000000;,
  105;1.000000;1.000000;1.000000;1.000000;,
  106;1.000000;1.000000;1.000000;1.000000;,
  107;1.000000;1.000000;1.000000;1.000000;,
  108;1.000000;1.000000;1.000000;1.000000;,
  109;1.000000;1.000000;1.000000;1.000000;,
  110;1.000000;1.000000;1.000000;1.000000;,
  111;1.000000;1.000000;1.000000;1.000000;,
  112;1.000000;1.000000;1.000000;1.000000;,
  113;1.000000;1.000000;1.000000;1.000000;,
  114;1.000000;1.000000;1.000000;1.000000;,
  115;1.000000;1.000000;1.000000;1.000000;,
  116;1.000000;1.000000;1.000000;1.000000;,
  117;1.000000;1.000000;1.000000;1.000000;,
  118;1.000000;1.000000;1.000000;1.000000;,
  119;1.000000;1.000000;1.000000;1.000000;,
  120;1.000000;1.000000;1.000000;1.000000;,
  121;1.000000;1.000000;1.000000;1.000000;,
  122;1.000000;1.000000;1.000000;1.000000;,
  123;1.000000;1.000000;1.000000;1.000000;,
  124;1.000000;1.000000;1.000000;1.000000;,
  125;1.000000;1.000000;1.000000;1.000000;,
  126;1.000000;1.000000;1.000000;1.000000;,
  127;1.000000;1.000000;1.000000;1.000000;,
  128;1.000000;1.000000;1.000000;1.000000;,
  129;1.000000;1.000000;1.000000;1.000000;,
  130;1.000000;1.000000;1.000000;1.000000;,
  131;1.000000;1.000000;1.000000;1.000000;,
  132;1.000000;1.000000;1.000000;1.000000;,
  133;1.000000;1.000000;1.000000;1.000000;,
  134;1.000000;1.000000;1.000000;1.000000;,
  135;1.000000;1.000000;1.000000;1.000000;,
  136;1.000000;1.000000;1.000000;1.000000;,
  137;1.000000;1.000000;1.000000;1.000000;,
  138;1.000000;1.000000;1.000000;1.000000;,
  139;1.000000;1.000000;1.000000;1.000000;,
  140;1.000000;1.000000;1.000000;1.000000;,
  141;1.000000;1.000000;1.000000;1.000000;,
  142;1.000000;1.000000;1.000000;1.000000;,
  143;1.000000;1.000000;1.000000;1.000000;,
  144;1.000000;1.000000;1.000000;1.000000;,
  145;1.000000;1.000000;1.000000;1.000000;,
  146;1.000000;1.000000;1.000000;1.000000;,
  147;1.000000;1.000000;1.000000;1.000000;,
  148;1.000000;1.000000;1.000000;1.000000;,
  149;1.000000;1.000000;1.000000;1.000000;,
  150;1.000000;1.000000;1.000000;1.000000;,
  151;1.000000;1.000000;1.000000;1.000000;,
  152;1.000000;1.000000;1.000000;1.000000;,
  153;1.000000;1.000000;1.000000;1.000000;,
  154;1.000000;1.000000;1.000000;1.000000;,
  155;1.000000;1.000000;1.000000;1.000000;,
  156;1.000000;1.000000;1.000000;1.000000;,
  157;1.000000;1.000000;1.000000;1.000000;,
  158;1.000000;1.000000;1.000000;1.000000;,
  159;1.000000;1.000000;1.000000;1.000000;,
  160;1.000000;1.000000;1.000000;1.000000;,
  161;1.000000;1.000000;1.000000;1.000000;,
  162;1.000000;1.000000;1.000000;1.000000;,
  163;1.000000;1.000000;1.000000;1.000000;,
  164;1.000000;1.000000;1.000000;1.000000;,
  165;1.000000;1.000000;1.000000;1.000000;,
  166;1.000000;1.000000;1.000000;1.000000;,
  167;1.000000;1.000000;1.000000;1.000000;,
  168;1.000000;1.000000;1.000000;1.000000;,
  169;1.000000;1.000000;1.000000;1.000000;,
  170;1.000000;1.000000;1.000000;1.000000;,
  171;1.000000;1.000000;1.000000;1.000000;,
  172;1.000000;1.000000;1.000000;1.000000;,
  173;1.000000;1.000000;1.000000;1.000000;,
  174;1.000000;1.000000;1.000000;1.000000;,
  175;1.000000;1.000000;1.000000;1.000000;,
  176;1.000000;1.000000;1.000000;1.000000;,
  177;1.000000;1.000000;1.000000;1.000000;,
  178;1.000000;1.000000;1.000000;1.000000;,
  179;1.000000;1.000000;1.000000;1.000000;,
  180;1.000000;1.000000;1.000000;1.000000;,
  181;1.000000;1.000000;1.000000;1.000000;,
  182;1.000000;1.000000;1.000000;1.000000;,
  183;1.000000;1.000000;1.000000;1.000000;,
  184;1.000000;1.000000;1.000000;1.000000;,
  185;1.000000;1.000000;1.000000;1.000000;,
  186;1.000000;1.000000;1.000000;1.000000;,
  187;1.000000;1.000000;1.000000;1.000000;,
  188;1.000000;1.000000;1.000000;1.000000;,
  189;1.000000;1.000000;1.000000;1.000000;,
  190;1.000000;1.000000;1.000000;1.000000;,
  191;1.000000;1.000000;1.000000;1.000000;,
  192;1.000000;1.000000;1.000000;1.000000;,
  193;1.000000;1.000000;1.000000;1.000000;,
  194;1.000000;1.000000;1.000000;1.000000;,
  195;1.000000;1.000000;1.000000;1.000000;,
  196;1.000000;1.000000;1.000000;1.000000;,
  197;1.000000;1.000000;1.000000;1.000000;,
  198;1.000000;1.000000;1.000000;1.000000;,
  199;1.000000;1.000000;1.000000;1.000000;,
  200;1.000000;1.000000;1.000000;1.000000;,
  201;1.000000;1.000000;1.000000;1.000000;,
  202;1.000000;1.000000;1.000000;1.000000;,
  203;1.000000;1.000000;1.000000;1.000000;,
  204;1.000000;1.000000;1.000000;1.000000;,
  205;1.000000;1.000000;1.000000;1.000000;,
  206;1.000000;1.000000;1.000000;1.000000;,
  207;1.000000;1.000000;1.000000;1.000000;,
  208;1.000000;1.000000;1.000000;1.000000;,
  209;1.000000;1.000000;1.000000;1.000000;,
  210;1.000000;1.000000;1.000000;1.000000;,
  211;1.000000;1.000000;1.000000;1.000000;,
  212;1.000000;1.000000;1.000000;1.000000;,
  213;1.000000;1.000000;1.000000;1.000000;,
  214;1.000000;1.000000;1.000000;1.000000;,
  215;1.000000;1.000000;1.000000;1.000000;,
  216;1.000000;1.000000;1.000000;1.000000;,
  217;1.000000;1.000000;1.000000;1.000000;,
  218;1.000000;1.000000;1.000000;1.000000;,
  219;1.000000;1.000000;1.000000;1.000000;,
  220;1.000000;1.000000;1.000000;1.000000;,
  221;1.000000;1.000000;1.000000;1.000000;,
  222;1.000000;1.000000;1.000000;1.000000;,
  223;1.000000;1.000000;1.000000;1.000000;,
  224;1.000000;1.000000;1.000000;1.000000;,
  225;1.000000;1.000000;1.000000;1.000000;,
  226;1.000000;1.000000;1.000000;1.000000;,
  227;1.000000;1.000000;1.000000;1.000000;,
  228;1.000000;1.000000;1.000000;1.000000;,
  229;1.000000;1.000000;1.000000;1.000000;,
  230;1.000000;1.000000;1.000000;1.000000;,
  231;1.000000;1.000000;1.000000;1.000000;,
  232;1.000000;1.000000;1.000000;1.000000;,
  233;1.000000;1.000000;1.000000;1.000000;,
  234;1.000000;1.000000;1.000000;1.000000;,
  235;1.000000;1.000000;1.000000;1.000000;,
  236;1.000000;1.000000;1.000000;1.000000;,
  237;1.000000;1.000000;1.000000;1.000000;,
  238;1.000000;1.000000;1.000000;1.000000;,
  239;1.000000;1.000000;1.000000;1.000000;,
  240;1.000000;1.000000;1.000000;1.000000;,
  241;1.000000;1.000000;1.000000;1.000000;,
  242;1.000000;1.000000;1.000000;1.000000;,
  243;1.000000;1.000000;1.000000;1.000000;,
  244;1.000000;1.000000;1.000000;1.000000;,
  245;1.000000;1.000000;1.000000;1.000000;,
  246;1.000000;1.000000;1.000000;1.000000;,
  247;1.000000;1.000000;1.000000;1.000000;,
  248;1.000000;1.000000;1.000000;1.000000;,
  249;1.000000;1.000000;1.000000;1.000000;,
  250;1.000000;1.000000;1.000000;1.000000;,
  251;1.000000;1.000000;1.000000;1.000000;,
  252;1.000000;1.000000;1.000000;1.000000;,
  253;1.000000;1.000000;1.000000;1.000000;,
  254;1.000000;1.000000;1.000000;1.000000;,
  255;1.000000;1.000000;1.000000;1.000000;,
  256;1.000000;1.000000;1.000000;1.000000;,
  257;1.000000;1.000000;1.000000;1.000000;,
  258;1.000000;1.000000;1.000000;1.000000;,
  259;1.000000;1.000000;1.000000;1.000000;,
  260;1.000000;1.000000;1.000000;1.000000;,
  261;1.000000;1.000000;1.000000;1.000000;,
  262;1.000000;1.000000;1.000000;1.000000;,
  263;1.000000;1.000000;1.000000;1.000000;,
  264;1.000000;1.000000;1.000000;1.000000;,
  265;1.000000;1.000000;1.000000;1.000000;,
  266;1.000000;1.000000;1.000000;1.000000;,
  267;1.000000;1.000000;1.000000;1.000000;,
  268;1.000000;1.000000;1.000000;1.000000;,
  269;1.000000;1.000000;1.000000;1.000000;,
  270;1.000000;1.000000;1.000000;1.000000;,
  271;1.000000;1.000000;1.000000;1.000000;,
  272;1.000000;1.000000;1.000000;1.000000;,
  273;1.000000;1.000000;1.000000;1.000000;,
  274;1.000000;1.000000;1.000000;1.000000;,
  275;1.000000;1.000000;1.000000;1.000000;,
  276;1.000000;1.000000;1.000000;1.000000;,
  277;1.000000;1.000000;1.000000;1.000000;,
  278;1.000000;1.000000;1.000000;1.000000;,
  279;1.000000;1.000000;1.000000;1.000000;,
  280;1.000000;1.000000;1.000000;1.000000;,
  281;1.000000;1.000000;1.000000;1.000000;,
  282;1.000000;1.000000;1.000000;1.000000;,
  283;1.000000;1.000000;1.000000;1.000000;,
  284;1.000000;1.000000;1.000000;1.000000;,
  285;1.000000;1.000000;1.000000;1.000000;,
  286;1.000000;1.000000;1.000000;1.000000;,
  287;1.000000;1.000000;1.000000;1.000000;,
  288;1.000000;1.000000;1.000000;1.000000;,
  289;1.000000;1.000000;1.000000;1.000000;,
  290;1.000000;1.000000;1.000000;1.000000;,
  291;1.000000;1.000000;1.000000;1.000000;,
  292;1.000000;1.000000;1.000000;1.000000;,
  293;1.000000;1.000000;1.000000;1.000000;,
  294;1.000000;1.000000;1.000000;1.000000;,
  295;1.000000;1.000000;1.000000;1.000000;,
  296;1.000000;1.000000;1.000000;1.000000;,
  297;1.000000;1.000000;1.000000;1.000000;,
  298;1.000000;1.000000;1.000000;1.000000;,
  299;1.000000;1.000000;1.000000;1.000000;,
  300;1.000000;1.000000;1.000000;1.000000;,
  301;1.000000;1.000000;1.000000;1.000000;,
  302;1.000000;1.000000;1.000000;1.000000;,
  303;1.000000;1.000000;1.000000;1.000000;,
  304;1.000000;1.000000;1.000000;1.000000;,
  305;1.000000;1.000000;1.000000;1.000000;,
  306;1.000000;1.000000;1.000000;1.000000;,
  307;1.000000;1.000000;1.000000;1.000000;,
  308;1.000000;1.000000;1.000000;1.000000;,
  309;1.000000;1.000000;1.000000;1.000000;,
  310;1.000000;1.000000;1.000000;1.000000;,
  311;1.000000;1.000000;1.000000;1.000000;,
  312;1.000000;1.000000;1.000000;1.000000;,
  313;1.000000;1.000000;1.000000;1.000000;,
  314;1.000000;1.000000;1.000000;1.000000;,
  315;1.000000;1.000000;1.000000;1.000000;,
  316;1.000000;1.000000;1.000000;1.000000;,
  317;1.000000;1.000000;1.000000;1.000000;,
  318;1.000000;1.000000;1.000000;1.000000;,
  319;1.000000;1.000000;1.000000;1.000000;,
  320;1.000000;1.000000;1.000000;1.000000;,
  321;1.000000;1.000000;1.000000;1.000000;,
  322;1.000000;1.000000;1.000000;1.000000;,
  323;1.000000;1.000000;1.000000;1.000000;,
  324;1.000000;1.000000;1.000000;1.000000;,
  325;1.000000;1.000000;1.000000;1.000000;,
  326;1.000000;1.000000;1.000000;1.000000;,
  327;1.000000;1.000000;1.000000;1.000000;,
  328;1.000000;1.000000;1.000000;1.000000;,
  329;1.000000;1.000000;1.000000;1.000000;,
  330;1.000000;1.000000;1.000000;1.000000;,
  331;1.000000;1.000000;1.000000;1.000000;,
  332;1.000000;1.000000;1.000000;1.000000;,
  333;1.000000;1.000000;1.000000;1.000000;,
  334;1.000000;1.000000;1.000000;1.000000;,
  335;1.000000;1.000000;1.000000;1.000000;,
  336;1.000000;1.000000;1.000000;1.000000;,
  337;1.000000;1.000000;1.000000;1.000000;,
  338;1.000000;1.000000;1.000000;1.000000;,
  339;1.000000;1.000000;1.000000;1.000000;,
  340;1.000000;1.000000;1.000000;1.000000;,
  341;1.000000;1.000000;1.000000;1.000000;,
  342;1.000000;1.000000;1.000000;1.000000;,
  343;1.000000;1.000000;1.000000;1.000000;,
  344;1.000000;1.000000;1.000000;1.000000;,
  345;1.000000;1.000000;1.000000;1.000000;,
  346;1.000000;1.000000;1.000000;1.000000;,
  347;1.000000;1.000000;1.000000;1.000000;,
  348;1.000000;1.000000;1.000000;1.000000;,
  349;1.000000;1.000000;1.000000;1.000000;,
  350;1.000000;1.000000;1.000000;1.000000;,
  351;1.000000;1.000000;1.000000;1.000000;,
  352;1.000000;1.000000;1.000000;1.000000;,
  353;1.000000;1.000000;1.000000;1.000000;,
  354;1.000000;1.000000;1.000000;1.000000;,
  355;1.000000;1.000000;1.000000;1.000000;,
  356;1.000000;1.000000;1.000000;1.000000;,
  357;1.000000;1.000000;1.000000;1.000000;,
  358;1.000000;1.000000;1.000000;1.000000;,
  359;1.000000;1.000000;1.000000;1.000000;,
  360;1.000000;1.000000;1.000000;1.000000;,
  361;1.000000;1.000000;1.000000;1.000000;,
  362;1.000000;1.000000;1.000000;1.000000;,
  363;1.000000;1.000000;1.000000;1.000000;,
  364;1.000000;1.000000;1.000000;1.000000;,
  365;1.000000;1.000000;1.000000;1.000000;,
  366;1.000000;1.000000;1.000000;1.000000;,
  367;1.000000;1.000000;1.000000;1.000000;,
  368;1.000000;1.000000;1.000000;1.000000;,
  369;1.000000;1.000000;1.000000;1.000000;,
  370;1.000000;1.000000;1.000000;1.000000;,
  371;1.000000;1.000000;1.000000;1.000000;,
  372;1.000000;1.000000;1.000000;1.000000;,
  373;1.000000;1.000000;1.000000;1.000000;,
  374;1.000000;1.000000;1.000000;1.000000;,
  375;1.000000;1.000000;1.000000;1.000000;,
  376;1.000000;1.000000;1.000000;1.000000;,
  377;1.000000;1.000000;1.000000;1.000000;,
  378;1.000000;1.000000;1.000000;1.000000;,
  379;1.000000;1.000000;1.000000;1.000000;,
  380;1.000000;1.000000;1.000000;1.000000;,
  381;1.000000;1.000000;1.000000;1.000000;,
  382;1.000000;1.000000;1.000000;1.000000;,
  383;1.000000;1.000000;1.000000;1.000000;,
  384;1.000000;1.000000;1.000000;1.000000;,
  385;1.000000;1.000000;1.000000;1.000000;,
  386;1.000000;1.000000;1.000000;1.000000;,
  387;1.000000;1.000000;1.000000;1.000000;,
  388;1.000000;1.000000;1.000000;1.000000;,
  389;1.000000;1.000000;1.000000;1.000000;,
  390;1.000000;1.000000;1.000000;1.000000;,
  391;1.000000;1.000000;1.000000;1.000000;,
  392;1.000000;1.000000;1.000000;1.000000;,
  393;1.000000;1.000000;1.000000;1.000000;,
  394;1.000000;1.000000;1.000000;1.000000;,
  395;1.000000;1.000000;1.000000;1.000000;,
  396;1.000000;1.000000;1.000000;1.000000;,
  397;1.000000;1.000000;1.000000;1.000000;,
  398;1.000000;1.000000;1.000000;1.000000;,
  399;1.000000;1.000000;1.000000;1.000000;,
  400;1.000000;1.000000;1.000000;1.000000;,
  401;1.000000;1.000000;1.000000;1.000000;,
  402;1.000000;1.000000;1.000000;1.000000;,
  403;1.000000;1.000000;1.000000;1.000000;,
  404;1.000000;1.000000;1.000000;1.000000;,
  405;1.000000;1.000000;1.000000;1.000000;,
  406;1.000000;1.000000;1.000000;1.000000;,
  407;1.000000;1.000000;1.000000;1.000000;,
  408;1.000000;1.000000;1.000000;1.000000;,
  409;1.000000;1.000000;1.000000;1.000000;,
  410;1.000000;1.000000;1.000000;1.000000;,
  411;1.000000;1.000000;1.000000;1.000000;,
  412;1.000000;1.000000;1.000000;1.000000;,
  413;1.000000;1.000000;1.000000;1.000000;,
  414;1.000000;1.000000;1.000000;1.000000;,
  415;1.000000;1.000000;1.000000;1.000000;,
  416;1.000000;1.000000;1.000000;1.000000;,
  417;1.000000;1.000000;1.000000;1.000000;,
  418;1.000000;1.000000;1.000000;1.000000;,
  419;1.000000;1.000000;1.000000;1.000000;,
  420;1.000000;1.000000;1.000000;1.000000;,
  421;1.000000;1.000000;1.000000;1.000000;,
  422;1.000000;1.000000;1.000000;1.000000;,
  423;1.000000;1.000000;1.000000;1.000000;,
  424;1.000000;1.000000;1.000000;1.000000;,
  425;1.000000;1.000000;1.000000;1.000000;;
 }
}
