xof 0302txt 0064
template Header {
 <3D82AB43-62DA-11cf-AB39-0020AF71E433>
 WORD major;
 WORD minor;
 DWORD flags;
}

template Vector {
 <3D82AB5E-62DA-11cf-AB39-0020AF71E433>
 FLOAT x;
 FLOAT y;
 FLOAT z;
}

template Coords2d {
 <F6F23F44-7686-11cf-8F52-0040333594A3>
 FLOAT u;
 FLOAT v;
}

template Matrix4x4 {
 <F6F23F45-7686-11cf-8F52-0040333594A3>
 array FLOAT matrix[16];
}

template ColorRGBA {
 <35FF44E0-6C7C-11cf-8F52-0040333594A3>
 FLOAT red;
 FLOAT green;
 FLOAT blue;
 FLOAT alpha;
}

template ColorRGB {
 <D3E16E81-7835-11cf-8F52-0040333594A3>
 FLOAT red;
 FLOAT green;
 FLOAT blue;
}

template IndexedColor {
 <1630B820-7842-11cf-8F52-0040333594A3>
 DWORD index;
 ColorRGBA indexColor;
}

template Boolean {
 <4885AE61-78E8-11cf-8F52-0040333594A3>
 WORD truefalse;
}

template Boolean2d {
 <4885AE63-78E8-11cf-8F52-0040333594A3>
 Boolean u;
 Boolean v;
}

template MaterialWrap {
 <4885AE60-78E8-11cf-8F52-0040333594A3>
 Boolean u;
 Boolean v;
}

template TextureFilename {
 <A42790E1-7810-11cf-8F52-0040333594A3>
 STRING filename;
}

template Material {
 <3D82AB4D-62DA-11cf-AB39-0020AF71E433>
 ColorRGBA faceColor;
 FLOAT power;
 ColorRGB specularColor;
 ColorRGB emissiveColor;
 [...]
}

template MeshFace {
 <3D82AB5F-62DA-11cf-AB39-0020AF71E433>
 DWORD nFaceVertexIndices;
 array DWORD faceVertexIndices[nFaceVertexIndices];
}

template MeshFaceWraps {
 <4885AE62-78E8-11cf-8F52-0040333594A3>
 DWORD nFaceWrapValues;
 Boolean2d faceWrapValues;
}

template MeshTextureCoords {
 <F6F23F40-7686-11cf-8F52-0040333594A3>
 DWORD nTextureCoords;
 array Coords2d textureCoords[nTextureCoords];
}

template MeshMaterialList {
 <F6F23F42-7686-11cf-8F52-0040333594A3>
 DWORD nMaterials;
 DWORD nFaceIndexes;
 array DWORD faceIndexes[nFaceIndexes];
 [Material]
}

template MeshNormals {
 <F6F23F43-7686-11cf-8F52-0040333594A3>
 DWORD nNormals;
 array Vector normals[nNormals];
 DWORD nFaceNormals;
 array MeshFace faceNormals[nFaceNormals];
}

template MeshVertexColors {
 <1630B821-7842-11cf-8F52-0040333594A3>
 DWORD nVertexColors;
 array IndexedColor vertexColors[nVertexColors];
}

template Mesh {
 <3D82AB44-62DA-11cf-AB39-0020AF71E433>
 DWORD nVertices;
 array Vector vertices[nVertices];
 DWORD nFaces;
 array MeshFace faces[nFaces];
 [...]
}

Header{
1;
0;
1;
}

Mesh {
 435;
 -0.08165;-0.20314;0.06980;,
 -0.10059;-0.20214;0.03303;,
 -0.06043;-0.21903;0.03230;,
 -0.09215;-0.20927;-0.01669;,
 -0.03520;-0.21932;-0.00140;,
 -0.09192;-0.20225;-0.05165;,
 -0.05653;-0.20862;-0.06888;,
 -0.03967;-0.19334;-0.10904;,
 0.00873;-0.21617;-0.07243;,
 0.00511;-0.20259;-0.10470;,
 0.05913;-0.19351;-0.10082;,
 0.02752;-0.22093;-0.03982;,
 0.05967;-0.21370;-0.05373;,
 0.09032;-0.19343;-0.07464;,
 0.04693;-0.22057;-0.00784;,
 0.09119;-0.20749;-0.01504;,
 0.08848;-0.20794;0.03321;,
 0.05381;-0.21826;0.04607;,
 0.08194;-0.20346;0.06982;,
 0.04381;-0.21213;0.08493;,
 -0.00392;-0.22135;0.05076;,
 0.00068;-0.21186;0.09599;,
 -0.03549;-0.20926;0.08753;,
 -0.08960;-0.17606;0.10759;,
 -0.11482;-0.17601;0.08164;,
 -0.13103;-0.17570;0.04888;,
 -0.13932;-0.17564;0.00143;,
 -0.13044;-0.17573;-0.04561;,
 -0.10490;-0.17541;-0.08640;,
 -0.07834;-0.17520;-0.11139;,
 -0.05323;-0.15451;-0.14746;,
 0.00898;-0.18089;-0.13218;,
 0.05166;-0.16581;-0.13966;,
 0.05166;-0.16581;-0.13966;,
 0.09658;-0.16581;-0.11384;,
 0.05913;-0.19351;-0.10082;,
 0.09658;-0.16581;-0.11384;,
 0.12349;-0.16581;-0.08532;,
 0.13130;-0.17559;-0.04673;,
 0.13868;-0.17559;0.00068;,
 0.13331;-0.17564;0.03659;,
 0.12010;-0.17596;0.07057;,
 0.07063;-0.18138;0.12341;,
 0.09947;-0.17757;0.10059;,
 0.02546;-0.18313;0.13992;,
 -0.01065;-0.17999;0.13915;,
 -0.04643;-0.17673;0.12932;,
 -0.11369;-0.13142;0.13602;,
 -0.14570;-0.13135;0.10336;,
 -0.16613;-0.13121;0.06172;,
 -0.17643;-0.13110;0.00116;,
 -0.16435;-0.13109;-0.05775;,
 -0.13102;-0.13113;-0.10794;,
 -0.09788;-0.13113;-0.14021;,
 -0.06173;-0.11895;-0.17118;,
 0.00020;-0.13110;-0.17555;,
 0.06060;-0.13110;-0.16486;,
 0.11368;-0.13112;-0.13424;,
 0.14537;-0.13112;-0.10064;,
 0.16606;-0.13112;-0.05939;,
 0.17468;-0.13113;0.00032;,
 0.16675;-0.13113;0.04539;,
 0.15090;-0.13117;0.08860;,
 0.08164;-0.13362;0.15834;,
 0.12542;-0.13174;0.12637;,
 0.10979;-0.10715;0.15756;,
 0.03142;-0.13355;0.17433;,
 -0.02856;-0.13170;0.16915;,
 -0.07347;-0.13135;0.15705;,
 -0.14379;-0.08011;0.14498;,
 -0.16635;-0.07997;0.11791;,
 -0.18364;-0.07977;0.08705;,
 -0.20091;-0.07954;0.01886;,
 -0.19524;-0.07962;0.05368;,
 -0.20052;-0.07951;-0.01636;,
 -0.19394;-0.07952;-0.05070;,
 -0.18079;-0.07955;-0.08254;,
 -0.16837;-0.05193;-0.11645;,
 -0.15793;-0.09309;-0.10843;,
 -0.13532;-0.09314;-0.13430;,
 -0.14487;-0.05195;-0.14428;,
 -0.11804;-0.05197;-0.16891;,
 -0.10997;-0.09318;-0.15757;,
 -0.08419;-0.07965;-0.18114;,
 -0.05218;-0.07963;-0.19408;,
 -0.01768;-0.07958;-0.19998;,
 0.01759;-0.07954;-0.19957;,
 0.05222;-0.07952;-0.19329;,
 0.08519;-0.07952;-0.18127;,
 0.11554;-0.07952;-0.16374;,
 0.14240;-0.07952;-0.14120;,
 0.16493;-0.07952;-0.11434;,
 0.18252;-0.07952;-0.08398;,
 0.19488;-0.07954;-0.05106;,
 0.20148;-0.07959;-0.01677;,
 0.19974;-0.07963;0.01751;,
 0.19134;-0.07959;0.05154;,
 0.17983;-0.07954;0.08502;,
 0.16432;-0.07955;0.11617;,
 0.14236;-0.07977;0.14322;,
 0.11947;-0.05218;0.17137;,
 0.08519;-0.08052;0.18332;,
 0.05227;-0.08027;0.19521;,
 0.00107;-0.07974;0.19848;,
 -0.05016;-0.07980;0.18914;,
 -0.08430;-0.07997;0.17985;,
 -0.11625;-0.08010;0.16619;,
 -0.15091;-0.02381;0.15165;,
 -0.17520;-0.02362;0.12369;,
 -0.19383;-0.02340;0.09160;,
 -0.20627;-0.02323;0.05656;,
 -0.21244;-0.02313;0.01980;,
 -0.21200;-0.02311;-0.01742;,
 -0.20482;-0.02314;-0.05374;,
 -0.19090;-0.02317;-0.08750;,
 -0.17202;-0.00852;-0.11848;,
 -0.14810;-0.00845;-0.14694;,
 -0.12073;-0.00845;-0.17246;,
 -0.05549;-0.02320;-0.20518;,
 -0.08960;-0.02317;-0.19209;,
 -0.01887;-0.02322;-0.21089;,
 0.01841;-0.02325;-0.21014;,
 0.05490;-0.02325;-0.20339;,
 0.08958;-0.02325;-0.19072;,
 0.12152;-0.02325;-0.17227;,
 0.14977;-0.02325;-0.14857;,
 0.17350;-0.02325;-0.12032;,
 0.19233;-0.02327;-0.08840;,
 0.20619;-0.02333;-0.05377;,
 0.21353;-0.02340;-0.01766;,
 0.21158;-0.02341;0.01845;,
 0.20230;-0.02337;0.05424;,
 0.18973;-0.02329;0.08947;,
 0.17302;-0.02325;0.12219;,
 0.14975;-0.02325;0.15060;,
 0.12139;0.00613;0.17417;,
 0.08958;-0.02330;0.19277;,
 0.05494;-0.02325;0.20535;,
 -0.01691;-0.02327;0.20745;,
 0.01893;-0.02321;0.21076;,
 -0.05267;-0.02345;0.19899;,
 -0.08828;-0.02366;0.18872;,
 -0.12172;-0.02382;0.17394;,
 -0.14506;0.03503;0.14457;,
 -0.16987;0.03522;0.11872;,
 -0.18945;0.03552;0.08872;,
 -0.20328;0.03584;0.05460;,
 -0.21106;0.03614;0.01816;,
 -0.21342;0.02151;-0.01836;,
 -0.20588;0.06518;-0.01880;,
 -0.19922;0.06534;-0.05306;,
 -0.20601;0.02153;-0.05428;,
 -0.19115;0.02148;-0.08710;,
 -0.18521;0.06527;-0.08458;,
 -0.17088;0.03635;-0.11657;,
 -0.14740;0.03636;-0.14425;,
 -0.11995;0.03630;-0.16885;,
 -0.05525;0.02118;-0.20398;,
 -0.08878;0.03606;-0.18835;,
 -0.05282;0.06413;-0.19374;,
 -0.01879;0.02103;-0.20964;,
 -0.01778;0.06380;-0.19894;,
 0.01741;0.06363;-0.19828;,
 0.01828;0.02093;-0.20884;,
 0.05455;0.02088;-0.20210;,
 0.08901;0.02087;-0.18950;,
 0.05184;0.06355;-0.19194;,
 0.08458;0.06354;-0.18000;,
 0.12075;0.02087;-0.17117;,
 0.11474;0.06354;-0.16258;,
 0.14141;0.06354;-0.14020;,
 0.14883;0.02087;-0.14763;,
 0.17247;0.02087;-0.11955;,
 0.16382;0.06354;-0.11353;,
 0.18164;0.06352;-0.08339;,
 0.19158;0.02083;-0.08784;,
 0.20593;0.02075;-0.05345;,
 0.21284;0.02069;-0.01756;,
 0.19463;0.06347;-0.05072;,
 0.19915;0.06347;0.00037;,
 0.20954;0.02074;0.01834;,
 0.19661;0.03531;0.05314;,
 0.18795;0.02086;0.08891;,
 0.17810;0.06354;0.08443;,
 0.16307;0.06355;0.11536;,
 0.17183;0.02088;0.12142;,
 0.14880;0.02089;0.14967;,
 0.14135;0.06360;0.14228;,
 0.11471;0.06371;0.16479;,
 0.08899;0.02102;0.19167;,
 0.08451;0.06392;0.18239;,
 0.05179;0.06417;0.19439;,
 0.05457;0.02114;0.20423;,
 0.01858;0.03589;0.20663;,
 -0.01615;0.03589;0.20279;,
 -0.05019;0.03567;0.19297;,
 -0.08395;0.03533;0.18113;,
 -0.11615;0.03507;0.16583;,
 -0.14208;0.09011;0.11825;,
 -0.17911;0.09101;0.06439;,
 -0.19421;0.09196;0.01554;,
 -0.17874;0.11769;-0.03203;,
 -0.16406;0.11751;-0.07542;,
 -0.14976;0.09234;-0.12228;,
 -0.09798;0.09179;-0.16477;,
 -0.04618;0.11553;-0.16941;,
 -0.00001;0.11496;-0.17384;,
 0.05987;0.11478;-0.16300;,
 0.11236;0.11476;-0.13267;,
 0.14370;0.11477;-0.09946;,
 0.16439;0.11500;-0.05871;,
 0.17298;0.11519;0.00027;,
 0.17812;0.09010;0.04841;,
 0.14907;0.11479;0.08758;,
 0.11227;0.11496;0.13487;,
 0.05976;0.11553;0.16559;,
 0.00143;0.09122;0.18639;,
 -0.04482;0.09098;0.17465;,
 -0.08965;0.09034;0.15585;,
 -0.09942;0.13707;0.11843;,
 -0.13756;0.13803;0.07877;,
 -0.16086;0.13952;0.02651;,
 -0.15371;0.15006;-0.02774;,
 -0.13302;0.14966;-0.07555;,
 -0.13223;0.12918;-0.10886;,
 -0.09103;0.15715;-0.10699;,
 -0.08413;0.13360;-0.14163;,
 -0.02599;0.14753;-0.14609;,
 0.02601;0.14686;-0.14566;,
 0.07463;0.14684;-0.12796;,
 0.10649;0.15402;-0.08820;,
 0.13104;0.15466;-0.04649;,
 0.14821;0.14775;0.00039;,
 0.14934;0.13686;0.04071;,
 0.12733;0.14667;0.07489;,
 0.08933;0.15459;0.10746;,
 0.05102;0.14759;0.14135;,
 0.00123;0.13782;0.15621;,
 -0.05099;0.13744;0.14276;,
 -0.09942;0.13707;0.11843;,
 -0.10052;0.17009;0.06376;,
 -0.13756;0.13803;0.07877;,
 -0.13236;0.16546;0.02164;,
 -0.16086;0.13952;0.02651;,
 -0.10052;0.17009;0.06376;,
 -0.09744;0.17693;0.01675;,
 -0.13236;0.16546;0.02164;,
 -0.12154;0.16913;-0.02172;,
 -0.16086;0.13952;0.02651;,
 -0.12154;0.16913;-0.02172;,
 -0.15371;0.15006;-0.02774;,
 -0.12154;0.16913;-0.02172;,
 -0.13302;0.14966;-0.07555;,
 -0.15371;0.15006;-0.02774;,
 -0.12154;0.16913;-0.02172;,
 -0.13302;0.14966;-0.07555;,
 -0.12154;0.16913;-0.02172;,
 -0.10542;0.16965;-0.05970;,
 -0.09103;0.15715;-0.10699;,
 -0.13302;0.14966;-0.07555;,
 -0.10542;0.16965;-0.05970;,
 -0.10542;0.16965;-0.05970;,
 -0.06221;0.17727;-0.07308;,
 -0.09103;0.15715;-0.10699;,
 -0.04447;0.16392;-0.12096;,
 -0.01642;0.17521;-0.09207;,
 -0.04447;0.16392;-0.12096;,
 0.00007;0.16222;-0.12802;,
 0.00007;0.16222;-0.12802;,
 0.05425;0.16687;-0.10305;,
 0.05425;0.16687;-0.10305;,
 0.08155;0.17380;-0.04601;,
 0.10649;0.15402;-0.08820;,
 0.13104;0.15466;-0.04649;,
 0.11594;0.16699;0.01607;,
 0.11594;0.16699;0.01607;,
 0.14934;0.13686;0.04071;,
 0.10174;0.16621;0.05976;,
 0.12733;0.14667;0.07489;,
 0.08933;0.15459;0.10746;,
 0.06147;0.17491;0.07417;,
 0.05102;0.14759;0.14135;,
 0.08933;0.15459;0.10746;,
 0.04044;0.16792;0.11205;,
 0.04044;0.16792;0.11205;,
 0.00123;0.13782;0.15621;,
 -0.01472;0.16692;0.11600;,
 -0.05099;0.13744;0.14276;,
 -0.05836;0.16692;0.10208;,
 -0.06256;0.17879;0.04834;,
 -0.05142;0.17195;0.00681;,
 -0.07452;0.17735;-0.02526;,
 -0.01738;0.17373;-0.05152;,
 0.03856;0.17665;-0.07338;,
 0.01738;0.17032;-0.04448;,
 0.04692;0.17153;-0.02048;,
 0.07458;0.17616;0.01955;,
 0.02771;0.16748;0.03155;,
 0.02492;0.17736;0.06916;,
 -0.01427;0.17631;0.08256;,
 -0.01472;0.16692;0.11600;,
 -0.01617;0.16660;0.04031;,
 -0.05836;0.16692;0.10208;,
 -0.01617;0.16660;0.04031;,
 -0.00819;0.14714;-0.00328;,
 -0.05142;0.17195;0.00681;,
 -0.00819;0.14714;-0.00328;,
 -0.01738;0.17373;-0.05152;,
 -0.05142;0.17195;0.00681;,
 -0.00819;0.14714;-0.00328;,
 0.01738;0.17032;-0.04448;,
 -0.01738;0.17373;-0.05152;,
 -0.00819;0.14714;-0.00328;,
 0.04692;0.17153;-0.02048;,
 0.01738;0.17032;-0.04448;,
 -0.00819;0.14714;-0.00328;,
 0.02771;0.16748;0.03155;,
 0.04692;0.17153;-0.02048;,
 -0.00879;-0.21923;-0.03120;,
 0.01300;-0.21081;0.00509;,
 -0.01617;0.16660;0.04031;,
 0.02771;0.16748;0.03155;,
 -0.00819;0.14714;-0.00328;,
 -0.01889;0.16157;0.00340;,
 -0.01605;0.16188;0.00895;,
 -0.02436;0.17434;0.00884;,
 -0.03020;0.18624;0.01216;,
 -0.03091;0.18700;0.00812;,
 -0.02418;0.17563;0.00334;,
 -0.02984;0.18836;0.00526;,
 -0.01677;0.16296;-0.00083;,
 -0.02015;0.17792;0.00121;,
 -0.02568;0.19080;0.00417;,
 -0.01209;0.16473;-0.00066;,
 -0.01661;0.17912;0.00301;,
 -0.02211;0.19191;0.00678;,
 -0.00895;0.16547;0.00266;,
 -0.01470;0.17898;0.00760;,
 -0.02110;0.19093;0.01192;,
 -0.00904;0.16493;0.00627;,
 -0.01628;0.17741;0.01133;,
 -0.01202;0.16337;0.00935;,
 -0.02398;0.18857;0.01525;,
 -0.02008;0.17555;0.01210;,
 -0.02747;0.18685;0.01491;,
 -0.03400;0.19655;0.01713;,
 -0.03646;0.19643;0.01317;,
 -0.03951;0.20395;0.01898;,
 -0.04129;0.20454;0.01401;,
 -0.03635;0.19753;0.00976;,
 -0.04013;0.20611;0.01104;,
 -0.03390;0.19974;0.00694;,
 -0.03632;0.20866;0.00941;,
 -0.02935;0.20188;0.00800;,
 -0.03291;0.20963;0.01102;,
 -0.02705;0.20227;0.01084;,
 -0.03119;0.20984;0.01415;,
 -0.02644;0.20147;0.01461;,
 -0.03173;0.20829;0.01902;,
 -0.02911;0.19896;0.01799;,
 -0.03505;0.20581;0.02105;,
 -0.04504;0.20948;0.01626;,
 -0.04413;0.20893;0.01964;,
 -0.04783;0.21302;0.01752;,
 -0.04679;0.21238;0.02131;,
 -0.04324;0.21174;0.01230;,
 -0.04700;0.21447;0.01442;,
 -0.04486;0.21633;0.01222;,
 -0.03980;0.21387;0.01105;,
 -0.04181;0.21788;0.01177;,
 -0.03648;0.21425;0.01195;,
 -0.03781;0.21869;0.01116;,
 -0.03394;0.21487;0.01557;,
 -0.03478;0.21832;0.01418;,
 -0.03550;0.21911;0.01921;,
 -0.03490;0.21362;0.02116;,
 -0.03650;0.21785;0.02246;,
 -0.03888;0.21583;0.02463;,
 -0.03831;0.21108;0.02323;,
 -0.04266;0.21363;0.02477;,
 -0.04141;0.20953;0.02256;,
 -0.04869;0.21642;0.02506;,
 -0.04993;0.21550;0.01991;,
 -0.05167;0.21763;0.02224;,
 -0.05153;0.21926;0.01710;,
 -0.04877;0.21787;0.01444;,
 -0.04784;0.22251;0.01309;,
 -0.04484;0.22047;0.01218;,
 -0.04194;0.22513;0.01364;,
 -0.03669;0.22231;0.02009;,
 -0.03787;0.22117;0.02357;,
 -0.03913;0.22586;0.02297;,
 -0.04013;0.22449;0.02629;,
 -0.04030;0.21902;0.02601;,
 -0.04260;0.22089;0.02787;,
 -0.04431;0.21660;0.02636;,
 -0.04606;0.22121;0.02850;,
 -0.05401;0.22110;0.02459;,
 -0.05372;0.22134;0.01895;,
 -0.05284;0.22449;0.01559;,
 -0.04791;0.22682;0.01392;,
 -0.05076;0.22808;0.01643;,
 -0.04429;0.22785;0.01614;,
 -0.03732;0.22506;0.01734;,
 -0.04173;0.22886;0.02015;,
 -0.04158;0.23117;0.02292;,
 -0.04176;0.23028;0.02636;,
 -0.04380;0.22750;0.02896;,
 -0.04246;0.22415;0.02872;,
 -0.04866;0.22511;0.02921;,
 -0.05081;0.22142;0.02809;,
 -0.05350;0.22613;0.02020;,
 -0.04742;0.22957;0.01710;,
 -0.05306;0.22548;0.02510;,
 -0.01315;0.14807;0.00464;,
 -0.00794;0.13484;0.00508;,
 -0.01356;0.14819;0.00040;,
 -0.00917;0.13458;-0.00061;,
 -0.01098;0.14917;-0.00255;,
 -0.00413;0.13579;-0.00391;,
 -0.00613;0.15068;-0.00248;,
 0.00048;0.13686;-0.00013;,
 -0.00374;0.15125;0.00053;,
 -0.00424;0.15081;0.00523;,
 -0.00038;0.13663;0.00485;,
 -0.00350;0.13588;0.00671;,
 -0.00912;0.14914;0.00766;,
 -0.04997;0.22773;0.02203;,
 -0.04686;0.22805;0.02758;,
 -0.04631;0.23014;0.02394;,
 -0.04943;0.22692;0.02569;,
 -0.04542;0.22982;0.02048;,
 -0.03458;0.22189;0.01590;,
 -0.04059;0.22220;0.01156;,
 -0.03644;0.22329;0.01146;;
 
 747;
 3;0,1,2;,
 3;2,3,4;,
 3;2,1,3;,
 3;5,6,3;,
 3;6,4,3;,
 3;7,8,6;,
 3;7,9,8;,
 3;9,10,8;,
 3;11,8,12;,
 3;10,12,8;,
 3;10,13,12;,
 3;14,11,12;,
 3;13,15,12;,
 3;14,12,15;,
 3;14,15,16;,
 3;14,16,17;,
 3;18,17,16;,
 3;19,17,18;,
 3;20,17,19;,
 3;20,19,21;,
 3;20,21,22;,
 3;20,22,2;,
 3;0,2,22;,
 3;0,23,24;,
 3;1,0,24;,
 3;1,24,25;,
 3;1,25,26;,
 3;1,26,3;,
 3;27,3,26;,
 3;3,27,5;,
 3;28,5,27;,
 3;5,28,6;,
 3;6,28,29;,
 3;7,6,29;,
 3;29,30,7;,
 3;7,31,9;,
 3;7,30,31;,
 3;10,9,31;,
 3;32,10,31;,
 3;33,34,35;,
 3;36,13,10;,
 3;36,37,13;,
 3;38,13,37;,
 3;15,13,38;,
 3;39,15,38;,
 3;40,16,15;,
 3;40,15,39;,
 3;16,40,41;,
 3;18,16,41;,
 3;42,19,18;,
 3;42,18,43;,
 3;18,41,43;,
 3;44,19,42;,
 3;21,44,45;,
 3;21,19,44;,
 3;22,21,45;,
 3;22,45,46;,
 3;0,22,23;,
 3;22,46,23;,
 3;23,47,48;,
 3;23,48,24;,
 3;49,25,24;,
 3;49,24,48;,
 3;26,25,49;,
 3;26,49,50;,
 3;51,27,26;,
 3;51,26,50;,
 3;52,28,27;,
 3;52,27,51;,
 3;29,28,52;,
 3;29,52,53;,
 3;30,29,53;,
 3;53,54,30;,
 3;31,30,55;,
 3;54,55,30;,
 3;32,31,55;,
 3;32,55,56;,
 3;32,56,57;,
 3;32,57,36;,
 3;36,57,58;,
 3;36,58,37;,
 3;38,37,58;,
 3;38,58,59;,
 3;60,39,38;,
 3;60,38,59;,
 3;61,40,39;,
 3;61,39,60;,
 3;41,40,61;,
 3;41,61,62;,
 3;63,42,43;,
 3;63,43,64;,
 3;41,62,64;,
 3;41,64,43;,
 3;65,63,64;,
 3;66,44,42;,
 3;66,42,63;,
 3;67,45,44;,
 3;67,44,66;,
 3;46,45,67;,
 3;46,67,68;,
 3;23,46,68;,
 3;23,68,47;,
 3;47,69,70;,
 3;47,70,48;,
 3;71,49,48;,
 3;71,48,70;,
 3;72,50,49;,
 3;72,49,73;,
 3;49,71,73;,
 3;50,72,74;,
 3;75,51,50;,
 3;75,50,74;,
 3;51,75,76;,
 3;77,78,76;,
 3;78,52,51;,
 3;78,51,76;,
 3;52,78,79;,
 3;77,80,79;,
 3;77,79,78;,
 3;80,81,82;,
 3;80,82,79;,
 3;53,52,79;,
 3;53,79,82;,
 3;54,83,84;,
 3;54,53,82;,
 3;54,82,83;,
 3;81,83,82;,
 3;54,84,85;,
 3;54,85,55;,
 3;86,55,85;,
 3;56,87,88;,
 3;55,86,87;,
 3;55,87,56;,
 3;56,88,89;,
 3;56,89,57;,
 3;57,89,90;,
 3;57,90,91;,
 3;57,91,58;,
 3;59,58,91;,
 3;59,91,92;,
 3;60,59,93;,
 3;60,93,94;,
 3;59,92,93;,
 3;60,94,95;,
 3;96,61,60;,
 3;96,60,95;,
 3;62,61,96;,
 3;62,96,97;,
 3;62,97,98;,
 3;65,64,99;,
 3;62,98,99;,
 3;62,99,64;,
 3;100,65,99;,
 3;65,101,63;,
 3;65,100,101;,
 3;66,63,101;,
 3;66,101,102;,
 3;103,67,66;,
 3;66,102,103;,
 3;67,103,104;,
 3;68,67,104;,
 3;68,104,105;,
 3;47,106,69;,
 3;68,105,106;,
 3;68,106,47;,
 3;70,69,107;,
 3;70,107,108;,
 3;71,70,108;,
 3;71,108,109;,
 3;72,73,110;,
 3;72,110,111;,
 3;71,109,110;,
 3;71,110,73;,
 3;72,111,112;,
 3;72,112,74;,
 3;113,75,74;,
 3;113,74,112;,
 3;75,113,114;,
 3;75,114,76;,
 3;115,77,114;,
 3;77,76,114;,
 3;115,116,80;,
 3;115,80,77;,
 3;117,81,80;,
 3;117,80,116;,
 3;118,84,83;,
 3;118,83,119;,
 3;83,81,119;,
 3;117,119,81;,
 3;84,118,120;,
 3;84,120,85;,
 3;121,86,85;,
 3;121,85,120;,
 3;88,87,122;,
 3;88,122,123;,
 3;86,121,122;,
 3;86,122,87;,
 3;88,123,124;,
 3;88,124,89;,
 3;90,89,124;,
 3;90,124,125;,
 3;90,125,126;,
 3;90,126,91;,
 3;92,91,126;,
 3;92,126,127;,
 3;94,93,128;,
 3;94,128,129;,
 3;93,92,127;,
 3;93,127,128;,
 3;94,129,130;,
 3;94,130,95;,
 3;131,96,95;,
 3;131,95,130;,
 3;96,131,132;,
 3;96,132,97;,
 3;98,97,132;,
 3;98,132,133;,
 3;100,99,134;,
 3;98,133,134;,
 3;98,134,99;,
 3;135,100,134;,
 3;100,136,101;,
 3;135,136,100;,
 3;102,101,136;,
 3;102,136,137;,
 3;138,103,139;,
 3;103,102,137;,
 3;103,137,139;,
 3;103,138,140;,
 3;103,140,104;,
 3;105,104,140;,
 3;105,140,141;,
 3;69,106,142;,
 3;69,142,107;,
 3;106,105,141;,
 3;106,141,142;,
 3;108,107,143;,
 3;108,143,144;,
 3;109,108,144;,
 3;109,144,145;,
 3;111,110,146;,
 3;111,146,147;,
 3;110,109,145;,
 3;110,145,146;,
 3;112,111,147;,
 3;112,147,148;,
 3;147,149,148;,
 3;149,150,151;,
 3;149,151,148;,
 3;113,112,148;,
 3;113,148,151;,
 3;113,151,152;,
 3;113,152,114;,
 3;150,153,152;,
 3;150,152,151;,
 3;154,152,153;,
 3;115,114,152;,
 3;115,152,154;,
 3;115,154,155;,
 3;115,155,116;,
 3;156,117,116;,
 3;156,116,155;,
 3;157,118,119;,
 3;157,119,158;,
 3;117,156,158;,
 3;117,158,119;,
 3;159,157,158;,
 3;118,157,160;,
 3;118,160,120;,
 3;157,159,161;,
 3;157,161,160;,
 3;162,163,160;,
 3;162,160,161;,
 3;121,120,160;,
 3;121,160,163;,
 3;123,122,164;,
 3;123,164,165;,
 3;122,121,163;,
 3;122,163,164;,
 3;162,166,164;,
 3;162,164,163;,
 3;167,165,164;,
 3;167,164,166;,
 3;123,165,168;,
 3;123,168,124;,
 3;167,169,168;,
 3;167,168,165;,
 3;170,171,168;,
 3;170,168,169;,
 3;125,124,168;,
 3;125,168,171;,
 3;125,171,172;,
 3;125,172,126;,
 3;170,173,172;,
 3;170,172,171;,
 3;174,175,172;,
 3;174,172,173;,
 3;127,126,172;,
 3;127,172,175;,
 3;129,128,176;,
 3;129,176,177;,
 3;127,175,176;,
 3;127,176,128;,
 3;175,174,178;,
 3;175,178,176;,
 3;179,177,176;,
 3;179,176,178;,
 3;130,129,177;,
 3;130,177,180;,
 3;179,180,177;,
 3;179,181,180;,
 3;131,130,180;,
 3;131,180,181;,
 3;132,131,181;,
 3;132,181,182;,
 3;181,183,182;,
 3;184,185,182;,
 3;184,182,183;,
 3;133,132,182;,
 3;133,182,185;,
 3;135,134,186;,
 3;133,185,186;,
 3;133,186,134;,
 3;184,187,186;,
 3;184,186,185;,
 3;188,135,186;,
 3;188,186,187;,
 3;135,189,136;,
 3;188,190,189;,
 3;188,189,135;,
 3;190,191,192;,
 3;190,192,189;,
 3;137,136,189;,
 3;137,189,192;,
 3;138,139,193;,
 3;138,193,194;,
 3;139,137,192;,
 3;139,192,193;,
 3;191,193,192;,
 3;138,194,195;,
 3;138,195,140;,
 3;196,141,140;,
 3;196,140,195;,
 3;107,142,197;,
 3;107,197,143;,
 3;141,196,197;,
 3;141,197,142;,
 3;143,198,144;,
 3;199,145,144;,
 3;199,144,198;,
 3;147,146,199;,
 3;147,199,200;,
 3;146,145,199;,
 3;149,147,200;,
 3;200,201,149;,
 3;201,150,149;,
 3;201,202,153;,
 3;201,153,150;,
 3;202,203,153;,
 3;154,153,203;,
 3;154,203,155;,
 3;204,156,155;,
 3;204,155,203;,
 3;159,158,204;,
 3;156,204,158;,
 3;204,205,159;,
 3;205,206,161;,
 3;205,161,159;,
 3;206,162,161;,
 3;162,206,207;,
 3;162,207,166;,
 3;207,167,166;,
 3;207,208,169;,
 3;207,169,167;,
 3;208,170,169;,
 3;208,209,173;,
 3;208,173,170;,
 3;210,174,173;,
 3;210,173,209;,
 3;174,210,178;,
 3;210,211,179;,
 3;210,179,178;,
 3;211,212,179;,
 3;181,179,212;,
 3;181,212,183;,
 3;212,213,183;,
 3;213,184,183;,
 3;184,213,214;,
 3;184,214,187;,
 3;214,188,187;,
 3;214,215,190;,
 3;214,190,188;,
 3;215,191,190;,
 3;194,193,216;,
 3;193,191,216;,
 3;215,216,191;,
 3;195,194,216;,
 3;195,216,217;,
 3;218,196,195;,
 3;218,195,217;,
 3;198,143,197;,
 3;198,197,218;,
 3;196,218,197;,
 3;198,219,220;,
 3;199,198,220;,
 3;200,199,221;,
 3;199,220,221;,
 3;200,221,201;,
 3;221,222,201;,
 3;222,223,202;,
 3;222,202,201;,
 3;223,224,202;,
 3;203,202,224;,
 3;223,225,224;,
 3;225,226,224;,
 3;204,203,224;,
 3;204,224,226;,
 3;205,204,226;,
 3;226,227,205;,
 3;227,206,205;,
 3;228,206,227;,
 3;228,207,206;,
 3;229,207,228;,
 3;229,208,207;,
 3;230,208,229;,
 3;208,230,209;,
 3;230,231,210;,
 3;230,210,209;,
 3;231,232,211;,
 3;231,211,210;,
 3;232,233,211;,
 3;212,211,233;,
 3;212,233,213;,
 3;233,234,213;,
 3;234,235,214;,
 3;234,214,213;,
 3;235,236,215;,
 3;235,215,214;,
 3;216,215,237;,
 3;236,237,215;,
 3;217,216,237;,
 3;217,237,238;,
 3;218,217,238;,
 3;219,198,218;,
 3;218,238,219;,
 3;239,240,241;,
 3;241,240,242;,
 3;241,242,243;,
 3;244,245,246;,
 3;243,242,247;,
 3;248,249,250;,
 3;246,245,251;,
 3;252,253,254;,
 3;255,256,257;,
 3;258,259,260;,
 3;261,262,263;,
 3;227,226,264;,
 3;226,225,264;,
 3;262,265,266;,
 3;262,266,263;,
 3;227,264,267;,
 3;266,265,268;,
 3;267,228,227;,
 3;229,228,269;,
 3;228,267,269;,
 3;268,265,270;,
 3;271,272,270;,
 3;230,229,269;,
 3;271,273,272;,
 3;232,231,274;,
 3;271,275,273;,
 3;233,232,274;,
 3;276,275,277;,
 3;276,277,278;,
 3;278,277,279;,
 3;277,280,279;,
 3;281,282,283;,
 3;279,280,284;,
 3;285,281,283;,
 3;285,283,286;,
 3;287,285,286;,
 3;288,287,286;,
 3;240,239,288;,
 3;287,288,239;,
 3;244,289,245;,
 3;289,290,245;,
 3;245,291,251;,
 3;245,290,291;,
 3;261,251,291;,
 3;262,261,291;,
 3;291,292,262;,
 3;292,265,262;,
 3;265,293,270;,
 3;265,292,294;,
 3;265,294,293;,
 3;294,271,293;,
 3;271,270,293;,
 3;294,295,271;,
 3;296,275,271;,
 3;296,271,295;,
 3;275,296,277;,
 3;280,277,296;,
 3;296,297,280;,
 3;298,280,297;,
 3;280,298,284;,
 3;284,298,299;,
 3;284,299,300;,
 3;298,301,299;,
 3;299,302,300;,
 3;289,244,302;,
 3;302,299,289;,
 3;299,301,289;,
 3;303,304,305;,
 3;289,301,290;,
 3;306,307,308;,
 3;291,290,292;,
 3;309,310,311;,
 3;312,313,314;,
 3;296,295,297;,
 3;315,316,317;,
 3;301,298,297;,
 3;4,6,318;,
 3;6,8,318;,
 3;318,8,11;,
 3;11,319,318;,
 3;319,11,14;,
 3;14,17,319;,
 3;17,20,319;,
 3;4,319,20;,
 3;2,4,20;,
 3;320,321,322;,
 3;318,319,4;,
 3;323,324,325;,
 3;326,327,325;,
 3;323,325,328;,
 3;327,328,325;,
 3;327,329,328;,
 3;323,328,330;,
 3;331,330,328;,
 3;329,332,328;,
 3;332,331,328;,
 3;330,331,333;,
 3;333,331,334;,
 3;332,334,331;,
 3;334,332,335;,
 3;336,333,334;,
 3;336,334,337;,
 3;335,338,337;,
 3;335,337,334;,
 3;339,336,337;,
 3;340,339,337;,
 3;338,340,337;,
 3;341,339,340;,
 3;338,342,340;,
 3;341,340,343;,
 3;342,343,340;,
 3;324,341,343;,
 3;342,344,343;,
 3;324,343,325;,
 3;344,326,325;,
 3;344,325,343;,
 3;326,345,346;,
 3;347,346,345;,
 3;346,327,326;,
 3;348,346,347;,
 3;349,327,346;,
 3;348,349,346;,
 3;349,329,327;,
 3;349,348,350;,
 3;329,349,351;,
 3;349,350,351;,
 3;329,351,332;,
 3;352,351,350;,
 3;353,332,351;,
 3;352,353,351;,
 3;354,353,352;,
 3;332,353,335;,
 3;335,353,355;,
 3;354,356,355;,
 3;354,355,353;,
 3;338,355,357;,
 3;335,355,338;,
 3;356,357,355;,
 3;356,358,357;,
 3;342,338,359;,
 3;338,357,359;,
 3;358,359,357;,
 3;358,360,359;,
 3;344,342,359;,
 3;344,359,345;,
 3;360,345,359;,
 3;360,347,345;,
 3;326,344,345;,
 3;361,348,347;,
 3;361,347,362;,
 3;363,361,362;,
 3;363,362,364;,
 3;348,361,365;,
 3;348,365,350;,
 3;361,363,366;,
 3;361,366,365;,
 3;367,365,366;,
 3;368,352,350;,
 3;368,350,365;,
 3;367,368,365;,
 3;368,367,369;,
 3;370,354,352;,
 3;352,368,370;,
 3;368,369,371;,
 3;368,371,370;,
 3;372,354,370;,
 3;373,372,370;,
 3;373,370,371;,
 3;356,354,372;,
 3;373,374,372;,
 3;358,356,375;,
 3;356,372,375;,
 3;374,375,372;,
 3;374,376,375;,
 3;376,377,375;,
 3;360,358,375;,
 3;360,375,378;,
 3;377,378,375;,
 3;377,379,378;,
 3;347,360,378;,
 3;347,378,380;,
 3;379,380,378;,
 3;347,380,362;,
 3;379,364,380;,
 3;364,362,380;,
 3;364,381,382;,
 3;383,382,381;,
 3;382,363,364;,
 3;382,383,384;,
 3;363,382,385;,
 3;363,385,366;,
 3;382,384,385;,
 3;385,367,366;,
 3;386,385,384;,
 3;367,385,387;,
 3;385,386,387;,
 3;367,387,369;,
 3;388,387,386;,
 3;376,374,389;,
 3;376,389,390;,
 3;391,390,389;,
 3;391,392,390;,
 3;377,376,393;,
 3;376,390,393;,
 3;392,393,390;,
 3;392,394,393;,
 3;379,377,393;,
 3;379,393,395;,
 3;394,396,395;,
 3;394,395,393;,
 3;379,395,381;,
 3;396,381,395;,
 3;364,379,381;,
 3;383,381,397;,
 3;398,383,397;,
 3;383,398,384;,
 3;384,398,399;,
 3;386,384,399;,
 3;400,386,399;,
 3;401,400,399;,
 3;400,388,386;,
 3;388,400,402;,
 3;403,402,404;,
 3;403,388,402;,
 3;404,391,403;,
 3;405,391,404;,
 3;405,406,391;,
 3;391,406,392;,
 3;407,392,406;,
 3;392,407,408;,
 3;396,394,408;,
 3;394,392,408;,
 3;409,396,408;,
 3;409,408,407;,
 3;409,410,396;,
 3;381,410,397;,
 3;381,396,410;,
 3;397,411,398;,
 3;399,398,411;,
 3;412,400,401;,
 3;400,412,402;,
 3;397,410,413;,
 3;324,323,414;,
 3;415,414,416;,
 3;415,416,417;,
 3;414,323,416;,
 3;417,416,418;,
 3;416,323,330;,
 3;416,330,418;,
 3;417,418,419;,
 3;418,330,333;,
 3;333,420,418;,
 3;419,418,420;,
 3;421,419,420;,
 3;421,420,422;,
 3;333,422,420;,
 3;333,336,422;,
 3;421,422,423;,
 3;336,339,423;,
 3;336,423,422;,
 3;424,421,423;,
 3;339,341,423;,
 3;425,424,423;,
 3;425,423,426;,
 3;341,426,423;,
 3;341,324,426;,
 3;415,425,426;,
 3;324,414,426;,
 3;414,415,426;,
 3;401,411,427;,
 3;428,429,430;,
 3;427,430,429;,
 3;409,407,428;,
 3;412,401,427;,
 3;412,427,431;,
 3;431,427,429;,
 3;406,428,407;,
 3;406,429,428;,
 3;401,399,411;,
 3;411,413,427;,
 3;413,430,427;,
 3;430,413,409;,
 3;430,409,428;,
 3;397,413,411;,
 3;413,410,409;,
 3;429,406,405;,
 3;404,431,405;,
 3;431,429,405;,
 3;402,431,404;,
 3;431,402,412;,
 3;374,373,432;,
 3;371,369,387;,
 3;433,387,388;,
 3;433,371,387;,
 3;403,391,389;,
 3;389,374,432;,
 3;403,389,432;,
 3;388,403,434;,
 3;403,432,434;,
 3;433,388,434;,
 3;371,433,434;,
 4;432,373,371,434;;
 
 MeshMaterialList {
  1;
  747;
  0,
  0,
  0,
  0,
  0,
  0,
  0,
  0,
  0,
  0,
  0,
  0,
  0,
  0,
  0,
  0,
  0,
  0,
  0,
  0,
  0,
  0,
  0,
  0,
  0,
  0,
  0,
  0,
  0,
  0,
  0,
  0,
  0,
  0,
  0,
  0,
  0,
  0,
  0,
  0,
  0,
  0,
  0,
  0,
  0,
  0,
  0,
  0,
  0,
  0,
  0,
  0,
  0,
  0,
  0,
  0,
  0,
  0,
  0,
  0,
  0,
  0,
  0,
  0,
  0,
  0,
  0,
  0,
  0,
  0,
  0,
  0,
  0,
  0,
  0,
  0,
  0,
  0,
  0,
  0,
  0,
  0,
  0,
  0,
  0,
  0,
  0,
  0,
  0,
  0,
  0,
  0,
  0,
  0,
  0,
  0,
  0,
  0,
  0,
  0,
  0,
  0,
  0,
  0,
  0,
  0,
  0,
  0,
  0,
  0,
  0,
  0,
  0,
  0,
  0,
  0,
  0,
  0,
  0,
  0,
  0,
  0,
  0,
  0,
  0,
  0,
  0,
  0,
  0,
  0,
  0,
  0,
  0,
  0,
  0,
  0,
  0,
  0,
  0,
  0,
  0,
  0,
  0,
  0,
  0,
  0,
  0,
  0,
  0,
  0,
  0,
  0,
  0,
  0,
  0,
  0,
  0,
  0,
  0,
  0,
  0,
  0,
  0,
  0,
  0,
  0,
  0,
  0,
  0,
  0,
  0,
  0,
  0,
  0,
  0,
  0,
  0,
  0,
  0,
  0,
  0,
  0,
  0,
  0,
  0,
  0,
  0,
  0,
  0,
  0,
  0,
  0,
  0,
  0,
  0,
  0,
  0,
  0,
  0,
  0,
  0,
  0,
  0,
  0,
  0,
  0,
  0,
  0,
  0,
  0,
  0,
  0,
  0,
  0,
  0,
  0,
  0,
  0,
  0,
  0,
  0,
  0,
  0,
  0,
  0,
  0,
  0,
  0,
  0,
  0,
  0,
  0,
  0,
  0,
  0,
  0,
  0,
  0,
  0,
  0,
  0,
  0,
  0,
  0,
  0,
  0,
  0,
  0,
  0,
  0,
  0,
  0,
  0,
  0,
  0,
  0,
  0,
  0,
  0,
  0,
  0,
  0,
  0,
  0,
  0,
  0,
  0,
  0,
  0,
  0,
  0,
  0,
  0,
  0,
  0,
  0,
  0,
  0,
  0,
  0,
  0,
  0,
  0,
  0,
  0,
  0,
  0,
  0,
  0,
  0,
  0,
  0,
  0,
  0,
  0,
  0,
  0,
  0,
  0,
  0,
  0,
  0,
  0,
  0,
  0,
  0,
  0,
  0,
  0,
  0,
  0,
  0,
  0,
  0,
  0,
  0,
  0,
  0,
  0,
  0,
  0,
  0,
  0,
  0,
  0,
  0,
  0,
  0,
  0,
  0,
  0,
  0,
  0,
  0,
  0,
  0,
  0,
  0,
  0,
  0,
  0,
  0,
  0,
  0,
  0,
  0,
  0,
  0,
  0,
  0,
  0,
  0,
  0,
  0,
  0,
  0,
  0,
  0,
  0,
  0,
  0,
  0,
  0,
  0,
  0,
  0,
  0,
  0,
  0,
  0,
  0,
  0,
  0,
  0,
  0,
  0,
  0,
  0,
  0,
  0,
  0,
  0,
  0,
  0,
  0,
  0,
  0,
  0,
  0,
  0,
  0,
  0,
  0,
  0,
  0,
  0,
  0,
  0,
  0,
  0,
  0,
  0,
  0,
  0,
  0,
  0,
  0,
  0,
  0,
  0,
  0,
  0,
  0,
  0,
  0,
  0,
  0,
  0,
  0,
  0,
  0,
  0,
  0,
  0,
  0,
  0,
  0,
  0,
  0,
  0,
  0,
  0,
  0,
  0,
  0,
  0,
  0,
  0,
  0,
  0,
  0,
  0,
  0,
  0,
  0,
  0,
  0,
  0,
  0,
  0,
  0,
  0,
  0,
  0,
  0,
  0,
  0,
  0,
  0,
  0,
  0,
  0,
  0,
  0,
  0,
  0,
  0,
  0,
  0,
  0,
  0,
  0,
  0,
  0,
  0,
  0,
  0,
  0,
  0,
  0,
  0,
  0,
  0,
  0,
  0,
  0,
  0,
  0,
  0,
  0,
  0,
  0,
  0,
  0,
  0,
  0,
  0,
  0,
  0,
  0,
  0,
  0,
  0,
  0,
  0,
  0,
  0,
  0,
  0,
  0,
  0,
  0,
  0,
  0,
  0,
  0,
  0,
  0,
  0,
  0,
  0,
  0,
  0,
  0,
  0,
  0,
  0,
  0,
  0,
  0,
  0,
  0,
  0,
  0,
  0,
  0,
  0,
  0,
  0,
  0,
  0,
  0,
  0,
  0,
  0,
  0,
  0,
  0,
  0,
  0,
  0,
  0,
  0,
  0,
  0,
  0,
  0,
  0,
  0,
  0,
  0,
  0,
  0,
  0,
  0,
  0,
  0,
  0,
  0,
  0,
  0,
  0,
  0,
  0,
  0,
  0,
  0,
  0,
  0,
  0,
  0,
  0,
  0,
  0,
  0,
  0,
  0,
  0,
  0,
  0,
  0,
  0,
  0,
  0,
  0,
  0,
  0,
  0,
  0,
  0,
  0,
  0,
  0,
  0,
  0,
  0,
  0,
  0,
  0,
  0,
  0,
  0,
  0,
  0,
  0,
  0,
  0,
  0,
  0,
  0,
  0,
  0,
  0,
  0,
  0,
  0,
  0,
  0,
  0,
  0,
  0,
  0,
  0,
  0,
  0,
  0,
  0,
  0,
  0,
  0,
  0,
  0,
  0,
  0,
  0,
  0,
  0,
  0,
  0,
  0,
  0,
  0,
  0,
  0,
  0,
  0,
  0,
  0,
  0,
  0,
  0,
  0,
  0,
  0,
  0,
  0,
  0,
  0,
  0,
  0,
  0,
  0,
  0,
  0,
  0,
  0,
  0,
  0,
  0,
  0,
  0,
  0,
  0,
  0,
  0,
  0,
  0,
  0,
  0,
  0,
  0,
  0,
  0,
  0,
  0,
  0,
  0,
  0,
  0,
  0,
  0,
  0,
  0,
  0,
  0,
  0,
  0,
  0,
  0,
  0,
  0,
  0,
  0,
  0,
  0,
  0,
  0,
  0,
  0,
  0,
  0,
  0,
  0,
  0,
  0,
  0,
  0,
  0,
  0,
  0,
  0,
  0,
  0,
  0,
  0,
  0,
  0,
  0,
  0,
  0,
  0,
  0,
  0,
  0,
  0,
  0,
  0;;
  Material {
   0.800000;0.800000;0.800000;1.000000;;
   5.000000;
   0.000000;0.000000;0.000000;;
   0.000000;0.000000;0.000000;;
   TextureFilename {
    "Date\\Graphics\\XFileTexture\\AppleText.png";
   }
  }
 }
 MeshNormals {
  384;
  -0.392119;-0.855383;0.338471;,
  -0.515897;-0.843378;0.150212;,
  0.462824;-0.883888;-0.067345;,
  0.444758;-0.889458;0.105142;,
  0.430323;-0.851764;0.298864;,
  0.188246;-0.920115;0.343442;,
  -0.661485;-0.719381;0.211963;,
  -0.702617;-0.711559;-0.003653;,
  -0.650995;-0.706328;-0.278040;,
  -0.518141;-0.720337;-0.461134;,
  -0.434990;-0.705559;-0.559438;,
  0.666561;-0.713827;-0.214820;,
  0.699396;-0.714309;0.024653;,
  0.650341;-0.745723;0.144752;,
  0.360380;-0.718986;0.594294;,
  0.069926;-0.719613;0.690845;,
  -0.168330;-0.721477;0.671667;,
  -0.778338;-0.543169;-0.314894;,
  -0.513307;-0.549177;-0.659485;,
  0.017366;-0.544917;-0.838310;,
  0.319441;-0.506395;-0.800950;,
  0.541878;-0.515208;-0.664025;,
  0.844829;-0.535028;0.003046;,
  0.799590;-0.561469;0.213091;,
  0.144578;-0.501072;0.853244;,
  -0.310957;-0.526132;0.791511;,
  -0.866293;-0.304323;0.396137;,
  -0.946388;-0.312162;0.083089;,
  -0.903377;-0.330028;-0.273844;,
  -0.237863;-0.298074;-0.924431;,
  0.108568;-0.290862;-0.950585;,
  0.407048;-0.270303;-0.872495;,
  0.680554;-0.270048;-0.681117;,
  0.856996;-0.290801;-0.425432;,
  0.951469;-0.300261;-0.067452;,
  0.899260;-0.346304;0.267219;,
  0.807324;-0.276713;0.521207;,
  0.220739;-0.277909;0.934902;,
  -0.061374;-0.286420;0.956137;,
  -0.303967;-0.281605;0.910112;,
  -0.894742;-0.018686;0.446192;,
  -0.992835;-0.059375;0.103701;,
  -0.955130;-0.098703;-0.279256;,
  -0.798496;-0.020540;-0.601650;,
  -0.610931;-0.014858;-0.791545;,
  -0.258878;-0.089020;-0.961799;,
  0.072966;-0.079212;-0.994184;,
  0.422949;-0.040704;-0.905239;,
  0.706087;-0.040899;-0.706943;,
  0.899649;-0.071405;-0.430735;,
  0.992349;-0.076783;-0.096685;,
  0.955893;-0.060032;0.287514;,
  0.837544;-0.039055;0.544972;,
  0.231940;-0.089628;0.968592;,
  -0.172272;-0.011894;0.984978;,
  -0.365042;-0.008617;0.930951;,
  -0.882802;0.187294;0.430792;,
  -0.978515;0.165103;0.123487;,
  -0.799292;0.138932;-0.584662;,
  -0.610061;0.155380;-0.776970;,
  0.939139;0.209334;0.272392;,
  -0.190353;0.207751;0.959482;,
  -0.352206;0.224954;0.908486;,
  -0.893907;0.429029;0.129860;,
  0.867025;0.440923;0.232067;,
  -0.084529;0.419418;0.903849;,
  -0.625872;0.651702;0.428448;,
  -0.732102;0.666803;0.139282;,
  -0.090255;0.714191;-0.694107;,
  0.132444;0.735368;-0.664600;,
  0.344478;0.733375;-0.586085;,
  0.677248;0.735407;0.022622;,
  0.702256;0.682160;0.203702;,
  -0.270990;0.651618;0.708490;,
  -0.339341;0.891934;0.298832;,
  0.413898;0.908616;0.055730;,
  -0.204988;0.889412;0.408566;,
  -0.041096;0.999153;-0.002305;,
  0.145276;0.974181;0.172820;,
  0.001402;0.997826;-0.065883;,
  -0.014302;-0.999250;0.035970;,
  -0.218322;-0.970404;0.103209;,
  -0.395293;-0.914416;-0.087106;,
  -0.454376;-0.837334;-0.303997;,
  -0.244215;-0.923832;-0.294777;,
  0.025905;-0.861372;-0.507313;,
  -0.045797;-0.907486;0.417578;,
  -0.212444;-0.883564;0.417352;,
  -0.589352;-0.719263;0.367864;,
  0.017834;-0.738276;-0.674263;,
  0.260309;-0.671526;-0.693752;,
  0.256722;-0.830492;-0.494345;,
  0.453098;-0.822856;-0.342942;,
  0.467986;-0.686346;-0.556702;,
  0.594671;-0.693027;-0.407530;,
  0.645898;-0.697366;0.310638;,
  0.543915;-0.683028;0.487472;,
  -0.271866;-0.686729;0.674161;,
  -0.414543;-0.708591;0.571011;,
  -0.679205;-0.551370;0.484429;,
  -0.796301;-0.554893;0.240827;,
  -0.851281;-0.523217;-0.039563;,
  -0.633314;-0.564424;-0.529471;,
  -0.311537;-0.497013;-0.809891;,
  0.686995;-0.555307;-0.468691;,
  0.805347;-0.513135;-0.296831;,
  0.770391;-0.497240;0.399062;,
  0.626683;-0.543509;0.558450;,
  0.418443;-0.535371;0.733677;,
  -0.161345;-0.514383;0.842245;,
  -0.536463;-0.527235;0.658962;,
  -0.754502;-0.322261;0.571729;,
  -0.646181;-0.293176;0.704627;,
  -0.915661;-0.328874;0.231099;,
  -0.947021;-0.300312;-0.113862;,
  -0.736224;-0.413983;-0.535342;,
  -0.839879;-0.320212;-0.438255;,
  -0.561277;-0.399637;-0.724748;,
  -0.427490;-0.304103;-0.851336;,
  -0.071685;-0.325702;-0.942751;,
  0.230339;-0.344580;-0.910060;,
  0.525997;-0.343343;-0.778102;,
  0.765106;-0.356622;-0.536128;,
  0.907332;-0.334656;-0.254468;,
  0.936558;-0.312248;0.159247;,
  0.874517;-0.317394;0.366717;,
  0.691234;-0.330526;0.642611;,
  0.537402;-0.392196;0.746580;,
  0.386072;-0.325846;0.863002;,
  -0.215673;-0.330288;0.918910;,
  -0.456435;-0.315871;0.831801;,
  -0.809859;-0.027989;0.585956;,
  -0.684756;-0.008702;0.728721;,
  -0.960046;-0.085101;0.266587;,
  -0.992497;-0.107882;-0.057537;,
  -0.785752;-0.219986;-0.578101;,
  -0.886227;-0.114702;-0.448827;,
  -0.585406;-0.212219;-0.782472;,
  -0.713890;-0.002905;-0.700252;,
  -0.448863;-0.062633;-0.891403;,
  -0.086998;-0.105712;-0.990584;,
  0.250275;-0.092228;-0.963772;,
  0.570058;-0.111832;-0.813958;,
  0.811832;-0.113250;-0.572802;,
  0.956563;-0.120298;-0.265549;,
  0.988339;-0.086315;0.125443;,
  0.924570;-0.083175;0.371822;,
  0.710797;-0.091543;0.697415;,
  0.565931;-0.178632;0.804868;,
  0.418651;-0.090762;0.903600;,
  0.041618;-0.055313;0.997601;,
  -0.255203;-0.055689;0.965282;,
  -0.529723;-0.034925;0.847452;,
  -0.779611;0.242362;0.577466;,
  -0.660891;0.234778;0.712813;,
  -0.949422;0.168075;0.265235;,
  -0.954960;0.083523;-0.284736;,
  -0.703451;0.158072;-0.692943;,
  -0.444596;0.169921;-0.879466;,
  -0.256273;0.140850;-0.956287;,
  0.118158;0.114825;-0.986333;,
  0.247279;0.346701;-0.904794;,
  0.419486;0.135323;-0.897619;,
  0.699899;0.135302;-0.701309;,
  0.888507;0.160153;-0.430007;,
  0.904986;0.345507;-0.248244;,
  0.988990;0.145532;-0.026828;,
  0.832727;0.137850;0.536250;,
  0.670765;0.347144;0.655412;,
  0.573597;0.056130;0.817212;,
  0.238312;0.137324;0.961431;,
  -0.001793;0.188391;0.982093;,
  -0.290158;0.240340;0.926307;,
  -0.505336;0.252901;0.825032;,
  -0.628107;0.433458;0.646217;,
  -0.826406;0.415725;0.379770;,
  -0.910829;0.271016;-0.311353;,
  -0.709176;0.362976;-0.604415;,
  -0.480074;0.402334;-0.779523;,
  -0.250607;0.335421;-0.908124;,
  0.105869;0.336046;-0.935876;,
  0.294266;0.521648;-0.800807;,
  0.401985;0.311135;-0.861164;,
  0.671362;0.311254;-0.672603;,
  0.839829;0.330938;-0.430312;,
  0.786874;0.339704;0.515199;,
  0.562627;0.540893;0.625209;,
  0.551376;0.295961;0.779994;,
  0.195587;0.347057;0.917222;,
  -0.276287;0.446539;0.851040;,
  -0.412391;0.421477;0.807645;,
  -0.845183;0.511135;-0.156226;,
  -0.661180;0.737932;-0.135268;,
  -0.564976;0.613129;-0.552155;,
  -0.541551;0.774579;-0.326725;,
  -0.336509;0.663734;-0.667996;,
  -0.182307;0.530668;-0.827741;,
  0.032276;0.541737;-0.839928;,
  0.552705;0.538160;-0.636319;,
  0.786946;0.548002;-0.283567;,
  0.756176;0.527808;0.386802;,
  0.594728;0.724397;0.348636;,
  0.277499;0.554051;0.784870;,
  0.218167;0.741515;0.634475;,
  -0.054559;0.676769;0.734171;,
  -0.450194;0.649287;0.612986;,
  -0.414654;0.906177;-0.083103;,
  -0.312053;0.928917;-0.199337;,
  -0.358001;0.822546;-0.441875;,
  0.032073;0.874701;-0.483600;,
  0.188640;0.913377;-0.360774;,
  0.483239;0.785336;-0.386945;,
  0.578866;0.794556;-0.183292;,
  0.396506;0.898518;0.188280;,
  0.097211;0.918903;0.382319;,
  -0.084393;0.874703;0.477255;,
  -0.107712;0.980837;-0.162346;,
  0.156333;0.984220;-0.082890;,
  0.035625;0.999226;0.016709;,
  0.258166;0.966072;-0.007371;,
  -0.148300;0.973314;-0.175122;,
  0.101605;0.959901;-0.261280;,
  -0.032106;-0.999481;0.002462;,
  0.020740;0.997866;0.061921;,
  0.094697;-0.995443;0.011207;,
  0.003582;-0.999947;-0.009647;,
  -0.018062;-0.997941;-0.061542;,
  0.133988;-0.988149;0.074899;,
  0.002808;-0.956799;-0.290736;,
  0.256090;-0.939025;-0.229456;,
  -0.198609;-0.821929;-0.533842;,
  -0.262068;-0.653371;-0.710229;,
  -0.661044;-0.401799;-0.633702;,
  -0.703172;-0.192722;-0.684403;,
  -0.993186;0.048764;-0.105851;,
  -0.886843;0.065301;-0.457433;,
  -0.053673;0.121050;-0.991194;,
  0.272227;0.150577;-0.950379;,
  0.568339;0.135298;-0.811594;,
  0.807226;0.135064;-0.574582;,
  0.956429;0.136215;-0.258242;,
  0.968746;0.156307;0.192612;,
  0.909412;0.142241;0.390815;,
  0.711795;0.144946;0.687269;,
  0.425287;0.125105;0.896370;,
  -0.956404;0.278806;-0.086937;,
  -0.846158;0.303208;-0.438271;,
  -0.076827;0.345741;-0.935179;,
  0.520026;0.371785;-0.768992;,
  0.754173;0.382742;-0.533603;,
  0.927993;0.371806;0.024269;,
  0.873738;0.343063;0.344804;,
  0.399970;0.345895;0.848752;,
  -0.751871;0.544151;-0.372277;,
  0.673237;0.565102;-0.476877;,
  0.830729;0.556651;0.005380;,
  -0.504409;0.853536;0.130568;,
  -0.153269;0.868205;-0.471942;,
  0.394392;0.791490;0.466903;,
  -0.128441;0.991570;0.017075;,
  0.015407;0.989128;-0.146244;,
  0.035786;0.998589;-0.039239;,
  0.132320;0.985167;0.109262;,
  -0.006803;0.996051;0.088525;,
  0.019776;0.999621;0.019145;,
  -0.068442;0.976622;0.203775;,
  -0.215746;0.975477;0.043565;,
  0.010315;-0.998002;0.062341;,
  -0.486615;-0.338994;0.805164;,
  -0.528708;-0.088132;-0.844216;,
  0.883446;0.393491;-0.254339;,
  -0.754532;-0.518064;0.402853;,
  -0.881563;-0.432373;-0.189475;,
  -0.622333;-0.155919;-0.767067;,
  0.359390;-0.056893;0.931451;,
  -0.275283;-0.385913;0.880506;,
  -0.856033;-0.464596;-0.226623;,
  -0.002281;0.301972;-0.953314;,
  0.561109;0.527654;-0.637760;,
  0.750403;0.230778;0.619385;,
  -0.813359;-0.560474;-0.155939;,
  -0.386381;-0.095387;-0.917394;,
  0.946883;0.167839;0.274304;,
  0.811222;0.128832;0.570369;,
  0.486200;-0.148113;0.861204;,
  -0.369460;0.016659;-0.929097;,
  -0.909507;-0.278286;0.308794;,
  -0.748618;0.102729;-0.654995;,
  -0.096252;0.949766;-0.297793;,
  0.299310;0.818815;-0.489853;,
  0.852886;0.292456;0.432498;,
  -0.482370;-0.250685;0.839331;,
  -0.863928;-0.311425;0.395782;,
  0.030498;0.028419;-0.999131;,
  -0.169304;0.272781;-0.947062;,
  -0.925192;-0.378248;-0.030791;,
  0.346893;0.274309;-0.896895;,
  0.858753;0.265070;0.438498;,
  0.349329;-0.028009;0.936582;,
  -0.785839;-0.481201;0.388462;,
  0.041257;0.249895;-0.967394;,
  -0.062757;0.178617;-0.981915;,
  0.596580;0.420600;-0.683512;,
  0.730549;0.493801;-0.471655;,
  0.861737;0.346639;0.370475;,
  0.627825;0.118262;0.769318;,
  -0.079156;-0.263389;0.961437;,
  -0.834693;-0.531481;0.144279;,
  -0.818627;-0.326497;-0.472492;,
  -0.616667;-0.115277;-0.778738;,
  0.368881;0.443934;-0.816609;,
  0.859044;0.511023;-0.029976;,
  0.865797;0.376956;0.329090;,
  0.209452;-0.230228;0.950329;,
  -0.398584;-0.480097;0.781433;,
  -0.536847;-0.616034;0.576452;,
  -0.680284;-0.664402;0.309490;,
  -0.790157;-0.576580;-0.207863;,
  -0.697364;-0.381356;-0.606836;,
  -0.137193;0.061829;-0.988613;,
  -0.161179;0.036939;-0.986234;,
  0.915556;0.357494;-0.184270;,
  -0.037503;-0.476107;0.878587;,
  -0.606404;-0.674433;0.421206;,
  -0.764615;-0.643283;0.039385;,
  -0.778832;-0.625124;-0.051382;,
  -0.755993;-0.432590;-0.491265;,
  0.876741;0.321591;0.357637;,
  0.835099;0.162518;0.525544;,
  0.404242;-0.276777;0.871770;,
  -0.444235;-0.654915;0.611343;,
  -0.932827;-0.285483;-0.219850;,
  -0.123479;0.549861;-0.826079;,
  0.500076;0.781260;-0.373573;,
  -0.014216;-0.347521;0.937565;,
  0.727228;0.602272;-0.329253;,
  0.237167;0.390077;0.889714;,
  -0.807988;-0.346885;0.476263;,
  -0.913854;-0.304175;-0.268975;,
  -0.354929;-0.041558;-0.933969;,
  0.433559;0.214759;-0.875160;,
  0.865988;0.339838;-0.366845;,
  0.810607;0.215979;0.544307;,
  -0.099708;-0.142191;0.984805;,
  -0.825613;-0.256991;-0.502314;,
  0.913175;0.261472;-0.312640;,
  0.794075;0.201360;0.573497;,
  0.217872;0.009877;0.975927;,
  -0.387123;0.735624;0.555871;,
  -0.315157;0.291220;0.903253;,
  -0.527076;0.786139;-0.322763;,
  -0.408096;0.898068;0.164106;,
  -0.922806;0.381316;-0.055030;,
  -0.464624;0.876835;0.123627;,
  -0.526779;0.768294;0.363632;,
  -0.062297;0.960314;-0.271874;,
  0.641866;0.761072;-0.093684;,
  0.411446;0.571927;-0.709656;,
  0.939037;0.038288;-0.341677;,
  0.208043;0.020004;-0.977915;,
  -0.745307;-0.220651;-0.629150;,
  0.907472;0.416919;0.051702;,
  -0.350982;0.084444;-0.932567;,
  0.796906;0.522851;-0.302603;,
  0.412700;-0.058107;0.909012;,
  -0.608490;-0.257656;-0.750569;,
  0.523920;0.246107;-0.815438;,
  0.803280;0.143588;0.578035;,
  0.218051;-0.336482;0.916097;,
  -0.282699;-0.575621;0.767295;,
  -0.683084;-0.293049;-0.668968;,
  -0.250362;0.084828;-0.964429;,
  0.524420;-0.171325;0.834045;,
  0.061210;-0.447552;0.892161;,
  0.891005;0.411873;0.190975;,
  0.766138;0.091205;0.636171;,
  0.364332;-0.090386;0.926872;,
  -0.688433;0.564359;0.455587;,
  0.043686;0.623641;-0.780490;,
  0.956574;0.284479;0.063545;,
  -0.297757;-0.193235;0.934880;,
  -0.459391;0.880044;0.120342;,
  -0.199191;0.866305;0.458082;,
  -0.202930;0.978096;0.046337;;
  747;
  3;0,1,81;,
  3;81,82,226;,
  3;81,1,82;,
  3;83,84,82;,
  3;84,226,82;,
  3;230,228,84;,
  3;230,85,228;,
  3;85,91,228;,
  3;225,228,229;,
  3;91,229,228;,
  3;91,92,229;,
  3;224,225,229;,
  3;92,2,229;,
  3;224,229,2;,
  3;224,2,3;,
  3;224,3,227;,
  3;4,227,3;,
  3;5,227,4;,
  3;267,227,5;,
  3;267,5,86;,
  3;267,86,87;,
  3;267,87,81;,
  3;0,81,87;,
  3;0,98,88;,
  3;1,0,88;,
  3;1,88,6;,
  3;1,6,7;,
  3;1,7,82;,
  3;8,82,7;,
  3;82,8,83;,
  3;9,83,8;,
  3;83,9,84;,
  3;84,9,10;,
  3;230,84,10;,
  3;10,231,230;,
  3;230,89,85;,
  3;230,231,89;,
  3;91,85,89;,
  3;90,91,89;,
  3;90,93,91;,
  3;93,92,91;,
  3;93,94,92;,
  3;11,92,94;,
  3;2,92,11;,
  3;12,2,11;,
  3;13,3,2;,
  3;13,2,12;,
  3;3,13,95;,
  3;4,3,95;,
  3;14,5,4;,
  3;14,4,96;,
  3;4,95,96;,
  3;15,5,14;,
  3;86,15,16;,
  3;86,5,15;,
  3;87,86,16;,
  3;87,16,97;,
  3;0,87,98;,
  3;87,97,98;,
  3;98,110,99;,
  3;98,99,88;,
  3;100,6,88;,
  3;100,88,99;,
  3;7,6,100;,
  3;7,100,101;,
  3;17,8,7;,
  3;17,7,101;,
  3;102,9,8;,
  3;102,8,17;,
  3;10,9,102;,
  3;10,102,18;,
  3;231,10,18;,
  3;18,103,231;,
  3;89,231,19;,
  3;103,19,231;,
  3;90,89,19;,
  3;90,19,20;,
  3;90,20,21;,
  3;90,21,93;,
  3;93,21,104;,
  3;93,104,94;,
  3;11,94,104;,
  3;11,104,105;,
  3;22,12,11;,
  3;22,11,105;,
  3;23,13,12;,
  3;23,12,22;,
  3;95,13,23;,
  3;95,23,106;,
  3;108,14,96;,
  3;108,96,107;,
  3;95,106,107;,
  3;95,107,96;,
  3;127,108,107;,
  3;24,15,14;,
  3;24,14,108;,
  3;109,16,15;,
  3;109,15,24;,
  3;97,16,109;,
  3;97,109,25;,
  3;98,97,25;,
  3;98,25,110;,
  3;110,112,111;,
  3;110,111,99;,
  3;26,100,99;,
  3;26,99,111;,
  3;27,101,100;,
  3;27,100,113;,
  3;100,26,113;,
  3;101,27,114;,
  3;28,17,101;,
  3;28,101,114;,
  3;17,28,116;,
  3;135,115,116;,
  3;115,102,17;,
  3;115,17,116;,
  3;102,115,232;,
  3;135,233,232;,
  3;135,232,115;,
  3;233,137,117;,
  3;233,117,232;,
  3;18,102,232;,
  3;18,232,117;,
  3;103,118,29;,
  3;103,18,117;,
  3;103,117,118;,
  3;137,118,117;,
  3;103,29,119;,
  3;103,119,19;,
  3;30,19,119;,
  3;20,120,31;,
  3;19,30,120;,
  3;19,120,20;,
  3;20,31,121;,
  3;20,121,21;,
  3;21,121,32;,
  3;21,32,122;,
  3;21,122,104;,
  3;105,104,122;,
  3;105,122,33;,
  3;22,105,123;,
  3;22,123,34;,
  3;105,33,123;,
  3;22,34,124;,
  3;35,23,22;,
  3;35,22,124;,
  3;106,23,35;,
  3;106,35,125;,
  3;106,125,36;,
  3;127,107,126;,
  3;106,36,126;,
  3;106,126,107;,
  3;148,127,126;,
  3;127,128,108;,
  3;127,148,128;,
  3;24,108,128;,
  3;24,128,37;,
  3;38,109,24;,
  3;24,37,38;,
  3;109,38,129;,
  3;25,109,129;,
  3;25,129,39;,
  3;110,130,112;,
  3;25,39,130;,
  3;25,130,110;,
  3;111,112,132;,
  3;111,132,131;,
  3;26,111,131;,
  3;26,131,40;,
  3;27,113,133;,
  3;27,133,41;,
  3;26,40,133;,
  3;26,133,113;,
  3;27,41,134;,
  3;27,134,114;,
  3;42,28,114;,
  3;42,114,134;,
  3;28,42,136;,
  3;28,136,116;,
  3;43,135,136;,
  3;135,116,136;,
  3;43,138,233;,
  3;43,233,135;,
  3;44,137,233;,
  3;44,233,138;,
  3;45,29,118;,
  3;45,118,139;,
  3;118,137,139;,
  3;44,139,137;,
  3;29,45,140;,
  3;29,140,119;,
  3;46,30,119;,
  3;46,119,140;,
  3;31,120,141;,
  3;31,141,47;,
  3;30,46,141;,
  3;30,141,120;,
  3;31,47,142;,
  3;31,142,121;,
  3;32,121,142;,
  3;32,142,48;,
  3;32,48,143;,
  3;32,143,122;,
  3;33,122,143;,
  3;33,143,49;,
  3;34,123,144;,
  3;34,144,50;,
  3;123,33,49;,
  3;123,49,144;,
  3;34,50,145;,
  3;34,145,124;,
  3;51,35,124;,
  3;51,124,145;,
  3;35,51,146;,
  3;35,146,125;,
  3;36,125,146;,
  3;36,146,52;,
  3;148,126,147;,
  3;36,52,147;,
  3;36,147,126;,
  3;169,148,147;,
  3;148,149,128;,
  3;169,149,148;,
  3;37,128,149;,
  3;37,149,53;,
  3;54,38,150;,
  3;38,37,53;,
  3;38,53,150;,
  3;38,54,151;,
  3;38,151,129;,
  3;39,129,151;,
  3;39,151,55;,
  3;112,130,152;,
  3;112,152,132;,
  3;130,39,55;,
  3;130,55,152;,
  3;131,132,154;,
  3;131,154,153;,
  3;40,131,153;,
  3;40,153,56;,
  3;41,133,155;,
  3;41,155,57;,
  3;133,40,56;,
  3;133,56,155;,
  3;134,41,57;,
  3;134,57,234;,
  3;57,245,234;,
  3;245,176,156;,
  3;245,156,234;,
  3;42,134,234;,
  3;42,234,156;,
  3;42,156,235;,
  3;42,235,136;,
  3;176,246,235;,
  3;176,235,156;,
  3;58,235,246;,
  3;43,136,235;,
  3;43,235,58;,
  3;43,58,157;,
  3;43,157,138;,
  3;59,44,138;,
  3;59,138,157;,
  3;159,45,139;,
  3;159,139,158;,
  3;44,59,158;,
  3;44,158,139;,
  3;179,159,158;,
  3;45,159,236;,
  3;45,236,140;,
  3;159,179,247;,
  3;159,247,236;,
  3;180,160,236;,
  3;180,236,247;,
  3;46,140,236;,
  3;46,236,160;,
  3;47,141,237;,
  3;47,237,162;,
  3;141,46,160;,
  3;141,160,237;,
  3;180,161,237;,
  3;180,237,160;,
  3;182,162,237;,
  3;182,237,161;,
  3;47,162,238;,
  3;47,238,142;,
  3;182,248,238;,
  3;182,238,162;,
  3;183,163,238;,
  3;183,238,248;,
  3;48,142,238;,
  3;48,238,163;,
  3;48,163,239;,
  3;48,239,143;,
  3;183,249,239;,
  3;183,239,163;,
  3;184,164,239;,
  3;184,239,249;,
  3;49,143,239;,
  3;49,239,164;,
  3;50,144,240;,
  3;50,240,166;,
  3;49,164,240;,
  3;49,240,144;,
  3;164,184,165;,
  3;164,165,240;,
  3;250,166,240;,
  3;250,240,165;,
  3;145,50,166;,
  3;145,166,241;,
  3;250,241,166;,
  3;250,60,241;,
  3;51,145,241;,
  3;51,241,60;,
  3;146,51,60;,
  3;146,60,242;,
  3;60,251,242;,
  3;185,167,242;,
  3;185,242,251;,
  3;52,146,242;,
  3;52,242,167;,
  3;169,147,243;,
  3;52,167,243;,
  3;52,243,147;,
  3;185,168,243;,
  3;185,243,167;,
  3;187,169,243;,
  3;187,243,168;,
  3;169,244,149;,
  3;187,252,244;,
  3;187,244,169;,
  3;252,188,170;,
  3;252,170,244;,
  3;53,149,244;,
  3;53,244,170;,
  3;54,150,171;,
  3;54,171,61;,
  3;150,53,170;,
  3;150,170,171;,
  3;188,171,170;,
  3;54,61,172;,
  3;54,172,151;,
  3;62,55,151;,
  3;62,151,172;,
  3;132,152,173;,
  3;132,173,154;,
  3;55,62,173;,
  3;55,173,152;,
  3;154,174,153;,
  3;175,56,153;,
  3;175,153,174;,
  3;57,155,175;,
  3;57,175,63;,
  3;155,56,175;,
  3;245,57,63;,
  3;63,191,245;,
  3;191,176,245;,
  3;191,253,246;,
  3;191,246,176;,
  3;253,177,246;,
  3;58,246,177;,
  3;58,177,157;,
  3;178,59,157;,
  3;178,157,177;,
  3;179,158,178;,
  3;59,178,158;,
  3;178,196,179;,
  3;196,197,247;,
  3;196,247,179;,
  3;197,180,247;,
  3;180,197,181;,
  3;180,181,161;,
  3;181,182,161;,
  3;181,198,248;,
  3;181,248,182;,
  3;198,183,248;,
  3;198,254,249;,
  3;198,249,183;,
  3;199,184,249;,
  3;199,249,254;,
  3;184,199,165;,
  3;199,255,250;,
  3;199,250,165;,
  3;255,64,250;,
  3;60,250,64;,
  3;60,64,251;,
  3;64,200,251;,
  3;200,185,251;,
  3;185,200,186;,
  3;185,186,168;,
  3;186,187,168;,
  3;186,202,252;,
  3;186,252,187;,
  3;202,188,252;,
  3;61,171,65;,
  3;171,188,65;,
  3;202,65,188;,
  3;172,61,65;,
  3;172,65,189;,
  3;190,62,172;,
  3;190,172,189;,
  3;174,154,173;,
  3;174,173,190;,
  3;62,190,173;,
  3;174,205,66;,
  3;175,174,66;,
  3;63,175,67;,
  3;175,66,67;,
  3;63,67,191;,
  3;67,192,191;,
  3;192,194,253;,
  3;192,253,191;,
  3;194,193,253;,
  3;177,253,193;,
  3;194,208,193;,
  3;208,195,193;,
  3;178,177,193;,
  3;178,193,195;,
  3;196,178,195;,
  3;195,68,196;,
  3;68,197,196;,
  3;69,197,68;,
  3;69,181,197;,
  3;70,181,69;,
  3;70,198,181;,
  3;211,198,70;,
  3;198,211,254;,
  3;211,212,199;,
  3;211,199,254;,
  3;212,71,255;,
  3;212,255,199;,
  3;71,72,255;,
  3;64,255,72;,
  3;64,72,200;,
  3;72,201,200;,
  3;201,258,186;,
  3;201,186,200;,
  3;258,203,202;,
  3;258,202,186;,
  3;65,202,204;,
  3;203,204,202;,
  3;189,65,204;,
  3;189,204,73;,
  3;190,189,73;,
  3;205,174,190;,
  3;190,73,205;,
  3;205,74,66;,
  3;66,74,256;,
  3;66,256,67;,
  3;74,259,256;,
  3;67,256,206;,
  3;67,206,192;,
  3;256,259,206;,
  3;194,192,206;,
  3;194,206,207;,
  3;208,194,207;,
  3;207,216,208;,
  3;68,195,257;,
  3;195,208,257;,
  3;216,260,257;,
  3;216,257,208;,
  3;68,257,209;,
  3;257,260,209;,
  3;209,69,68;,
  3;70,69,210;,
  3;69,209,210;,
  3;209,260,210;,
  3;217,211,210;,
  3;211,70,210;,
  3;217,212,211;,
  3;71,212,75;,
  3;217,75,212;,
  3;72,71,75;,
  3;72,75,213;,
  3;72,213,201;,
  3;201,213,258;,
  3;213,262,258;,
  3;203,258,214;,
  3;258,262,214;,
  3;204,203,214;,
  3;204,214,215;,
  3;73,204,215;,
  3;76,73,215;,
  3;74,205,76;,
  3;73,76,205;,
  3;74,264,259;,
  3;264,219,259;,
  3;259,77,206;,
  3;259,219,77;,
  3;207,206,77;,
  3;216,207,77;,
  3;77,78,216;,
  3;78,260,216;,
  3;260,261,210;,
  3;260,78,265;,
  3;260,265,261;,
  3;265,217,261;,
  3;217,210,261;,
  3;265,266,217;,
  3;218,75,217;,
  3;218,217,266;,
  3;75,218,213;,
  3;262,213,218;,
  3;218,220,262;,
  3;79,262,220;,
  3;262,79,214;,
  3;214,79,263;,
  3;214,263,215;,
  3;79,221,263;,
  3;263,76,215;,
  3;264,74,76;,
  3;76,263,264;,
  3;263,221,264;,
  3;221,223,219;,
  3;264,221,219;,
  3;223,78,219;,
  3;77,219,78;,
  3;223,265,78;,
  3;223,266,265;,
  3;218,266,220;,
  3;223,220,266;,
  3;221,79,220;,
  3;226,84,222;,
  3;84,228,222;,
  3;222,228,225;,
  3;225,80,222;,
  3;80,225,224;,
  3;224,227,80;,
  3;227,267,80;,
  3;226,80,267;,
  3;81,226,267;,
  3;221,220,223;,
  3;222,80,226;,
  3;295,268,299;,
  3;271,272,299;,
  3;295,299,360;,
  3;272,360,299;,
  3;272,273,360;,
  3;295,360,269;,
  3;301,269,360;,
  3;273,300,360;,
  3;300,301,360;,
  3;269,301,296;,
  3;296,301,302;,
  3;300,302,301;,
  3;302,300,303;,
  3;270,296,302;,
  3;270,302,361;,
  3;303,304,361;,
  3;303,361,302;,
  3;297,270,361;,
  3;305,297,361;,
  3;304,305,361;,
  3;298,297,305;,
  3;304,274,305;,
  3;298,305,306;,
  3;274,306,305;,
  3;268,298,306;,
  3;274,275,306;,
  3;268,306,299;,
  3;275,271,299;,
  3;275,299,306;,
  3;271,314,307;,
  3;315,307,314;,
  3;307,272,271;,
  3;276,307,315;,
  3;308,272,307;,
  3;276,308,307;,
  3;308,273,272;,
  3;308,276,309;,
  3;273,308,362;,
  3;308,309,362;,
  3;273,362,300;,
  3;277,362,309;,
  3;310,300,362;,
  3;277,310,362;,
  3;278,310,277;,
  3;300,310,303;,
  3;303,310,363;,
  3;278,311,363;,
  3;278,363,310;,
  3;304,363,312;,
  3;303,363,304;,
  3;311,312,363;,
  3;311,279,312;,
  3;274,304,364;,
  3;304,312,364;,
  3;279,364,312;,
  3;279,313,364;,
  3;275,274,364;,
  3;275,364,314;,
  3;313,314,364;,
  3;313,315,314;,
  3;271,275,314;,
  3;317,276,315;,
  3;317,315,316;,
  3;280,317,316;,
  3;280,316,323;,
  3;276,317,365;,
  3;276,365,309;,
  3;317,280,318;,
  3;317,318,365;,
  3;281,365,318;,
  3;319,277,309;,
  3;319,309,365;,
  3;281,319,365;,
  3;319,281,320;,
  3;366,278,277;,
  3;277,319,366;,
  3;319,320,359;,
  3;319,359,366;,
  3;321,278,366;,
  3;358,321,366;,
  3;358,366,359;,
  3;311,278,321;,
  3;358,282,321;,
  3;279,311,367;,
  3;311,321,367;,
  3;282,367,321;,
  3;282,283,367;,
  3;283,284,367;,
  3;313,279,367;,
  3;313,367,368;,
  3;284,368,367;,
  3;284,322,368;,
  3;315,313,368;,
  3;315,368,369;,
  3;322,369,368;,
  3;315,369,316;,
  3;322,323,369;,
  3;323,316,369;,
  3;323,330,325;,
  3;324,325,330;,
  3;325,280,323;,
  3;325,324,326;,
  3;280,325,370;,
  3;280,370,318;,
  3;325,326,370;,
  3;370,281,318;,
  3;285,370,326;,
  3;281,370,371;,
  3;370,285,371;,
  3;281,371,320;,
  3;378,371,285;,
  3;283,282,327;,
  3;283,327,328;,
  3;374,328,327;,
  3;374,375,328;,
  3;284,283,372;,
  3;283,328,372;,
  3;375,372,328;,
  3;375,329,372;,
  3;322,284,372;,
  3;322,372,373;,
  3;329,334,373;,
  3;329,373,372;,
  3;322,373,330;,
  3;334,330,373;,
  3;323,322,330;,
  3;324,330,286;,
  3;331,324,286;,
  3;324,331,326;,
  3;326,331,287;,
  3;285,326,287;,
  3;332,285,287;,
  3;350,332,287;,
  3;332,378,285;,
  3;378,332,289;,
  3;356,289,333;,
  3;356,378,289;,
  3;333,374,356;,
  3;335,374,333;,
  3;335,290,374;,
  3;374,290,375;,
  3;336,375,290;,
  3;375,336,376;,
  3;334,329,376;,
  3;329,375,376;,
  3;349,334,376;,
  3;349,376,336;,
  3;349,291,334;,
  3;330,291,286;,
  3;330,334,291;,
  3;286,352,331;,
  3;287,331,352;,
  3;288,332,350;,
  3;332,288,289;,
  3;286,291,377;,
  3;268,295,337;,
  3;292,337,338;,
  3;292,338,344;,
  3;337,295,338;,
  3;344,338,339;,
  3;338,295,269;,
  3;338,269,339;,
  3;344,339,293;,
  3;339,269,296;,
  3;296,340,339;,
  3;293,339,340;,
  3;345,293,340;,
  3;345,340,341;,
  3;296,341,340;,
  3;296,270,341;,
  3;345,341,342;,
  3;270,297,342;,
  3;270,342,341;,
  3;346,345,342;,
  3;297,298,342;,
  3;347,346,342;,
  3;347,342,343;,
  3;298,343,342;,
  3;298,268,343;,
  3;380,347,343;,
  3;268,337,343;,
  3;337,292,343;,
  3;350,381,353;,
  3;348,351,354;,
  3;353,354,351;,
  3;349,336,348;,
  3;288,350,353;,
  3;288,353,355;,
  3;355,353,351;,
  3;382,348,336;,
  3;382,351,348;,
  3;350,287,352;,
  3;352,377,353;,
  3;377,354,353;,
  3;354,377,349;,
  3;354,349,348;,
  3;286,377,352;,
  3;377,291,349;,
  3;351,382,383;,
  3;333,355,335;,
  3;355,351,383;,
  3;289,355,333;,
  3;355,289,288;,
  3;282,358,379;,
  3;359,320,371;,
  3;294,371,378;,
  3;294,359,371;,
  3;356,374,327;,
  3;327,282,379;,
  3;356,327,379;,
  3;378,356,357;,
  3;356,379,357;,
  3;294,378,357;,
  3;359,294,357;,
  4;379,358,359,357;;
 }
 MeshTextureCoords {
  435;
  0.550099;0.420911;,
  0.548079;0.420821;,
  0.549942;0.421731;,
  0.546946;0.421145;,
  0.550090;0.421679;,
  0.545882;0.420703;,
  0.547013;0.421005;,
  0.546569;0.420078;,
  0.549967;0.421365;,
  0.548805;0.420562;,
  0.551460;0.420010;,
  0.551853;0.421660;,
  0.552934;0.421207;,
  0.553730;0.420013;,
  0.553748;0.421666;,
  0.555604;0.420883;,
  0.556961;0.420977;,
  0.555728;0.421605;,
  0.557779;0.420782;,
  0.556454;0.421323;,
  0.553163;0.421836;,
  0.554770;0.421362;,
  0.552812;0.421237;,
  0.550889;0.419450;,
  0.548906;0.419434;,
  0.547138;0.419387;,
  0.545289;0.419326;,
  0.544259;0.419259;,
  0.544204;0.419162;,
  0.544682;0.419092;,
  0.544752;0.417859;,
  0.548141;0.419304;,
  0.549915;0.418409;,
  0.535915;0.413418;,
  0.558834;0.413379;,
  0.548115;0.426053;,
  0.552818;0.418404;,
  0.554958;0.418420;,
  0.556512;0.419014;,
  0.558316;0.419073;,
  0.559169;0.419129;,
  0.559594;0.419205;,
  0.558896;0.419626;,
  0.559549;0.419355;,
  0.557284;0.419788;,
  0.555565;0.419643;,
  0.553583;0.419479;,
  0.550632;0.417006;,
  0.548125;0.416987;,
  0.545885;0.416940;,
  0.543539;0.416860;,
  0.542294;0.416768;,
  0.542315;0.416672;,
  0.542878;0.416598;,
  0.543622;0.415839;,
  0.546396;0.416459;,
  0.549560;0.416420;,
  0.552993;0.416415;,
  0.555514;0.416433;,
  0.557754;0.416471;,
  0.559995;0.416545;,
  0.561009;0.416614;,
  0.561595;0.416690;,
  0.560488;0.416985;,
  0.561560;0.416797;,
  0.561785;0.415474;,
  0.558622;0.417049;,
  0.555647;0.416991;,
  0.553167;0.416995;,
  0.549494;0.414167;,
  0.547603;0.414143;,
  0.545842;0.414105;,
  0.542934;0.414014;,
  0.544271;0.414061;,
  0.541869;0.413964;,
  0.541122;0.413911;,
  0.540760;0.413857;,
  0.540300;0.412251;,
  0.541037;0.414561;,
  0.541302;0.414508;,
  0.540547;0.412192;,
  0.541049;0.412135;,
  0.541777;0.414456;,
  0.542262;0.413641;,
  0.543367;0.413593;,
  0.544805;0.413552;,
  0.546473;0.413518;,
  0.548292;0.413495;,
  0.550209;0.413482;,
  0.552173;0.413479;,
  0.554128;0.413485;,
  0.556011;0.413502;,
  0.557771;0.413528;,
  0.559363;0.413563;,
  0.560728;0.413607;,
  0.561701;0.413657;,
  0.562353;0.413710;,
  0.562843;0.413763;,
  0.563072;0.413820;,
  0.562873;0.413889;,
  0.562665;0.412401;,
  0.561422;0.414037;,
  0.560243;0.414069;,
  0.557940;0.414090;,
  0.555248;0.414126;,
  0.553359;0.414154;,
  0.551439;0.414171;,
  0.549365;0.411025;,
  0.547365;0.410998;,
  0.545503;0.410958;,
  0.543842;0.410912;,
  0.542421;0.410861;,
  0.541298;0.410809;,
  0.540518;0.410754;,
  0.540132;0.410697;,
  0.540066;0.409816;,
  0.540314;0.409752;,
  0.540814;0.409692;,
  0.542870;0.410416;,
  0.541671;0.410462;,
  0.544414;0.410376;,
  0.546186;0.410345;,
  0.548107;0.410322;,
  0.550125;0.410308;,
  0.552191;0.410305;,
  0.554247;0.410312;,
  0.556230;0.410329;,
  0.558096;0.410357;,
  0.559811;0.410395;,
  0.561266;0.410442;,
  0.562285;0.410494;,
  0.562950;0.410549;,
  0.563444;0.410604;,
  0.563666;0.410662;,
  0.563447;0.410722;,
  0.562841;0.409132;,
  0.561919;0.410837;,
  0.560680;0.410882;,
  0.557372;0.410951;,
  0.559156;0.410920;,
  0.555433;0.410981;,
  0.553446;0.411011;,
  0.551421;0.411029;,
  0.549422;0.407709;,
  0.547462;0.407685;,
  0.545621;0.407645;,
  0.543922;0.407593;,
  0.542436;0.407533;,
  0.541202;0.408306;,
  0.541542;0.405848;,
  0.540801;0.405786;,
  0.540445;0.408249;,
  0.540133;0.408193;,
  0.540489;0.405734;,
  0.540178;0.407300;,
  0.540429;0.407241;,
  0.540961;0.407185;,
  0.542918;0.407927;,
  0.541825;0.407144;,
  0.543347;0.405530;,
  0.544455;0.407895;,
  0.544832;0.405510;,
  0.546504;0.405489;,
  0.546220;0.407869;,
  0.548130;0.407848;,
  0.550136;0.407835;,
  0.548316;0.405471;,
  0.550220;0.405459;,
  0.552190;0.407832;,
  0.552171;0.405455;,
  0.554111;0.405462;,
  0.554232;0.407839;,
  0.556205;0.407856;,
  0.555984;0.405479;,
  0.557748;0.405505;,
  0.558077;0.407885;,
  0.559808;0.407923;,
  0.561237;0.407970;,
  0.559362;0.405541;,
  0.561146;0.405607;,
  0.562186;0.408019;,
  0.562650;0.407261;,
  0.563343;0.408128;,
  0.562743;0.405737;,
  0.562989;0.405792;,
  0.563586;0.408187;,
  0.563374;0.408245;,
  0.562797;0.405846;,
  0.562239;0.405894;,
  0.561858;0.408349;,
  0.561362;0.405934;,
  0.560195;0.405966;,
  0.560628;0.408391;,
  0.559013;0.407599;,
  0.557264;0.407625;,
  0.555364;0.407654;,
  0.553415;0.407687;,
  0.551433;0.407710;,
  0.548753;0.404580;,
  0.545358;0.404489;,
  0.543146;0.404383;,
  0.542410;0.402860;,
  0.541764;0.402797;,
  0.540994;0.404133;,
  0.542118;0.404058;,
  0.544407;0.402674;,
  0.546438;0.402658;,
  0.549583;0.402630;,
  0.552980;0.402625;,
  0.555472;0.402642;,
  0.557697;0.402667;,
  0.559914;0.402729;,
  0.561636;0.404198;,
  0.561477;0.402893;,
  0.561204;0.402980;,
  0.559684;0.403038;,
  0.557585;0.404483;,
  0.555053;0.404522;,
  0.552370;0.404572;,
  0.550761;0.401908;,
  0.547750;0.401834;,
  0.545049;0.401700;,
  0.543716;0.401027;,
  0.543217;0.400966;,
  0.542230;0.402068;,
  0.544222;0.400465;,
  0.543480;0.401732;,
  0.546072;0.400893;,
  0.548527;0.400884;,
  0.551353;0.400866;,
  0.554072;0.400489;,
  0.556507;0.400488;,
  0.558755;0.400924;,
  0.560048;0.401590;,
  0.560066;0.401106;,
  0.559284;0.400740;,
  0.558528;0.401214;,
  0.556648;0.401827;,
  0.553783;0.401877;,
  0.504131;0.418414;,
  0.508711;0.423596;,
  0.501693;0.424427;,
  0.507460;0.429545;,
  0.502640;0.430852;,
  0.563017;0.407677;,
  0.562830;0.410731;,
  0.564943;0.410413;,
  0.512896;0.433185;,
  0.529503;0.418912;,
  0.539759;0.421245;,
  0.535319;0.423773;,
  0.564289;0.413230;,
  0.556098;0.421366;,
  0.548751;0.417803;,
  0.553190;0.415276;,
  0.536855;0.430156;,
  0.541549;0.411401;,
  0.548143;0.424633;,
  0.545072;0.424693;,
  0.527901;0.413740;,
  0.539188;0.408217;,
  0.563313;0.415697;,
  0.560699;0.416566;,
  0.562442;0.418769;,
  0.545978;0.400024;,
  0.557929;0.417799;,
  0.559626;0.419676;,
  0.547851;0.400070;,
  0.556931;0.420134;,
  0.551163;0.399794;,
  0.553653;0.418513;,
  0.552001;0.414807;,
  0.550492;0.417548;,
  0.549007;0.414838;,
  0.557722;0.399896;,
  0.549921;0.410775;,
  0.547900;0.409175;,
  0.550780;0.407937;,
  0.549232;0.406954;,
  0.551531;0.404838;,
  0.553216;0.407001;,
  0.525344;0.407733;,
  0.534197;0.408889;,
  0.526258;0.411043;,
  0.554488;0.404540;,
  0.516373;0.409108;,
  0.517406;0.413721;,
  0.509486;0.413331;,
  0.511885;0.417511;,
  0.560720;0.408679;,
  0.560046;0.411377;,
  0.561444;0.413460;,
  0.557987;0.415165;,
  0.554602;0.416585;,
  0.555884;0.414708;,
  0.554097;0.413149;,
  0.552423;0.410549;,
  0.555259;0.409770;,
  0.555428;0.407326;,
  0.557798;0.406456;,
  0.557826;0.404284;,
  0.557914;0.409201;,
  0.560466;0.405188;,
  0.070519;0.562859;,
  0.062206;0.516816;,
  0.107243;0.527470;,
  0.059482;0.511490;,
  0.078480;0.469088;,
  0.110301;0.525613;,
  0.063498;0.511299;,
  0.097822;0.484026;,
  0.103965;0.520504;,
  0.060398;0.519559;,
  0.110641;0.543190;,
  0.083716;0.576156;,
  0.062069;0.511590;,
  0.086976;0.483257;,
  0.100300;0.525587;,
  0.550413;0.421609;,
  0.552552;0.421167;,
  0.056982;0.477433;,
  0.092614;0.485940;,
  0.063461;0.519765;,
  0.602607;0.852213;,
  0.605347;0.852173;,
  0.606604;0.848481;,
  0.609444;0.844987;,
  0.607230;0.844746;,
  0.603412;0.848092;,
  0.605419;0.844359;,
  0.599832;0.851821;,
  0.601545;0.847470;,
  0.604127;0.843695;,
  0.599188;0.851365;,
  0.602017;0.847167;,
  0.605062;0.843423;,
  0.600599;0.851197;,
  0.604350;0.847244;,
  0.607858;0.843733;,
  0.602685;0.851360;,
  0.606748;0.847691;,
  0.604932;0.851789;,
  0.610231;0.844392;,
  0.607797;0.848188;,
  0.610592;0.844849;,
  0.612909;0.841981;,
  0.611018;0.841977;,
  0.614845;0.839788;,
  0.612269;0.839583;,
  0.609041;0.841649;,
  0.610378;0.839131;,
  0.607031;0.841029;,
  0.608836;0.838432;,
  0.606912;0.840464;,
  0.609219;0.838196;,
  0.608184;0.840387;,
  0.610744;0.838165;,
  0.610253;0.840636;,
  0.613630;0.838622;,
  0.612625;0.841341;,
  0.615328;0.839307;,
  0.614161;0.838122;,
  0.615959;0.838300;,
  0.615331;0.837072;,
  0.617345;0.837279;,
  0.611598;0.837474;,
  0.613414;0.836651;,
  0.611811;0.836131;,
  0.610334;0.836895;,
  0.611066;0.835715;,
  0.610324;0.836826;,
  0.610077;0.835524;,
  0.611996;0.836686;,
  0.611335;0.835673;,
  0.614340;0.835453;,
  0.615369;0.837053;,
  0.616369;0.835817;,
  0.617997;0.836380;,
  0.617100;0.837756;,
  0.618681;0.836973;,
  0.617210;0.838165;,
  0.619807;0.836103;,
  0.617039;0.836338;,
  0.618659;0.835710;,
  0.615680;0.835226;,
  0.613709;0.835648;,
  0.612784;0.834314;,
  0.611784;0.834935;,
  0.612165;0.833626;,
  0.615038;0.834518;,
  0.617225;0.834845;,
  0.617082;0.833475;,
  0.619148;0.833869;,
  0.619013;0.835446;,
  0.620453;0.834887;,
  0.619856;0.836102;,
  0.621364;0.834758;,
  0.620381;0.834690;,
  0.617092;0.834606;,
  0.615019;0.833694;,
  0.613276;0.833070;,
  0.615173;0.832684;,
  0.613972;0.832822;,
  0.613556;0.833710;,
  0.615874;0.832570;,
  0.617441;0.831914;,
  0.619450;0.832180;,
  0.621268;0.832967;,
  0.620921;0.833950;,
  0.622190;0.833604;,
  0.621885;0.834643;,
  0.617774;0.833227;,
  0.615025;0.832293;,
  0.620526;0.833435;,
  0.602405;0.856182;,
  0.601827;0.860064;,
  0.600033;0.856129;,
  0.598752;0.860107;,
  0.597921;0.855865;,
  0.596048;0.859804;,
  0.597190;0.855483;,
  0.597489;0.859556;,
  0.598539;0.855354;,
  0.601326;0.855491;,
  0.600492;0.859629;,
  0.602058;0.859816;,
  0.603498;0.855927;,
  0.618267;0.832812;,
  0.620965;0.832771;,
  0.618781;0.832162;,
  0.620286;0.833062;,
  0.616650;0.832251;,
  0.612288;0.834652;,
  0.610751;0.834481;,
  0.610031;0.834213;;
 }
 MeshVertexColors {
  435;
  0;1.000000;1.000000;1.000000;1.000000;,
  1;1.000000;1.000000;1.000000;1.000000;,
  2;1.000000;1.000000;1.000000;1.000000;,
  3;1.000000;1.000000;1.000000;1.000000;,
  4;1.000000;1.000000;1.000000;1.000000;,
  5;1.000000;1.000000;1.000000;1.000000;,
  6;1.000000;1.000000;1.000000;1.000000;,
  7;1.000000;1.000000;1.000000;1.000000;,
  8;1.000000;1.000000;1.000000;1.000000;,
  9;1.000000;1.000000;1.000000;1.000000;,
  10;1.000000;1.000000;1.000000;1.000000;,
  11;1.000000;1.000000;1.000000;1.000000;,
  12;1.000000;1.000000;1.000000;1.000000;,
  13;1.000000;1.000000;1.000000;1.000000;,
  14;1.000000;1.000000;1.000000;1.000000;,
  15;1.000000;1.000000;1.000000;1.000000;,
  16;1.000000;1.000000;1.000000;1.000000;,
  17;1.000000;1.000000;1.000000;1.000000;,
  18;1.000000;1.000000;1.000000;1.000000;,
  19;1.000000;1.000000;1.000000;1.000000;,
  20;1.000000;1.000000;1.000000;1.000000;,
  21;1.000000;1.000000;1.000000;1.000000;,
  22;1.000000;1.000000;1.000000;1.000000;,
  23;1.000000;1.000000;1.000000;1.000000;,
  24;1.000000;1.000000;1.000000;1.000000;,
  25;1.000000;1.000000;1.000000;1.000000;,
  26;1.000000;1.000000;1.000000;1.000000;,
  27;1.000000;1.000000;1.000000;1.000000;,
  28;1.000000;1.000000;1.000000;1.000000;,
  29;1.000000;1.000000;1.000000;1.000000;,
  30;1.000000;1.000000;1.000000;1.000000;,
  31;1.000000;1.000000;1.000000;1.000000;,
  32;1.000000;1.000000;1.000000;1.000000;,
  33;1.000000;1.000000;1.000000;1.000000;,
  34;1.000000;1.000000;1.000000;1.000000;,
  35;1.000000;1.000000;1.000000;1.000000;,
  36;1.000000;1.000000;1.000000;1.000000;,
  37;1.000000;1.000000;1.000000;1.000000;,
  38;1.000000;1.000000;1.000000;1.000000;,
  39;1.000000;1.000000;1.000000;1.000000;,
  40;1.000000;1.000000;1.000000;1.000000;,
  41;1.000000;1.000000;1.000000;1.000000;,
  42;1.000000;1.000000;1.000000;1.000000;,
  43;1.000000;1.000000;1.000000;1.000000;,
  44;1.000000;1.000000;1.000000;1.000000;,
  45;1.000000;1.000000;1.000000;1.000000;,
  46;1.000000;1.000000;1.000000;1.000000;,
  47;1.000000;1.000000;1.000000;1.000000;,
  48;1.000000;1.000000;1.000000;1.000000;,
  49;1.000000;1.000000;1.000000;1.000000;,
  50;1.000000;1.000000;1.000000;1.000000;,
  51;1.000000;1.000000;1.000000;1.000000;,
  52;1.000000;1.000000;1.000000;1.000000;,
  53;1.000000;1.000000;1.000000;1.000000;,
  54;1.000000;1.000000;1.000000;1.000000;,
  55;1.000000;1.000000;1.000000;1.000000;,
  56;1.000000;1.000000;1.000000;1.000000;,
  57;1.000000;1.000000;1.000000;1.000000;,
  58;1.000000;1.000000;1.000000;1.000000;,
  59;1.000000;1.000000;1.000000;1.000000;,
  60;1.000000;1.000000;1.000000;1.000000;,
  61;1.000000;1.000000;1.000000;1.000000;,
  62;1.000000;1.000000;1.000000;1.000000;,
  63;1.000000;1.000000;1.000000;1.000000;,
  64;1.000000;1.000000;1.000000;1.000000;,
  65;1.000000;1.000000;1.000000;1.000000;,
  66;1.000000;1.000000;1.000000;1.000000;,
  67;1.000000;1.000000;1.000000;1.000000;,
  68;1.000000;1.000000;1.000000;1.000000;,
  69;1.000000;1.000000;1.000000;1.000000;,
  70;1.000000;1.000000;1.000000;1.000000;,
  71;1.000000;1.000000;1.000000;1.000000;,
  72;1.000000;1.000000;1.000000;1.000000;,
  73;1.000000;1.000000;1.000000;1.000000;,
  74;1.000000;1.000000;1.000000;1.000000;,
  75;1.000000;1.000000;1.000000;1.000000;,
  76;1.000000;1.000000;1.000000;1.000000;,
  77;1.000000;1.000000;1.000000;1.000000;,
  78;1.000000;1.000000;1.000000;1.000000;,
  79;1.000000;1.000000;1.000000;1.000000;,
  80;1.000000;1.000000;1.000000;1.000000;,
  81;1.000000;1.000000;1.000000;1.000000;,
  82;1.000000;1.000000;1.000000;1.000000;,
  83;1.000000;1.000000;1.000000;1.000000;,
  84;1.000000;1.000000;1.000000;1.000000;,
  85;1.000000;1.000000;1.000000;1.000000;,
  86;1.000000;1.000000;1.000000;1.000000;,
  87;1.000000;1.000000;1.000000;1.000000;,
  88;1.000000;1.000000;1.000000;1.000000;,
  89;1.000000;1.000000;1.000000;1.000000;,
  90;1.000000;1.000000;1.000000;1.000000;,
  91;1.000000;1.000000;1.000000;1.000000;,
  92;1.000000;1.000000;1.000000;1.000000;,
  93;1.000000;1.000000;1.000000;1.000000;,
  94;1.000000;1.000000;1.000000;1.000000;,
  95;1.000000;1.000000;1.000000;1.000000;,
  96;1.000000;1.000000;1.000000;1.000000;,
  97;1.000000;1.000000;1.000000;1.000000;,
  98;1.000000;1.000000;1.000000;1.000000;,
  99;1.000000;1.000000;1.000000;1.000000;,
  100;1.000000;1.000000;1.000000;1.000000;,
  101;1.000000;1.000000;1.000000;1.000000;,
  102;1.000000;1.000000;1.000000;1.000000;,
  103;1.000000;1.000000;1.000000;1.000000;,
  104;1.000000;1.000000;1.000000;1.000000;,
  105;1.000000;1.000000;1.000000;1.000000;,
  106;1.000000;1.000000;1.000000;1.000000;,
  107;1.000000;1.000000;1.000000;1.000000;,
  108;1.000000;1.000000;1.000000;1.000000;,
  109;1.000000;1.000000;1.000000;1.000000;,
  110;1.000000;1.000000;1.000000;1.000000;,
  111;1.000000;1.000000;1.000000;1.000000;,
  112;1.000000;1.000000;1.000000;1.000000;,
  113;1.000000;1.000000;1.000000;1.000000;,
  114;1.000000;1.000000;1.000000;1.000000;,
  115;1.000000;1.000000;1.000000;1.000000;,
  116;1.000000;1.000000;1.000000;1.000000;,
  117;1.000000;1.000000;1.000000;1.000000;,
  118;1.000000;1.000000;1.000000;1.000000;,
  119;1.000000;1.000000;1.000000;1.000000;,
  120;1.000000;1.000000;1.000000;1.000000;,
  121;1.000000;1.000000;1.000000;1.000000;,
  122;1.000000;1.000000;1.000000;1.000000;,
  123;1.000000;1.000000;1.000000;1.000000;,
  124;1.000000;1.000000;1.000000;1.000000;,
  125;1.000000;1.000000;1.000000;1.000000;,
  126;1.000000;1.000000;1.000000;1.000000;,
  127;1.000000;1.000000;1.000000;1.000000;,
  128;1.000000;1.000000;1.000000;1.000000;,
  129;1.000000;1.000000;1.000000;1.000000;,
  130;1.000000;1.000000;1.000000;1.000000;,
  131;1.000000;1.000000;1.000000;1.000000;,
  132;1.000000;1.000000;1.000000;1.000000;,
  133;1.000000;1.000000;1.000000;1.000000;,
  134;1.000000;1.000000;1.000000;1.000000;,
  135;1.000000;1.000000;1.000000;1.000000;,
  136;1.000000;1.000000;1.000000;1.000000;,
  137;1.000000;1.000000;1.000000;1.000000;,
  138;1.000000;1.000000;1.000000;1.000000;,
  139;1.000000;1.000000;1.000000;1.000000;,
  140;1.000000;1.000000;1.000000;1.000000;,
  141;1.000000;1.000000;1.000000;1.000000;,
  142;1.000000;1.000000;1.000000;1.000000;,
  143;1.000000;1.000000;1.000000;1.000000;,
  144;1.000000;1.000000;1.000000;1.000000;,
  145;1.000000;1.000000;1.000000;1.000000;,
  146;1.000000;1.000000;1.000000;1.000000;,
  147;1.000000;1.000000;1.000000;1.000000;,
  148;1.000000;1.000000;1.000000;1.000000;,
  149;1.000000;1.000000;1.000000;1.000000;,
  150;1.000000;1.000000;1.000000;1.000000;,
  151;1.000000;1.000000;1.000000;1.000000;,
  152;1.000000;1.000000;1.000000;1.000000;,
  153;1.000000;1.000000;1.000000;1.000000;,
  154;1.000000;1.000000;1.000000;1.000000;,
  155;1.000000;1.000000;1.000000;1.000000;,
  156;1.000000;1.000000;1.000000;1.000000;,
  157;1.000000;1.000000;1.000000;1.000000;,
  158;1.000000;1.000000;1.000000;1.000000;,
  159;1.000000;1.000000;1.000000;1.000000;,
  160;1.000000;1.000000;1.000000;1.000000;,
  161;1.000000;1.000000;1.000000;1.000000;,
  162;1.000000;1.000000;1.000000;1.000000;,
  163;1.000000;1.000000;1.000000;1.000000;,
  164;1.000000;1.000000;1.000000;1.000000;,
  165;1.000000;1.000000;1.000000;1.000000;,
  166;1.000000;1.000000;1.000000;1.000000;,
  167;1.000000;1.000000;1.000000;1.000000;,
  168;1.000000;1.000000;1.000000;1.000000;,
  169;1.000000;1.000000;1.000000;1.000000;,
  170;1.000000;1.000000;1.000000;1.000000;,
  171;1.000000;1.000000;1.000000;1.000000;,
  172;1.000000;1.000000;1.000000;1.000000;,
  173;1.000000;1.000000;1.000000;1.000000;,
  174;1.000000;1.000000;1.000000;1.000000;,
  175;1.000000;1.000000;1.000000;1.000000;,
  176;1.000000;1.000000;1.000000;1.000000;,
  177;1.000000;1.000000;1.000000;1.000000;,
  178;1.000000;1.000000;1.000000;1.000000;,
  179;1.000000;1.000000;1.000000;1.000000;,
  180;1.000000;1.000000;1.000000;1.000000;,
  181;1.000000;1.000000;1.000000;1.000000;,
  182;1.000000;1.000000;1.000000;1.000000;,
  183;1.000000;1.000000;1.000000;1.000000;,
  184;1.000000;1.000000;1.000000;1.000000;,
  185;1.000000;1.000000;1.000000;1.000000;,
  186;1.000000;1.000000;1.000000;1.000000;,
  187;1.000000;1.000000;1.000000;1.000000;,
  188;1.000000;1.000000;1.000000;1.000000;,
  189;1.000000;1.000000;1.000000;1.000000;,
  190;1.000000;1.000000;1.000000;1.000000;,
  191;1.000000;1.000000;1.000000;1.000000;,
  192;1.000000;1.000000;1.000000;1.000000;,
  193;1.000000;1.000000;1.000000;1.000000;,
  194;1.000000;1.000000;1.000000;1.000000;,
  195;1.000000;1.000000;1.000000;1.000000;,
  196;1.000000;1.000000;1.000000;1.000000;,
  197;1.000000;1.000000;1.000000;1.000000;,
  198;1.000000;1.000000;1.000000;1.000000;,
  199;1.000000;1.000000;1.000000;1.000000;,
  200;1.000000;1.000000;1.000000;1.000000;,
  201;1.000000;1.000000;1.000000;1.000000;,
  202;1.000000;1.000000;1.000000;1.000000;,
  203;1.000000;1.000000;1.000000;1.000000;,
  204;1.000000;1.000000;1.000000;1.000000;,
  205;1.000000;1.000000;1.000000;1.000000;,
  206;1.000000;1.000000;1.000000;1.000000;,
  207;1.000000;1.000000;1.000000;1.000000;,
  208;1.000000;1.000000;1.000000;1.000000;,
  209;1.000000;1.000000;1.000000;1.000000;,
  210;1.000000;1.000000;1.000000;1.000000;,
  211;1.000000;1.000000;1.000000;1.000000;,
  212;1.000000;1.000000;1.000000;1.000000;,
  213;1.000000;1.000000;1.000000;1.000000;,
  214;1.000000;1.000000;1.000000;1.000000;,
  215;1.000000;1.000000;1.000000;1.000000;,
  216;1.000000;1.000000;1.000000;1.000000;,
  217;1.000000;1.000000;1.000000;1.000000;,
  218;1.000000;1.000000;1.000000;1.000000;,
  219;1.000000;1.000000;1.000000;1.000000;,
  220;1.000000;1.000000;1.000000;1.000000;,
  221;1.000000;1.000000;1.000000;1.000000;,
  222;1.000000;1.000000;1.000000;1.000000;,
  223;1.000000;1.000000;1.000000;1.000000;,
  224;1.000000;1.000000;1.000000;1.000000;,
  225;1.000000;1.000000;1.000000;1.000000;,
  226;1.000000;1.000000;1.000000;1.000000;,
  227;1.000000;1.000000;1.000000;1.000000;,
  228;1.000000;1.000000;1.000000;1.000000;,
  229;1.000000;1.000000;1.000000;1.000000;,
  230;1.000000;1.000000;1.000000;1.000000;,
  231;1.000000;1.000000;1.000000;1.000000;,
  232;1.000000;1.000000;1.000000;1.000000;,
  233;1.000000;1.000000;1.000000;1.000000;,
  234;1.000000;1.000000;1.000000;1.000000;,
  235;1.000000;1.000000;1.000000;1.000000;,
  236;1.000000;1.000000;1.000000;1.000000;,
  237;1.000000;1.000000;1.000000;1.000000;,
  238;1.000000;1.000000;1.000000;1.000000;,
  239;1.000000;1.000000;1.000000;1.000000;,
  240;1.000000;1.000000;1.000000;1.000000;,
  241;1.000000;1.000000;1.000000;1.000000;,
  242;1.000000;1.000000;1.000000;1.000000;,
  243;1.000000;1.000000;1.000000;1.000000;,
  244;1.000000;1.000000;1.000000;1.000000;,
  245;1.000000;1.000000;1.000000;1.000000;,
  246;1.000000;1.000000;1.000000;1.000000;,
  247;1.000000;1.000000;1.000000;1.000000;,
  248;1.000000;1.000000;1.000000;1.000000;,
  249;1.000000;1.000000;1.000000;1.000000;,
  250;1.000000;1.000000;1.000000;1.000000;,
  251;1.000000;1.000000;1.000000;1.000000;,
  252;1.000000;1.000000;1.000000;1.000000;,
  253;1.000000;1.000000;1.000000;1.000000;,
  254;1.000000;1.000000;1.000000;1.000000;,
  255;1.000000;1.000000;1.000000;1.000000;,
  256;1.000000;1.000000;1.000000;1.000000;,
  257;1.000000;1.000000;1.000000;1.000000;,
  258;1.000000;1.000000;1.000000;1.000000;,
  259;1.000000;1.000000;1.000000;1.000000;,
  260;1.000000;1.000000;1.000000;1.000000;,
  261;1.000000;1.000000;1.000000;1.000000;,
  262;1.000000;1.000000;1.000000;1.000000;,
  263;1.000000;1.000000;1.000000;1.000000;,
  264;1.000000;1.000000;1.000000;1.000000;,
  265;1.000000;1.000000;1.000000;1.000000;,
  266;1.000000;1.000000;1.000000;1.000000;,
  267;1.000000;1.000000;1.000000;1.000000;,
  268;1.000000;1.000000;1.000000;1.000000;,
  269;1.000000;1.000000;1.000000;1.000000;,
  270;1.000000;1.000000;1.000000;1.000000;,
  271;1.000000;1.000000;1.000000;1.000000;,
  272;1.000000;1.000000;1.000000;1.000000;,
  273;1.000000;1.000000;1.000000;1.000000;,
  274;1.000000;1.000000;1.000000;1.000000;,
  275;1.000000;1.000000;1.000000;1.000000;,
  276;1.000000;1.000000;1.000000;1.000000;,
  277;1.000000;1.000000;1.000000;1.000000;,
  278;1.000000;1.000000;1.000000;1.000000;,
  279;1.000000;1.000000;1.000000;1.000000;,
  280;1.000000;1.000000;1.000000;1.000000;,
  281;1.000000;1.000000;1.000000;1.000000;,
  282;1.000000;1.000000;1.000000;1.000000;,
  283;1.000000;1.000000;1.000000;1.000000;,
  284;1.000000;1.000000;1.000000;1.000000;,
  285;1.000000;1.000000;1.000000;1.000000;,
  286;1.000000;1.000000;1.000000;1.000000;,
  287;1.000000;1.000000;1.000000;1.000000;,
  288;1.000000;1.000000;1.000000;1.000000;,
  289;1.000000;1.000000;1.000000;1.000000;,
  290;1.000000;1.000000;1.000000;1.000000;,
  291;1.000000;1.000000;1.000000;1.000000;,
  292;1.000000;1.000000;1.000000;1.000000;,
  293;1.000000;1.000000;1.000000;1.000000;,
  294;1.000000;1.000000;1.000000;1.000000;,
  295;1.000000;1.000000;1.000000;1.000000;,
  296;1.000000;1.000000;1.000000;1.000000;,
  297;1.000000;1.000000;1.000000;1.000000;,
  298;1.000000;1.000000;1.000000;1.000000;,
  299;1.000000;1.000000;1.000000;1.000000;,
  300;1.000000;1.000000;1.000000;1.000000;,
  301;1.000000;1.000000;1.000000;1.000000;,
  302;1.000000;1.000000;1.000000;1.000000;,
  303;1.000000;1.000000;1.000000;1.000000;,
  304;1.000000;1.000000;1.000000;1.000000;,
  305;1.000000;1.000000;1.000000;1.000000;,
  306;1.000000;1.000000;1.000000;1.000000;,
  307;1.000000;1.000000;1.000000;1.000000;,
  308;1.000000;1.000000;1.000000;1.000000;,
  309;1.000000;1.000000;1.000000;1.000000;,
  310;1.000000;1.000000;1.000000;1.000000;,
  311;1.000000;1.000000;1.000000;1.000000;,
  312;1.000000;1.000000;1.000000;1.000000;,
  313;1.000000;1.000000;1.000000;1.000000;,
  314;1.000000;1.000000;1.000000;1.000000;,
  315;1.000000;1.000000;1.000000;1.000000;,
  316;1.000000;1.000000;1.000000;1.000000;,
  317;1.000000;1.000000;1.000000;1.000000;,
  318;1.000000;1.000000;1.000000;1.000000;,
  319;1.000000;1.000000;1.000000;1.000000;,
  320;1.000000;1.000000;1.000000;1.000000;,
  321;1.000000;1.000000;1.000000;1.000000;,
  322;1.000000;1.000000;1.000000;1.000000;,
  323;1.000000;1.000000;1.000000;1.000000;,
  324;1.000000;1.000000;1.000000;1.000000;,
  325;1.000000;1.000000;1.000000;1.000000;,
  326;1.000000;1.000000;1.000000;1.000000;,
  327;1.000000;1.000000;1.000000;1.000000;,
  328;1.000000;1.000000;1.000000;1.000000;,
  329;1.000000;1.000000;1.000000;1.000000;,
  330;1.000000;1.000000;1.000000;1.000000;,
  331;1.000000;1.000000;1.000000;1.000000;,
  332;1.000000;1.000000;1.000000;1.000000;,
  333;1.000000;1.000000;1.000000;1.000000;,
  334;1.000000;1.000000;1.000000;1.000000;,
  335;1.000000;1.000000;1.000000;1.000000;,
  336;1.000000;1.000000;1.000000;1.000000;,
  337;1.000000;1.000000;1.000000;1.000000;,
  338;1.000000;1.000000;1.000000;1.000000;,
  339;1.000000;1.000000;1.000000;1.000000;,
  340;1.000000;1.000000;1.000000;1.000000;,
  341;1.000000;1.000000;1.000000;1.000000;,
  342;1.000000;1.000000;1.000000;1.000000;,
  343;1.000000;1.000000;1.000000;1.000000;,
  344;1.000000;1.000000;1.000000;1.000000;,
  345;1.000000;1.000000;1.000000;1.000000;,
  346;1.000000;1.000000;1.000000;1.000000;,
  347;1.000000;1.000000;1.000000;1.000000;,
  348;1.000000;1.000000;1.000000;1.000000;,
  349;1.000000;1.000000;1.000000;1.000000;,
  350;1.000000;1.000000;1.000000;1.000000;,
  351;1.000000;1.000000;1.000000;1.000000;,
  352;1.000000;1.000000;1.000000;1.000000;,
  353;1.000000;1.000000;1.000000;1.000000;,
  354;1.000000;1.000000;1.000000;1.000000;,
  355;1.000000;1.000000;1.000000;1.000000;,
  356;1.000000;1.000000;1.000000;1.000000;,
  357;1.000000;1.000000;1.000000;1.000000;,
  358;1.000000;1.000000;1.000000;1.000000;,
  359;1.000000;1.000000;1.000000;1.000000;,
  360;1.000000;1.000000;1.000000;1.000000;,
  361;1.000000;1.000000;1.000000;1.000000;,
  362;1.000000;1.000000;1.000000;1.000000;,
  363;1.000000;1.000000;1.000000;1.000000;,
  364;1.000000;1.000000;1.000000;1.000000;,
  365;1.000000;1.000000;1.000000;1.000000;,
  366;1.000000;1.000000;1.000000;1.000000;,
  367;1.000000;1.000000;1.000000;1.000000;,
  368;1.000000;1.000000;1.000000;1.000000;,
  369;1.000000;1.000000;1.000000;1.000000;,
  370;1.000000;1.000000;1.000000;1.000000;,
  371;1.000000;1.000000;1.000000;1.000000;,
  372;1.000000;1.000000;1.000000;1.000000;,
  373;1.000000;1.000000;1.000000;1.000000;,
  374;1.000000;1.000000;1.000000;1.000000;,
  375;1.000000;1.000000;1.000000;1.000000;,
  376;1.000000;1.000000;1.000000;1.000000;,
  377;1.000000;1.000000;1.000000;1.000000;,
  378;1.000000;1.000000;1.000000;1.000000;,
  379;1.000000;1.000000;1.000000;1.000000;,
  380;1.000000;1.000000;1.000000;1.000000;,
  381;1.000000;1.000000;1.000000;1.000000;,
  382;1.000000;1.000000;1.000000;1.000000;,
  383;1.000000;1.000000;1.000000;1.000000;,
  384;1.000000;1.000000;1.000000;1.000000;,
  385;1.000000;1.000000;1.000000;1.000000;,
  386;1.000000;1.000000;1.000000;1.000000;,
  387;1.000000;1.000000;1.000000;1.000000;,
  388;1.000000;1.000000;1.000000;1.000000;,
  389;1.000000;1.000000;1.000000;1.000000;,
  390;1.000000;1.000000;1.000000;1.000000;,
  391;1.000000;1.000000;1.000000;1.000000;,
  392;1.000000;1.000000;1.000000;1.000000;,
  393;1.000000;1.000000;1.000000;1.000000;,
  394;1.000000;1.000000;1.000000;1.000000;,
  395;1.000000;1.000000;1.000000;1.000000;,
  396;1.000000;1.000000;1.000000;1.000000;,
  397;1.000000;1.000000;1.000000;1.000000;,
  398;1.000000;1.000000;1.000000;1.000000;,
  399;1.000000;1.000000;1.000000;1.000000;,
  400;1.000000;1.000000;1.000000;1.000000;,
  401;1.000000;1.000000;1.000000;1.000000;,
  402;1.000000;1.000000;1.000000;1.000000;,
  403;1.000000;1.000000;1.000000;1.000000;,
  404;1.000000;1.000000;1.000000;1.000000;,
  405;1.000000;1.000000;1.000000;1.000000;,
  406;1.000000;1.000000;1.000000;1.000000;,
  407;1.000000;1.000000;1.000000;1.000000;,
  408;1.000000;1.000000;1.000000;1.000000;,
  409;1.000000;1.000000;1.000000;1.000000;,
  410;1.000000;1.000000;1.000000;1.000000;,
  411;1.000000;1.000000;1.000000;1.000000;,
  412;1.000000;1.000000;1.000000;1.000000;,
  413;1.000000;1.000000;1.000000;1.000000;,
  414;1.000000;1.000000;1.000000;1.000000;,
  415;1.000000;1.000000;1.000000;1.000000;,
  416;1.000000;1.000000;1.000000;1.000000;,
  417;1.000000;1.000000;1.000000;1.000000;,
  418;1.000000;1.000000;1.000000;1.000000;,
  419;1.000000;1.000000;1.000000;1.000000;,
  420;1.000000;1.000000;1.000000;1.000000;,
  421;1.000000;1.000000;1.000000;1.000000;,
  422;1.000000;1.000000;1.000000;1.000000;,
  423;1.000000;1.000000;1.000000;1.000000;,
  424;1.000000;1.000000;1.000000;1.000000;,
  425;1.000000;1.000000;1.000000;1.000000;,
  426;1.000000;1.000000;1.000000;1.000000;,
  427;1.000000;1.000000;1.000000;1.000000;,
  428;1.000000;1.000000;1.000000;1.000000;,
  429;1.000000;1.000000;1.000000;1.000000;,
  430;1.000000;1.000000;1.000000;1.000000;,
  431;1.000000;1.000000;1.000000;1.000000;,
  432;1.000000;1.000000;1.000000;1.000000;,
  433;1.000000;1.000000;1.000000;1.000000;,
  434;1.000000;1.000000;1.000000;1.000000;;
 }
}
