xof 0302txt 0064
template Header {
 <3D82AB43-62DA-11cf-AB39-0020AF71E433>
 WORD major;
 WORD minor;
 DWORD flags;
}

template Vector {
 <3D82AB5E-62DA-11cf-AB39-0020AF71E433>
 FLOAT x;
 FLOAT y;
 FLOAT z;
}

template Coords2d {
 <F6F23F44-7686-11cf-8F52-0040333594A3>
 FLOAT u;
 FLOAT v;
}

template Matrix4x4 {
 <F6F23F45-7686-11cf-8F52-0040333594A3>
 array FLOAT matrix[16];
}

template ColorRGBA {
 <35FF44E0-6C7C-11cf-8F52-0040333594A3>
 FLOAT red;
 FLOAT green;
 FLOAT blue;
 FLOAT alpha;
}

template ColorRGB {
 <D3E16E81-7835-11cf-8F52-0040333594A3>
 FLOAT red;
 FLOAT green;
 FLOAT blue;
}

template IndexedColor {
 <1630B820-7842-11cf-8F52-0040333594A3>
 DWORD index;
 ColorRGBA indexColor;
}

template Boolean {
 <4885AE61-78E8-11cf-8F52-0040333594A3>
 WORD truefalse;
}

template Boolean2d {
 <4885AE63-78E8-11cf-8F52-0040333594A3>
 Boolean u;
 Boolean v;
}

template MaterialWrap {
 <4885AE60-78E8-11cf-8F52-0040333594A3>
 Boolean u;
 Boolean v;
}

template TextureFilename {
 <A42790E1-7810-11cf-8F52-0040333594A3>
 STRING filename;
}

template Material {
 <3D82AB4D-62DA-11cf-AB39-0020AF71E433>
 ColorRGBA faceColor;
 FLOAT power;
 ColorRGB specularColor;
 ColorRGB emissiveColor;
 [...]
}

template MeshFace {
 <3D82AB5F-62DA-11cf-AB39-0020AF71E433>
 DWORD nFaceVertexIndices;
 array DWORD faceVertexIndices[nFaceVertexIndices];
}

template MeshFaceWraps {
 <4885AE62-78E8-11cf-8F52-0040333594A3>
 DWORD nFaceWrapValues;
 Boolean2d faceWrapValues;
}

template MeshTextureCoords {
 <F6F23F40-7686-11cf-8F52-0040333594A3>
 DWORD nTextureCoords;
 array Coords2d textureCoords[nTextureCoords];
}

template MeshMaterialList {
 <F6F23F42-7686-11cf-8F52-0040333594A3>
 DWORD nMaterials;
 DWORD nFaceIndexes;
 array DWORD faceIndexes[nFaceIndexes];
 [Material]
}

template MeshNormals {
 <F6F23F43-7686-11cf-8F52-0040333594A3>
 DWORD nNormals;
 array Vector normals[nNormals];
 DWORD nFaceNormals;
 array MeshFace faceNormals[nFaceNormals];
}

template MeshVertexColors {
 <1630B821-7842-11cf-8F52-0040333594A3>
 DWORD nVertexColors;
 array IndexedColor vertexColors[nVertexColors];
}

template Mesh {
 <3D82AB44-62DA-11cf-AB39-0020AF71E433>
 DWORD nVertices;
 array Vector vertices[nVertices];
 DWORD nFaces;
 array MeshFace faces[nFaces];
 [...]
}

Header{
1;
0;
1;
}

Mesh {
 177;
 -0.00821;0.01191;-0.00916;,
 -0.24745;0.18992;-0.26610;,
 -0.28362;0.09623;-0.27403;,
 -0.36807;0.30796;-0.45856;,
 -0.39437;0.17682;-0.34012;,
 -0.51513;0.38243;-0.52686;,
 -0.49031;0.27317;-0.38547;,
 -0.62507;0.36615;-0.46087;,
 -0.66691;0.28019;-0.39716;,
 -0.58984;0.17036;-0.31235;,
 -0.33508;0.11268;-0.21303;,
 0.00093;0.01500;0.00821;,
 0.01739;0.28867;0.29066;,
 0.02848;0.20673;0.34821;,
 -0.01428;0.47140;0.46709;,
 0.07196;0.31666;0.44388;,
 0.05335;0.58094;0.59064;,
 0.12048;0.43372;0.51087;,
 0.17627;0.56123;0.62541;,
 0.24112;0.46702;0.63622;,
 0.23177;0.32843;0.55938;,
 0.10904;0.21179;0.33706;,
 0.00147;0.00934;0.01428;,
 0.02586;0.11744;0.39198;,
 0.03237;0.01766;0.40427;,
 -0.00029;0.19732;0.63376;,
 0.07926;0.06771;0.54001;,
 0.07027;0.23281;0.79376;,
 0.13195;0.13724;0.65374;,
 0.19164;0.19336;0.81429;,
 0.25202;0.10216;0.77915;,
 0.23764;0.01642;0.64634;,
 0.11323;0.02358;0.39620;,
 0.00194;-0.00025;0.00042;,
 0.01244;0.11251;0.03986;,
 -0.00136;0.11459;0.03609;,
 0.00107;0.10944;0.04924;,
 0.00685;0.01440;-0.00371;,
 0.21815;0.28124;-0.16406;,
 0.23608;0.20948;-0.22573;,
 0.38067;0.44943;-0.23592;,
 0.28409;0.32439;-0.30072;,
 0.43011;0.57029;-0.34563;,
 0.31106;0.44612;-0.35751;,
 0.36537;0.58071;-0.45035;,
 0.31428;0.50814;-0.51502;,
 0.25091;0.37491;-0.47960;,
 0.17422;0.23193;-0.26740;,
 0.00034;0.00216;-0.00762;,
 0.00820;0.11433;0.03472;,
 -0.00942;-0.00008;0.00263;,
 0.00444;-0.00210;0.00623;,
 -0.00380;0.00476;0.00215;,
 -0.12271;0.08473;0.04103;,
 -0.13996;0.05142;0.03490;,
 -0.19824;0.14393;0.05178;,
 -0.18051;0.08002;0.06370;,
 -0.24881;0.16800;0.08911;,
 -0.25723;0.10262;0.14216;,
 -0.21062;0.11201;0.09522;,
 -0.25890;0.14433;0.13053;,
 -0.22176;0.05879;0.12201;,
 -0.13479;0.04404;0.06429;,
 0.00342;-0.00224;0.00679;,
 0.00220;0.11127;0.04491;,
 0.00132;0.00250;-0.00741;,
 -0.00540;0.11450;0.03504;,
 -0.00969;-0.00052;0.00125;,
 0.00648;0.01179;-0.01060;,
 0.21547;0.18919;-0.29308;,
 0.23820;0.09355;-0.31513;,
 0.37761;0.31673;-0.44462;,
 0.28332;0.16501;-0.44156;,
 0.42422;0.37670;-0.60607;,
 0.30599;0.25071;-0.55420;,
 0.35688;0.33187;-0.70688;,
 0.30755;0.23077;-0.73019;,
 0.24758;0.12225;-0.63107;,
 0.17279;0.09090;-0.36364;,
 0.01100;0.00839;-0.00366;,
 0.29571;0.16421;0.00276;,
 0.32377;0.08646;0.01118;,
 0.47068;0.27654;0.03930;,
 0.42910;0.14765;-0.01873;,
 0.60091;0.32845;-0.00541;,
 0.51425;0.21958;-0.05806;,
 0.63991;0.28910;-0.09648;,
 0.63574;0.20386;-0.13764;,
 0.54322;0.11163;-0.12928;,
 0.32683;0.08173;-0.05578;,
 -0.00175;0.00404;-0.00187;,
 -0.07039;0.08331;-0.03518;,
 -0.08865;0.06782;-0.02037;,
 -0.11404;0.12972;-0.06774;,
 -0.11029;0.10411;-0.02503;,
 -0.14273;0.17049;-0.06636;,
 -0.12364;0.14159;-0.02971;,
 -0.14958;0.18459;-0.03381;,
 -0.15385;0.17178;-0.00467;,
 -0.13741;0.13429;0.01242;,
 -0.08319;0.07991;-0.00185;,
 -0.01070;0.01335;-0.00073;,
 -0.33628;0.23454;-0.00430;,
 -0.37768;0.14699;0.02347;,
 -0.54383;0.37733;-0.04967;,
 -0.48917;0.24484;0.05699;,
 -0.68146;0.47403;0.00986;,
 -0.57351;0.35525;0.09221;,
 -0.70607;0.46901;0.13665;,
 -0.69671;0.38615;0.21566;,
 -0.59693;0.26283;0.22156;,
 -0.36367;0.16690;0.10123;,
 0.00863;0.01430;0.00378;,
 0.26485;0.26833;0.16114;,
 0.30470;0.18276;0.19635;,
 0.39899;0.44422;0.28996;,
 0.41842;0.28086;0.22028;,
 0.54924;0.53729;0.31440;,
 0.51493;0.38683;0.22097;,
 0.65300;0.49972;0.24709;,
 0.69152;0.39733;0.21201;,
 0.61053;0.26538;0.17698;,
 0.34964;0.17771;0.12857;,
 -0.00219;0.01137;-0.01262;,
 -0.05414;0.17403;-0.36728;,
 -0.06784;0.07751;-0.39266;,
 -0.04523;0.28673;-0.59694;,
 -0.12372;0.14885;-0.51480;,
 -0.12774;0.34833;-0.74266;,
 -0.18217;0.23655;-0.61194;,
 -0.25266;0.31810;-0.75641;,
 -0.31506;0.22576;-0.72855;,
 -0.29396;0.12111;-0.61108;,
 -0.14712;0.08605;-0.37591;,
 -0.21059;0.19419;0.28764;,
 -0.34460;0.44797;0.34810;,
 -0.24602;0.30404;0.38667;,
 -0.37784;0.55878;0.48394;,
 -0.26086;0.42265;0.46576;,
 -0.29989;0.55047;0.58671;,
 -0.24526;0.46310;0.63750;,
 -0.19127;0.32754;0.57500;,
 -0.14087;0.20800;0.32748;,
 -0.00584;0.01467;0.00663;,
 0.01015;0.01267;-0.00480;,
 0.32338;0.21962;-0.10667;,
 0.36439;0.12890;-0.10748;,
 0.52699;0.36754;-0.13232;,
 0.46772;0.20878;-0.18186;,
 0.65365;0.43771;-0.23296;,
 0.54377;0.29980;-0.25930;,
 0.66627;0.39086;-0.35113;,
 0.65247;0.28747;-0.39596;,
 0.55785;0.17077;-0.35080;,
 0.34276;0.12157;-0.18470;,
 -0.00552;0.00715;-0.00438;,
 -0.16865;0.11644;-0.12581;,
 -0.19218;0.06223;-0.12603;,
 -0.25745;0.18818;-0.22333;,
 -0.26177;0.11171;-0.15182;,
 -0.34830;0.23478;-0.24627;,
 -0.32020;0.17012;-0.16738;,
 -0.40442;0.22733;-0.19585;,
 -0.42297;0.17771;-0.15422;,
 -0.37121;0.11173;-0.11378;,
 -0.21458;0.07283;-0.08517;,
 0.00075;0.00375;0.00196;,
 0.02068;0.07205;0.07030;,
 0.02550;0.05141;0.08402;,
 0.02291;0.11802;0.11500;,
 0.04171;0.07854;0.10533;,
 0.04640;0.14484;0.14200;,
 0.05784;0.10743;0.11932;,
 0.07813;0.13886;0.14465;,
 0.09381;0.11471;0.14430;,
 0.08666;0.08010;0.12602;,
 0.04480;0.05200;0.07739;;
 
 368;
 3;0,1,2;,
 3;2,1,3;,
 3;2,3,4;,
 3;4,3,5;,
 3;4,5,6;,
 3;6,5,7;,
 3;8,6,7;,
 3;8,4,6;,
 3;8,9,4;,
 3;4,9,2;,
 3;2,9,10;,
 3;2,10,0;,
 3;11,12,13;,
 3;13,12,14;,
 3;13,14,15;,
 3;15,14,16;,
 3;15,16,17;,
 3;17,16,18;,
 3;19,17,18;,
 3;19,15,17;,
 3;19,20,15;,
 3;15,20,13;,
 3;13,20,21;,
 3;13,21,11;,
 3;22,23,24;,
 3;24,23,25;,
 3;24,25,26;,
 3;26,25,27;,
 3;26,27,28;,
 3;28,27,29;,
 3;30,28,29;,
 3;30,26,28;,
 3;30,31,26;,
 3;26,31,24;,
 3;24,31,32;,
 3;24,32,22;,
 3;33,34,35;,
 3;33,35,36;,
 3;37,38,39;,
 3;39,38,40;,
 3;39,40,41;,
 3;41,40,42;,
 3;41,42,43;,
 3;43,42,44;,
 3;45,43,44;,
 3;45,41,43;,
 3;45,46,41;,
 3;41,46,39;,
 3;39,46,47;,
 3;39,47,37;,
 3;48,49,50;,
 3;50,49,51;,
 3;51,49,48;,
 3;52,53,54;,
 3;54,53,55;,
 3;54,55,56;,
 3;56,55,57;,
 3;58,59,60;,
 3;58,56,59;,
 3;58,61,56;,
 3;56,61,54;,
 3;54,61,62;,
 3;54,62,52;,
 3;63,64,65;,
 3;65,64,66;,
 3;65,66,67;,
 3;68,69,70;,
 3;70,69,71;,
 3;70,71,72;,
 3;72,71,73;,
 3;72,73,74;,
 3;74,73,75;,
 3;76,74,75;,
 3;76,72,74;,
 3;76,77,72;,
 3;72,77,70;,
 3;70,77,78;,
 3;70,78,68;,
 3;79,80,81;,
 3;81,80,82;,
 3;81,82,83;,
 3;83,82,84;,
 3;83,84,85;,
 3;85,84,86;,
 3;87,85,86;,
 3;87,83,85;,
 3;87,88,83;,
 3;83,88,81;,
 3;81,88,89;,
 3;81,89,79;,
 3;90,91,92;,
 3;92,91,93;,
 3;92,93,94;,
 3;94,93,95;,
 3;94,95,96;,
 3;96,95,97;,
 3;98,96,97;,
 3;98,94,96;,
 3;98,99,94;,
 3;94,99,92;,
 3;92,99,100;,
 3;92,100,90;,
 3;101,102,103;,
 3;103,102,104;,
 3;103,104,105;,
 3;105,104,106;,
 3;105,106,107;,
 3;107,106,108;,
 3;109,107,108;,
 3;109,105,107;,
 3;109,110,105;,
 3;105,110,103;,
 3;103,110,111;,
 3;103,111,101;,
 3;112,113,114;,
 3;114,113,115;,
 3;114,115,116;,
 3;116,115,117;,
 3;116,117,118;,
 3;118,117,119;,
 3;120,118,119;,
 3;120,116,118;,
 3;120,121,116;,
 3;116,121,114;,
 3;114,121,122;,
 3;114,122,112;,
 3;123,124,125;,
 3;125,124,126;,
 3;125,126,127;,
 3;127,126,128;,
 3;127,128,129;,
 3;129,128,130;,
 3;131,129,130;,
 3;131,127,129;,
 3;131,132,127;,
 3;127,132,125;,
 3;125,132,133;,
 3;125,133,123;,
 3;134,135,136;,
 3;136,135,137;,
 3;136,137,138;,
 3;138,137,139;,
 3;140,138,139;,
 3;140,136,138;,
 3;140,141,136;,
 3;136,141,134;,
 3;134,141,142;,
 3;134,142,143;,
 3;144,145,146;,
 3;146,145,147;,
 3;146,147,148;,
 3;148,147,149;,
 3;148,149,150;,
 3;150,149,151;,
 3;152,150,151;,
 3;152,148,150;,
 3;152,153,148;,
 3;148,153,146;,
 3;146,153,154;,
 3;146,154,144;,
 3;155,156,157;,
 3;157,156,158;,
 3;157,158,159;,
 3;159,158,160;,
 3;159,160,161;,
 3;161,160,162;,
 3;163,161,162;,
 3;163,159,161;,
 3;163,164,159;,
 3;159,164,157;,
 3;157,164,165;,
 3;157,165,155;,
 3;166,167,168;,
 3;168,167,169;,
 3;168,169,170;,
 3;170,169,171;,
 3;170,171,172;,
 3;172,171,173;,
 3;174,172,173;,
 3;174,170,172;,
 3;174,175,170;,
 3;170,175,168;,
 3;168,175,176;,
 3;168,176,166;,
 3;2,1,0;,
 3;3,1,2;,
 3;4,3,2;,
 3;5,3,4;,
 3;6,5,4;,
 3;7,5,6;,
 3;7,6,8;,
 3;6,4,8;,
 3;4,9,8;,
 3;2,9,4;,
 3;10,9,2;,
 3;0,10,2;,
 3;13,12,11;,
 3;14,12,13;,
 3;15,14,13;,
 3;16,14,15;,
 3;17,16,15;,
 3;18,16,17;,
 3;18,17,19;,
 3;17,15,19;,
 3;15,20,19;,
 3;13,20,15;,
 3;21,20,13;,
 3;11,21,13;,
 3;24,23,22;,
 3;25,23,24;,
 3;26,25,24;,
 3;27,25,26;,
 3;28,27,26;,
 3;29,27,28;,
 3;29,28,30;,
 3;28,26,30;,
 3;26,31,30;,
 3;24,31,26;,
 3;32,31,24;,
 3;22,32,24;,
 3;35,34,33;,
 3;36,35,33;,
 3;39,38,37;,
 3;40,38,39;,
 3;41,40,39;,
 3;42,40,41;,
 3;43,42,41;,
 3;44,42,43;,
 3;44,43,45;,
 3;43,41,45;,
 3;41,46,45;,
 3;39,46,41;,
 3;47,46,39;,
 3;37,47,39;,
 3;50,49,48;,
 3;51,49,50;,
 3;48,49,51;,
 3;54,53,52;,
 3;55,53,54;,
 3;56,55,54;,
 3;57,55,56;,
 3;60,59,58;,
 3;59,56,58;,
 3;56,61,58;,
 3;54,61,56;,
 3;62,61,54;,
 3;52,62,54;,
 3;65,64,63;,
 3;66,64,65;,
 3;67,66,65;,
 3;70,69,68;,
 3;71,69,70;,
 3;72,71,70;,
 3;73,71,72;,
 3;74,73,72;,
 3;75,73,74;,
 3;75,74,76;,
 3;74,72,76;,
 3;72,77,76;,
 3;70,77,72;,
 3;78,77,70;,
 3;68,78,70;,
 3;81,80,79;,
 3;82,80,81;,
 3;83,82,81;,
 3;84,82,83;,
 3;85,84,83;,
 3;86,84,85;,
 3;86,85,87;,
 3;85,83,87;,
 3;83,88,87;,
 3;81,88,83;,
 3;89,88,81;,
 3;79,89,81;,
 3;92,91,90;,
 3;93,91,92;,
 3;94,93,92;,
 3;95,93,94;,
 3;96,95,94;,
 3;97,95,96;,
 3;97,96,98;,
 3;96,94,98;,
 3;94,99,98;,
 3;92,99,94;,
 3;100,99,92;,
 3;90,100,92;,
 3;103,102,101;,
 3;104,102,103;,
 3;105,104,103;,
 3;106,104,105;,
 3;107,106,105;,
 3;108,106,107;,
 3;108,107,109;,
 3;107,105,109;,
 3;105,110,109;,
 3;103,110,105;,
 3;111,110,103;,
 3;101,111,103;,
 3;114,113,112;,
 3;115,113,114;,
 3;116,115,114;,
 3;117,115,116;,
 3;118,117,116;,
 3;119,117,118;,
 3;119,118,120;,
 3;118,116,120;,
 3;116,121,120;,
 3;114,121,116;,
 3;122,121,114;,
 3;112,122,114;,
 3;125,124,123;,
 3;126,124,125;,
 3;127,126,125;,
 3;128,126,127;,
 3;129,128,127;,
 3;130,128,129;,
 3;130,129,131;,
 3;129,127,131;,
 3;127,132,131;,
 3;125,132,127;,
 3;133,132,125;,
 3;123,133,125;,
 3;136,135,134;,
 3;137,135,136;,
 3;138,137,136;,
 3;139,137,138;,
 3;139,138,140;,
 3;138,136,140;,
 3;136,141,140;,
 3;134,141,136;,
 3;142,141,134;,
 3;143,142,134;,
 3;146,145,144;,
 3;147,145,146;,
 3;148,147,146;,
 3;149,147,148;,
 3;150,149,148;,
 3;151,149,150;,
 3;151,150,152;,
 3;150,148,152;,
 3;148,153,152;,
 3;146,153,148;,
 3;154,153,146;,
 3;144,154,146;,
 3;157,156,155;,
 3;158,156,157;,
 3;159,158,157;,
 3;160,158,159;,
 3;161,160,159;,
 3;162,160,161;,
 3;162,161,163;,
 3;161,159,163;,
 3;159,164,163;,
 3;157,164,159;,
 3;165,164,157;,
 3;155,165,157;,
 3;168,167,166;,
 3;169,167,168;,
 3;170,169,168;,
 3;171,169,170;,
 3;172,171,170;,
 3;173,171,172;,
 3;173,172,174;,
 3;172,170,174;,
 3;170,175,174;,
 3;168,175,170;,
 3;176,175,168;,
 3;166,176,168;;
 
 MeshMaterialList {
  7;
  368;
  0,
  0,
  0,
  0,
  0,
  0,
  0,
  0,
  0,
  0,
  0,
  0,
  0,
  0,
  0,
  0,
  0,
  0,
  0,
  0,
  0,
  0,
  0,
  0,
  0,
  0,
  0,
  0,
  0,
  0,
  0,
  0,
  0,
  0,
  0,
  0,
  0,
  0,
  0,
  0,
  0,
  0,
  0,
  0,
  0,
  0,
  0,
  0,
  0,
  0,
  0,
  0,
  0,
  0,
  0,
  0,
  0,
  0,
  0,
  0,
  0,
  0,
  0,
  0,
  0,
  0,
  0,
  0,
  0,
  0,
  0,
  0,
  0,
  0,
  0,
  0,
  0,
  0,
  0,
  0,
  0,
  0,
  0,
  0,
  0,
  0,
  0,
  0,
  0,
  0,
  0,
  0,
  0,
  0,
  0,
  0,
  0,
  0,
  0,
  0,
  0,
  0,
  0,
  0,
  0,
  0,
  0,
  0,
  0,
  0,
  0,
  0,
  0,
  0,
  0,
  0,
  0,
  0,
  0,
  0,
  0,
  0,
  0,
  0,
  0,
  0,
  0,
  0,
  0,
  0,
  0,
  0,
  0,
  0,
  0,
  0,
  0,
  0,
  0,
  0,
  0,
  0,
  0,
  0,
  0,
  0,
  0,
  0,
  0,
  0,
  0,
  0,
  0,
  0,
  0,
  0,
  0,
  0,
  0,
  0,
  0,
  0,
  0,
  0,
  0,
  0,
  0,
  0,
  0,
  0,
  0,
  0,
  0,
  0,
  0,
  0,
  0,
  0,
  0,
  0,
  0,
  0,
  0,
  0,
  0,
  0,
  0,
  0,
  0,
  0,
  0,
  0,
  0,
  0,
  0,
  0,
  0,
  0,
  0,
  0,
  0,
  0,
  0,
  0,
  0,
  0,
  0,
  0,
  0,
  0,
  0,
  0,
  0,
  0,
  0,
  0,
  0,
  0,
  0,
  0,
  0,
  0,
  0,
  0,
  0,
  0,
  0,
  0,
  0,
  0,
  0,
  0,
  0,
  0,
  0,
  0,
  0,
  0,
  0,
  0,
  0,
  0,
  0,
  0,
  0,
  0,
  0,
  0,
  0,
  0,
  0,
  0,
  0,
  0,
  0,
  0,
  0,
  0,
  0,
  0,
  0,
  0,
  0,
  0,
  0,
  0,
  0,
  0,
  0,
  0,
  0,
  0,
  0,
  0,
  0,
  0,
  0,
  0,
  0,
  0,
  0,
  0,
  0,
  0,
  0,
  0,
  0,
  0,
  0,
  0,
  0,
  0,
  0,
  0,
  0,
  0,
  0,
  0,
  0,
  0,
  0,
  0,
  0,
  0,
  0,
  0,
  0,
  0,
  0,
  0,
  0,
  0,
  0,
  0,
  0,
  0,
  0,
  0,
  0,
  0,
  0,
  0,
  0,
  0,
  0,
  0,
  0,
  0,
  0,
  0,
  0,
  0,
  0,
  0,
  0,
  0,
  0,
  0,
  0,
  0,
  0,
  0,
  0,
  0,
  0,
  0,
  0,
  0,
  0,
  0,
  0,
  0,
  0,
  0,
  0,
  0,
  0,
  0,
  0,
  0,
  0,
  0,
  0,
  0,
  0,
  0,
  0,
  0;;
  Material {
   0.000000;0.401600;0.000000;1.000000;;
   5.000000;
   0.000000;0.000000;0.000000;;
   0.000000;0.000000;0.000000;;
  }
  Material {
   0.000000;0.401600;0.000000;1.000000;;
   5.000000;
   0.000000;0.000000;0.000000;;
   0.000000;0.000000;0.000000;;
  }
  Material {
   0.000000;0.401600;0.000000;1.000000;;
   5.000000;
   0.000000;0.000000;0.000000;;
   0.000000;0.000000;0.000000;;
  }
  Material {
   0.000000;0.401600;0.000000;1.000000;;
   5.000000;
   0.000000;0.000000;0.000000;;
   0.000000;0.000000;0.000000;;
  }
  Material {
   0.000000;0.401600;0.000000;1.000000;;
   5.000000;
   0.000000;0.000000;0.000000;;
   0.000000;0.000000;0.000000;;
  }
  Material {
   0.800000;0.800000;0.000000;1.000000;;
   5.000000;
   0.000000;0.000000;0.000000;;
   0.000000;0.000000;0.000000;;
  }
  Material {
   0.800000;0.000000;0.000000;1.000000;;
   5.000000;
   0.000000;0.000000;0.000000;;
   0.000000;0.000000;0.000000;;
  }
 }
 MeshNormals {
  377;
  -0.650110;0.188690;0.736039;,
  -0.702804;0.213907;0.678462;,
  -0.359291;0.500267;0.787809;,
  -0.263033;0.577985;0.772494;,
  0.113376;0.652367;0.749375;,
  0.249058;0.750240;0.612463;,
  0.173283;0.662212;0.729004;,
  0.100296;0.710365;0.696651;,
  0.004092;0.551940;0.833874;,
  0.148463;0.843035;0.516963;,
  0.270030;0.962331;-0.031663;,
  0.992165;0.055719;-0.111821;,
  0.993672;0.102992;-0.044805;,
  0.849123;0.298495;-0.435764;,
  0.777020;0.363949;-0.513596;,
  0.496384;0.391474;-0.774823;,
  0.314908;0.505431;-0.803351;,
  0.440128;0.398712;-0.804560;,
  0.475904;0.463267;-0.747595;,
  0.622739;0.286513;-0.728085;,
  0.332244;0.633972;-0.698350;,
  -0.117516;0.887192;-0.446183;,
  0.995269;0.055108;-0.080018;,
  0.997865;0.065297;0.001330;,
  0.868269;0.427864;-0.251082;,
  0.800385;0.525470;-0.288557;,
  0.525320;0.685422;-0.504217;,
  0.349606;0.807807;-0.474577;,
  0.469911;0.708388;-0.526659;,
  0.507666;0.736929;-0.446331;,
  0.646101;0.565012;-0.513142;,
  0.371063;0.871115;-0.321667;,
  -0.070716;0.997227;0.023195;,
  -0.292847;-0.291287;0.910710;,
  0.985405;0.075688;-0.152475;,
  -0.780690;0.283578;-0.556872;,
  -0.729176;0.332093;-0.598346;,
  -0.861181;0.474956;-0.181061;,
  -0.852322;0.518991;-0.064770;,
  -0.823748;0.471035;0.315540;,
  -0.695501;0.538132;0.476122;,
  -0.802402;0.463852;0.375490;,
  -0.779736;0.536880;0.322135;,
  -0.898655;0.400335;0.179308;,
  -0.617355;0.670580;0.411333;,
  -0.084795;0.819292;0.567071;,
  0.968401;-0.144553;0.203231;,
  0.724187;-0.287375;0.626873;,
  0.707249;0.146399;-0.691640;,
  0.144265;-0.250858;0.957214;,
  0.071698;-0.216327;0.973685;,
  0.427076;0.067387;0.901701;,
  0.492538;0.162638;0.854959;,
  0.701976;0.254730;0.665089;,
  0.655806;0.310299;0.688210;,
  0.695591;0.101980;0.711164;,
  0.668683;0.224303;0.708908;,
  0.708838;0.169296;0.684754;,
  0.621470;0.583988;0.522239;,
  0.319723;0.930698;0.177701;,
  0.639996;-0.238408;0.730456;,
  -0.990313;-0.053595;0.128092;,
  -0.925953;-0.157578;0.343192;,
  -0.804904;-0.251914;0.537280;,
  -0.788932;-0.046253;-0.612737;,
  -0.739437;-0.020615;-0.672911;,
  -0.881111;0.295263;-0.369409;,
  -0.875194;0.389066;-0.287512;,
  -0.847250;0.526512;0.070371;,
  -0.723491;0.666796;0.178728;,
  -0.826041;0.549265;0.126351;,
  -0.806425;0.589648;0.044640;,
  -0.917742;0.396870;-0.015614;,
  -0.651152;0.756713;0.058189;,
  -0.127312;0.984846;0.117769;,
  0.067954;-0.083214;-0.994212;,
  0.144661;-0.054855;-0.987960;,
  -0.196040;0.252159;-0.947620;,
  -0.263567;0.345770;-0.900542;,
  -0.548806;0.482880;-0.682377;,
  -0.573839;0.628734;-0.524789;,
  -0.584049;0.506421;-0.634370;,
  -0.506669;0.548106;-0.665482;,
  -0.512867;0.350232;-0.783776;,
  -0.436389;0.722722;-0.535946;,
  -0.200099;0.976662;-0.078046;,
  0.214934;0.530641;0.819892;,
  0.154376;0.581703;0.798617;,
  0.549291;0.616163;0.564467;,
  0.626731;0.623744;0.467067;,
  0.860402;0.466307;0.205588;,
  0.883975;0.467441;-0.009306;,
  0.885080;0.439622;0.152859;,
  0.839846;0.521148;0.151865;,
  0.814437;0.447782;0.369030;,
  0.796916;0.601324;-0.057739;,
  0.532844;0.627968;-0.567215;,
  0.148701;0.234427;0.960693;,
  0.074487;0.269348;0.960158;,
  0.416708;0.501715;0.758047;,
  0.477974;0.566720;0.671095;,
  0.715988;0.591804;0.370311;,
  0.714775;0.677873;0.172004;,
  0.741155;0.594692;0.311496;,
  0.675414;0.653685;0.341340;,
  0.694987;0.502445;0.514336;,
  0.589504;0.787986;0.177660;,
  0.274413;0.918536;-0.284587;,
  0.571642;-0.070155;-0.817498;,
  0.628635;-0.027045;-0.777230;,
  0.267060;0.205909;-0.941425;,
  0.170132;0.284275;-0.943527;,
  -0.204719;0.362194;-0.909343;,
  -0.330150;0.500464;-0.800335;,
  -0.262750;0.378337;-0.887594;,
  -0.188692;0.434546;-0.880662;,
  -0.100560;0.239163;-0.965758;,
  -0.224185;0.619953;-0.751931;,
  -0.297698;0.916933;-0.265724;,
  -0.978620;0.090342;0.184772;,
  -0.987971;0.112308;0.106299;,
  -0.813996;0.427930;0.392793;,
  -0.737131;0.515738;0.436637;,
  -0.434317;0.629491;0.644290;,
  -0.254852;0.746360;0.614815;,
  -0.375794;0.646301;0.664134;,
  -0.418882;0.687935;0.592692;,
  -0.560942;0.514954;0.648202;,
  -0.286216;0.832078;0.475108;,
  0.129276;0.985566;0.109308;,
  0.102662;0.870507;-0.481329;,
  0.493682;0.771114;-0.402070;,
  0.830098;0.505433;-0.235530;,
  0.818962;0.471921;-0.326483;,
  0.681007;0.567587;-0.462682;,
  0.791858;0.474510;-0.384449;,
  0.778655;0.540039;-0.319459;,
  0.901470;0.378753;-0.209520;,
  0.617324;0.692847;-0.372658;,
  0.082931;0.887755;-0.452784;,
  -0.245788;-0.102483;-0.963891;,
  -0.173050;-0.069437;-0.982462;,
  -0.502354;0.217477;-0.836866;,
  -0.557325;0.307964;-0.771068;,
  -0.766808;0.432859;-0.473960;,
  -0.749876;0.580639;-0.317086;,
  -0.786436;0.455379;-0.417311;,
  -0.725776;0.500875;-0.471565;,
  -0.756442;0.300244;-0.581075;,
  -0.629416;0.682397;-0.371712;,
  -0.276905;0.960801;-0.013627;,
  -0.489856;0.209184;0.846335;,
  -0.551767;0.236242;0.799839;,
  -0.184347;0.510761;0.839726;,
  -0.090311;0.585234;0.805819;,
  0.276889;0.647013;0.710427;,
  0.386892;0.740510;0.549508;,
  0.332066;0.654885;0.678866;,
  0.255856;0.705502;0.660912;,
  0.182625;0.550164;0.814842;,
  0.272939;0.836766;0.474685;,
  0.290654;0.952805;-0.087651;,
  0.953454;0.022657;-0.300687;,
  0.969383;0.069746;-0.235440;,
  0.758932;0.270606;-0.592280;,
  0.675424;0.338557;-0.655119;,
  0.350858;0.375888;-0.857675;,
  0.171166;0.495895;-0.851346;,
  0.290203;0.385055;-0.876079;,
  0.338393;0.448282;-0.827366;,
  0.480289;0.266690;-0.835583;,
  0.212603;0.623630;-0.752254;,
  -0.171667;0.891346;-0.419563;,
  0.297989;0.954551;-0.005980;,
  -0.121055;0.868812;-0.480116;,
  -0.074554;0.997098;-0.015371;,
  -0.108046;0.799473;0.590905;,
  0.275026;0.220137;-0.935895;,
  -0.707249;-0.146399;0.691640;,
  -0.968401;0.144553;-0.203231;,
  0.355608;0.919314;0.168535;,
  0.999264;0.027534;0.026707;,
  -0.149789;0.977507;0.148472;,
  -0.237872;0.968065;-0.079164;,
  0.563884;0.605438;-0.561676;,
  0.310865;0.905804;-0.287893;,
  -0.327668;0.900971;-0.284404;,
  0.136588;0.979674;0.146909;,
  -0.312442;0.949933;-0.002641;,
  0.322757;0.944052;-0.067782;,
  -0.182274;0.873143;-0.452103;,
  0.359291;-0.500267;-0.787809;,
  0.702804;-0.213907;-0.678462;,
  0.650110;-0.188690;-0.736039;,
  0.263033;-0.577985;-0.772494;,
  -0.113376;-0.652367;-0.749375;,
  -0.249058;-0.750240;-0.612463;,
  -0.173283;-0.662212;-0.729004;,
  -0.100296;-0.710365;-0.696651;,
  -0.004092;-0.551940;-0.833874;,
  -0.148463;-0.843035;-0.516963;,
  -0.270030;-0.962331;0.031663;,
  -0.297989;-0.954551;0.005980;,
  -0.849123;-0.298495;0.435764;,
  -0.993672;-0.102992;0.044805;,
  -0.992165;-0.055719;0.111821;,
  -0.777020;-0.363949;0.513596;,
  -0.496384;-0.391474;0.774823;,
  -0.314908;-0.505431;0.803351;,
  -0.440128;-0.398712;0.804560;,
  -0.475904;-0.463267;0.747595;,
  -0.622739;-0.286513;0.728085;,
  -0.332244;-0.633972;0.698350;,
  0.117516;-0.887192;0.446183;,
  0.121055;-0.868812;0.480116;,
  -0.868269;-0.427864;0.251082;,
  -0.997865;-0.065297;-0.001330;,
  -0.995269;-0.055108;0.080018;,
  -0.800385;-0.525470;0.288557;,
  -0.525320;-0.685422;0.504217;,
  -0.349606;-0.807807;0.474577;,
  -0.469911;-0.708388;0.526659;,
  -0.507666;-0.736929;0.446331;,
  -0.646101;-0.565012;0.513142;,
  -0.371063;-0.871115;0.321667;,
  0.070716;-0.997227;-0.023195;,
  0.074554;-0.997098;0.015371;,
  0.292847;0.291287;-0.910710;,
  -0.985405;-0.075688;0.152475;,
  0.861181;-0.474956;0.181061;,
  0.729176;-0.332093;0.598346;,
  0.780690;-0.283578;0.556872;,
  0.852322;-0.518991;0.064770;,
  0.823748;-0.471035;-0.315540;,
  0.695501;-0.538132;-0.476122;,
  0.802402;-0.463852;-0.375490;,
  0.779736;-0.536880;-0.322135;,
  0.898655;-0.400335;-0.179308;,
  0.617355;-0.670580;-0.411333;,
  0.084795;-0.819292;-0.567071;,
  0.108046;-0.799473;-0.590905;,
  -0.724187;0.287375;-0.626873;,
  -0.275026;-0.220137;0.935895;,
  -0.427076;-0.067387;-0.901701;,
  -0.071698;0.216327;-0.973685;,
  -0.144265;0.250858;-0.957214;,
  -0.492538;-0.162638;-0.854959;,
  -0.701976;-0.254730;-0.665089;,
  -0.655806;-0.310299;-0.688210;,
  -0.668683;-0.224303;-0.708908;,
  -0.695591;-0.101980;-0.711164;,
  -0.708838;-0.169296;-0.684754;,
  -0.621470;-0.583988;-0.522239;,
  -0.319723;-0.930698;-0.177701;,
  -0.355608;-0.919314;-0.168535;,
  0.925953;0.157578;-0.343192;,
  0.990313;0.053595;-0.128092;,
  0.804904;0.251914;-0.537280;,
  -0.639996;0.238408;-0.730456;,
  0.881111;-0.295263;0.369409;,
  0.739437;0.020615;0.672911;,
  0.788932;0.046253;0.612737;,
  0.875194;-0.389066;0.287512;,
  0.847250;-0.526512;-0.070371;,
  0.723491;-0.666796;-0.178728;,
  0.826041;-0.549265;-0.126351;,
  0.806425;-0.589648;-0.044640;,
  0.917742;-0.396870;0.015614;,
  0.651152;-0.756713;-0.058189;,
  0.127312;-0.984846;-0.117769;,
  0.149789;-0.977507;-0.148472;,
  0.196040;-0.252159;0.947620;,
  -0.144661;0.054855;0.987960;,
  -0.067954;0.083214;0.994212;,
  0.263567;-0.345770;0.900542;,
  0.548806;-0.482880;0.682377;,
  0.573839;-0.628734;0.524789;,
  0.584049;-0.506421;0.634370;,
  0.506669;-0.548106;0.665482;,
  0.512867;-0.350232;0.783776;,
  0.436389;-0.722722;0.535946;,
  0.200099;-0.976662;0.078046;,
  0.237872;-0.968065;0.079164;,
  -0.549291;-0.616163;-0.564467;,
  -0.154376;-0.581703;-0.798617;,
  -0.214934;-0.530641;-0.819892;,
  -0.626731;-0.623744;-0.467067;,
  -0.860402;-0.466307;-0.205588;,
  -0.883975;-0.467441;0.009306;,
  -0.885080;-0.439622;-0.152859;,
  -0.839846;-0.521148;-0.151865;,
  -0.814437;-0.447782;-0.369030;,
  -0.796916;-0.601324;0.057739;,
  -0.532844;-0.627968;0.567215;,
  -0.563884;-0.605438;0.561676;,
  -0.416708;-0.501715;-0.758047;,
  -0.074487;-0.269348;-0.960158;,
  -0.148701;-0.234427;-0.960693;,
  -0.477974;-0.566720;-0.671095;,
  -0.715988;-0.591804;-0.370311;,
  -0.714775;-0.677873;-0.172004;,
  -0.741155;-0.594692;-0.311496;,
  -0.675414;-0.653685;-0.341340;,
  -0.694987;-0.502445;-0.514336;,
  -0.589504;-0.787986;-0.177660;,
  -0.274413;-0.918536;0.284587;,
  -0.310865;-0.905804;0.287893;,
  -0.267060;-0.205909;0.941425;,
  -0.628635;0.027045;0.777230;,
  -0.571642;0.070155;0.817498;,
  -0.170132;-0.284275;0.943527;,
  0.204719;-0.362194;0.909343;,
  0.330150;-0.500464;0.800335;,
  0.262750;-0.378337;0.887594;,
  0.188692;-0.434546;0.880662;,
  0.100560;-0.239163;0.965758;,
  0.224185;-0.619953;0.751931;,
  0.297698;-0.916933;0.265724;,
  0.327668;-0.900971;0.284404;,
  0.813996;-0.427930;-0.392793;,
  0.987971;-0.112308;-0.106299;,
  0.978620;-0.090342;-0.184772;,
  0.737131;-0.515738;-0.436637;,
  0.434317;-0.629491;-0.644290;,
  0.254852;-0.746360;-0.614815;,
  0.375794;-0.646301;-0.664134;,
  0.418882;-0.687935;-0.592692;,
  0.560942;-0.514954;-0.648202;,
  0.286216;-0.832078;-0.475108;,
  -0.129276;-0.985566;-0.109308;,
  -0.136588;-0.979674;-0.146909;,
  -0.818962;-0.471921;0.326483;,
  -0.830098;-0.505433;0.235530;,
  -0.493682;-0.771114;0.402070;,
  -0.681007;-0.567587;0.462682;,
  -0.791858;-0.474510;0.384449;,
  -0.778655;-0.540039;0.319459;,
  -0.901470;-0.378753;0.209520;,
  -0.617324;-0.692847;0.372658;,
  -0.082931;-0.887755;0.452784;,
  -0.102662;-0.870507;0.481329;,
  0.502354;-0.217477;0.836866;,
  0.173050;0.069437;0.982462;,
  0.245788;0.102483;0.963891;,
  0.557325;-0.307964;0.771068;,
  0.766808;-0.432859;0.473960;,
  0.749876;-0.580639;0.317086;,
  0.786436;-0.455379;0.417311;,
  0.725776;-0.500875;0.471565;,
  0.756442;-0.300244;0.581075;,
  0.629416;-0.682397;0.371712;,
  0.276905;-0.960801;0.013627;,
  0.312442;-0.949933;0.002641;,
  0.184347;-0.510761;-0.839726;,
  0.551767;-0.236242;-0.799839;,
  0.489856;-0.209184;-0.846335;,
  0.090311;-0.585234;-0.805819;,
  -0.276889;-0.647013;-0.710427;,
  -0.386892;-0.740510;-0.549508;,
  -0.332066;-0.654885;-0.678866;,
  -0.255856;-0.705502;-0.660912;,
  -0.182625;-0.550164;-0.814842;,
  -0.272939;-0.836766;-0.474685;,
  -0.290654;-0.952805;0.087651;,
  -0.322757;-0.944052;0.067782;,
  -0.758932;-0.270606;0.592280;,
  -0.969383;-0.069746;0.235440;,
  -0.953454;-0.022657;0.300687;,
  -0.675424;-0.338557;0.655119;,
  -0.350858;-0.375888;0.857675;,
  -0.171166;-0.495895;0.851346;,
  -0.290203;-0.385055;0.876079;,
  -0.338393;-0.448282;0.827366;,
  -0.480289;-0.266690;0.835583;,
  -0.212603;-0.623630;0.752254;,
  0.171667;-0.891346;0.419563;,
  0.182274;-0.873143;0.452103;;
  368;
  3;0,1,2;,
  3;2,1,3;,
  3;2,3,4;,
  3;4,3,5;,
  3;4,5,6;,
  3;6,5,7;,
  3;8,6,7;,
  3;8,4,6;,
  3;8,9,4;,
  3;4,9,2;,
  3;10,9,10;,
  3;10,10,173;,
  3;11,12,13;,
  3;13,12,14;,
  3;13,14,15;,
  3;15,14,16;,
  3;15,16,17;,
  3;17,16,18;,
  3;19,17,18;,
  3;19,15,17;,
  3;19,20,15;,
  3;15,20,13;,
  3;21,20,21;,
  3;21,21,174;,
  3;22,23,24;,
  3;24,23,25;,
  3;24,25,26;,
  3;26,25,27;,
  3;26,27,28;,
  3;28,27,29;,
  3;30,28,29;,
  3;30,26,28;,
  3;30,31,26;,
  3;26,31,24;,
  3;32,31,32;,
  3;32,32,175;,
  3;33,33,33;,
  3;34,34,34;,
  3;35,36,37;,
  3;37,36,38;,
  3;37,38,39;,
  3;39,38,40;,
  3;39,40,41;,
  3;41,40,42;,
  3;43,41,42;,
  3;43,39,41;,
  3;43,44,39;,
  3;39,44,37;,
  3;45,44,45;,
  3;45,45,176;,
  3;46,46,47;,
  3;177,177,48;,
  3;178,179,179;,
  3;49,50,51;,
  3;51,50,52;,
  3;51,52,53;,
  3;53,52,54;,
  3;57,55,56;,
  3;57,53,55;,
  3;57,58,53;,
  3;53,58,51;,
  3;59,58,59;,
  3;59,59,180;,
  3;61,62,62;,
  3;62,62,63;,
  3;181,60,60;,
  3;64,65,66;,
  3;66,65,67;,
  3;66,67,68;,
  3;68,67,69;,
  3;68,69,70;,
  3;70,69,71;,
  3;72,70,71;,
  3;72,68,70;,
  3;72,73,68;,
  3;68,73,66;,
  3;74,73,74;,
  3;74,74,182;,
  3;75,76,77;,
  3;77,76,78;,
  3;77,78,79;,
  3;79,78,80;,
  3;79,80,81;,
  3;81,80,82;,
  3;83,81,82;,
  3;83,79,81;,
  3;83,84,79;,
  3;79,84,77;,
  3;85,84,85;,
  3;85,85,183;,
  3;86,87,88;,
  3;88,87,89;,
  3;88,89,90;,
  3;90,89,91;,
  3;90,91,92;,
  3;92,91,93;,
  3;94,92,93;,
  3;94,90,92;,
  3;94,95,90;,
  3;90,95,88;,
  3;96,95,96;,
  3;96,96,184;,
  3;97,98,99;,
  3;99,98,100;,
  3;99,100,101;,
  3;101,100,102;,
  3;101,102,103;,
  3;103,102,104;,
  3;105,103,104;,
  3;105,101,103;,
  3;105,106,101;,
  3;101,106,99;,
  3;107,106,107;,
  3;107,107,185;,
  3;108,109,110;,
  3;110,109,111;,
  3;110,111,112;,
  3;112,111,113;,
  3;112,113,114;,
  3;114,113,115;,
  3;116,114,115;,
  3;116,112,114;,
  3;116,117,112;,
  3;112,117,110;,
  3;118,117,118;,
  3;118,118,186;,
  3;119,120,121;,
  3;121,120,122;,
  3;121,122,123;,
  3;123,122,124;,
  3;123,124,125;,
  3;125,124,126;,
  3;127,125,126;,
  3;127,123,125;,
  3;127,128,123;,
  3;123,128,121;,
  3;129,128,129;,
  3;129,129,187;,
  3;131,132,133;,
  3;133,132,134;,
  3;133,134,135;,
  3;135,134,136;,
  3;137,135,136;,
  3;137,133,135;,
  3;137,138,133;,
  3;133,138,131;,
  3;131,138,139;,
  3;131,139,130;,
  3;140,141,142;,
  3;142,141,143;,
  3;142,143,144;,
  3;144,143,145;,
  3;144,145,146;,
  3;146,145,147;,
  3;148,146,147;,
  3;148,144,146;,
  3;148,149,144;,
  3;144,149,142;,
  3;150,149,150;,
  3;150,150,188;,
  3;151,152,153;,
  3;153,152,154;,
  3;153,154,155;,
  3;155,154,156;,
  3;155,156,157;,
  3;157,156,158;,
  3;159,157,158;,
  3;159,155,157;,
  3;159,160,155;,
  3;155,160,153;,
  3;161,160,161;,
  3;161,161,189;,
  3;162,163,164;,
  3;164,163,165;,
  3;164,165,166;,
  3;166,165,167;,
  3;166,167,168;,
  3;168,167,169;,
  3;170,168,169;,
  3;170,166,168;,
  3;170,171,166;,
  3;166,171,164;,
  3;172,171,172;,
  3;172,172,190;,
  3;191,192,193;,
  3;194,192,191;,
  3;195,194,191;,
  3;196,194,195;,
  3;197,196,195;,
  3;198,196,197;,
  3;198,197,199;,
  3;197,195,199;,
  3;195,200,199;,
  3;191,200,195;,
  3;201,200,201;,
  3;202,201,201;,
  3;203,204,205;,
  3;206,204,203;,
  3;207,206,203;,
  3;208,206,207;,
  3;209,208,207;,
  3;210,208,209;,
  3;210,209,211;,
  3;209,207,211;,
  3;207,212,211;,
  3;203,212,207;,
  3;213,212,213;,
  3;214,213,213;,
  3;215,216,217;,
  3;218,216,215;,
  3;219,218,215;,
  3;220,218,219;,
  3;221,220,219;,
  3;222,220,221;,
  3;222,221,223;,
  3;221,219,223;,
  3;219,224,223;,
  3;215,224,219;,
  3;225,224,225;,
  3;226,225,225;,
  3;227,227,227;,
  3;228,228,228;,
  3;229,230,231;,
  3;232,230,229;,
  3;233,232,229;,
  3;234,232,233;,
  3;235,234,233;,
  3;236,234,235;,
  3;236,235,237;,
  3;235,233,237;,
  3;233,238,237;,
  3;229,238,233;,
  3;239,238,239;,
  3;240,239,239;,
  3;241,179,179;,
  3;178,242,242;,
  3;46,46,48;,
  3;243,244,245;,
  3;246,244,243;,
  3;247,246,243;,
  3;248,246,247;,
  3;249,250,251;,
  3;250,247,251;,
  3;247,252,251;,
  3;243,252,247;,
  3;253,252,253;,
  3;254,253,253;,
  3;181,255,256;,
  3;257,255,181;,
  3;258,258,258;,
  3;259,260,261;,
  3;262,260,259;,
  3;263,262,259;,
  3;264,262,263;,
  3;265,264,263;,
  3;266,264,265;,
  3;266,265,267;,
  3;265,263,267;,
  3;263,268,267;,
  3;259,268,263;,
  3;269,268,269;,
  3;270,269,269;,
  3;271,272,273;,
  3;274,272,271;,
  3;275,274,271;,
  3;276,274,275;,
  3;277,276,275;,
  3;278,276,277;,
  3;278,277,279;,
  3;277,275,279;,
  3;275,280,279;,
  3;271,280,275;,
  3;281,280,281;,
  3;282,281,281;,
  3;283,284,285;,
  3;286,284,283;,
  3;287,286,283;,
  3;288,286,287;,
  3;289,288,287;,
  3;290,288,289;,
  3;290,289,291;,
  3;289,287,291;,
  3;287,292,291;,
  3;283,292,287;,
  3;293,292,293;,
  3;294,293,293;,
  3;295,296,297;,
  3;298,296,295;,
  3;299,298,295;,
  3;300,298,299;,
  3;301,300,299;,
  3;302,300,301;,
  3;302,301,303;,
  3;301,299,303;,
  3;299,304,303;,
  3;295,304,299;,
  3;305,304,305;,
  3;306,305,305;,
  3;307,308,309;,
  3;310,308,307;,
  3;311,310,307;,
  3;312,310,311;,
  3;313,312,311;,
  3;314,312,313;,
  3;314,313,315;,
  3;313,311,315;,
  3;311,316,315;,
  3;307,316,311;,
  3;317,316,317;,
  3;318,317,317;,
  3;319,320,321;,
  3;322,320,319;,
  3;323,322,319;,
  3;324,322,323;,
  3;325,324,323;,
  3;326,324,325;,
  3;326,325,327;,
  3;325,323,327;,
  3;323,328,327;,
  3;319,328,323;,
  3;329,328,329;,
  3;330,329,329;,
  3;331,332,333;,
  3;334,332,331;,
  3;335,334,331;,
  3;336,334,335;,
  3;336,335,337;,
  3;335,331,337;,
  3;331,338,337;,
  3;333,338,331;,
  3;339,338,333;,
  3;340,339,333;,
  3;341,342,343;,
  3;344,342,341;,
  3;345,344,341;,
  3;346,344,345;,
  3;347,346,345;,
  3;348,346,347;,
  3;348,347,349;,
  3;347,345,349;,
  3;345,350,349;,
  3;341,350,345;,
  3;351,350,351;,
  3;352,351,351;,
  3;353,354,355;,
  3;356,354,353;,
  3;357,356,353;,
  3;358,356,357;,
  3;359,358,357;,
  3;360,358,359;,
  3;360,359,361;,
  3;359,357,361;,
  3;357,362,361;,
  3;353,362,357;,
  3;363,362,363;,
  3;364,363,363;,
  3;365,366,367;,
  3;368,366,365;,
  3;369,368,365;,
  3;370,368,369;,
  3;371,370,369;,
  3;372,370,371;,
  3;372,371,373;,
  3;371,369,373;,
  3;369,374,373;,
  3;365,374,369;,
  3;375,374,375;,
  3;376,375,375;;
 }
 MeshTextureCoords {
  177;
  0.000000;0.000000;,
  0.000000;0.000000;,
  0.000000;0.000000;,
  0.000000;0.000000;,
  0.000000;0.000000;,
  0.000000;0.000000;,
  0.000000;0.000000;,
  0.000000;0.000000;,
  0.000000;0.000000;,
  0.000000;0.000000;,
  0.000000;0.000000;,
  0.000000;0.000000;,
  0.000000;0.000000;,
  0.000000;0.000000;,
  0.000000;0.000000;,
  0.000000;0.000000;,
  0.000000;0.000000;,
  0.000000;0.000000;,
  0.000000;0.000000;,
  0.000000;0.000000;,
  0.000000;0.000000;,
  0.000000;0.000000;,
  0.000000;0.000000;,
  0.000000;0.000000;,
  0.000000;0.000000;,
  0.000000;0.000000;,
  0.000000;0.000000;,
  0.000000;0.000000;,
  0.000000;0.000000;,
  0.000000;0.000000;,
  0.000000;0.000000;,
  0.000000;0.000000;,
  0.000000;0.000000;,
  0.000000;0.000000;,
  0.000000;0.000000;,
  0.000000;0.000000;,
  0.000000;0.000000;,
  0.000000;0.000000;,
  0.000000;0.000000;,
  0.000000;0.000000;,
  0.000000;0.000000;,
  0.000000;0.000000;,
  0.000000;0.000000;,
  0.000000;0.000000;,
  0.000000;0.000000;,
  0.000000;0.000000;,
  0.000000;0.000000;,
  0.000000;0.000000;,
  0.000000;0.000000;,
  0.000000;0.000000;,
  0.000000;0.000000;,
  0.000000;0.000000;,
  0.000000;0.000000;,
  0.000000;0.000000;,
  0.000000;0.000000;,
  0.000000;0.000000;,
  0.000000;0.000000;,
  0.000000;0.000000;,
  0.000000;0.000000;,
  0.000000;0.000000;,
  0.000000;0.000000;,
  0.000000;0.000000;,
  0.000000;0.000000;,
  0.000000;0.000000;,
  0.000000;0.000000;,
  0.000000;0.000000;,
  0.000000;0.000000;,
  0.000000;0.000000;,
  0.000000;0.000000;,
  0.000000;0.000000;,
  0.000000;0.000000;,
  0.000000;0.000000;,
  0.000000;0.000000;,
  0.000000;0.000000;,
  0.000000;0.000000;,
  0.000000;0.000000;,
  0.000000;0.000000;,
  0.000000;0.000000;,
  0.000000;0.000000;,
  0.000000;0.000000;,
  0.000000;0.000000;,
  0.000000;0.000000;,
  0.000000;0.000000;,
  0.000000;0.000000;,
  0.000000;0.000000;,
  0.000000;0.000000;,
  0.000000;0.000000;,
  0.000000;0.000000;,
  0.000000;0.000000;,
  0.000000;0.000000;,
  0.000000;0.000000;,
  0.000000;0.000000;,
  0.000000;0.000000;,
  0.000000;0.000000;,
  0.000000;0.000000;,
  0.000000;0.000000;,
  0.000000;0.000000;,
  0.000000;0.000000;,
  0.000000;0.000000;,
  0.000000;0.000000;,
  0.000000;0.000000;,
  0.000000;0.000000;,
  0.000000;0.000000;,
  0.000000;0.000000;,
  0.000000;0.000000;,
  0.000000;0.000000;,
  0.000000;0.000000;,
  0.000000;0.000000;,
  0.000000;0.000000;,
  0.000000;0.000000;,
  0.000000;0.000000;,
  0.000000;0.000000;,
  0.000000;0.000000;,
  0.000000;0.000000;,
  0.000000;0.000000;,
  0.000000;0.000000;,
  0.000000;0.000000;,
  0.000000;0.000000;,
  0.000000;0.000000;,
  0.000000;0.000000;,
  0.000000;0.000000;,
  0.000000;0.000000;,
  0.000000;0.000000;,
  0.000000;0.000000;,
  0.000000;0.000000;,
  0.000000;0.000000;,
  0.000000;0.000000;,
  0.000000;0.000000;,
  0.000000;0.000000;,
  0.000000;0.000000;,
  0.000000;0.000000;,
  0.000000;0.000000;,
  0.000000;0.000000;,
  0.000000;0.000000;,
  0.000000;0.000000;,
  0.000000;0.000000;,
  0.000000;0.000000;,
  0.000000;0.000000;,
  0.000000;0.000000;,
  0.000000;0.000000;,
  0.000000;0.000000;,
  0.000000;0.000000;,
  0.000000;0.000000;,
  0.000000;0.000000;,
  0.000000;0.000000;,
  0.000000;0.000000;,
  0.000000;0.000000;,
  0.000000;0.000000;,
  0.000000;0.000000;,
  0.000000;0.000000;,
  0.000000;0.000000;,
  0.000000;0.000000;,
  0.000000;0.000000;,
  0.000000;0.000000;,
  0.000000;0.000000;,
  0.000000;0.000000;,
  0.000000;0.000000;,
  0.000000;0.000000;,
  0.000000;0.000000;,
  0.000000;0.000000;,
  0.000000;0.000000;,
  0.000000;0.000000;,
  0.000000;0.000000;,
  0.000000;0.000000;,
  0.000000;0.000000;,
  0.000000;0.000000;,
  0.000000;0.000000;,
  0.000000;0.000000;,
  0.000000;0.000000;,
  0.000000;0.000000;,
  0.000000;0.000000;,
  0.000000;0.000000;,
  0.000000;0.000000;,
  0.000000;0.000000;,
  0.000000;0.000000;,
  0.000000;0.000000;,
  0.000000;0.000000;;
 }
 MeshVertexColors {
  177;
  0;1.000000;1.000000;1.000000;1.000000;,
  1;1.000000;1.000000;1.000000;1.000000;,
  2;1.000000;1.000000;1.000000;1.000000;,
  3;1.000000;1.000000;1.000000;1.000000;,
  4;1.000000;1.000000;1.000000;1.000000;,
  5;1.000000;1.000000;1.000000;1.000000;,
  6;1.000000;1.000000;1.000000;1.000000;,
  7;1.000000;1.000000;1.000000;1.000000;,
  8;1.000000;1.000000;1.000000;1.000000;,
  9;1.000000;1.000000;1.000000;1.000000;,
  10;1.000000;1.000000;1.000000;1.000000;,
  11;1.000000;1.000000;1.000000;1.000000;,
  12;1.000000;1.000000;1.000000;1.000000;,
  13;1.000000;1.000000;1.000000;1.000000;,
  14;1.000000;1.000000;1.000000;1.000000;,
  15;1.000000;1.000000;1.000000;1.000000;,
  16;1.000000;1.000000;1.000000;1.000000;,
  17;1.000000;1.000000;1.000000;1.000000;,
  18;1.000000;1.000000;1.000000;1.000000;,
  19;1.000000;1.000000;1.000000;1.000000;,
  20;1.000000;1.000000;1.000000;1.000000;,
  21;1.000000;1.000000;1.000000;1.000000;,
  22;1.000000;1.000000;1.000000;1.000000;,
  23;1.000000;1.000000;1.000000;1.000000;,
  24;1.000000;1.000000;1.000000;1.000000;,
  25;1.000000;1.000000;1.000000;1.000000;,
  26;1.000000;1.000000;1.000000;1.000000;,
  27;1.000000;1.000000;1.000000;1.000000;,
  28;1.000000;1.000000;1.000000;1.000000;,
  29;1.000000;1.000000;1.000000;1.000000;,
  30;1.000000;1.000000;1.000000;1.000000;,
  31;1.000000;1.000000;1.000000;1.000000;,
  32;1.000000;1.000000;1.000000;1.000000;,
  33;1.000000;1.000000;1.000000;1.000000;,
  34;1.000000;1.000000;1.000000;1.000000;,
  35;1.000000;1.000000;1.000000;1.000000;,
  36;1.000000;1.000000;1.000000;1.000000;,
  37;1.000000;1.000000;1.000000;1.000000;,
  38;1.000000;1.000000;1.000000;1.000000;,
  39;1.000000;1.000000;1.000000;1.000000;,
  40;1.000000;1.000000;1.000000;1.000000;,
  41;1.000000;1.000000;1.000000;1.000000;,
  42;1.000000;1.000000;1.000000;1.000000;,
  43;1.000000;1.000000;1.000000;1.000000;,
  44;1.000000;1.000000;1.000000;1.000000;,
  45;1.000000;1.000000;1.000000;1.000000;,
  46;1.000000;1.000000;1.000000;1.000000;,
  47;1.000000;1.000000;1.000000;1.000000;,
  48;1.000000;1.000000;1.000000;1.000000;,
  49;1.000000;1.000000;1.000000;1.000000;,
  50;1.000000;1.000000;1.000000;1.000000;,
  51;1.000000;1.000000;1.000000;1.000000;,
  52;1.000000;1.000000;1.000000;1.000000;,
  53;1.000000;1.000000;1.000000;1.000000;,
  54;1.000000;1.000000;1.000000;1.000000;,
  55;1.000000;1.000000;1.000000;1.000000;,
  56;1.000000;1.000000;1.000000;1.000000;,
  57;1.000000;1.000000;1.000000;1.000000;,
  58;1.000000;1.000000;1.000000;1.000000;,
  59;1.000000;1.000000;1.000000;1.000000;,
  60;1.000000;1.000000;1.000000;1.000000;,
  61;1.000000;1.000000;1.000000;1.000000;,
  62;1.000000;1.000000;1.000000;1.000000;,
  63;1.000000;1.000000;1.000000;1.000000;,
  64;1.000000;1.000000;1.000000;1.000000;,
  65;1.000000;1.000000;1.000000;1.000000;,
  66;1.000000;1.000000;1.000000;1.000000;,
  67;1.000000;1.000000;1.000000;1.000000;,
  68;1.000000;1.000000;1.000000;1.000000;,
  69;1.000000;1.000000;1.000000;1.000000;,
  70;1.000000;1.000000;1.000000;1.000000;,
  71;1.000000;1.000000;1.000000;1.000000;,
  72;1.000000;1.000000;1.000000;1.000000;,
  73;1.000000;1.000000;1.000000;1.000000;,
  74;1.000000;1.000000;1.000000;1.000000;,
  75;1.000000;1.000000;1.000000;1.000000;,
  76;1.000000;1.000000;1.000000;1.000000;,
  77;1.000000;1.000000;1.000000;1.000000;,
  78;1.000000;1.000000;1.000000;1.000000;,
  79;1.000000;1.000000;1.000000;1.000000;,
  80;1.000000;1.000000;1.000000;1.000000;,
  81;1.000000;1.000000;1.000000;1.000000;,
  82;1.000000;1.000000;1.000000;1.000000;,
  83;1.000000;1.000000;1.000000;1.000000;,
  84;1.000000;1.000000;1.000000;1.000000;,
  85;1.000000;1.000000;1.000000;1.000000;,
  86;1.000000;1.000000;1.000000;1.000000;,
  87;1.000000;1.000000;1.000000;1.000000;,
  88;1.000000;1.000000;1.000000;1.000000;,
  89;1.000000;1.000000;1.000000;1.000000;,
  90;1.000000;1.000000;1.000000;1.000000;,
  91;1.000000;1.000000;1.000000;1.000000;,
  92;1.000000;1.000000;1.000000;1.000000;,
  93;1.000000;1.000000;1.000000;1.000000;,
  94;1.000000;1.000000;1.000000;1.000000;,
  95;1.000000;1.000000;1.000000;1.000000;,
  96;1.000000;1.000000;1.000000;1.000000;,
  97;1.000000;1.000000;1.000000;1.000000;,
  98;1.000000;1.000000;1.000000;1.000000;,
  99;1.000000;1.000000;1.000000;1.000000;,
  100;1.000000;1.000000;1.000000;1.000000;,
  101;1.000000;1.000000;1.000000;1.000000;,
  102;1.000000;1.000000;1.000000;1.000000;,
  103;1.000000;1.000000;1.000000;1.000000;,
  104;1.000000;1.000000;1.000000;1.000000;,
  105;1.000000;1.000000;1.000000;1.000000;,
  106;1.000000;1.000000;1.000000;1.000000;,
  107;1.000000;1.000000;1.000000;1.000000;,
  108;1.000000;1.000000;1.000000;1.000000;,
  109;1.000000;1.000000;1.000000;1.000000;,
  110;1.000000;1.000000;1.000000;1.000000;,
  111;1.000000;1.000000;1.000000;1.000000;,
  112;1.000000;1.000000;1.000000;1.000000;,
  113;1.000000;1.000000;1.000000;1.000000;,
  114;1.000000;1.000000;1.000000;1.000000;,
  115;1.000000;1.000000;1.000000;1.000000;,
  116;1.000000;1.000000;1.000000;1.000000;,
  117;1.000000;1.000000;1.000000;1.000000;,
  118;1.000000;1.000000;1.000000;1.000000;,
  119;1.000000;1.000000;1.000000;1.000000;,
  120;1.000000;1.000000;1.000000;1.000000;,
  121;1.000000;1.000000;1.000000;1.000000;,
  122;1.000000;1.000000;1.000000;1.000000;,
  123;1.000000;1.000000;1.000000;1.000000;,
  124;1.000000;1.000000;1.000000;1.000000;,
  125;1.000000;1.000000;1.000000;1.000000;,
  126;1.000000;1.000000;1.000000;1.000000;,
  127;1.000000;1.000000;1.000000;1.000000;,
  128;1.000000;1.000000;1.000000;1.000000;,
  129;1.000000;1.000000;1.000000;1.000000;,
  130;1.000000;1.000000;1.000000;1.000000;,
  131;1.000000;1.000000;1.000000;1.000000;,
  132;1.000000;1.000000;1.000000;1.000000;,
  133;1.000000;1.000000;1.000000;1.000000;,
  134;1.000000;1.000000;1.000000;1.000000;,
  135;1.000000;1.000000;1.000000;1.000000;,
  136;1.000000;1.000000;1.000000;1.000000;,
  137;1.000000;1.000000;1.000000;1.000000;,
  138;1.000000;1.000000;1.000000;1.000000;,
  139;1.000000;1.000000;1.000000;1.000000;,
  140;1.000000;1.000000;1.000000;1.000000;,
  141;1.000000;1.000000;1.000000;1.000000;,
  142;1.000000;1.000000;1.000000;1.000000;,
  143;1.000000;1.000000;1.000000;1.000000;,
  144;1.000000;1.000000;1.000000;1.000000;,
  145;1.000000;1.000000;1.000000;1.000000;,
  146;1.000000;1.000000;1.000000;1.000000;,
  147;1.000000;1.000000;1.000000;1.000000;,
  148;1.000000;1.000000;1.000000;1.000000;,
  149;1.000000;1.000000;1.000000;1.000000;,
  150;1.000000;1.000000;1.000000;1.000000;,
  151;1.000000;1.000000;1.000000;1.000000;,
  152;1.000000;1.000000;1.000000;1.000000;,
  153;1.000000;1.000000;1.000000;1.000000;,
  154;1.000000;1.000000;1.000000;1.000000;,
  155;1.000000;1.000000;1.000000;1.000000;,
  156;1.000000;1.000000;1.000000;1.000000;,
  157;1.000000;1.000000;1.000000;1.000000;,
  158;1.000000;1.000000;1.000000;1.000000;,
  159;1.000000;1.000000;1.000000;1.000000;,
  160;1.000000;1.000000;1.000000;1.000000;,
  161;1.000000;1.000000;1.000000;1.000000;,
  162;1.000000;1.000000;1.000000;1.000000;,
  163;1.000000;1.000000;1.000000;1.000000;,
  164;1.000000;1.000000;1.000000;1.000000;,
  165;1.000000;1.000000;1.000000;1.000000;,
  166;1.000000;1.000000;1.000000;1.000000;,
  167;1.000000;1.000000;1.000000;1.000000;,
  168;1.000000;1.000000;1.000000;1.000000;,
  169;1.000000;1.000000;1.000000;1.000000;,
  170;1.000000;1.000000;1.000000;1.000000;,
  171;1.000000;1.000000;1.000000;1.000000;,
  172;1.000000;1.000000;1.000000;1.000000;,
  173;1.000000;1.000000;1.000000;1.000000;,
  174;1.000000;1.000000;1.000000;1.000000;,
  175;1.000000;1.000000;1.000000;1.000000;,
  176;1.000000;1.000000;1.000000;1.000000;;
 }
}
