xof 0302txt 0064
template Header {
 <3D82AB43-62DA-11cf-AB39-0020AF71E433>
 WORD major;
 WORD minor;
 DWORD flags;
}

template Vector {
 <3D82AB5E-62DA-11cf-AB39-0020AF71E433>
 FLOAT x;
 FLOAT y;
 FLOAT z;
}

template Coords2d {
 <F6F23F44-7686-11cf-8F52-0040333594A3>
 FLOAT u;
 FLOAT v;
}

template Matrix4x4 {
 <F6F23F45-7686-11cf-8F52-0040333594A3>
 array FLOAT matrix[16];
}

template ColorRGBA {
 <35FF44E0-6C7C-11cf-8F52-0040333594A3>
 FLOAT red;
 FLOAT green;
 FLOAT blue;
 FLOAT alpha;
}

template ColorRGB {
 <D3E16E81-7835-11cf-8F52-0040333594A3>
 FLOAT red;
 FLOAT green;
 FLOAT blue;
}

template IndexedColor {
 <1630B820-7842-11cf-8F52-0040333594A3>
 DWORD index;
 ColorRGBA indexColor;
}

template Boolean {
 <4885AE61-78E8-11cf-8F52-0040333594A3>
 WORD truefalse;
}

template Boolean2d {
 <4885AE63-78E8-11cf-8F52-0040333594A3>
 Boolean u;
 Boolean v;
}

template MaterialWrap {
 <4885AE60-78E8-11cf-8F52-0040333594A3>
 Boolean u;
 Boolean v;
}

template TextureFilename {
 <A42790E1-7810-11cf-8F52-0040333594A3>
 STRING filename;
}

template Material {
 <3D82AB4D-62DA-11cf-AB39-0020AF71E433>
 ColorRGBA faceColor;
 FLOAT power;
 ColorRGB specularColor;
 ColorRGB emissiveColor;
 [...]
}

template MeshFace {
 <3D82AB5F-62DA-11cf-AB39-0020AF71E433>
 DWORD nFaceVertexIndices;
 array DWORD faceVertexIndices[nFaceVertexIndices];
}

template MeshFaceWraps {
 <4885AE62-78E8-11cf-8F52-0040333594A3>
 DWORD nFaceWrapValues;
 Boolean2d faceWrapValues;
}

template MeshTextureCoords {
 <F6F23F40-7686-11cf-8F52-0040333594A3>
 DWORD nTextureCoords;
 array Coords2d textureCoords[nTextureCoords];
}

template MeshMaterialList {
 <F6F23F42-7686-11cf-8F52-0040333594A3>
 DWORD nMaterials;
 DWORD nFaceIndexes;
 array DWORD faceIndexes[nFaceIndexes];
 [Material]
}

template MeshNormals {
 <F6F23F43-7686-11cf-8F52-0040333594A3>
 DWORD nNormals;
 array Vector normals[nNormals];
 DWORD nFaceNormals;
 array MeshFace faceNormals[nFaceNormals];
}

template MeshVertexColors {
 <1630B821-7842-11cf-8F52-0040333594A3>
 DWORD nVertexColors;
 array IndexedColor vertexColors[nVertexColors];
}

template Mesh {
 <3D82AB44-62DA-11cf-AB39-0020AF71E433>
 DWORD nVertices;
 array Vector vertices[nVertices];
 DWORD nFaces;
 array MeshFace faces[nFaces];
 [...]
}

Header{
1;
0;
1;
}

Mesh {
 138;
 -1.36021;2.79637;0.51431;,
 1.36021;2.79637;0.51431;,
 1.36021;2.79637;-0.51431;,
 -1.36021;2.79637;-0.51431;,
 -1.36021;2.22867;-0.64532;,
 1.36021;2.22867;-0.64532;,
 1.36021;-2.22867;-0.64532;,
 -1.36021;-2.22867;-0.64532;,
 -1.36021;-2.79637;-0.51431;,
 1.36021;-2.79637;-0.51431;,
 1.36021;-2.79637;0.51431;,
 -1.36021;-2.79637;0.51431;,
 -1.36021;-2.22867;0.64532;,
 1.36021;-2.22867;0.64532;,
 1.36021;2.22867;0.64532;,
 -1.36021;2.22867;0.64532;,
 1.70669;2.22867;0.51431;,
 1.70669;-2.22867;0.51431;,
 1.70669;-2.22867;-0.51431;,
 1.70669;2.22867;-0.51431;,
 -1.70669;-2.22867;0.51431;,
 -1.70669;2.22867;0.51431;,
 -1.70669;2.22867;-0.51431;,
 -1.70669;-2.22867;-0.51431;,
 -1.36021;2.79637;-0.51431;,
 1.36021;2.79637;-0.51431;,
 1.36021;2.75316;-0.56444;,
 -1.36021;2.75316;-0.56444;,
 1.36021;2.63010;-0.60695;,
 -1.36021;2.63010;-0.60695;,
 1.36021;2.44592;-0.63534;,
 -1.36021;2.44592;-0.63534;,
 1.36021;2.22867;-0.64532;,
 -1.36021;-2.75316;-0.56444;,
 1.36021;-2.75316;-0.56444;,
 1.36021;-2.79637;-0.51431;,
 -1.36021;-2.63010;-0.60695;,
 1.36021;-2.63010;-0.60695;,
 -1.36021;-2.44592;-0.63534;,
 1.36021;-2.44592;-0.63534;,
 -1.36021;-2.22867;-0.64532;,
 1.36021;-2.22867;-0.64532;,
 -1.36021;2.75316;0.56444;,
 1.36021;2.75316;0.56444;,
 1.36021;2.79637;0.51431;,
 -1.36021;2.63010;0.60695;,
 1.36021;2.63010;0.60695;,
 -1.36021;2.44592;0.63534;,
 1.36021;2.44592;0.63534;,
 -1.36021;2.22867;0.64532;,
 1.36021;2.22867;0.64532;,
 -1.36021;-2.79637;0.51431;,
 1.36021;-2.79637;0.51431;,
 1.36021;-2.75316;0.56444;,
 -1.36021;-2.75316;0.56444;,
 1.36021;-2.63010;0.60695;,
 -1.36021;-2.63010;0.60695;,
 1.36021;-2.44592;0.63534;,
 -1.36021;-2.44592;0.63534;,
 1.36021;-2.22867;0.64532;,
 1.49280;2.75316;0.51431;,
 1.49280;2.75316;-0.51431;,
 1.60521;2.63010;0.51431;,
 1.60521;2.63010;-0.51431;,
 1.68032;2.44592;0.51431;,
 1.68032;2.44592;-0.51431;,
 1.70669;2.22867;-0.51431;,
 1.49280;-2.75316;-0.51431;,
 1.49280;-2.75316;0.51431;,
 1.60521;-2.63010;-0.51431;,
 1.60521;-2.63010;0.51431;,
 1.68032;-2.44592;-0.51431;,
 1.68032;-2.44592;0.51431;,
 1.70669;-2.22867;-0.51431;,
 1.70669;-2.22867;0.51431;,
 -1.49280;2.75316;-0.51431;,
 -1.49280;2.75316;0.51431;,
 -1.60521;2.63010;-0.51431;,
 -1.60521;2.63010;0.51431;,
 -1.68032;2.44592;-0.51431;,
 -1.68032;2.44592;0.51431;,
 -1.70669;2.22867;-0.51431;,
 -1.70669;2.22867;0.51431;,
 -1.49280;-2.75316;0.51431;,
 -1.49280;-2.75316;-0.51431;,
 -1.60521;-2.63010;0.51431;,
 -1.60521;-2.63010;-0.51431;,
 -1.68032;-2.44592;0.51431;,
 -1.68032;-2.44592;-0.51431;,
 -1.70669;-2.22867;-0.51431;,
 1.49280;2.22867;-0.63534;,
 1.49280;-2.22867;-0.63534;,
 1.60521;2.22867;-0.60695;,
 1.60521;-2.22867;-0.60695;,
 1.68032;2.22867;-0.56444;,
 1.68032;-2.22867;-0.56444;,
 1.49280;-2.22867;0.63534;,
 1.49280;2.22867;0.63534;,
 1.60521;-2.22867;0.60695;,
 1.60521;2.22867;0.60695;,
 1.68032;-2.22867;0.56444;,
 1.68032;2.22867;0.56444;,
 -1.49280;-2.22867;-0.63534;,
 -1.49280;2.22867;-0.63534;,
 -1.60521;-2.22867;-0.60695;,
 -1.60521;2.22867;-0.60695;,
 -1.68032;-2.22867;-0.56444;,
 -1.68032;2.22867;-0.56444;,
 -1.49280;2.22867;0.63534;,
 -1.49280;-2.22867;0.63534;,
 -1.60521;2.22867;0.60695;,
 -1.60521;-2.22867;0.60695;,
 -1.68032;2.22867;0.56444;,
 -1.68032;-2.22867;0.56444;,
 1.53345;2.63010;-0.57981;,
 1.63743;2.44592;-0.57483;,
 1.52026;2.44592;-0.61913;,
 -1.53345;2.63010;-0.57981;,
 -1.63743;2.44592;-0.57483;,
 -1.52026;2.44592;-0.61913;,
 1.53345;-2.63010;-0.57981;,
 1.63743;-2.44592;-0.57483;,
 1.52026;-2.44592;-0.61913;,
 1.53345;2.63010;0.57981;,
 1.63743;2.44592;0.57483;,
 1.52026;2.44592;0.61913;,
 -1.53345;-2.63010;-0.57981;,
 -1.63743;-2.44592;-0.57483;,
 -1.52026;-2.44592;-0.61913;,
 1.53345;-2.63010;0.57981;,
 1.63743;-2.44592;0.57483;,
 1.52026;-2.44592;0.61913;,
 -1.53345;2.63010;0.57981;,
 -1.63743;2.44592;0.57483;,
 -1.52026;2.44592;0.61913;,
 -1.53345;-2.63010;0.57981;,
 -1.63743;-2.44592;0.57483;,
 -1.52026;-2.44592;0.61913;;
 
 182;
 4;0,1,2,3;,
 4;4,5,6,7;,
 4;8,9,10,11;,
 4;12,13,14,15;,
 4;16,17,18,19;,
 4;20,21,22,23;,
 4;24,25,26,27;,
 4;27,26,28,29;,
 4;29,28,30,31;,
 4;31,30,32,4;,
 4;33,34,35,8;,
 4;36,37,34,33;,
 4;38,39,37,36;,
 4;40,41,39,38;,
 4;42,43,44,0;,
 4;45,46,43,42;,
 4;47,48,46,45;,
 4;49,50,48,47;,
 4;51,52,53,54;,
 4;54,53,55,56;,
 4;56,55,57,58;,
 4;58,57,59,12;,
 4;25,44,60,61;,
 4;61,60,62,63;,
 4;63,62,64,65;,
 4;65,64,16,66;,
 4;52,35,67,68;,
 4;68,67,69,70;,
 4;70,69,71,72;,
 4;72,71,73,74;,
 4;0,24,75,76;,
 4;76,75,77,78;,
 4;78,77,79,80;,
 4;80,79,81,82;,
 4;8,51,83,84;,
 4;84,83,85,86;,
 4;86,85,87,88;,
 4;88,87,20,89;,
 4;41,32,90,91;,
 4;91,90,92,93;,
 4;93,92,94,95;,
 4;95,94,66,73;,
 4;50,59,96,97;,
 4;97,96,98,99;,
 4;99,98,100,101;,
 4;101,100,74,16;,
 4;4,40,102,103;,
 4;103,102,104,105;,
 4;105,104,106,107;,
 4;107,106,89,81;,
 4;12,49,108,109;,
 4;109,108,110,111;,
 4;111,110,112,113;,
 4;113,112,82,20;,
 3;25,61,26;,
 3;61,63,114;,
 3;114,26,61;,
 3;26,114,28;,
 3;63,65,115;,
 3;115,114,63;,
 3;114,115,116;,
 3;116,28,114;,
 3;28,116,30;,
 3;65,66,94;,
 3;94,115,65;,
 3;115,94,92;,
 3;92,116,115;,
 3;116,92,90;,
 3;90,30,116;,
 3;30,90,32;,
 3;27,75,24;,
 3;117,77,75;,
 3;75,27,117;,
 3;29,117,27;,
 3;118,79,77;,
 3;77,117,118;,
 3;119,118,117;,
 3;117,29,119;,
 3;31,119,29;,
 3;107,81,79;,
 3;79,118,107;,
 3;105,107,118;,
 3;118,119,105;,
 3;103,105,119;,
 3;119,31,103;,
 3;4,103,31;,
 3;34,67,35;,
 3;120,69,67;,
 3;67,34,120;,
 3;37,120,34;,
 3;121,71,69;,
 3;69,120,121;,
 3;122,121,120;,
 3;120,37,122;,
 3;39,122,37;,
 3;95,73,71;,
 3;71,121,95;,
 3;93,95,121;,
 3;121,122,93;,
 3;91,93,122;,
 3;122,39,91;,
 3;41,91,39;,
 3;43,60,44;,
 3;123,62,60;,
 3;60,43,123;,
 3;46,123,43;,
 3;124,64,62;,
 3;62,123,124;,
 3;125,124,123;,
 3;123,46,125;,
 3;48,125,46;,
 3;101,16,64;,
 3;64,124,101;,
 3;99,101,124;,
 3;124,125,99;,
 3;97,99,125;,
 3;125,48,97;,
 3;50,97,48;,
 3;8,84,33;,
 3;84,86,126;,
 3;126,33,84;,
 3;33,126,36;,
 3;86,88,127;,
 3;127,126,86;,
 3;126,127,128;,
 3;128,36,126;,
 3;36,128,38;,
 3;88,89,106;,
 3;106,127,88;,
 3;127,106,104;,
 3;104,128,127;,
 3;128,104,102;,
 3;102,38,128;,
 3;38,102,40;,
 3;52,68,53;,
 3;68,70,129;,
 3;129,53,68;,
 3;53,129,55;,
 3;70,72,130;,
 3;130,129,70;,
 3;129,130,131;,
 3;131,55,129;,
 3;55,131,57;,
 3;72,74,100;,
 3;100,130,72;,
 3;130,100,98;,
 3;98,131,130;,
 3;131,98,96;,
 3;96,57,131;,
 3;57,96,59;,
 3;0,76,42;,
 3;76,78,132;,
 3;132,42,76;,
 3;42,132,45;,
 3;78,80,133;,
 3;133,132,78;,
 3;132,133,134;,
 3;134,45,132;,
 3;45,134,47;,
 3;80,82,112;,
 3;112,133,80;,
 3;133,112,110;,
 3;110,134,133;,
 3;134,110,108;,
 3;108,47,134;,
 3;47,108,49;,
 3;54,83,51;,
 3;135,85,83;,
 3;83,54,135;,
 3;56,135,54;,
 3;136,87,85;,
 3;85,135,136;,
 3;137,136,135;,
 3;135,56,137;,
 3;58,137,56;,
 3;113,20,87;,
 3;87,136,113;,
 3;111,113,136;,
 3;136,137,111;,
 3;109,111,137;,
 3;137,58,109;,
 3;12,109,58;;
 
 MeshMaterialList {
  1;
  182;
  0,
  0,
  0,
  0,
  0,
  0,
  0,
  0,
  0,
  0,
  0,
  0,
  0,
  0,
  0,
  0,
  0,
  0,
  0,
  0,
  0,
  0,
  0,
  0,
  0,
  0,
  0,
  0,
  0,
  0,
  0,
  0,
  0,
  0,
  0,
  0,
  0,
  0,
  0,
  0,
  0,
  0,
  0,
  0,
  0,
  0,
  0,
  0,
  0,
  0,
  0,
  0,
  0,
  0,
  0,
  0,
  0,
  0,
  0,
  0,
  0,
  0,
  0,
  0,
  0,
  0,
  0,
  0,
  0,
  0,
  0,
  0,
  0,
  0,
  0,
  0,
  0,
  0,
  0,
  0,
  0,
  0,
  0,
  0,
  0,
  0,
  0,
  0,
  0,
  0,
  0,
  0,
  0,
  0,
  0,
  0,
  0,
  0,
  0,
  0,
  0,
  0,
  0,
  0,
  0,
  0,
  0,
  0,
  0,
  0,
  0,
  0,
  0,
  0,
  0,
  0,
  0,
  0,
  0,
  0,
  0,
  0,
  0,
  0,
  0,
  0,
  0,
  0,
  0,
  0,
  0,
  0,
  0,
  0,
  0,
  0,
  0,
  0,
  0,
  0,
  0,
  0,
  0,
  0,
  0,
  0,
  0,
  0,
  0,
  0,
  0,
  0,
  0,
  0,
  0,
  0,
  0,
  0,
  0,
  0,
  0,
  0,
  0,
  0,
  0,
  0,
  0,
  0,
  0,
  0,
  0,
  0,
  0,
  0,
  0,
  0,
  0,
  0,
  0,
  0,
  0,
  0;;
  Material {
   0.800000;0.800000;0.800000;1.000000;;
   5.000000;
   0.000000;0.000000;0.000000;;
   0.000000;0.000000;0.000000;;
   TextureFilename {
    "Data\\Graphics\\XFileTexture\\hibi.png";
   }
  }
 }
 MeshNormals {
  120;
  -0.147849;0.926442;0.346186;,
  0.147849;0.926442;0.346186;,
  -0.147849;0.926442;-0.346186;,
  0.147849;0.926442;-0.346186;,
  -0.037513;0.022915;-0.999033;,
  0.037513;0.022915;-0.999033;,
  -0.037513;-0.022915;-0.999033;,
  0.037513;-0.022915;-0.999033;,
  -0.147849;-0.926442;-0.346186;,
  0.147849;-0.926442;-0.346186;,
  -0.147849;-0.926442;0.346186;,
  0.147849;-0.926442;0.346186;,
  -0.037513;-0.022915;0.999033;,
  0.037513;-0.022915;0.999033;,
  -0.037513;0.022915;0.999033;,
  0.037513;0.022915;0.999033;,
  0.969136;0.058629;0.239453;,
  0.969136;-0.058629;0.239453;,
  0.969136;0.058629;-0.239453;,
  0.969136;-0.058629;-0.239453;,
  -0.969136;-0.058629;0.239453;,
  -0.969136;0.058629;0.239453;,
  -0.969136;-0.058629;-0.239453;,
  -0.969136;0.058629;-0.239453;,
  -0.142435;0.552385;-0.821330;,
  0.142435;0.552385;-0.821330;,
  -0.080011;0.231177;-0.969616;,
  0.080011;0.231177;-0.969616;,
  -0.055158;0.091612;-0.994266;,
  0.055158;0.091612;-0.994266;,
  -0.142435;-0.552385;-0.821330;,
  0.142435;-0.552385;-0.821330;,
  -0.080011;-0.231177;-0.969616;,
  0.080011;-0.231177;-0.969616;,
  -0.055158;-0.091612;-0.994266;,
  0.055158;-0.091612;-0.994266;,
  -0.142435;0.552385;0.821330;,
  0.142435;0.552385;0.821330;,
  -0.080011;0.231177;0.969616;,
  0.080011;0.231177;0.969616;,
  -0.055158;0.091612;0.994266;,
  0.055158;0.091612;0.994266;,
  -0.142435;-0.552385;0.821330;,
  0.142435;-0.552385;0.821330;,
  -0.080011;-0.231177;0.969616;,
  0.080011;-0.231177;0.969616;,
  -0.055158;-0.091612;0.994266;,
  0.055158;-0.091612;0.994266;,
  0.477316;0.752097;0.454443;,
  0.477316;0.752097;-0.454443;,
  0.781348;0.478092;0.401154;,
  0.781348;0.478092;-0.401154;,
  0.917256;0.220425;0.331745;,
  0.917256;0.220425;-0.331745;,
  0.477316;-0.752097;0.454443;,
  0.477316;-0.752097;-0.454443;,
  0.781348;-0.478092;0.401154;,
  0.781348;-0.478092;-0.401154;,
  0.917256;-0.220425;0.331745;,
  0.917256;-0.220425;-0.331745;,
  -0.477316;0.752097;0.454443;,
  -0.477316;0.752097;-0.454443;,
  -0.781348;0.478092;0.401154;,
  -0.781348;0.478092;-0.401154;,
  -0.917256;0.220425;0.331745;,
  -0.917256;0.220425;-0.331745;,
  -0.477316;-0.752097;0.454443;,
  -0.477316;-0.752097;-0.454443;,
  -0.781348;-0.478092;0.401154;,
  -0.781348;-0.478092;-0.401154;,
  -0.917256;-0.220425;0.331745;,
  -0.917256;-0.220425;-0.331745;,
  0.148569;-0.029804;-0.988453;,
  0.148569;0.029804;-0.988453;,
  0.368100;-0.036769;-0.929059;,
  0.368100;0.036769;-0.929059;,
  0.737899;-0.061103;-0.672140;,
  0.737899;0.061103;-0.672140;,
  0.148569;-0.029804;0.988453;,
  0.148569;0.029804;0.988453;,
  0.368100;-0.036769;0.929059;,
  0.368100;0.036769;0.929059;,
  0.737899;-0.061103;0.672140;,
  0.737899;0.061103;0.672140;,
  -0.148569;-0.029804;-0.988453;,
  -0.148569;0.029804;-0.988453;,
  -0.368100;-0.036769;-0.929059;,
  -0.368100;0.036769;-0.929059;,
  -0.737899;-0.061103;-0.672140;,
  -0.737899;0.061103;-0.672140;,
  -0.148569;-0.029804;0.988453;,
  -0.148569;0.029804;0.988453;,
  -0.368100;-0.036769;0.929059;,
  -0.368100;0.036769;0.929059;,
  -0.737899;-0.061103;0.672140;,
  -0.737899;0.061103;0.672140;,
  0.372932;0.359401;-0.855425;,
  0.589647;0.190235;-0.784938;,
  0.217934;0.118854;-0.968699;,
  -0.372932;0.359401;-0.855425;,
  -0.589647;0.190235;-0.784938;,
  -0.217934;0.118854;-0.968699;,
  0.372932;-0.359401;-0.855425;,
  0.589647;-0.190235;-0.784938;,
  0.217934;-0.118854;-0.968699;,
  0.372932;0.359401;0.855425;,
  0.589647;0.190235;0.784938;,
  0.217934;0.118854;0.968699;,
  -0.372932;-0.359401;-0.855425;,
  -0.589647;-0.190235;-0.784938;,
  -0.217934;-0.118854;-0.968699;,
  0.372932;-0.359401;0.855425;,
  0.589647;-0.190235;0.784938;,
  0.217934;-0.118854;0.968699;,
  -0.372932;0.359401;0.855425;,
  -0.589647;0.190235;0.784938;,
  -0.217934;0.118854;0.968699;,
  -0.372932;-0.359401;0.855425;,
  -0.589647;-0.190235;0.784938;,
  -0.217934;-0.118854;0.968699;;
  182;
  4;0,1,3,2;,
  4;4,5,7,6;,
  4;8,9,11,10;,
  4;12,13,15,14;,
  4;16,17,19,18;,
  4;20,21,23,22;,
  4;2,3,25,24;,
  4;24,25,27,26;,
  4;26,27,29,28;,
  4;28,29,5,4;,
  4;30,31,9,8;,
  4;32,33,31,30;,
  4;34,35,33,32;,
  4;6,7,35,34;,
  4;36,37,1,0;,
  4;38,39,37,36;,
  4;40,41,39,38;,
  4;14,15,41,40;,
  4;10,11,43,42;,
  4;42,43,45,44;,
  4;44,45,47,46;,
  4;46,47,13,12;,
  4;3,1,48,49;,
  4;49,48,50,51;,
  4;51,50,52,53;,
  4;53,52,16,18;,
  4;11,9,55,54;,
  4;54,55,57,56;,
  4;56,57,59,58;,
  4;58,59,19,17;,
  4;0,2,61,60;,
  4;60,61,63,62;,
  4;62,63,65,64;,
  4;64,65,23,21;,
  4;8,10,66,67;,
  4;67,66,68,69;,
  4;69,68,70,71;,
  4;71,70,20,22;,
  4;7,5,73,72;,
  4;72,73,75,74;,
  4;74,75,77,76;,
  4;76,77,18,19;,
  4;15,13,78,79;,
  4;79,78,80,81;,
  4;81,80,82,83;,
  4;83,82,17,16;,
  4;4,6,84,85;,
  4;85,84,86,87;,
  4;87,86,88,89;,
  4;89,88,22,23;,
  4;12,14,91,90;,
  4;90,91,93,92;,
  4;92,93,95,94;,
  4;94,95,21,20;,
  3;3,49,25;,
  3;49,51,96;,
  3;96,25,49;,
  3;25,96,27;,
  3;51,53,97;,
  3;97,96,51;,
  3;96,97,98;,
  3;98,27,96;,
  3;27,98,29;,
  3;53,18,77;,
  3;77,97,53;,
  3;97,77,75;,
  3;75,98,97;,
  3;98,75,73;,
  3;73,29,98;,
  3;29,73,5;,
  3;24,61,2;,
  3;99,63,61;,
  3;61,24,99;,
  3;26,99,24;,
  3;100,65,63;,
  3;63,99,100;,
  3;101,100,99;,
  3;99,26,101;,
  3;28,101,26;,
  3;89,23,65;,
  3;65,100,89;,
  3;87,89,100;,
  3;100,101,87;,
  3;85,87,101;,
  3;101,28,85;,
  3;4,85,28;,
  3;31,55,9;,
  3;102,57,55;,
  3;55,31,102;,
  3;33,102,31;,
  3;103,59,57;,
  3;57,102,103;,
  3;104,103,102;,
  3;102,33,104;,
  3;35,104,33;,
  3;76,19,59;,
  3;59,103,76;,
  3;74,76,103;,
  3;103,104,74;,
  3;72,74,104;,
  3;104,35,72;,
  3;7,72,35;,
  3;37,48,1;,
  3;105,50,48;,
  3;48,37,105;,
  3;39,105,37;,
  3;106,52,50;,
  3;50,105,106;,
  3;107,106,105;,
  3;105,39,107;,
  3;41,107,39;,
  3;83,16,52;,
  3;52,106,83;,
  3;81,83,106;,
  3;106,107,81;,
  3;79,81,107;,
  3;107,41,79;,
  3;15,79,41;,
  3;8,67,30;,
  3;67,69,108;,
  3;108,30,67;,
  3;30,108,32;,
  3;69,71,109;,
  3;109,108,69;,
  3;108,109,110;,
  3;110,32,108;,
  3;32,110,34;,
  3;71,22,88;,
  3;88,109,71;,
  3;109,88,86;,
  3;86,110,109;,
  3;110,86,84;,
  3;84,34,110;,
  3;34,84,6;,
  3;11,54,43;,
  3;54,56,111;,
  3;111,43,54;,
  3;43,111,45;,
  3;56,58,112;,
  3;112,111,56;,
  3;111,112,113;,
  3;113,45,111;,
  3;45,113,47;,
  3;58,17,82;,
  3;82,112,58;,
  3;112,82,80;,
  3;80,113,112;,
  3;113,80,78;,
  3;78,47,113;,
  3;47,78,13;,
  3;0,60,36;,
  3;60,62,114;,
  3;114,36,60;,
  3;36,114,38;,
  3;62,64,115;,
  3;115,114,62;,
  3;114,115,116;,
  3;116,38,114;,
  3;38,116,40;,
  3;64,21,95;,
  3;95,115,64;,
  3;115,95,93;,
  3;93,116,115;,
  3;116,93,91;,
  3;91,40,116;,
  3;40,91,14;,
  3;42,66,10;,
  3;117,68,66;,
  3;66,42,117;,
  3;44,117,42;,
  3;118,70,68;,
  3;68,117,118;,
  3;119,118,117;,
  3;117,44,119;,
  3;46,119,44;,
  3;94,20,70;,
  3;70,118,94;,
  3;92,94,118;,
  3;118,119,92;,
  3;90,92,119;,
  3;119,46,90;,
  3;12,90,46;;
 }
 MeshTextureCoords {
  138;
  0.000000;0.000000;,
  1.000000;0.000000;,
  1.000000;1.000000;,
  0.000000;1.000000;,
  0.000000;0.000000;,
  1.000000;0.000000;,
  1.000000;1.000000;,
  0.000000;1.000000;,
  0.000000;0.000000;,
  1.000000;0.000000;,
  1.000000;1.000000;,
  0.000000;1.000000;,
  0.000000;0.000000;,
  1.000000;0.000000;,
  1.000000;1.000000;,
  0.000000;1.000000;,
  0.000000;0.000000;,
  1.000000;0.000000;,
  1.000000;1.000000;,
  0.000000;1.000000;,
  0.000000;0.000000;,
  1.000000;0.000000;,
  1.000000;1.000000;,
  0.000000;1.000000;,
  0.000000;0.000000;,
  0.000000;0.000000;,
  0.000000;0.000000;,
  0.000000;0.000000;,
  0.000000;0.000000;,
  0.000000;0.000000;,
  0.000000;0.000000;,
  0.000000;0.000000;,
  0.000000;0.000000;,
  0.000000;0.000000;,
  0.000000;0.000000;,
  0.000000;0.000000;,
  0.000000;0.000000;,
  0.000000;0.000000;,
  0.000000;0.000000;,
  0.000000;0.000000;,
  0.000000;0.000000;,
  0.000000;0.000000;,
  0.000000;0.000000;,
  0.000000;0.000000;,
  0.000000;0.000000;,
  0.000000;0.000000;,
  0.000000;0.000000;,
  0.000000;0.000000;,
  0.000000;0.000000;,
  0.000000;0.000000;,
  0.000000;0.000000;,
  0.000000;0.000000;,
  0.000000;0.000000;,
  0.000000;0.000000;,
  0.000000;0.000000;,
  0.000000;0.000000;,
  0.000000;0.000000;,
  0.000000;0.000000;,
  0.000000;0.000000;,
  0.000000;0.000000;,
  0.000000;0.000000;,
  0.000000;0.000000;,
  0.000000;0.000000;,
  0.000000;0.000000;,
  0.000000;0.000000;,
  0.000000;0.000000;,
  0.000000;0.000000;,
  0.000000;0.000000;,
  0.000000;0.000000;,
  0.000000;0.000000;,
  0.000000;0.000000;,
  0.000000;0.000000;,
  0.000000;0.000000;,
  0.000000;0.000000;,
  0.000000;0.000000;,
  0.000000;0.000000;,
  0.000000;0.000000;,
  0.000000;0.000000;,
  0.000000;0.000000;,
  0.000000;0.000000;,
  0.000000;0.000000;,
  0.000000;0.000000;,
  0.000000;0.000000;,
  0.000000;0.000000;,
  0.000000;0.000000;,
  0.000000;0.000000;,
  0.000000;0.000000;,
  0.000000;0.000000;,
  0.000000;0.000000;,
  0.000000;0.000000;,
  0.000000;0.000000;,
  0.000000;0.000000;,
  0.000000;0.000000;,
  0.000000;0.000000;,
  0.000000;0.000000;,
  0.000000;0.000000;,
  0.000000;0.000000;,
  0.000000;0.000000;,
  0.000000;0.000000;,
  0.000000;0.000000;,
  0.000000;0.000000;,
  0.000000;0.000000;,
  0.000000;0.000000;,
  0.000000;0.000000;,
  0.000000;0.000000;,
  0.000000;0.000000;,
  0.000000;0.000000;,
  0.000000;0.000000;,
  0.000000;0.000000;,
  0.000000;0.000000;,
  0.000000;0.000000;,
  0.000000;0.000000;,
  0.000000;0.000000;,
  0.000000;0.000000;,
  0.000000;0.000000;,
  0.000000;0.000000;,
  0.000000;0.000000;,
  0.000000;0.000000;,
  0.000000;0.000000;,
  0.000000;0.000000;,
  0.000000;0.000000;,
  0.000000;0.000000;,
  0.000000;0.000000;,
  0.000000;0.000000;,
  0.000000;0.000000;,
  0.000000;0.000000;,
  0.000000;0.000000;,
  0.000000;0.000000;,
  0.000000;0.000000;,
  0.000000;0.000000;,
  0.000000;0.000000;,
  0.000000;0.000000;,
  0.000000;0.000000;,
  0.000000;0.000000;,
  0.000000;0.000000;,
  0.000000;0.000000;,
  0.000000;0.000000;,
  0.000000;0.000000;;
 }
 MeshVertexColors {
  138;
  0;1.000000;1.000000;1.000000;1.000000;,
  1;1.000000;1.000000;1.000000;1.000000;,
  2;1.000000;1.000000;1.000000;1.000000;,
  3;1.000000;1.000000;1.000000;1.000000;,
  4;1.000000;1.000000;1.000000;1.000000;,
  5;1.000000;1.000000;1.000000;1.000000;,
  6;1.000000;1.000000;1.000000;1.000000;,
  7;1.000000;1.000000;1.000000;1.000000;,
  8;1.000000;1.000000;1.000000;1.000000;,
  9;1.000000;1.000000;1.000000;1.000000;,
  10;1.000000;1.000000;1.000000;1.000000;,
  11;1.000000;1.000000;1.000000;1.000000;,
  12;1.000000;1.000000;1.000000;1.000000;,
  13;1.000000;1.000000;1.000000;1.000000;,
  14;1.000000;1.000000;1.000000;1.000000;,
  15;1.000000;1.000000;1.000000;1.000000;,
  16;1.000000;1.000000;1.000000;1.000000;,
  17;1.000000;1.000000;1.000000;1.000000;,
  18;1.000000;1.000000;1.000000;1.000000;,
  19;1.000000;1.000000;1.000000;1.000000;,
  20;1.000000;1.000000;1.000000;1.000000;,
  21;1.000000;1.000000;1.000000;1.000000;,
  22;1.000000;1.000000;1.000000;1.000000;,
  23;1.000000;1.000000;1.000000;1.000000;,
  24;1.000000;1.000000;1.000000;1.000000;,
  25;1.000000;1.000000;1.000000;1.000000;,
  26;1.000000;1.000000;1.000000;1.000000;,
  27;1.000000;1.000000;1.000000;1.000000;,
  28;1.000000;1.000000;1.000000;1.000000;,
  29;1.000000;1.000000;1.000000;1.000000;,
  30;1.000000;1.000000;1.000000;1.000000;,
  31;1.000000;1.000000;1.000000;1.000000;,
  32;1.000000;1.000000;1.000000;1.000000;,
  33;1.000000;1.000000;1.000000;1.000000;,
  34;1.000000;1.000000;1.000000;1.000000;,
  35;1.000000;1.000000;1.000000;1.000000;,
  36;1.000000;1.000000;1.000000;1.000000;,
  37;1.000000;1.000000;1.000000;1.000000;,
  38;1.000000;1.000000;1.000000;1.000000;,
  39;1.000000;1.000000;1.000000;1.000000;,
  40;1.000000;1.000000;1.000000;1.000000;,
  41;1.000000;1.000000;1.000000;1.000000;,
  42;1.000000;1.000000;1.000000;1.000000;,
  43;1.000000;1.000000;1.000000;1.000000;,
  44;1.000000;1.000000;1.000000;1.000000;,
  45;1.000000;1.000000;1.000000;1.000000;,
  46;1.000000;1.000000;1.000000;1.000000;,
  47;1.000000;1.000000;1.000000;1.000000;,
  48;1.000000;1.000000;1.000000;1.000000;,
  49;1.000000;1.000000;1.000000;1.000000;,
  50;1.000000;1.000000;1.000000;1.000000;,
  51;1.000000;1.000000;1.000000;1.000000;,
  52;1.000000;1.000000;1.000000;1.000000;,
  53;1.000000;1.000000;1.000000;1.000000;,
  54;1.000000;1.000000;1.000000;1.000000;,
  55;1.000000;1.000000;1.000000;1.000000;,
  56;1.000000;1.000000;1.000000;1.000000;,
  57;1.000000;1.000000;1.000000;1.000000;,
  58;1.000000;1.000000;1.000000;1.000000;,
  59;1.000000;1.000000;1.000000;1.000000;,
  60;1.000000;1.000000;1.000000;1.000000;,
  61;1.000000;1.000000;1.000000;1.000000;,
  62;1.000000;1.000000;1.000000;1.000000;,
  63;1.000000;1.000000;1.000000;1.000000;,
  64;1.000000;1.000000;1.000000;1.000000;,
  65;1.000000;1.000000;1.000000;1.000000;,
  66;1.000000;1.000000;1.000000;1.000000;,
  67;1.000000;1.000000;1.000000;1.000000;,
  68;1.000000;1.000000;1.000000;1.000000;,
  69;1.000000;1.000000;1.000000;1.000000;,
  70;1.000000;1.000000;1.000000;1.000000;,
  71;1.000000;1.000000;1.000000;1.000000;,
  72;1.000000;1.000000;1.000000;1.000000;,
  73;1.000000;1.000000;1.000000;1.000000;,
  74;1.000000;1.000000;1.000000;1.000000;,
  75;1.000000;1.000000;1.000000;1.000000;,
  76;1.000000;1.000000;1.000000;1.000000;,
  77;1.000000;1.000000;1.000000;1.000000;,
  78;1.000000;1.000000;1.000000;1.000000;,
  79;1.000000;1.000000;1.000000;1.000000;,
  80;1.000000;1.000000;1.000000;1.000000;,
  81;1.000000;1.000000;1.000000;1.000000;,
  82;1.000000;1.000000;1.000000;1.000000;,
  83;1.000000;1.000000;1.000000;1.000000;,
  84;1.000000;1.000000;1.000000;1.000000;,
  85;1.000000;1.000000;1.000000;1.000000;,
  86;1.000000;1.000000;1.000000;1.000000;,
  87;1.000000;1.000000;1.000000;1.000000;,
  88;1.000000;1.000000;1.000000;1.000000;,
  89;1.000000;1.000000;1.000000;1.000000;,
  90;1.000000;1.000000;1.000000;1.000000;,
  91;1.000000;1.000000;1.000000;1.000000;,
  92;1.000000;1.000000;1.000000;1.000000;,
  93;1.000000;1.000000;1.000000;1.000000;,
  94;1.000000;1.000000;1.000000;1.000000;,
  95;1.000000;1.000000;1.000000;1.000000;,
  96;1.000000;1.000000;1.000000;1.000000;,
  97;1.000000;1.000000;1.000000;1.000000;,
  98;1.000000;1.000000;1.000000;1.000000;,
  99;1.000000;1.000000;1.000000;1.000000;,
  100;1.000000;1.000000;1.000000;1.000000;,
  101;1.000000;1.000000;1.000000;1.000000;,
  102;1.000000;1.000000;1.000000;1.000000;,
  103;1.000000;1.000000;1.000000;1.000000;,
  104;1.000000;1.000000;1.000000;1.000000;,
  105;1.000000;1.000000;1.000000;1.000000;,
  106;1.000000;1.000000;1.000000;1.000000;,
  107;1.000000;1.000000;1.000000;1.000000;,
  108;1.000000;1.000000;1.000000;1.000000;,
  109;1.000000;1.000000;1.000000;1.000000;,
  110;1.000000;1.000000;1.000000;1.000000;,
  111;1.000000;1.000000;1.000000;1.000000;,
  112;1.000000;1.000000;1.000000;1.000000;,
  113;1.000000;1.000000;1.000000;1.000000;,
  114;1.000000;1.000000;1.000000;1.000000;,
  115;1.000000;1.000000;1.000000;1.000000;,
  116;1.000000;1.000000;1.000000;1.000000;,
  117;1.000000;1.000000;1.000000;1.000000;,
  118;1.000000;1.000000;1.000000;1.000000;,
  119;1.000000;1.000000;1.000000;1.000000;,
  120;1.000000;1.000000;1.000000;1.000000;,
  121;1.000000;1.000000;1.000000;1.000000;,
  122;1.000000;1.000000;1.000000;1.000000;,
  123;1.000000;1.000000;1.000000;1.000000;,
  124;1.000000;1.000000;1.000000;1.000000;,
  125;1.000000;1.000000;1.000000;1.000000;,
  126;1.000000;1.000000;1.000000;1.000000;,
  127;1.000000;1.000000;1.000000;1.000000;,
  128;1.000000;1.000000;1.000000;1.000000;,
  129;1.000000;1.000000;1.000000;1.000000;,
  130;1.000000;1.000000;1.000000;1.000000;,
  131;1.000000;1.000000;1.000000;1.000000;,
  132;1.000000;1.000000;1.000000;1.000000;,
  133;1.000000;1.000000;1.000000;1.000000;,
  134;1.000000;1.000000;1.000000;1.000000;,
  135;1.000000;1.000000;1.000000;1.000000;,
  136;1.000000;1.000000;1.000000;1.000000;,
  137;1.000000;1.000000;1.000000;1.000000;;
 }
}
