xof 0302txt 0064
template Header {
 <3D82AB43-62DA-11cf-AB39-0020AF71E433>
 WORD major;
 WORD minor;
 DWORD flags;
}

template Vector {
 <3D82AB5E-62DA-11cf-AB39-0020AF71E433>
 FLOAT x;
 FLOAT y;
 FLOAT z;
}

template Coords2d {
 <F6F23F44-7686-11cf-8F52-0040333594A3>
 FLOAT u;
 FLOAT v;
}

template Matrix4x4 {
 <F6F23F45-7686-11cf-8F52-0040333594A3>
 array FLOAT matrix[16];
}

template ColorRGBA {
 <35FF44E0-6C7C-11cf-8F52-0040333594A3>
 FLOAT red;
 FLOAT green;
 FLOAT blue;
 FLOAT alpha;
}

template ColorRGB {
 <D3E16E81-7835-11cf-8F52-0040333594A3>
 FLOAT red;
 FLOAT green;
 FLOAT blue;
}

template IndexedColor {
 <1630B820-7842-11cf-8F52-0040333594A3>
 DWORD index;
 ColorRGBA indexColor;
}

template Boolean {
 <4885AE61-78E8-11cf-8F52-0040333594A3>
 WORD truefalse;
}

template Boolean2d {
 <4885AE63-78E8-11cf-8F52-0040333594A3>
 Boolean u;
 Boolean v;
}

template MaterialWrap {
 <4885AE60-78E8-11cf-8F52-0040333594A3>
 Boolean u;
 Boolean v;
}

template TextureFilename {
 <A42790E1-7810-11cf-8F52-0040333594A3>
 STRING filename;
}

template Material {
 <3D82AB4D-62DA-11cf-AB39-0020AF71E433>
 ColorRGBA faceColor;
 FLOAT power;
 ColorRGB specularColor;
 ColorRGB emissiveColor;
 [...]
}

template MeshFace {
 <3D82AB5F-62DA-11cf-AB39-0020AF71E433>
 DWORD nFaceVertexIndices;
 array DWORD faceVertexIndices[nFaceVertexIndices];
}

template MeshFaceWraps {
 <4885AE62-78E8-11cf-8F52-0040333594A3>
 DWORD nFaceWrapValues;
 Boolean2d faceWrapValues;
}

template MeshTextureCoords {
 <F6F23F40-7686-11cf-8F52-0040333594A3>
 DWORD nTextureCoords;
 array Coords2d textureCoords[nTextureCoords];
}

template MeshMaterialList {
 <F6F23F42-7686-11cf-8F52-0040333594A3>
 DWORD nMaterials;
 DWORD nFaceIndexes;
 array DWORD faceIndexes[nFaceIndexes];
 [Material]
}

template MeshNormals {
 <F6F23F43-7686-11cf-8F52-0040333594A3>
 DWORD nNormals;
 array Vector normals[nNormals];
 DWORD nFaceNormals;
 array MeshFace faceNormals[nFaceNormals];
}

template MeshVertexColors {
 <1630B821-7842-11cf-8F52-0040333594A3>
 DWORD nVertexColors;
 array IndexedColor vertexColors[nVertexColors];
}

template Mesh {
 <3D82AB44-62DA-11cf-AB39-0020AF71E433>
 DWORD nVertices;
 array Vector vertices[nVertices];
 DWORD nFaces;
 array MeshFace faces[nFaces];
 [...]
}

Header{
1;
0;
1;
}

Mesh {
 435;
 -0.18316;-0.46511;0.15658;,
 -0.22565;-0.46285;0.07410;,
 -0.13557;-0.50074;0.07246;,
 -0.20672;-0.47886;-0.03743;,
 -0.07897;-0.50139;-0.00314;,
 -0.20620;-0.46310;-0.11584;,
 -0.12682;-0.47739;-0.15448;,
 -0.08900;-0.44312;-0.24458;,
 0.01957;-0.49433;-0.16246;,
 0.01145;-0.46386;-0.23484;,
 0.13263;-0.44349;-0.22614;,
 0.06171;-0.50501;-0.08930;,
 0.13384;-0.48879;-0.12051;,
 0.20259;-0.44331;-0.16740;,
 0.10526;-0.50420;-0.01757;,
 0.20454;-0.47487;-0.03372;,
 0.19846;-0.47588;0.07451;,
 0.12069;-0.49903;0.10336;,
 0.18378;-0.46583;0.15664;,
 0.09826;-0.48528;0.19052;,
 -0.00881;-0.50595;0.11388;,
 0.00151;-0.48466;0.21534;,
 -0.07962;-0.47884;0.19636;,
 -0.20098;-0.40436;0.24136;,
 -0.25756;-0.40424;0.18314;,
 -0.29393;-0.40355;0.10966;,
 -0.31252;-0.40341;0.00321;,
 -0.29260;-0.40362;-0.10229;,
 -0.23532;-0.40290;-0.19379;,
 -0.17573;-0.40243;-0.24985;,
 -0.11940;-0.35603;-0.33074;,
 0.02013;-0.41519;-0.29648;,
 0.11587;-0.38136;-0.31326;,
 0.11587;-0.38136;-0.31326;,
 0.21663;-0.38136;-0.25533;,
 0.13263;-0.44349;-0.22614;,
 0.21663;-0.38136;-0.25533;,
 0.27698;-0.38138;-0.19136;,
 0.29450;-0.40330;-0.10480;,
 0.31106;-0.40332;0.00154;,
 0.29901;-0.40342;0.08209;,
 0.26938;-0.40413;0.15831;,
 0.15841;-0.41629;0.27683;,
 0.22311;-0.40774;0.22565;,
 0.05709;-0.42022;0.31386;,
 -0.02391;-0.41317;0.31213;,
 -0.10416;-0.40586;0.29011;,
 -0.25504;-0.30422;0.30512;,
 -0.32684;-0.30407;0.23187;,
 -0.37266;-0.30377;0.13845;,
 -0.39576;-0.30351;0.00262;,
 -0.36868;-0.30348;-0.12953;,
 -0.29391;-0.30359;-0.24211;,
 -0.21957;-0.30359;-0.31449;,
 -0.13849;-0.27625;-0.38397;,
 0.00044;-0.30351;-0.39376;,
 0.13591;-0.30351;-0.36978;,
 0.25499;-0.30355;-0.30110;,
 0.32607;-0.30355;-0.22573;,
 0.37247;-0.30355;-0.13321;,
 0.39181;-0.30357;0.00072;,
 0.37402;-0.30357;0.10183;,
 0.33848;-0.30366;0.19876;,
 0.18311;-0.30916;0.35518;,
 0.28133;-0.30496;0.28347;,
 0.24625;-0.24979;0.35345;,
 0.07046;-0.30901;0.39106;,
 -0.06407;-0.30485;0.37944;,
 -0.16481;-0.30407;0.35229;,
 -0.32255;-0.18913;0.32521;,
 -0.37315;-0.18883;0.26450;,
 -0.41194;-0.18837;0.19528;,
 -0.45067;-0.18785;0.04231;,
 -0.43795;-0.18803;0.12043;,
 -0.44981;-0.18780;-0.03669;,
 -0.43503;-0.18782;-0.11371;,
 -0.40555;-0.18787;-0.18513;,
 -0.37768;-0.12593;-0.26120;,
 -0.35426;-0.21825;-0.24321;,
 -0.30355;-0.21836;-0.30123;,
 -0.32496;-0.12597;-0.32362;,
 -0.26480;-0.12601;-0.37888;,
 -0.24668;-0.21845;-0.35344;,
 -0.18886;-0.18810;-0.40630;,
 -0.11706;-0.18805;-0.43533;,
 -0.03966;-0.18794;-0.44857;,
 0.03945;-0.18785;-0.44765;,
 0.11712;-0.18782;-0.43354;,
 0.19107;-0.18782;-0.40659;,
 0.25915;-0.18782;-0.36726;,
 0.31941;-0.18782;-0.31671;,
 0.36994;-0.18782;-0.25647;,
 0.40940;-0.18782;-0.18836;,
 0.43713;-0.18785;-0.11452;,
 0.45192;-0.18798;-0.03759;,
 0.44803;-0.18805;0.03930;,
 0.42919;-0.18798;0.11563;,
 0.40337;-0.18785;0.19073;,
 0.36857;-0.18789;0.26059;,
 0.31932;-0.18837;0.32128;,
 0.26798;-0.12649;0.38442;,
 0.19107;-0.19005;0.41121;,
 0.11724;-0.18949;0.43790;,
 0.00239;-0.18830;0.44522;,
 -0.11253;-0.18843;0.42428;,
 -0.18911;-0.18883;0.40344;,
 -0.26077;-0.18911;0.37279;,
 -0.33851;-0.06285;0.34019;,
 -0.39300;-0.06243;0.27748;,
 -0.43480;-0.06193;0.20547;,
 -0.46269;-0.06155;0.12689;,
 -0.47655;-0.06131;0.04442;,
 -0.47555;-0.06128;-0.03905;,
 -0.45944;-0.06135;-0.12053;,
 -0.42823;-0.06142;-0.19626;,
 -0.38587;-0.02855;-0.26574;,
 -0.33222;-0.02840;-0.32959;,
 -0.27082;-0.02839;-0.38683;,
 -0.12447;-0.06147;-0.46022;,
 -0.20100;-0.06140;-0.43087;,
 -0.04233;-0.06153;-0.47303;,
 0.04127;-0.06158;-0.47136;,
 0.12312;-0.06160;-0.45620;,
 0.20093;-0.06160;-0.42779;,
 0.27256;-0.06160;-0.38640;,
 0.33594;-0.06160;-0.33323;,
 0.38918;-0.06160;-0.26987;,
 0.43141;-0.06164;-0.19827;,
 0.46249;-0.06176;-0.12060;,
 0.47895;-0.06193;-0.03960;,
 0.47458;-0.06196;0.04139;,
 0.45376;-0.06185;0.12167;,
 0.42556;-0.06167;0.20071;,
 0.38809;-0.06160;0.27410;,
 0.33590;-0.06160;0.33782;,
 0.27229;0.00430;0.39070;,
 0.20092;-0.06171;0.43241;,
 0.12321;-0.06160;0.46063;,
 -0.03795;-0.06164;0.46534;,
 0.04244;-0.06151;0.47277;,
 -0.11816;-0.06203;0.44638;,
 -0.19803;-0.06252;0.42334;,
 -0.27304;-0.06286;0.39018;,
 -0.32540;0.06914;0.32431;,
 -0.38105;0.06956;0.26631;,
 -0.42497;0.07023;0.19902;,
 -0.45600;0.07095;0.12248;,
 -0.47344;0.07162;0.04074;,
 -0.47873;0.03880;-0.04117;,
 -0.46182;0.13676;-0.04216;,
 -0.44689;0.13712;-0.11900;,
 -0.46211;0.03885;-0.12174;,
 -0.42877;0.03874;-0.19536;,
 -0.41546;0.13698;-0.18972;,
 -0.38331;0.07210;-0.26147;,
 -0.33065;0.07212;-0.32354;,
 -0.26907;0.07199;-0.37873;,
 -0.12395;0.03808;-0.45754;,
 -0.19915;0.07145;-0.42248;,
 -0.11850;0.13442;-0.43455;,
 -0.04217;0.03774;-0.47024;,
 -0.03990;0.13368;-0.44622;,
 0.03903;0.13328;-0.44475;,
 0.04098;0.03750;-0.46843;,
 0.12235;0.03739;-0.45332;,
 0.19965;0.03737;-0.42506;,
 0.11627;0.13312;-0.43053;,
 0.18971;0.13308;-0.40374;,
 0.27084;0.03737;-0.38393;,
 0.25735;0.13308;-0.36466;,
 0.31717;0.13308;-0.31447;,
 0.33383;0.03737;-0.33112;,
 0.38685;0.03737;-0.26814;,
 0.36745;0.13308;-0.25465;,
 0.40743;0.13304;-0.18705;,
 0.42971;0.03728;-0.19702;,
 0.46190;0.03710;-0.11988;,
 0.47742;0.03698;-0.03938;,
 0.43657;0.13294;-0.11375;,
 0.44671;0.13292;0.00085;,
 0.47000;0.03708;0.04116;,
 0.44101;0.06978;0.11922;,
 0.42158;0.03736;0.19945;,
 0.39948;0.13308;0.18940;,
 0.36578;0.13312;0.25878;,
 0.38542;0.03739;0.27237;,
 0.33375;0.03743;0.33573;,
 0.31705;0.13323;0.31917;,
 0.25730;0.13348;0.36965;,
 0.19960;0.03772;0.42996;,
 0.18955;0.13395;0.40914;,
 0.11616;0.13451;0.43606;,
 0.12238;0.03797;0.45812;,
 0.04167;0.07106;0.46350;,
 -0.03623;0.07107;0.45489;,
 -0.11258;0.07057;0.43287;,
 -0.18832;0.06981;0.40631;,
 -0.26056;0.06924;0.37199;,
 -0.31870;0.19269;0.26526;,
 -0.40176;0.19471;0.14446;,
 -0.43565;0.19684;0.03488;,
 -0.40093;0.25455;-0.07184;,
 -0.36801;0.25416;-0.16915;,
 -0.33595;0.19769;-0.27428;,
 -0.21978;0.19646;-0.36959;,
 -0.10360;0.24972;-0.37998;,
 -0.00004;0.24844;-0.38992;,
 0.13427;0.24802;-0.36560;,
 0.25203;0.24799;-0.29759;,
 0.32232;0.24800;-0.22309;,
 0.36873;0.24851;-0.13168;,
 0.38800;0.24894;0.00062;,
 0.39953;0.19265;0.10861;,
 0.33437;0.24804;0.19647;,
 0.25181;0.24844;0.30255;,
 0.13404;0.24970;0.37145;,
 0.00319;0.19518;0.41811;,
 -0.10055;0.19464;0.39177;,
 -0.20111;0.19321;0.34960;,
 -0.22301;0.29801;0.26568;,
 -0.30858;0.30018;0.17670;,
 -0.36085;0.30352;0.05949;,
 -0.34481;0.32717;-0.06220;,
 -0.29839;0.32627;-0.16946;,
 -0.29662;0.28033;-0.24416;,
 -0.20420;0.34306;-0.23998;,
 -0.18873;0.29024;-0.31768;,
 -0.05832;0.32149;-0.32768;,
 0.05834;0.31999;-0.32672;,
 0.16738;0.31993;-0.28701;,
 0.23886;0.33604;-0.19782;,
 0.29392;0.33747;-0.10425;,
 0.33244;0.32199;0.00089;,
 0.33498;0.29756;0.09133;,
 0.28560;0.31955;0.16800;,
 0.20036;0.33732;0.24107;,
 0.11443;0.32163;0.31708;,
 0.00275;0.29971;0.35042;,
 -0.11439;0.29884;0.32025;,
 -0.22301;0.29801;0.26568;,
 -0.22549;0.37209;0.14303;,
 -0.30858;0.30018;0.17670;,
 -0.29691;0.36170;0.04855;,
 -0.36085;0.30352;0.05949;,
 -0.22549;0.37209;0.14303;,
 -0.21857;0.38744;0.03758;,
 -0.29691;0.36170;0.04855;,
 -0.27264;0.36994;-0.04871;,
 -0.36085;0.30352;0.05949;,
 -0.27264;0.36994;-0.04871;,
 -0.34481;0.32717;-0.06220;,
 -0.27264;0.36994;-0.04871;,
 -0.29839;0.32627;-0.16946;,
 -0.34481;0.32717;-0.06220;,
 -0.27264;0.36994;-0.04871;,
 -0.29839;0.32627;-0.16946;,
 -0.27264;0.36994;-0.04871;,
 -0.23647;0.37110;-0.13390;,
 -0.20420;0.34306;-0.23998;,
 -0.29839;0.32627;-0.16946;,
 -0.23647;0.37110;-0.13390;,
 -0.23647;0.37110;-0.13390;,
 -0.13955;0.38820;-0.16392;,
 -0.20420;0.34306;-0.23998;,
 -0.09976;0.35825;-0.27130;,
 -0.03685;0.38358;-0.20651;,
 -0.09976;0.35825;-0.27130;,
 0.00014;0.35443;-0.28714;,
 0.00014;0.35443;-0.28714;,
 0.12168;0.36487;-0.23114;,
 0.12168;0.36487;-0.23114;,
 0.18291;0.38041;-0.10319;,
 0.23886;0.33604;-0.19782;,
 0.29392;0.33747;-0.10425;,
 0.26006;0.36515;0.03607;,
 0.26006;0.36515;0.03607;,
 0.33498;0.29756;0.09133;,
 0.22820;0.36338;0.13407;,
 0.28560;0.31955;0.16800;,
 0.20036;0.33732;0.24107;,
 0.13788;0.38290;0.16638;,
 0.11443;0.32163;0.31708;,
 0.20036;0.33732;0.24107;,
 0.09070;0.36722;0.25135;,
 0.09070;0.36722;0.25135;,
 0.00275;0.29971;0.35042;,
 -0.03304;0.36498;0.26021;,
 -0.11439;0.29884;0.32025;,
 -0.13091;0.36498;0.22900;,
 -0.14035;0.39161;0.10845;,
 -0.11534;0.37626;0.01528;,
 -0.16718;0.38838;-0.05664;,
 -0.03899;0.38026;-0.11555;,
 0.08648;0.38679;-0.16459;,
 0.03898;0.37259;-0.09976;,
 0.10523;0.37532;-0.04593;,
 0.16729;0.38571;0.04386;,
 0.06215;0.36624;0.07078;,
 0.05588;0.38840;0.15516;,
 -0.03201;0.38604;0.18520;,
 -0.03304;0.36498;0.26021;,
 -0.03629;0.36426;0.09043;,
 -0.13091;0.36498;0.22900;,
 -0.03629;0.36426;0.09043;,
 -0.01839;0.32060;-0.00734;,
 -0.11534;0.37626;0.01528;,
 -0.01839;0.32060;-0.00734;,
 -0.03899;0.38026;-0.11555;,
 -0.11534;0.37626;0.01528;,
 -0.01839;0.32060;-0.00734;,
 0.03898;0.37259;-0.09976;,
 -0.03899;0.38026;-0.11555;,
 -0.01839;0.32060;-0.00734;,
 0.10523;0.37532;-0.04593;,
 0.03898;0.37259;-0.09976;,
 -0.01839;0.32060;-0.00734;,
 0.06215;0.36624;0.07078;,
 0.10523;0.37532;-0.04593;,
 -0.01973;-0.50119;-0.06996;,
 0.02915;-0.48232;0.01142;,
 -0.03629;0.36426;0.09043;,
 0.06215;0.36624;0.07078;,
 -0.01839;0.32060;-0.00734;,
 -0.04239;0.35299;0.00765;,
 -0.03602;0.35367;0.02010;,
 -0.05465;0.38162;0.01985;,
 -0.06775;0.40832;0.02730;,
 -0.06934;0.41003;0.01823;,
 -0.05426;0.38452;0.00751;,
 -0.06696;0.41306;0.01182;,
 -0.03764;0.35611;-0.00185;,
 -0.04522;0.38964;0.00273;,
 -0.05761;0.41855;0.00937;,
 -0.02712;0.36006;-0.00146;,
 -0.03726;0.39235;0.00677;,
 -0.04960;0.42104;0.01523;,
 -0.02009;0.36172;0.00599;,
 -0.03299;0.39203;0.01705;,
 -0.04735;0.41883;0.02676;,
 -0.02028;0.36053;0.01408;,
 -0.03654;0.38851;0.02542;,
 -0.02698;0.35701;0.02099;,
 -0.05381;0.41355;0.03423;,
 -0.04506;0.38434;0.02716;,
 -0.06164;0.40969;0.03347;,
 -0.07629;0.43144;0.03845;,
 -0.08179;0.43118;0.02956;,
 -0.08864;0.44804;0.04258;,
 -0.09263;0.44936;0.03143;,
 -0.08155;0.43365;0.02191;,
 -0.09003;0.45290;0.02478;,
 -0.07605;0.43861;0.01559;,
 -0.08148;0.45862;0.02113;,
 -0.06584;0.44341;0.01795;,
 -0.07383;0.46078;0.02474;,
 -0.06068;0.44427;0.02434;,
 -0.06997;0.46125;0.03176;,
 -0.05933;0.44249;0.03279;,
 -0.07120;0.45777;0.04267;,
 -0.06532;0.43686;0.04038;,
 -0.07863;0.45221;0.04724;,
 -0.10104;0.46044;0.03648;,
 -0.09900;0.45921;0.04406;,
 -0.10730;0.46838;0.03932;,
 -0.10497;0.46695;0.04781;,
 -0.09700;0.46553;0.02761;,
 -0.10544;0.47164;0.03235;,
 -0.10064;0.47581;0.02743;,
 -0.08929;0.47029;0.02481;,
 -0.09380;0.47929;0.02642;,
 -0.08184;0.47114;0.02683;,
 -0.08482;0.48111;0.02504;,
 -0.07614;0.47253;0.03493;,
 -0.07804;0.48028;0.03183;,
 -0.07964;0.48205;0.04310;,
 -0.07830;0.46973;0.04749;,
 -0.08190;0.47922;0.05039;,
 -0.08724;0.47469;0.05526;,
 -0.08594;0.46403;0.05213;,
 -0.09570;0.46977;0.05559;,
 -0.09290;0.46057;0.05063;,
 -0.10923;0.47601;0.05624;,
 -0.11201;0.47395;0.04467;,
 -0.11592;0.47873;0.04990;,
 -0.11560;0.48238;0.03838;,
 -0.10941;0.47927;0.03241;,
 -0.10731;0.48968;0.02938;,
 -0.10059;0.48510;0.02734;,
 -0.09409;0.49555;0.03062;,
 -0.08231;0.48923;0.04509;,
 -0.08496;0.48667;0.05288;,
 -0.08778;0.49719;0.05155;,
 -0.09003;0.49412;0.05898;,
 -0.09041;0.48185;0.05835;,
 -0.09557;0.48604;0.06253;,
 -0.09941;0.47642;0.05914;,
 -0.10333;0.48676;0.06394;,
 -0.12115;0.48651;0.05517;,
 -0.12050;0.48705;0.04253;,
 -0.11854;0.49412;0.03499;,
 -0.10748;0.49935;0.03125;,
 -0.11386;0.50217;0.03688;,
 -0.09936;0.50164;0.03621;,
 -0.08372;0.49538;0.03892;,
 -0.09362;0.50392;0.04521;,
 -0.09328;0.50909;0.05142;,
 -0.09369;0.50709;0.05914;,
 -0.09826;0.50087;0.06497;,
 -0.09526;0.49335;0.06445;,
 -0.10917;0.49551;0.06555;,
 -0.11399;0.48723;0.06302;,
 -0.12002;0.49780;0.04532;,
 -0.10638;0.50551;0.03838;,
 -0.11902;0.49634;0.05633;,
 -0.02950;0.32269;0.01043;,
 -0.01783;0.29302;0.01141;,
 -0.03043;0.32296;0.00092;,
 -0.02059;0.29244;-0.00135;,
 -0.02465;0.32517;-0.00572;,
 -0.00928;0.29514;-0.00876;,
 -0.01377;0.32856;-0.00555;,
 0.00106;0.29756;-0.00028;,
 -0.00840;0.32984;0.00119;,
 -0.00953;0.32885;0.01175;,
 -0.00085;0.29704;0.01090;,
 -0.00786;0.29536;0.01507;,
 -0.02047;0.32509;0.01720;,
 -0.11210;0.50137;0.04944;,
 -0.10513;0.50209;0.06189;,
 -0.10389;0.50679;0.05371;,
 -0.11089;0.49957;0.05765;,
 -0.10189;0.50608;0.04595;,
 -0.07758;0.48828;0.03567;,
 -0.09106;0.48898;0.02595;,
 -0.08175;0.49141;0.02571;;
 
 747;
 3;0,1,2;,
 3;2,3,4;,
 3;2,1,3;,
 3;5,6,3;,
 3;6,4,3;,
 3;7,8,6;,
 3;7,9,8;,
 3;9,10,8;,
 3;11,8,12;,
 3;10,12,8;,
 3;10,13,12;,
 3;14,11,12;,
 3;13,15,12;,
 3;14,12,15;,
 3;14,15,16;,
 3;14,16,17;,
 3;18,17,16;,
 3;19,17,18;,
 3;20,17,19;,
 3;20,19,21;,
 3;20,21,22;,
 3;20,22,2;,
 3;0,2,22;,
 3;0,23,24;,
 3;1,0,24;,
 3;1,24,25;,
 3;1,25,26;,
 3;1,26,3;,
 3;27,3,26;,
 3;3,27,5;,
 3;28,5,27;,
 3;5,28,6;,
 3;6,28,29;,
 3;7,6,29;,
 3;29,30,7;,
 3;7,31,9;,
 3;7,30,31;,
 3;10,9,31;,
 3;32,10,31;,
 3;33,34,35;,
 3;36,13,10;,
 3;36,37,13;,
 3;38,13,37;,
 3;15,13,38;,
 3;39,15,38;,
 3;40,16,15;,
 3;40,15,39;,
 3;16,40,41;,
 3;18,16,41;,
 3;42,19,18;,
 3;42,18,43;,
 3;18,41,43;,
 3;44,19,42;,
 3;21,44,45;,
 3;21,19,44;,
 3;22,21,45;,
 3;22,45,46;,
 3;0,22,23;,
 3;22,46,23;,
 3;23,47,48;,
 3;23,48,24;,
 3;49,25,24;,
 3;49,24,48;,
 3;26,25,49;,
 3;26,49,50;,
 3;51,27,26;,
 3;51,26,50;,
 3;52,28,27;,
 3;52,27,51;,
 3;29,28,52;,
 3;29,52,53;,
 3;30,29,53;,
 3;53,54,30;,
 3;31,30,55;,
 3;54,55,30;,
 3;32,31,55;,
 3;32,55,56;,
 3;32,56,57;,
 3;32,57,36;,
 3;36,57,58;,
 3;36,58,37;,
 3;38,37,58;,
 3;38,58,59;,
 3;60,39,38;,
 3;60,38,59;,
 3;61,40,39;,
 3;61,39,60;,
 3;41,40,61;,
 3;41,61,62;,
 3;63,42,43;,
 3;63,43,64;,
 3;41,62,64;,
 3;41,64,43;,
 3;65,63,64;,
 3;66,44,42;,
 3;66,42,63;,
 3;67,45,44;,
 3;67,44,66;,
 3;46,45,67;,
 3;46,67,68;,
 3;23,46,68;,
 3;23,68,47;,
 3;47,69,70;,
 3;47,70,48;,
 3;71,49,48;,
 3;71,48,70;,
 3;72,50,49;,
 3;72,49,73;,
 3;49,71,73;,
 3;50,72,74;,
 3;75,51,50;,
 3;75,50,74;,
 3;51,75,76;,
 3;77,78,76;,
 3;78,52,51;,
 3;78,51,76;,
 3;52,78,79;,
 3;77,80,79;,
 3;77,79,78;,
 3;80,81,82;,
 3;80,82,79;,
 3;53,52,79;,
 3;53,79,82;,
 3;54,83,84;,
 3;54,53,82;,
 3;54,82,83;,
 3;81,83,82;,
 3;54,84,85;,
 3;54,85,55;,
 3;86,55,85;,
 3;56,87,88;,
 3;55,86,87;,
 3;55,87,56;,
 3;56,88,89;,
 3;56,89,57;,
 3;57,89,90;,
 3;57,90,91;,
 3;57,91,58;,
 3;59,58,91;,
 3;59,91,92;,
 3;60,59,93;,
 3;60,93,94;,
 3;59,92,93;,
 3;60,94,95;,
 3;96,61,60;,
 3;96,60,95;,
 3;62,61,96;,
 3;62,96,97;,
 3;62,97,98;,
 3;65,64,99;,
 3;62,98,99;,
 3;62,99,64;,
 3;100,65,99;,
 3;65,101,63;,
 3;65,100,101;,
 3;66,63,101;,
 3;66,101,102;,
 3;103,67,66;,
 3;66,102,103;,
 3;67,103,104;,
 3;68,67,104;,
 3;68,104,105;,
 3;47,106,69;,
 3;68,105,106;,
 3;68,106,47;,
 3;70,69,107;,
 3;70,107,108;,
 3;71,70,108;,
 3;71,108,109;,
 3;72,73,110;,
 3;72,110,111;,
 3;71,109,110;,
 3;71,110,73;,
 3;72,111,112;,
 3;72,112,74;,
 3;113,75,74;,
 3;113,74,112;,
 3;75,113,114;,
 3;75,114,76;,
 3;115,77,114;,
 3;77,76,114;,
 3;115,116,80;,
 3;115,80,77;,
 3;117,81,80;,
 3;117,80,116;,
 3;118,84,83;,
 3;118,83,119;,
 3;83,81,119;,
 3;117,119,81;,
 3;84,118,120;,
 3;84,120,85;,
 3;121,86,85;,
 3;121,85,120;,
 3;88,87,122;,
 3;88,122,123;,
 3;86,121,122;,
 3;86,122,87;,
 3;88,123,124;,
 3;88,124,89;,
 3;90,89,124;,
 3;90,124,125;,
 3;90,125,126;,
 3;90,126,91;,
 3;92,91,126;,
 3;92,126,127;,
 3;94,93,128;,
 3;94,128,129;,
 3;93,92,127;,
 3;93,127,128;,
 3;94,129,130;,
 3;94,130,95;,
 3;131,96,95;,
 3;131,95,130;,
 3;96,131,132;,
 3;96,132,97;,
 3;98,97,132;,
 3;98,132,133;,
 3;100,99,134;,
 3;98,133,134;,
 3;98,134,99;,
 3;135,100,134;,
 3;100,136,101;,
 3;135,136,100;,
 3;102,101,136;,
 3;102,136,137;,
 3;138,103,139;,
 3;103,102,137;,
 3;103,137,139;,
 3;103,138,140;,
 3;103,140,104;,
 3;105,104,140;,
 3;105,140,141;,
 3;69,106,142;,
 3;69,142,107;,
 3;106,105,141;,
 3;106,141,142;,
 3;108,107,143;,
 3;108,143,144;,
 3;109,108,144;,
 3;109,144,145;,
 3;111,110,146;,
 3;111,146,147;,
 3;110,109,145;,
 3;110,145,146;,
 3;112,111,147;,
 3;112,147,148;,
 3;147,149,148;,
 3;149,150,151;,
 3;149,151,148;,
 3;113,112,148;,
 3;113,148,151;,
 3;113,151,152;,
 3;113,152,114;,
 3;150,153,152;,
 3;150,152,151;,
 3;154,152,153;,
 3;115,114,152;,
 3;115,152,154;,
 3;115,154,155;,
 3;115,155,116;,
 3;156,117,116;,
 3;156,116,155;,
 3;157,118,119;,
 3;157,119,158;,
 3;117,156,158;,
 3;117,158,119;,
 3;159,157,158;,
 3;118,157,160;,
 3;118,160,120;,
 3;157,159,161;,
 3;157,161,160;,
 3;162,163,160;,
 3;162,160,161;,
 3;121,120,160;,
 3;121,160,163;,
 3;123,122,164;,
 3;123,164,165;,
 3;122,121,163;,
 3;122,163,164;,
 3;162,166,164;,
 3;162,164,163;,
 3;167,165,164;,
 3;167,164,166;,
 3;123,165,168;,
 3;123,168,124;,
 3;167,169,168;,
 3;167,168,165;,
 3;170,171,168;,
 3;170,168,169;,
 3;125,124,168;,
 3;125,168,171;,
 3;125,171,172;,
 3;125,172,126;,
 3;170,173,172;,
 3;170,172,171;,
 3;174,175,172;,
 3;174,172,173;,
 3;127,126,172;,
 3;127,172,175;,
 3;129,128,176;,
 3;129,176,177;,
 3;127,175,176;,
 3;127,176,128;,
 3;175,174,178;,
 3;175,178,176;,
 3;179,177,176;,
 3;179,176,178;,
 3;130,129,177;,
 3;130,177,180;,
 3;179,180,177;,
 3;179,181,180;,
 3;131,130,180;,
 3;131,180,181;,
 3;132,131,181;,
 3;132,181,182;,
 3;181,183,182;,
 3;184,185,182;,
 3;184,182,183;,
 3;133,132,182;,
 3;133,182,185;,
 3;135,134,186;,
 3;133,185,186;,
 3;133,186,134;,
 3;184,187,186;,
 3;184,186,185;,
 3;188,135,186;,
 3;188,186,187;,
 3;135,189,136;,
 3;188,190,189;,
 3;188,189,135;,
 3;190,191,192;,
 3;190,192,189;,
 3;137,136,189;,
 3;137,189,192;,
 3;138,139,193;,
 3;138,193,194;,
 3;139,137,192;,
 3;139,192,193;,
 3;191,193,192;,
 3;138,194,195;,
 3;138,195,140;,
 3;196,141,140;,
 3;196,140,195;,
 3;107,142,197;,
 3;107,197,143;,
 3;141,196,197;,
 3;141,197,142;,
 3;143,198,144;,
 3;199,145,144;,
 3;199,144,198;,
 3;147,146,199;,
 3;147,199,200;,
 3;146,145,199;,
 3;149,147,200;,
 3;200,201,149;,
 3;201,150,149;,
 3;201,202,153;,
 3;201,153,150;,
 3;202,203,153;,
 3;154,153,203;,
 3;154,203,155;,
 3;204,156,155;,
 3;204,155,203;,
 3;159,158,204;,
 3;156,204,158;,
 3;204,205,159;,
 3;205,206,161;,
 3;205,161,159;,
 3;206,162,161;,
 3;162,206,207;,
 3;162,207,166;,
 3;207,167,166;,
 3;207,208,169;,
 3;207,169,167;,
 3;208,170,169;,
 3;208,209,173;,
 3;208,173,170;,
 3;210,174,173;,
 3;210,173,209;,
 3;174,210,178;,
 3;210,211,179;,
 3;210,179,178;,
 3;211,212,179;,
 3;181,179,212;,
 3;181,212,183;,
 3;212,213,183;,
 3;213,184,183;,
 3;184,213,214;,
 3;184,214,187;,
 3;214,188,187;,
 3;214,215,190;,
 3;214,190,188;,
 3;215,191,190;,
 3;194,193,216;,
 3;193,191,216;,
 3;215,216,191;,
 3;195,194,216;,
 3;195,216,217;,
 3;218,196,195;,
 3;218,195,217;,
 3;198,143,197;,
 3;198,197,218;,
 3;196,218,197;,
 3;198,219,220;,
 3;199,198,220;,
 3;200,199,221;,
 3;199,220,221;,
 3;200,221,201;,
 3;221,222,201;,
 3;222,223,202;,
 3;222,202,201;,
 3;223,224,202;,
 3;203,202,224;,
 3;223,225,224;,
 3;225,226,224;,
 3;204,203,224;,
 3;204,224,226;,
 3;205,204,226;,
 3;226,227,205;,
 3;227,206,205;,
 3;228,206,227;,
 3;228,207,206;,
 3;229,207,228;,
 3;229,208,207;,
 3;230,208,229;,
 3;208,230,209;,
 3;230,231,210;,
 3;230,210,209;,
 3;231,232,211;,
 3;231,211,210;,
 3;232,233,211;,
 3;212,211,233;,
 3;212,233,213;,
 3;233,234,213;,
 3;234,235,214;,
 3;234,214,213;,
 3;235,236,215;,
 3;235,215,214;,
 3;216,215,237;,
 3;236,237,215;,
 3;217,216,237;,
 3;217,237,238;,
 3;218,217,238;,
 3;219,198,218;,
 3;218,238,219;,
 3;239,240,241;,
 3;241,240,242;,
 3;241,242,243;,
 3;244,245,246;,
 3;243,242,247;,
 3;248,249,250;,
 3;246,245,251;,
 3;252,253,254;,
 3;255,256,257;,
 3;258,259,260;,
 3;261,262,263;,
 3;227,226,264;,
 3;226,225,264;,
 3;262,265,266;,
 3;262,266,263;,
 3;227,264,267;,
 3;266,265,268;,
 3;267,228,227;,
 3;229,228,269;,
 3;228,267,269;,
 3;268,265,270;,
 3;271,272,270;,
 3;230,229,269;,
 3;271,273,272;,
 3;232,231,274;,
 3;271,275,273;,
 3;233,232,274;,
 3;276,275,277;,
 3;276,277,278;,
 3;278,277,279;,
 3;277,280,279;,
 3;281,282,283;,
 3;279,280,284;,
 3;285,281,283;,
 3;285,283,286;,
 3;287,285,286;,
 3;288,287,286;,
 3;240,239,288;,
 3;287,288,239;,
 3;244,289,245;,
 3;289,290,245;,
 3;245,291,251;,
 3;245,290,291;,
 3;261,251,291;,
 3;262,261,291;,
 3;291,292,262;,
 3;292,265,262;,
 3;265,293,270;,
 3;265,292,294;,
 3;265,294,293;,
 3;294,271,293;,
 3;271,270,293;,
 3;294,295,271;,
 3;296,275,271;,
 3;296,271,295;,
 3;275,296,277;,
 3;280,277,296;,
 3;296,297,280;,
 3;298,280,297;,
 3;280,298,284;,
 3;284,298,299;,
 3;284,299,300;,
 3;298,301,299;,
 3;299,302,300;,
 3;289,244,302;,
 3;302,299,289;,
 3;299,301,289;,
 3;303,304,305;,
 3;289,301,290;,
 3;306,307,308;,
 3;291,290,292;,
 3;309,310,311;,
 3;312,313,314;,
 3;296,295,297;,
 3;315,316,317;,
 3;301,298,297;,
 3;4,6,318;,
 3;6,8,318;,
 3;318,8,11;,
 3;11,319,318;,
 3;319,11,14;,
 3;14,17,319;,
 3;17,20,319;,
 3;4,319,20;,
 3;2,4,20;,
 3;320,321,322;,
 3;318,319,4;,
 3;323,324,325;,
 3;326,327,325;,
 3;323,325,328;,
 3;327,328,325;,
 3;327,329,328;,
 3;323,328,330;,
 3;331,330,328;,
 3;329,332,328;,
 3;332,331,328;,
 3;330,331,333;,
 3;333,331,334;,
 3;332,334,331;,
 3;334,332,335;,
 3;336,333,334;,
 3;336,334,337;,
 3;335,338,337;,
 3;335,337,334;,
 3;339,336,337;,
 3;340,339,337;,
 3;338,340,337;,
 3;341,339,340;,
 3;338,342,340;,
 3;341,340,343;,
 3;342,343,340;,
 3;324,341,343;,
 3;342,344,343;,
 3;324,343,325;,
 3;344,326,325;,
 3;344,325,343;,
 3;326,345,346;,
 3;347,346,345;,
 3;346,327,326;,
 3;348,346,347;,
 3;349,327,346;,
 3;348,349,346;,
 3;349,329,327;,
 3;349,348,350;,
 3;329,349,351;,
 3;349,350,351;,
 3;329,351,332;,
 3;352,351,350;,
 3;353,332,351;,
 3;352,353,351;,
 3;354,353,352;,
 3;332,353,335;,
 3;335,353,355;,
 3;354,356,355;,
 3;354,355,353;,
 3;338,355,357;,
 3;335,355,338;,
 3;356,357,355;,
 3;356,358,357;,
 3;342,338,359;,
 3;338,357,359;,
 3;358,359,357;,
 3;358,360,359;,
 3;344,342,359;,
 3;344,359,345;,
 3;360,345,359;,
 3;360,347,345;,
 3;326,344,345;,
 3;361,348,347;,
 3;361,347,362;,
 3;363,361,362;,
 3;363,362,364;,
 3;348,361,365;,
 3;348,365,350;,
 3;361,363,366;,
 3;361,366,365;,
 3;367,365,366;,
 3;368,352,350;,
 3;368,350,365;,
 3;367,368,365;,
 3;368,367,369;,
 3;370,354,352;,
 3;352,368,370;,
 3;368,369,371;,
 3;368,371,370;,
 3;372,354,370;,
 3;373,372,370;,
 3;373,370,371;,
 3;356,354,372;,
 3;373,374,372;,
 3;358,356,375;,
 3;356,372,375;,
 3;374,375,372;,
 3;374,376,375;,
 3;376,377,375;,
 3;360,358,375;,
 3;360,375,378;,
 3;377,378,375;,
 3;377,379,378;,
 3;347,360,378;,
 3;347,378,380;,
 3;379,380,378;,
 3;347,380,362;,
 3;379,364,380;,
 3;364,362,380;,
 3;364,381,382;,
 3;383,382,381;,
 3;382,363,364;,
 3;382,383,384;,
 3;363,382,385;,
 3;363,385,366;,
 3;382,384,385;,
 3;385,367,366;,
 3;386,385,384;,
 3;367,385,387;,
 3;385,386,387;,
 3;367,387,369;,
 3;388,387,386;,
 3;376,374,389;,
 3;376,389,390;,
 3;391,390,389;,
 3;391,392,390;,
 3;377,376,393;,
 3;376,390,393;,
 3;392,393,390;,
 3;392,394,393;,
 3;379,377,393;,
 3;379,393,395;,
 3;394,396,395;,
 3;394,395,393;,
 3;379,395,381;,
 3;396,381,395;,
 3;364,379,381;,
 3;383,381,397;,
 3;398,383,397;,
 3;383,398,384;,
 3;384,398,399;,
 3;386,384,399;,
 3;400,386,399;,
 3;401,400,399;,
 3;400,388,386;,
 3;388,400,402;,
 3;403,402,404;,
 3;403,388,402;,
 3;404,391,403;,
 3;405,391,404;,
 3;405,406,391;,
 3;391,406,392;,
 3;407,392,406;,
 3;392,407,408;,
 3;396,394,408;,
 3;394,392,408;,
 3;409,396,408;,
 3;409,408,407;,
 3;409,410,396;,
 3;381,410,397;,
 3;381,396,410;,
 3;397,411,398;,
 3;399,398,411;,
 3;412,400,401;,
 3;400,412,402;,
 3;397,410,413;,
 3;324,323,414;,
 3;415,414,416;,
 3;415,416,417;,
 3;414,323,416;,
 3;417,416,418;,
 3;416,323,330;,
 3;416,330,418;,
 3;417,418,419;,
 3;418,330,333;,
 3;333,420,418;,
 3;419,418,420;,
 3;421,419,420;,
 3;421,420,422;,
 3;333,422,420;,
 3;333,336,422;,
 3;421,422,423;,
 3;336,339,423;,
 3;336,423,422;,
 3;424,421,423;,
 3;339,341,423;,
 3;425,424,423;,
 3;425,423,426;,
 3;341,426,423;,
 3;341,324,426;,
 3;415,425,426;,
 3;324,414,426;,
 3;414,415,426;,
 3;401,411,427;,
 3;428,429,430;,
 3;427,430,429;,
 3;409,407,428;,
 3;412,401,427;,
 3;412,427,431;,
 3;431,427,429;,
 3;406,428,407;,
 3;406,429,428;,
 3;401,399,411;,
 3;411,413,427;,
 3;413,430,427;,
 3;430,413,409;,
 3;430,409,428;,
 3;397,413,411;,
 3;413,410,409;,
 3;429,406,405;,
 3;404,431,405;,
 3;431,429,405;,
 3;402,431,404;,
 3;431,402,412;,
 3;374,373,432;,
 3;371,369,387;,
 3;433,387,388;,
 3;433,371,387;,
 3;403,391,389;,
 3;389,374,432;,
 3;403,389,432;,
 3;388,403,434;,
 3;403,432,434;,
 3;433,388,434;,
 3;371,433,434;,
 4;432,373,371,434;;
 
 MeshMaterialList {
  1;
  747;
  0,
  0,
  0,
  0,
  0,
  0,
  0,
  0,
  0,
  0,
  0,
  0,
  0,
  0,
  0,
  0,
  0,
  0,
  0,
  0,
  0,
  0,
  0,
  0,
  0,
  0,
  0,
  0,
  0,
  0,
  0,
  0,
  0,
  0,
  0,
  0,
  0,
  0,
  0,
  0,
  0,
  0,
  0,
  0,
  0,
  0,
  0,
  0,
  0,
  0,
  0,
  0,
  0,
  0,
  0,
  0,
  0,
  0,
  0,
  0,
  0,
  0,
  0,
  0,
  0,
  0,
  0,
  0,
  0,
  0,
  0,
  0,
  0,
  0,
  0,
  0,
  0,
  0,
  0,
  0,
  0,
  0,
  0,
  0,
  0,
  0,
  0,
  0,
  0,
  0,
  0,
  0,
  0,
  0,
  0,
  0,
  0,
  0,
  0,
  0,
  0,
  0,
  0,
  0,
  0,
  0,
  0,
  0,
  0,
  0,
  0,
  0,
  0,
  0,
  0,
  0,
  0,
  0,
  0,
  0,
  0,
  0,
  0,
  0,
  0,
  0,
  0,
  0,
  0,
  0,
  0,
  0,
  0,
  0,
  0,
  0,
  0,
  0,
  0,
  0,
  0,
  0,
  0,
  0,
  0,
  0,
  0,
  0,
  0,
  0,
  0,
  0,
  0,
  0,
  0,
  0,
  0,
  0,
  0,
  0,
  0,
  0,
  0,
  0,
  0,
  0,
  0,
  0,
  0,
  0,
  0,
  0,
  0,
  0,
  0,
  0,
  0,
  0,
  0,
  0,
  0,
  0,
  0,
  0,
  0,
  0,
  0,
  0,
  0,
  0,
  0,
  0,
  0,
  0,
  0,
  0,
  0,
  0,
  0,
  0,
  0,
  0,
  0,
  0,
  0,
  0,
  0,
  0,
  0,
  0,
  0,
  0,
  0,
  0,
  0,
  0,
  0,
  0,
  0,
  0,
  0,
  0,
  0,
  0,
  0,
  0,
  0,
  0,
  0,
  0,
  0,
  0,
  0,
  0,
  0,
  0,
  0,
  0,
  0,
  0,
  0,
  0,
  0,
  0,
  0,
  0,
  0,
  0,
  0,
  0,
  0,
  0,
  0,
  0,
  0,
  0,
  0,
  0,
  0,
  0,
  0,
  0,
  0,
  0,
  0,
  0,
  0,
  0,
  0,
  0,
  0,
  0,
  0,
  0,
  0,
  0,
  0,
  0,
  0,
  0,
  0,
  0,
  0,
  0,
  0,
  0,
  0,
  0,
  0,
  0,
  0,
  0,
  0,
  0,
  0,
  0,
  0,
  0,
  0,
  0,
  0,
  0,
  0,
  0,
  0,
  0,
  0,
  0,
  0,
  0,
  0,
  0,
  0,
  0,
  0,
  0,
  0,
  0,
  0,
  0,
  0,
  0,
  0,
  0,
  0,
  0,
  0,
  0,
  0,
  0,
  0,
  0,
  0,
  0,
  0,
  0,
  0,
  0,
  0,
  0,
  0,
  0,
  0,
  0,
  0,
  0,
  0,
  0,
  0,
  0,
  0,
  0,
  0,
  0,
  0,
  0,
  0,
  0,
  0,
  0,
  0,
  0,
  0,
  0,
  0,
  0,
  0,
  0,
  0,
  0,
  0,
  0,
  0,
  0,
  0,
  0,
  0,
  0,
  0,
  0,
  0,
  0,
  0,
  0,
  0,
  0,
  0,
  0,
  0,
  0,
  0,
  0,
  0,
  0,
  0,
  0,
  0,
  0,
  0,
  0,
  0,
  0,
  0,
  0,
  0,
  0,
  0,
  0,
  0,
  0,
  0,
  0,
  0,
  0,
  0,
  0,
  0,
  0,
  0,
  0,
  0,
  0,
  0,
  0,
  0,
  0,
  0,
  0,
  0,
  0,
  0,
  0,
  0,
  0,
  0,
  0,
  0,
  0,
  0,
  0,
  0,
  0,
  0,
  0,
  0,
  0,
  0,
  0,
  0,
  0,
  0,
  0,
  0,
  0,
  0,
  0,
  0,
  0,
  0,
  0,
  0,
  0,
  0,
  0,
  0,
  0,
  0,
  0,
  0,
  0,
  0,
  0,
  0,
  0,
  0,
  0,
  0,
  0,
  0,
  0,
  0,
  0,
  0,
  0,
  0,
  0,
  0,
  0,
  0,
  0,
  0,
  0,
  0,
  0,
  0,
  0,
  0,
  0,
  0,
  0,
  0,
  0,
  0,
  0,
  0,
  0,
  0,
  0,
  0,
  0,
  0,
  0,
  0,
  0,
  0,
  0,
  0,
  0,
  0,
  0,
  0,
  0,
  0,
  0,
  0,
  0,
  0,
  0,
  0,
  0,
  0,
  0,
  0,
  0,
  0,
  0,
  0,
  0,
  0,
  0,
  0,
  0,
  0,
  0,
  0,
  0,
  0,
  0,
  0,
  0,
  0,
  0,
  0,
  0,
  0,
  0,
  0,
  0,
  0,
  0,
  0,
  0,
  0,
  0,
  0,
  0,
  0,
  0,
  0,
  0,
  0,
  0,
  0,
  0,
  0,
  0,
  0,
  0,
  0,
  0,
  0,
  0,
  0,
  0,
  0,
  0,
  0,
  0,
  0,
  0,
  0,
  0,
  0,
  0,
  0,
  0,
  0,
  0,
  0,
  0,
  0,
  0,
  0,
  0,
  0,
  0,
  0,
  0,
  0,
  0,
  0,
  0,
  0,
  0,
  0,
  0,
  0,
  0,
  0,
  0,
  0,
  0,
  0,
  0,
  0,
  0,
  0,
  0,
  0,
  0,
  0,
  0,
  0,
  0,
  0,
  0,
  0,
  0,
  0,
  0,
  0,
  0,
  0,
  0,
  0,
  0,
  0,
  0,
  0,
  0,
  0,
  0,
  0,
  0,
  0,
  0,
  0,
  0,
  0,
  0,
  0,
  0,
  0,
  0,
  0,
  0,
  0,
  0,
  0,
  0,
  0,
  0,
  0,
  0,
  0,
  0,
  0,
  0,
  0,
  0,
  0,
  0,
  0,
  0,
  0,
  0,
  0,
  0,
  0,
  0,
  0,
  0,
  0,
  0,
  0,
  0,
  0,
  0,
  0,
  0,
  0,
  0,
  0,
  0,
  0,
  0,
  0,
  0,
  0,
  0,
  0,
  0,
  0,
  0,
  0,
  0,
  0,
  0,
  0,
  0,
  0,
  0,
  0,
  0,
  0,
  0,
  0,
  0,
  0,
  0,
  0,
  0,
  0,
  0,
  0,
  0,
  0,
  0,
  0,
  0,
  0,
  0,
  0,
  0,
  0,
  0,
  0;;
  Material {
   1.000000;0.878431;0.254902;1.000000;;
   15.080000;
   1.000000;1.000000;1.000000;;
   0.910000;0.799373;0.231961;;
   TextureFilename {
    "Data\\Graphics\\XFileTexture\\GorldApple.png";
   }
  }
 }
 MeshNormals {
  384;
  -0.392126;-0.855378;0.338474;,
  -0.515898;-0.843377;0.150217;,
  0.462818;-0.883892;-0.067342;,
  0.444764;-0.889456;0.105134;,
  0.430329;-0.851762;0.298861;,
  0.188243;-0.920113;0.343449;,
  -0.661487;-0.719377;0.211970;,
  -0.702622;-0.711554;-0.003659;,
  -0.651000;-0.706324;-0.278040;,
  -0.518142;-0.720336;-0.461134;,
  -0.434987;-0.705561;-0.559437;,
  0.666561;-0.713827;-0.214820;,
  0.699397;-0.714308;0.024660;,
  0.650340;-0.745724;0.144753;,
  0.360371;-0.718986;0.594300;,
  0.069925;-0.719610;0.690848;,
  -0.168319;-0.721476;0.671670;,
  -0.778337;-0.543168;-0.314897;,
  -0.513314;-0.549176;-0.659480;,
  0.017372;-0.544921;-0.838307;,
  0.319437;-0.506395;-0.800952;,
  0.541875;-0.515206;-0.664029;,
  0.844831;-0.535025;0.003050;,
  0.799593;-0.561466;0.213087;,
  0.144577;-0.501074;0.853242;,
  -0.310957;-0.526132;0.791511;,
  -0.866295;-0.304322;0.396133;,
  -0.946387;-0.312166;0.083095;,
  -0.903374;-0.330029;-0.273854;,
  -0.237872;-0.298062;-0.924433;,
  0.108573;-0.290868;-0.950583;,
  0.407048;-0.270305;-0.872495;,
  0.680552;-0.270045;-0.681120;,
  0.856998;-0.290797;-0.425431;,
  0.951469;-0.300262;-0.067450;,
  0.899258;-0.346305;0.267222;,
  0.807328;-0.276706;0.521206;,
  0.220744;-0.277919;0.934897;,
  -0.061372;-0.286423;0.956135;,
  -0.303966;-0.281600;0.910113;,
  -0.894740;-0.018692;0.446196;,
  -0.992834;-0.059375;0.103706;,
  -0.955128;-0.098706;-0.279263;,
  -0.798493;-0.020545;-0.601653;,
  -0.610935;-0.014867;-0.791541;,
  -0.258881;-0.089019;-0.961798;,
  0.072963;-0.079207;-0.994184;,
  0.422946;-0.040706;-0.905240;,
  0.706091;-0.040893;-0.706939;,
  0.899651;-0.071400;-0.430732;,
  0.992348;-0.076793;-0.096691;,
  0.955892;-0.060034;0.287518;,
  0.837542;-0.039062;0.544975;,
  0.231940;-0.089628;0.968592;,
  -0.172262;-0.011893;0.984979;,
  -0.365043;-0.008611;0.930951;,
  -0.882800;0.187296;0.430795;,
  -0.978514;0.165107;0.123489;,
  -0.799287;0.138926;-0.584670;,
  -0.610073;0.155390;-0.776958;,
  0.939137;0.209334;0.272400;,
  -0.190327;0.207750;0.959487;,
  -0.352217;0.224951;0.908483;,
  -0.893907;0.429028;0.129865;,
  0.867023;0.440921;0.232077;,
  -0.084524;0.419413;0.903852;,
  -0.625877;0.651697;0.428449;,
  -0.732102;0.666802;0.139287;,
  -0.090266;0.714188;-0.694109;,
  0.132444;0.735365;-0.664603;,
  0.344478;0.733379;-0.586081;,
  0.677254;0.735402;0.022612;,
  0.702254;0.682161;0.203706;,
  -0.270991;0.651619;0.708489;,
  -0.339350;0.891931;0.298832;,
  0.413900;0.908615;0.055729;,
  -0.204988;0.889412;0.408567;,
  -0.041096;0.999153;-0.002305;,
  0.145290;0.974179;0.172817;,
  0.001398;0.997826;-0.065884;,
  -0.014303;-0.999251;0.035969;,
  -0.218317;-0.970405;0.103207;,
  -0.395294;-0.914414;-0.087113;,
  -0.454376;-0.837334;-0.303997;,
  -0.244211;-0.923832;-0.294779;,
  0.025903;-0.861381;-0.507299;,
  -0.045795;-0.907483;0.417584;,
  -0.212438;-0.883563;0.417356;,
  -0.589350;-0.719262;0.367870;,
  0.017831;-0.738280;-0.674258;,
  0.260308;-0.671521;-0.693758;,
  0.256713;-0.830500;-0.494335;,
  0.453087;-0.822862;-0.342943;,
  0.467986;-0.686348;-0.556700;,
  0.594668;-0.693027;-0.407534;,
  0.645902;-0.697366;0.310631;,
  0.543914;-0.683028;0.487473;,
  -0.271856;-0.686730;0.674163;,
  -0.414548;-0.708592;0.571006;,
  -0.679206;-0.551372;0.484425;,
  -0.796303;-0.554890;0.240829;,
  -0.851280;-0.523218;-0.039566;,
  -0.633319;-0.564422;-0.529467;,
  -0.311536;-0.497010;-0.809893;,
  0.686996;-0.555306;-0.468691;,
  0.805347;-0.513137;-0.296829;,
  0.770392;-0.497241;0.399059;,
  0.626686;-0.543508;0.558447;,
  0.418435;-0.535372;0.733682;,
  -0.161334;-0.514387;0.842246;,
  -0.536467;-0.527235;0.658959;,
  -0.754507;-0.322259;0.571724;,
  -0.646184;-0.293176;0.704623;,
  -0.915660;-0.328876;0.231103;,
  -0.947019;-0.300315;-0.113868;,
  -0.736223;-0.413990;-0.535339;,
  -0.839881;-0.320212;-0.438252;,
  -0.561287;-0.399627;-0.724744;,
  -0.427493;-0.304096;-0.851337;,
  -0.071690;-0.325699;-0.942752;,
  0.230341;-0.344592;-0.910054;,
  0.525994;-0.343352;-0.778100;,
  0.765106;-0.356627;-0.536125;,
  0.907337;-0.334647;-0.254462;,
  0.936558;-0.312251;0.159244;,
  0.874524;-0.317392;0.366702;,
  0.691234;-0.330522;0.642612;,
  0.537399;-0.392193;0.746583;,
  0.386069;-0.325847;0.863003;,
  -0.215664;-0.330288;0.918912;,
  -0.456439;-0.315866;0.831800;,
  -0.809863;-0.027987;0.585952;,
  -0.684761;-0.008700;0.728716;,
  -0.960045;-0.085105;0.266591;,
  -0.992497;-0.107880;-0.057544;,
  -0.785750;-0.219982;-0.578104;,
  -0.886227;-0.114706;-0.448826;,
  -0.585412;-0.212224;-0.782467;,
  -0.713898;-0.002908;-0.700244;,
  -0.448853;-0.062638;-0.891408;,
  -0.087007;-0.105708;-0.990583;,
  0.250280;-0.092227;-0.963771;,
  0.570059;-0.111829;-0.813958;,
  0.811834;-0.113238;-0.572802;,
  0.956559;-0.120301;-0.265561;,
  0.988338;-0.086319;0.125446;,
  0.924571;-0.083176;0.371820;,
  0.710799;-0.091540;0.697413;,
  0.565931;-0.178630;0.804869;,
  0.418654;-0.090767;0.903598;,
  0.041609;-0.055308;0.997602;,
  -0.255206;-0.055692;0.965281;,
  -0.529721;-0.034924;0.847452;,
  -0.779607;0.242364;0.577471;,
  -0.660894;0.234782;0.712810;,
  -0.949421;0.168082;0.265234;,
  -0.954962;0.083518;-0.284733;,
  -0.703449;0.158072;-0.692945;,
  -0.444590;0.169921;-0.879469;,
  -0.256268;0.140846;-0.956289;,
  0.118155;0.114823;-0.986334;,
  0.247286;0.346707;-0.904789;,
  0.419487;0.135321;-0.897618;,
  0.699907;0.135292;-0.701303;,
  0.888503;0.160151;-0.430016;,
  0.904980;0.345512;-0.248260;,
  0.988990;0.145533;-0.026820;,
  0.832724;0.137858;0.536251;,
  0.670773;0.347147;0.655403;,
  0.573604;0.056127;0.817208;,
  0.238306;0.137327;0.961432;,
  -0.001801;0.188393;0.982092;,
  -0.290158;0.240337;0.926308;,
  -0.505334;0.252902;0.825032;,
  -0.628111;0.433456;0.646214;,
  -0.826403;0.415728;0.379774;,
  -0.910830;0.271015;-0.311352;,
  -0.709174;0.362972;-0.604420;,
  -0.480072;0.402340;-0.779521;,
  -0.250596;0.335426;-0.908125;,
  0.105867;0.336052;-0.935875;,
  0.294265;0.521642;-0.800811;,
  0.401985;0.311144;-0.861161;,
  0.671366;0.311250;-0.672601;,
  0.839824;0.330941;-0.430318;,
  0.786875;0.339713;0.515192;,
  0.562630;0.540894;0.625204;,
  0.551378;0.295963;0.779993;,
  0.195579;0.347051;0.917226;,
  -0.276284;0.446541;0.851040;,
  -0.412399;0.421473;0.807643;,
  -0.845184;0.511133;-0.156224;,
  -0.661181;0.737931;-0.135268;,
  -0.564969;0.613133;-0.552157;,
  -0.541547;0.774582;-0.326726;,
  -0.336508;0.663734;-0.667996;,
  -0.182307;0.530671;-0.827739;,
  0.032273;0.541732;-0.839931;,
  0.552705;0.538159;-0.636319;,
  0.786945;0.548004;-0.283567;,
  0.756173;0.527806;0.386812;,
  0.594723;0.724396;0.348646;,
  0.277500;0.554054;0.784868;,
  0.218169;0.741521;0.634467;,
  -0.054558;0.676769;0.734171;,
  -0.450201;0.649282;0.612986;,
  -0.414654;0.906177;-0.083101;,
  -0.312051;0.928917;-0.199341;,
  -0.357995;0.822545;-0.441882;,
  0.032065;0.874705;-0.483594;,
  0.188642;0.913377;-0.360772;,
  0.483240;0.785339;-0.386939;,
  0.578871;0.794550;-0.183299;,
  0.396511;0.898513;0.188294;,
  0.097214;0.918900;0.382324;,
  -0.084391;0.874704;0.477254;,
  -0.107712;0.980836;-0.162353;,
  0.156331;0.984220;-0.082895;,
  0.035618;0.999226;0.016712;,
  0.258169;0.966072;-0.007369;,
  -0.148302;0.973314;-0.175120;,
  0.101610;0.959900;-0.261280;,
  -0.032100;-0.999482;0.002457;,
  0.020752;0.997865;0.061927;,
  0.094697;-0.995443;0.011201;,
  0.003586;-0.999947;-0.009657;,
  -0.018054;-0.997941;-0.061545;,
  0.133989;-0.988149;0.074890;,
  0.002811;-0.956798;-0.290739;,
  0.256083;-0.939026;-0.229460;,
  -0.198601;-0.821934;-0.533836;,
  -0.262058;-0.653376;-0.710229;,
  -0.661044;-0.401793;-0.633706;,
  -0.703172;-0.192726;-0.684402;,
  -0.993185;0.048766;-0.105856;,
  -0.886845;0.065294;-0.457431;,
  -0.053679;0.121052;-0.991194;,
  0.272229;0.150577;-0.950378;,
  0.568339;0.135298;-0.811594;,
  0.807229;0.135065;-0.574576;,
  0.956426;0.136209;-0.258257;,
  0.968746;0.156301;0.192615;,
  0.909415;0.142247;0.390808;,
  0.711794;0.144945;0.687270;,
  0.425287;0.125107;0.896370;,
  -0.956405;0.278804;-0.086937;,
  -0.846160;0.303209;-0.438267;,
  -0.076831;0.345748;-0.935176;,
  0.520014;0.371783;-0.769001;,
  0.754183;0.382737;-0.533592;,
  0.927992;0.371809;0.024267;,
  0.873734;0.343064;0.344814;,
  0.399975;0.345892;0.848751;,
  -0.751871;0.544152;-0.372275;,
  0.673245;0.565104;-0.476863;,
  0.830727;0.556654;0.005372;,
  -0.504411;0.853534;0.130571;,
  -0.153278;0.868203;-0.471943;,
  0.394399;0.791487;0.466902;,
  -0.128445;0.991570;0.017076;,
  0.015409;0.989128;-0.146250;,
  0.035779;0.998589;-0.039236;,
  0.132321;0.985166;0.109266;,
  -0.006802;0.996050;0.088528;,
  0.019777;0.999621;0.019147;,
  -0.068437;0.976624;0.203772;,
  -0.215751;0.975476;0.043563;,
  0.010319;-0.998002;0.062337;,
  -0.486686;-0.339023;0.805109;,
  -0.528744;-0.088127;-0.844194;,
  0.883427;0.393505;-0.254383;,
  -0.754528;-0.518075;0.402848;,
  -0.881562;-0.432338;-0.189559;,
  -0.622323;-0.155899;-0.767079;,
  0.359432;-0.056858;0.931438;,
  -0.275240;-0.385909;0.880521;,
  -0.856001;-0.464594;-0.226749;,
  -0.002375;0.301954;-0.953320;,
  0.561129;0.527643;-0.637751;,
  0.750433;0.230795;0.619342;,
  -0.813380;-0.560442;-0.155941;,
  -0.386385;-0.095415;-0.917389;,
  0.946890;0.167853;0.274269;,
  0.811236;0.128821;0.570352;,
  0.486107;-0.148117;0.861256;,
  -0.369545;0.016709;-0.929063;,
  -0.909494;-0.278333;0.308789;,
  -0.748555;0.102706;-0.655071;,
  -0.096131;0.949754;-0.297870;,
  0.299311;0.818785;-0.489901;,
  0.852905;0.292489;0.432438;,
  -0.482350;-0.250741;0.839325;,
  -0.863937;-0.311422;0.395765;,
  0.030531;0.028381;-0.999131;,
  -0.169288;0.272724;-0.947081;,
  -0.925195;-0.378246;-0.030736;,
  0.346889;0.274338;-0.896887;,
  0.858805;0.265120;0.438366;,
  0.349264;-0.028034;0.936605;,
  -0.785841;-0.481201;0.388457;,
  0.041212;0.249873;-0.967401;,
  -0.062730;0.178641;-0.981913;,
  0.596611;0.420598;-0.683486;,
  0.730571;0.493789;-0.471634;,
  0.861756;0.346631;0.370436;,
  0.627875;0.118324;0.769267;,
  -0.079173;-0.263402;0.961432;,
  -0.834701;-0.531488;0.144206;,
  -0.818563;-0.326473;-0.472621;,
  -0.616572;-0.115258;-0.778816;,
  0.368857;0.443933;-0.816620;,
  0.859055;0.511003;-0.030013;,
  0.865790;0.376963;0.329100;,
  0.209540;-0.230207;0.950315;,
  -0.398597;-0.480090;0.781431;,
  -0.536808;-0.616030;0.576493;,
  -0.680299;-0.664355;0.309556;,
  -0.790213;-0.576515;-0.207830;,
  -0.697473;-0.381345;-0.606719;,
  -0.137236;0.061767;-0.988611;,
  -0.161163;0.036846;-0.986240;,
  0.915535;0.357533;-0.184300;,
  -0.037547;-0.476114;0.878581;,
  -0.606366;-0.674467;0.421207;,
  -0.764700;-0.643185;0.039327;,
  -0.778817;-0.625136;-0.051461;,
  -0.756027;-0.432472;-0.491316;,
  0.876749;0.321589;0.357619;,
  0.835099;0.162587;0.525524;,
  0.404242;-0.276772;0.871772;,
  -0.444209;-0.654930;0.611347;,
  -0.932823;-0.285457;-0.219900;,
  -0.123472;0.549817;-0.826109;,
  0.500051;0.781293;-0.373538;,
  -0.014123;-0.347515;0.937568;,
  0.727235;0.602376;-0.329047;,
  0.237172;0.390180;0.889668;,
  -0.807996;-0.346861;0.476267;,
  -0.913874;-0.304181;-0.268902;,
  -0.354936;-0.041566;-0.933966;,
  0.433576;0.214747;-0.875155;,
  0.866012;0.339859;-0.366769;,
  0.810600;0.215974;0.544319;,
  -0.099815;-0.142217;0.984790;,
  -0.825579;-0.257028;-0.502350;,
  0.913188;0.261447;-0.312623;,
  0.794035;0.201404;0.573538;,
  0.217788;0.009839;0.975946;,
  -0.387020;0.735701;0.555840;,
  -0.315111;0.291224;0.903268;,
  -0.527075;0.786111;-0.322833;,
  -0.407989;0.898100;0.164200;,
  -0.922835;0.381238;-0.055076;,
  -0.464657;0.876822;0.123602;,
  -0.526734;0.768312;0.363658;,
  -0.062243;0.960322;-0.271858;,
  0.641832;0.761099;-0.093708;,
  0.411468;0.571891;-0.709673;,
  0.939047;0.038323;-0.341645;,
  0.207991;0.019922;-0.977928;,
  -0.745299;-0.220610;-0.629175;,
  0.907464;0.416946;0.051623;,
  -0.351045;0.084385;-0.932549;,
  0.796904;0.522859;-0.302594;,
  0.412729;-0.058091;0.909000;,
  -0.608396;-0.257612;-0.750660;,
  0.523857;0.246092;-0.815483;,
  0.803296;0.143599;0.578009;,
  0.217955;-0.336486;0.916118;,
  -0.282705;-0.575555;0.767342;,
  -0.683143;-0.293015;-0.668923;,
  -0.250451;0.084812;-0.964407;,
  0.524361;-0.171324;0.834082;,
  0.061260;-0.447569;0.892149;,
  0.890978;0.411930;0.190974;,
  0.766142;0.091248;0.636160;,
  0.364384;-0.090383;0.926852;,
  -0.688487;0.564278;0.455605;,
  0.043612;0.623654;-0.780483;,
  0.956588;0.284429;0.063549;,
  -0.297730;-0.193262;0.934883;,
  -0.459506;0.879983;0.120349;,
  -0.199046;0.866340;0.458078;,
  -0.202777;0.978121;0.046484;;
  747;
  3;0,1,81;,
  3;81,82,226;,
  3;81,1,82;,
  3;83,84,82;,
  3;84,226,82;,
  3;230,228,84;,
  3;230,85,228;,
  3;85,91,228;,
  3;225,228,229;,
  3;91,229,228;,
  3;91,92,229;,
  3;224,225,229;,
  3;92,2,229;,
  3;224,229,2;,
  3;224,2,3;,
  3;224,3,227;,
  3;4,227,3;,
  3;5,227,4;,
  3;267,227,5;,
  3;267,5,86;,
  3;267,86,87;,
  3;267,87,81;,
  3;0,81,87;,
  3;0,98,88;,
  3;1,0,88;,
  3;1,88,6;,
  3;1,6,7;,
  3;1,7,82;,
  3;8,82,7;,
  3;82,8,83;,
  3;9,83,8;,
  3;83,9,84;,
  3;84,9,10;,
  3;230,84,10;,
  3;10,231,230;,
  3;230,89,85;,
  3;230,231,89;,
  3;91,85,89;,
  3;90,91,89;,
  3;90,93,91;,
  3;93,92,91;,
  3;93,94,92;,
  3;11,92,94;,
  3;2,92,11;,
  3;12,2,11;,
  3;13,3,2;,
  3;13,2,12;,
  3;3,13,95;,
  3;4,3,95;,
  3;14,5,4;,
  3;14,4,96;,
  3;4,95,96;,
  3;15,5,14;,
  3;86,15,16;,
  3;86,5,15;,
  3;87,86,16;,
  3;87,16,97;,
  3;0,87,98;,
  3;87,97,98;,
  3;98,110,99;,
  3;98,99,88;,
  3;100,6,88;,
  3;100,88,99;,
  3;7,6,100;,
  3;7,100,101;,
  3;17,8,7;,
  3;17,7,101;,
  3;102,9,8;,
  3;102,8,17;,
  3;10,9,102;,
  3;10,102,18;,
  3;231,10,18;,
  3;18,103,231;,
  3;89,231,19;,
  3;103,19,231;,
  3;90,89,19;,
  3;90,19,20;,
  3;90,20,21;,
  3;90,21,93;,
  3;93,21,104;,
  3;93,104,94;,
  3;11,94,104;,
  3;11,104,105;,
  3;22,12,11;,
  3;22,11,105;,
  3;23,13,12;,
  3;23,12,22;,
  3;95,13,23;,
  3;95,23,106;,
  3;108,14,96;,
  3;108,96,107;,
  3;95,106,107;,
  3;95,107,96;,
  3;127,108,107;,
  3;24,15,14;,
  3;24,14,108;,
  3;109,16,15;,
  3;109,15,24;,
  3;97,16,109;,
  3;97,109,25;,
  3;98,97,25;,
  3;98,25,110;,
  3;110,112,111;,
  3;110,111,99;,
  3;26,100,99;,
  3;26,99,111;,
  3;27,101,100;,
  3;27,100,113;,
  3;100,26,113;,
  3;101,27,114;,
  3;28,17,101;,
  3;28,101,114;,
  3;17,28,116;,
  3;135,115,116;,
  3;115,102,17;,
  3;115,17,116;,
  3;102,115,232;,
  3;135,233,232;,
  3;135,232,115;,
  3;233,137,117;,
  3;233,117,232;,
  3;18,102,232;,
  3;18,232,117;,
  3;103,118,29;,
  3;103,18,117;,
  3;103,117,118;,
  3;137,118,117;,
  3;103,29,119;,
  3;103,119,19;,
  3;30,19,119;,
  3;20,120,31;,
  3;19,30,120;,
  3;19,120,20;,
  3;20,31,121;,
  3;20,121,21;,
  3;21,121,32;,
  3;21,32,122;,
  3;21,122,104;,
  3;105,104,122;,
  3;105,122,33;,
  3;22,105,123;,
  3;22,123,34;,
  3;105,33,123;,
  3;22,34,124;,
  3;35,23,22;,
  3;35,22,124;,
  3;106,23,35;,
  3;106,35,125;,
  3;106,125,36;,
  3;127,107,126;,
  3;106,36,126;,
  3;106,126,107;,
  3;148,127,126;,
  3;127,128,108;,
  3;127,148,128;,
  3;24,108,128;,
  3;24,128,37;,
  3;38,109,24;,
  3;24,37,38;,
  3;109,38,129;,
  3;25,109,129;,
  3;25,129,39;,
  3;110,130,112;,
  3;25,39,130;,
  3;25,130,110;,
  3;111,112,132;,
  3;111,132,131;,
  3;26,111,131;,
  3;26,131,40;,
  3;27,113,133;,
  3;27,133,41;,
  3;26,40,133;,
  3;26,133,113;,
  3;27,41,134;,
  3;27,134,114;,
  3;42,28,114;,
  3;42,114,134;,
  3;28,42,136;,
  3;28,136,116;,
  3;43,135,136;,
  3;135,116,136;,
  3;43,138,233;,
  3;43,233,135;,
  3;44,137,233;,
  3;44,233,138;,
  3;45,29,118;,
  3;45,118,139;,
  3;118,137,139;,
  3;44,139,137;,
  3;29,45,140;,
  3;29,140,119;,
  3;46,30,119;,
  3;46,119,140;,
  3;31,120,141;,
  3;31,141,47;,
  3;30,46,141;,
  3;30,141,120;,
  3;31,47,142;,
  3;31,142,121;,
  3;32,121,142;,
  3;32,142,48;,
  3;32,48,143;,
  3;32,143,122;,
  3;33,122,143;,
  3;33,143,49;,
  3;34,123,144;,
  3;34,144,50;,
  3;123,33,49;,
  3;123,49,144;,
  3;34,50,145;,
  3;34,145,124;,
  3;51,35,124;,
  3;51,124,145;,
  3;35,51,146;,
  3;35,146,125;,
  3;36,125,146;,
  3;36,146,52;,
  3;148,126,147;,
  3;36,52,147;,
  3;36,147,126;,
  3;169,148,147;,
  3;148,149,128;,
  3;169,149,148;,
  3;37,128,149;,
  3;37,149,53;,
  3;54,38,150;,
  3;38,37,53;,
  3;38,53,150;,
  3;38,54,151;,
  3;38,151,129;,
  3;39,129,151;,
  3;39,151,55;,
  3;112,130,152;,
  3;112,152,132;,
  3;130,39,55;,
  3;130,55,152;,
  3;131,132,154;,
  3;131,154,153;,
  3;40,131,153;,
  3;40,153,56;,
  3;41,133,155;,
  3;41,155,57;,
  3;133,40,56;,
  3;133,56,155;,
  3;134,41,57;,
  3;134,57,234;,
  3;57,245,234;,
  3;245,176,156;,
  3;245,156,234;,
  3;42,134,234;,
  3;42,234,156;,
  3;42,156,235;,
  3;42,235,136;,
  3;176,246,235;,
  3;176,235,156;,
  3;58,235,246;,
  3;43,136,235;,
  3;43,235,58;,
  3;43,58,157;,
  3;43,157,138;,
  3;59,44,138;,
  3;59,138,157;,
  3;159,45,139;,
  3;159,139,158;,
  3;44,59,158;,
  3;44,158,139;,
  3;179,159,158;,
  3;45,159,236;,
  3;45,236,140;,
  3;159,179,247;,
  3;159,247,236;,
  3;180,160,236;,
  3;180,236,247;,
  3;46,140,236;,
  3;46,236,160;,
  3;47,141,237;,
  3;47,237,162;,
  3;141,46,160;,
  3;141,160,237;,
  3;180,161,237;,
  3;180,237,160;,
  3;182,162,237;,
  3;182,237,161;,
  3;47,162,238;,
  3;47,238,142;,
  3;182,248,238;,
  3;182,238,162;,
  3;183,163,238;,
  3;183,238,248;,
  3;48,142,238;,
  3;48,238,163;,
  3;48,163,239;,
  3;48,239,143;,
  3;183,249,239;,
  3;183,239,163;,
  3;184,164,239;,
  3;184,239,249;,
  3;49,143,239;,
  3;49,239,164;,
  3;50,144,240;,
  3;50,240,166;,
  3;49,164,240;,
  3;49,240,144;,
  3;164,184,165;,
  3;164,165,240;,
  3;250,166,240;,
  3;250,240,165;,
  3;145,50,166;,
  3;145,166,241;,
  3;250,241,166;,
  3;250,60,241;,
  3;51,145,241;,
  3;51,241,60;,
  3;146,51,60;,
  3;146,60,242;,
  3;60,251,242;,
  3;185,167,242;,
  3;185,242,251;,
  3;52,146,242;,
  3;52,242,167;,
  3;169,147,243;,
  3;52,167,243;,
  3;52,243,147;,
  3;185,168,243;,
  3;185,243,167;,
  3;187,169,243;,
  3;187,243,168;,
  3;169,244,149;,
  3;187,252,244;,
  3;187,244,169;,
  3;252,188,170;,
  3;252,170,244;,
  3;53,149,244;,
  3;53,244,170;,
  3;54,150,171;,
  3;54,171,61;,
  3;150,53,170;,
  3;150,170,171;,
  3;188,171,170;,
  3;54,61,172;,
  3;54,172,151;,
  3;62,55,151;,
  3;62,151,172;,
  3;132,152,173;,
  3;132,173,154;,
  3;55,62,173;,
  3;55,173,152;,
  3;154,174,153;,
  3;175,56,153;,
  3;175,153,174;,
  3;57,155,175;,
  3;57,175,63;,
  3;155,56,175;,
  3;245,57,63;,
  3;63,191,245;,
  3;191,176,245;,
  3;191,253,246;,
  3;191,246,176;,
  3;253,177,246;,
  3;58,246,177;,
  3;58,177,157;,
  3;178,59,157;,
  3;178,157,177;,
  3;179,158,178;,
  3;59,178,158;,
  3;178,196,179;,
  3;196,197,247;,
  3;196,247,179;,
  3;197,180,247;,
  3;180,197,181;,
  3;180,181,161;,
  3;181,182,161;,
  3;181,198,248;,
  3;181,248,182;,
  3;198,183,248;,
  3;198,254,249;,
  3;198,249,183;,
  3;199,184,249;,
  3;199,249,254;,
  3;184,199,165;,
  3;199,255,250;,
  3;199,250,165;,
  3;255,64,250;,
  3;60,250,64;,
  3;60,64,251;,
  3;64,200,251;,
  3;200,185,251;,
  3;185,200,186;,
  3;185,186,168;,
  3;186,187,168;,
  3;186,202,252;,
  3;186,252,187;,
  3;202,188,252;,
  3;61,171,65;,
  3;171,188,65;,
  3;202,65,188;,
  3;172,61,65;,
  3;172,65,189;,
  3;190,62,172;,
  3;190,172,189;,
  3;174,154,173;,
  3;174,173,190;,
  3;62,190,173;,
  3;174,205,66;,
  3;175,174,66;,
  3;63,175,67;,
  3;175,66,67;,
  3;63,67,191;,
  3;67,192,191;,
  3;192,194,253;,
  3;192,253,191;,
  3;194,193,253;,
  3;177,253,193;,
  3;194,208,193;,
  3;208,195,193;,
  3;178,177,193;,
  3;178,193,195;,
  3;196,178,195;,
  3;195,68,196;,
  3;68,197,196;,
  3;69,197,68;,
  3;69,181,197;,
  3;70,181,69;,
  3;70,198,181;,
  3;211,198,70;,
  3;198,211,254;,
  3;211,212,199;,
  3;211,199,254;,
  3;212,71,255;,
  3;212,255,199;,
  3;71,72,255;,
  3;64,255,72;,
  3;64,72,200;,
  3;72,201,200;,
  3;201,258,186;,
  3;201,186,200;,
  3;258,203,202;,
  3;258,202,186;,
  3;65,202,204;,
  3;203,204,202;,
  3;189,65,204;,
  3;189,204,73;,
  3;190,189,73;,
  3;205,174,190;,
  3;190,73,205;,
  3;205,74,66;,
  3;66,74,256;,
  3;66,256,67;,
  3;74,259,256;,
  3;67,256,206;,
  3;67,206,192;,
  3;256,259,206;,
  3;194,192,206;,
  3;194,206,207;,
  3;208,194,207;,
  3;207,216,208;,
  3;68,195,257;,
  3;195,208,257;,
  3;216,260,257;,
  3;216,257,208;,
  3;68,257,209;,
  3;257,260,209;,
  3;209,69,68;,
  3;70,69,210;,
  3;69,209,210;,
  3;209,260,210;,
  3;217,211,210;,
  3;211,70,210;,
  3;217,212,211;,
  3;71,212,75;,
  3;217,75,212;,
  3;72,71,75;,
  3;72,75,213;,
  3;72,213,201;,
  3;201,213,258;,
  3;213,262,258;,
  3;203,258,214;,
  3;258,262,214;,
  3;204,203,214;,
  3;204,214,215;,
  3;73,204,215;,
  3;76,73,215;,
  3;74,205,76;,
  3;73,76,205;,
  3;74,264,259;,
  3;264,219,259;,
  3;259,77,206;,
  3;259,219,77;,
  3;207,206,77;,
  3;216,207,77;,
  3;77,78,216;,
  3;78,260,216;,
  3;260,261,210;,
  3;260,78,265;,
  3;260,265,261;,
  3;265,217,261;,
  3;217,210,261;,
  3;265,266,217;,
  3;218,75,217;,
  3;218,217,266;,
  3;75,218,213;,
  3;262,213,218;,
  3;218,220,262;,
  3;79,262,220;,
  3;262,79,214;,
  3;214,79,263;,
  3;214,263,215;,
  3;79,221,263;,
  3;263,76,215;,
  3;264,74,76;,
  3;76,263,264;,
  3;263,221,264;,
  3;221,223,219;,
  3;264,221,219;,
  3;223,78,219;,
  3;77,219,78;,
  3;223,265,78;,
  3;223,266,265;,
  3;218,266,220;,
  3;223,220,266;,
  3;221,79,220;,
  3;226,84,222;,
  3;84,228,222;,
  3;222,228,225;,
  3;225,80,222;,
  3;80,225,224;,
  3;224,227,80;,
  3;227,267,80;,
  3;226,80,267;,
  3;81,226,267;,
  3;221,220,223;,
  3;222,80,226;,
  3;295,268,299;,
  3;271,272,299;,
  3;295,299,360;,
  3;272,360,299;,
  3;272,273,360;,
  3;295,360,269;,
  3;301,269,360;,
  3;273,300,360;,
  3;300,301,360;,
  3;269,301,296;,
  3;296,301,302;,
  3;300,302,301;,
  3;302,300,303;,
  3;270,296,302;,
  3;270,302,361;,
  3;303,304,361;,
  3;303,361,302;,
  3;297,270,361;,
  3;305,297,361;,
  3;304,305,361;,
  3;298,297,305;,
  3;304,274,305;,
  3;298,305,306;,
  3;274,306,305;,
  3;268,298,306;,
  3;274,275,306;,
  3;268,306,299;,
  3;275,271,299;,
  3;275,299,306;,
  3;271,314,307;,
  3;315,307,314;,
  3;307,272,271;,
  3;276,307,315;,
  3;308,272,307;,
  3;276,308,307;,
  3;308,273,272;,
  3;308,276,309;,
  3;273,308,362;,
  3;308,309,362;,
  3;273,362,300;,
  3;277,362,309;,
  3;310,300,362;,
  3;277,310,362;,
  3;278,310,277;,
  3;300,310,303;,
  3;303,310,363;,
  3;278,311,363;,
  3;278,363,310;,
  3;304,363,312;,
  3;303,363,304;,
  3;311,312,363;,
  3;311,279,312;,
  3;274,304,364;,
  3;304,312,364;,
  3;279,364,312;,
  3;279,313,364;,
  3;275,274,364;,
  3;275,364,314;,
  3;313,314,364;,
  3;313,315,314;,
  3;271,275,314;,
  3;317,276,315;,
  3;317,315,316;,
  3;280,317,316;,
  3;280,316,323;,
  3;276,317,365;,
  3;276,365,309;,
  3;317,280,318;,
  3;317,318,365;,
  3;281,365,318;,
  3;319,277,309;,
  3;319,309,365;,
  3;281,319,365;,
  3;319,281,320;,
  3;366,278,277;,
  3;277,319,366;,
  3;319,320,359;,
  3;319,359,366;,
  3;321,278,366;,
  3;358,321,366;,
  3;358,366,359;,
  3;311,278,321;,
  3;358,282,321;,
  3;279,311,367;,
  3;311,321,367;,
  3;282,367,321;,
  3;282,283,367;,
  3;283,284,367;,
  3;313,279,367;,
  3;313,367,368;,
  3;284,368,367;,
  3;284,322,368;,
  3;315,313,368;,
  3;315,368,369;,
  3;322,369,368;,
  3;315,369,316;,
  3;322,323,369;,
  3;323,316,369;,
  3;323,330,325;,
  3;324,325,330;,
  3;325,280,323;,
  3;325,324,326;,
  3;280,325,370;,
  3;280,370,318;,
  3;325,326,370;,
  3;370,281,318;,
  3;285,370,326;,
  3;281,370,371;,
  3;370,285,371;,
  3;281,371,320;,
  3;378,371,285;,
  3;283,282,327;,
  3;283,327,328;,
  3;374,328,327;,
  3;374,375,328;,
  3;284,283,372;,
  3;283,328,372;,
  3;375,372,328;,
  3;375,329,372;,
  3;322,284,372;,
  3;322,372,373;,
  3;329,334,373;,
  3;329,373,372;,
  3;322,373,330;,
  3;334,330,373;,
  3;323,322,330;,
  3;324,330,286;,
  3;331,324,286;,
  3;324,331,326;,
  3;326,331,287;,
  3;285,326,287;,
  3;332,285,287;,
  3;350,332,287;,
  3;332,378,285;,
  3;378,332,289;,
  3;356,289,333;,
  3;356,378,289;,
  3;333,374,356;,
  3;335,374,333;,
  3;335,290,374;,
  3;374,290,375;,
  3;336,375,290;,
  3;375,336,376;,
  3;334,329,376;,
  3;329,375,376;,
  3;349,334,376;,
  3;349,376,336;,
  3;349,291,334;,
  3;330,291,286;,
  3;330,334,291;,
  3;286,352,331;,
  3;287,331,352;,
  3;288,332,350;,
  3;332,288,289;,
  3;286,291,377;,
  3;268,295,337;,
  3;292,337,338;,
  3;292,338,344;,
  3;337,295,338;,
  3;344,338,339;,
  3;338,295,269;,
  3;338,269,339;,
  3;344,339,293;,
  3;339,269,296;,
  3;296,340,339;,
  3;293,339,340;,
  3;345,293,340;,
  3;345,340,341;,
  3;296,341,340;,
  3;296,270,341;,
  3;345,341,342;,
  3;270,297,342;,
  3;270,342,341;,
  3;346,345,342;,
  3;297,298,342;,
  3;347,346,342;,
  3;347,342,343;,
  3;298,343,342;,
  3;298,268,343;,
  3;380,347,343;,
  3;268,337,343;,
  3;337,292,343;,
  3;350,381,353;,
  3;348,351,354;,
  3;353,354,351;,
  3;349,336,348;,
  3;288,350,353;,
  3;288,353,355;,
  3;355,353,351;,
  3;382,348,336;,
  3;382,351,348;,
  3;350,287,352;,
  3;352,377,353;,
  3;377,354,353;,
  3;354,377,349;,
  3;354,349,348;,
  3;286,377,352;,
  3;377,291,349;,
  3;351,382,383;,
  3;333,355,335;,
  3;355,351,383;,
  3;289,355,333;,
  3;355,289,288;,
  3;282,358,379;,
  3;359,320,371;,
  3;294,371,378;,
  3;294,359,371;,
  3;356,374,327;,
  3;327,282,379;,
  3;356,327,379;,
  3;378,356,357;,
  3;356,379,357;,
  3;294,378,357;,
  3;359,294,357;,
  4;379,358,359,357;;
 }
 MeshTextureCoords {
  435;
  0.550100;0.420910;,
  0.548080;0.420820;,
  0.549940;0.421730;,
  0.546950;0.421140;,
  0.550090;0.421680;,
  0.545880;0.420700;,
  0.547010;0.421010;,
  0.546570;0.420080;,
  0.549970;0.421360;,
  0.548800;0.420560;,
  0.551460;0.420010;,
  0.551850;0.421660;,
  0.552930;0.421210;,
  0.553730;0.420010;,
  0.553750;0.421670;,
  0.555600;0.420880;,
  0.556960;0.420980;,
  0.555730;0.421600;,
  0.557780;0.420780;,
  0.556450;0.421320;,
  0.553160;0.421840;,
  0.554770;0.421360;,
  0.552810;0.421240;,
  0.550890;0.419450;,
  0.548910;0.419430;,
  0.547140;0.419390;,
  0.545290;0.419330;,
  0.544260;0.419260;,
  0.544200;0.419160;,
  0.544680;0.419090;,
  0.544750;0.417860;,
  0.548140;0.419300;,
  0.549920;0.418410;,
  0.535920;0.413420;,
  0.558830;0.413380;,
  0.548120;0.426050;,
  0.552820;0.418400;,
  0.554960;0.418420;,
  0.556510;0.419010;,
  0.558320;0.419070;,
  0.559170;0.419130;,
  0.559590;0.419210;,
  0.558900;0.419630;,
  0.559550;0.419360;,
  0.557280;0.419790;,
  0.555560;0.419640;,
  0.553580;0.419480;,
  0.550630;0.417010;,
  0.548130;0.416990;,
  0.545890;0.416940;,
  0.543540;0.416860;,
  0.542290;0.416770;,
  0.542320;0.416670;,
  0.542880;0.416600;,
  0.543620;0.415840;,
  0.546400;0.416460;,
  0.549560;0.416420;,
  0.552990;0.416420;,
  0.555510;0.416430;,
  0.557750;0.416470;,
  0.559990;0.416550;,
  0.561010;0.416610;,
  0.561600;0.416690;,
  0.560490;0.416990;,
  0.561560;0.416800;,
  0.561780;0.415470;,
  0.558620;0.417050;,
  0.555650;0.416990;,
  0.553170;0.416990;,
  0.549490;0.414170;,
  0.547600;0.414140;,
  0.545840;0.414100;,
  0.542930;0.414010;,
  0.544270;0.414060;,
  0.541870;0.413960;,
  0.541120;0.413910;,
  0.540760;0.413860;,
  0.540300;0.412250;,
  0.541040;0.414560;,
  0.541300;0.414510;,
  0.540550;0.412190;,
  0.541050;0.412140;,
  0.541780;0.414460;,
  0.542260;0.413640;,
  0.543370;0.413590;,
  0.544800;0.413550;,
  0.546470;0.413520;,
  0.548290;0.413500;,
  0.550210;0.413480;,
  0.552170;0.413480;,
  0.554130;0.413480;,
  0.556010;0.413500;,
  0.557770;0.413530;,
  0.559360;0.413560;,
  0.560730;0.413610;,
  0.561700;0.413660;,
  0.562350;0.413710;,
  0.562840;0.413760;,
  0.563070;0.413820;,
  0.562870;0.413890;,
  0.562660;0.412400;,
  0.561420;0.414040;,
  0.560240;0.414070;,
  0.557940;0.414090;,
  0.555250;0.414130;,
  0.553360;0.414150;,
  0.551440;0.414170;,
  0.549360;0.411020;,
  0.547370;0.411000;,
  0.545500;0.410960;,
  0.543840;0.410910;,
  0.542420;0.410860;,
  0.541300;0.410810;,
  0.540520;0.410750;,
  0.540130;0.410700;,
  0.540070;0.409820;,
  0.540310;0.409750;,
  0.540810;0.409690;,
  0.542870;0.410420;,
  0.541670;0.410460;,
  0.544410;0.410380;,
  0.546190;0.410340;,
  0.548110;0.410320;,
  0.550130;0.410310;,
  0.552190;0.410300;,
  0.554250;0.410310;,
  0.556230;0.410330;,
  0.558100;0.410360;,
  0.559810;0.410390;,
  0.561270;0.410440;,
  0.562290;0.410490;,
  0.562950;0.410550;,
  0.563440;0.410600;,
  0.563670;0.410660;,
  0.563450;0.410720;,
  0.562840;0.409130;,
  0.561920;0.410840;,
  0.560680;0.410880;,
  0.557370;0.410950;,
  0.559160;0.410920;,
  0.555430;0.410980;,
  0.553450;0.411010;,
  0.551420;0.411030;,
  0.549420;0.407710;,
  0.547460;0.407690;,
  0.545620;0.407640;,
  0.543920;0.407590;,
  0.542440;0.407530;,
  0.541200;0.408310;,
  0.541540;0.405850;,
  0.540800;0.405790;,
  0.540450;0.408250;,
  0.540130;0.408190;,
  0.540490;0.405730;,
  0.540180;0.407300;,
  0.540430;0.407240;,
  0.540960;0.407180;,
  0.542920;0.407930;,
  0.541820;0.407140;,
  0.543350;0.405530;,
  0.544450;0.407890;,
  0.544830;0.405510;,
  0.546500;0.405490;,
  0.546220;0.407870;,
  0.548130;0.407850;,
  0.550140;0.407840;,
  0.548320;0.405470;,
  0.550220;0.405460;,
  0.552190;0.407830;,
  0.552170;0.405450;,
  0.554110;0.405460;,
  0.554230;0.407840;,
  0.556200;0.407860;,
  0.555980;0.405480;,
  0.557750;0.405510;,
  0.558080;0.407880;,
  0.559810;0.407920;,
  0.561240;0.407970;,
  0.559360;0.405540;,
  0.561150;0.405610;,
  0.562190;0.408020;,
  0.562650;0.407260;,
  0.563340;0.408130;,
  0.562740;0.405740;,
  0.562990;0.405790;,
  0.563590;0.408190;,
  0.563370;0.408240;,
  0.562800;0.405850;,
  0.562240;0.405890;,
  0.561860;0.408350;,
  0.561360;0.405930;,
  0.560200;0.405970;,
  0.560630;0.408390;,
  0.559010;0.407600;,
  0.557260;0.407620;,
  0.555360;0.407650;,
  0.553420;0.407690;,
  0.551430;0.407710;,
  0.548750;0.404580;,
  0.545360;0.404490;,
  0.543150;0.404380;,
  0.542410;0.402860;,
  0.541760;0.402800;,
  0.540990;0.404130;,
  0.542120;0.404060;,
  0.544410;0.402670;,
  0.546440;0.402660;,
  0.549580;0.402630;,
  0.552980;0.402620;,
  0.555470;0.402640;,
  0.557700;0.402670;,
  0.559910;0.402730;,
  0.561640;0.404200;,
  0.561480;0.402890;,
  0.561200;0.402980;,
  0.559680;0.403040;,
  0.557590;0.404480;,
  0.555050;0.404520;,
  0.552370;0.404570;,
  0.550760;0.401910;,
  0.547750;0.401830;,
  0.545050;0.401700;,
  0.543720;0.401030;,
  0.543220;0.400970;,
  0.542230;0.402070;,
  0.544220;0.400470;,
  0.543480;0.401730;,
  0.546070;0.400890;,
  0.548530;0.400880;,
  0.551350;0.400870;,
  0.554070;0.400490;,
  0.556510;0.400490;,
  0.558750;0.400920;,
  0.560050;0.401590;,
  0.560070;0.401110;,
  0.559280;0.400740;,
  0.558530;0.401210;,
  0.556650;0.401830;,
  0.553780;0.401880;,
  0.504130;0.418410;,
  0.508710;0.423600;,
  0.501690;0.424430;,
  0.507460;0.429540;,
  0.502640;0.430850;,
  0.563020;0.407680;,
  0.562830;0.410730;,
  0.564940;0.410410;,
  0.512900;0.433190;,
  0.529500;0.418910;,
  0.539760;0.421250;,
  0.535320;0.423770;,
  0.564290;0.413230;,
  0.556100;0.421370;,
  0.548750;0.417800;,
  0.553190;0.415280;,
  0.536850;0.430160;,
  0.541550;0.411400;,
  0.548140;0.424630;,
  0.545070;0.424690;,
  0.527900;0.413740;,
  0.539190;0.408220;,
  0.563310;0.415700;,
  0.560700;0.416570;,
  0.562440;0.418770;,
  0.545980;0.400020;,
  0.557930;0.417800;,
  0.559630;0.419680;,
  0.547850;0.400070;,
  0.556930;0.420130;,
  0.551160;0.399790;,
  0.553650;0.418510;,
  0.552000;0.414810;,
  0.550490;0.417550;,
  0.549010;0.414840;,
  0.557720;0.399900;,
  0.549920;0.410780;,
  0.547900;0.409180;,
  0.550780;0.407940;,
  0.549230;0.406950;,
  0.551530;0.404840;,
  0.553220;0.407000;,
  0.525340;0.407730;,
  0.534200;0.408890;,
  0.526260;0.411040;,
  0.554490;0.404540;,
  0.516370;0.409110;,
  0.517410;0.413720;,
  0.509490;0.413330;,
  0.511880;0.417510;,
  0.560720;0.408680;,
  0.560050;0.411380;,
  0.561440;0.413460;,
  0.557990;0.415170;,
  0.554600;0.416580;,
  0.555880;0.414710;,
  0.554100;0.413150;,
  0.552420;0.410550;,
  0.555260;0.409770;,
  0.555430;0.407330;,
  0.557800;0.406460;,
  0.557830;0.404280;,
  0.557910;0.409200;,
  0.560470;0.405190;,
  0.070520;0.562860;,
  0.062210;0.516820;,
  0.107240;0.527470;,
  0.059480;0.511490;,
  0.078480;0.469090;,
  0.110300;0.525610;,
  0.063500;0.511300;,
  0.097820;0.484030;,
  0.103960;0.520500;,
  0.060400;0.519560;,
  0.110640;0.543190;,
  0.083720;0.576160;,
  0.062070;0.511590;,
  0.086980;0.483260;,
  0.100300;0.525590;,
  0.550410;0.421610;,
  0.552550;0.421170;,
  0.056980;0.477430;,
  0.092610;0.485940;,
  0.063460;0.519770;,
  0.602610;0.852210;,
  0.605350;0.852170;,
  0.606600;0.848480;,
  0.609440;0.844990;,
  0.607230;0.844750;,
  0.603410;0.848090;,
  0.605420;0.844360;,
  0.599830;0.851820;,
  0.601540;0.847470;,
  0.604130;0.843690;,
  0.599190;0.851360;,
  0.602020;0.847170;,
  0.605060;0.843420;,
  0.600600;0.851200;,
  0.604350;0.847240;,
  0.607860;0.843730;,
  0.602680;0.851360;,
  0.606750;0.847690;,
  0.604930;0.851790;,
  0.610230;0.844390;,
  0.607800;0.848190;,
  0.610590;0.844850;,
  0.612910;0.841980;,
  0.611020;0.841980;,
  0.614840;0.839790;,
  0.612270;0.839580;,
  0.609040;0.841650;,
  0.610380;0.839130;,
  0.607030;0.841030;,
  0.608840;0.838430;,
  0.606910;0.840460;,
  0.609220;0.838200;,
  0.608180;0.840390;,
  0.610740;0.838160;,
  0.610250;0.840640;,
  0.613630;0.838620;,
  0.612630;0.841340;,
  0.615330;0.839310;,
  0.614160;0.838120;,
  0.615960;0.838300;,
  0.615330;0.837070;,
  0.617340;0.837280;,
  0.611600;0.837470;,
  0.613410;0.836650;,
  0.611810;0.836130;,
  0.610330;0.836890;,
  0.611070;0.835710;,
  0.610320;0.836830;,
  0.610080;0.835520;,
  0.612000;0.836690;,
  0.611330;0.835670;,
  0.614340;0.835450;,
  0.615370;0.837050;,
  0.616370;0.835820;,
  0.618000;0.836380;,
  0.617100;0.837760;,
  0.618680;0.836970;,
  0.617210;0.838160;,
  0.619810;0.836100;,
  0.617040;0.836340;,
  0.618660;0.835710;,
  0.615680;0.835230;,
  0.613710;0.835650;,
  0.612780;0.834310;,
  0.611780;0.834940;,
  0.612160;0.833630;,
  0.615040;0.834520;,
  0.617220;0.834850;,
  0.617080;0.833470;,
  0.619150;0.833870;,
  0.619010;0.835450;,
  0.620450;0.834890;,
  0.619860;0.836100;,
  0.621360;0.834760;,
  0.620380;0.834690;,
  0.617090;0.834610;,
  0.615020;0.833690;,
  0.613280;0.833070;,
  0.615170;0.832680;,
  0.613970;0.832820;,
  0.613560;0.833710;,
  0.615870;0.832570;,
  0.617440;0.831910;,
  0.619450;0.832180;,
  0.621270;0.832970;,
  0.620920;0.833950;,
  0.622190;0.833600;,
  0.621890;0.834640;,
  0.617770;0.833230;,
  0.615020;0.832290;,
  0.620530;0.833430;,
  0.602410;0.856180;,
  0.601830;0.860060;,
  0.600030;0.856130;,
  0.598750;0.860110;,
  0.597920;0.855870;,
  0.596050;0.859800;,
  0.597190;0.855480;,
  0.597490;0.859560;,
  0.598540;0.855350;,
  0.601330;0.855490;,
  0.600490;0.859630;,
  0.602060;0.859820;,
  0.603500;0.855930;,
  0.618270;0.832810;,
  0.620970;0.832770;,
  0.618780;0.832160;,
  0.620290;0.833060;,
  0.616650;0.832250;,
  0.612290;0.834650;,
  0.610750;0.834480;,
  0.610030;0.834210;;
 }
 MeshVertexColors {
  435;
  0;1.000000;1.000000;1.000000;1.000000;,
  1;1.000000;1.000000;1.000000;1.000000;,
  2;1.000000;1.000000;1.000000;1.000000;,
  3;1.000000;1.000000;1.000000;1.000000;,
  4;1.000000;1.000000;1.000000;1.000000;,
  5;1.000000;1.000000;1.000000;1.000000;,
  6;1.000000;1.000000;1.000000;1.000000;,
  7;1.000000;1.000000;1.000000;1.000000;,
  8;1.000000;1.000000;1.000000;1.000000;,
  9;1.000000;1.000000;1.000000;1.000000;,
  10;1.000000;1.000000;1.000000;1.000000;,
  11;1.000000;1.000000;1.000000;1.000000;,
  12;1.000000;1.000000;1.000000;1.000000;,
  13;1.000000;1.000000;1.000000;1.000000;,
  14;1.000000;1.000000;1.000000;1.000000;,
  15;1.000000;1.000000;1.000000;1.000000;,
  16;1.000000;1.000000;1.000000;1.000000;,
  17;1.000000;1.000000;1.000000;1.000000;,
  18;1.000000;1.000000;1.000000;1.000000;,
  19;1.000000;1.000000;1.000000;1.000000;,
  20;1.000000;1.000000;1.000000;1.000000;,
  21;1.000000;1.000000;1.000000;1.000000;,
  22;1.000000;1.000000;1.000000;1.000000;,
  23;1.000000;1.000000;1.000000;1.000000;,
  24;1.000000;1.000000;1.000000;1.000000;,
  25;1.000000;1.000000;1.000000;1.000000;,
  26;1.000000;1.000000;1.000000;1.000000;,
  27;1.000000;1.000000;1.000000;1.000000;,
  28;1.000000;1.000000;1.000000;1.000000;,
  29;1.000000;1.000000;1.000000;1.000000;,
  30;1.000000;1.000000;1.000000;1.000000;,
  31;1.000000;1.000000;1.000000;1.000000;,
  32;1.000000;1.000000;1.000000;1.000000;,
  33;1.000000;1.000000;1.000000;1.000000;,
  34;1.000000;1.000000;1.000000;1.000000;,
  35;1.000000;1.000000;1.000000;1.000000;,
  36;1.000000;1.000000;1.000000;1.000000;,
  37;1.000000;1.000000;1.000000;1.000000;,
  38;1.000000;1.000000;1.000000;1.000000;,
  39;1.000000;1.000000;1.000000;1.000000;,
  40;1.000000;1.000000;1.000000;1.000000;,
  41;1.000000;1.000000;1.000000;1.000000;,
  42;1.000000;1.000000;1.000000;1.000000;,
  43;1.000000;1.000000;1.000000;1.000000;,
  44;1.000000;1.000000;1.000000;1.000000;,
  45;1.000000;1.000000;1.000000;1.000000;,
  46;1.000000;1.000000;1.000000;1.000000;,
  47;1.000000;1.000000;1.000000;1.000000;,
  48;1.000000;1.000000;1.000000;1.000000;,
  49;1.000000;1.000000;1.000000;1.000000;,
  50;1.000000;1.000000;1.000000;1.000000;,
  51;1.000000;1.000000;1.000000;1.000000;,
  52;1.000000;1.000000;1.000000;1.000000;,
  53;1.000000;1.000000;1.000000;1.000000;,
  54;1.000000;1.000000;1.000000;1.000000;,
  55;1.000000;1.000000;1.000000;1.000000;,
  56;1.000000;1.000000;1.000000;1.000000;,
  57;1.000000;1.000000;1.000000;1.000000;,
  58;1.000000;1.000000;1.000000;1.000000;,
  59;1.000000;1.000000;1.000000;1.000000;,
  60;1.000000;1.000000;1.000000;1.000000;,
  61;1.000000;1.000000;1.000000;1.000000;,
  62;1.000000;1.000000;1.000000;1.000000;,
  63;1.000000;1.000000;1.000000;1.000000;,
  64;1.000000;1.000000;1.000000;1.000000;,
  65;1.000000;1.000000;1.000000;1.000000;,
  66;1.000000;1.000000;1.000000;1.000000;,
  67;1.000000;1.000000;1.000000;1.000000;,
  68;1.000000;1.000000;1.000000;1.000000;,
  69;1.000000;1.000000;1.000000;1.000000;,
  70;1.000000;1.000000;1.000000;1.000000;,
  71;1.000000;1.000000;1.000000;1.000000;,
  72;1.000000;1.000000;1.000000;1.000000;,
  73;1.000000;1.000000;1.000000;1.000000;,
  74;1.000000;1.000000;1.000000;1.000000;,
  75;1.000000;1.000000;1.000000;1.000000;,
  76;1.000000;1.000000;1.000000;1.000000;,
  77;1.000000;1.000000;1.000000;1.000000;,
  78;1.000000;1.000000;1.000000;1.000000;,
  79;1.000000;1.000000;1.000000;1.000000;,
  80;1.000000;1.000000;1.000000;1.000000;,
  81;1.000000;1.000000;1.000000;1.000000;,
  82;1.000000;1.000000;1.000000;1.000000;,
  83;1.000000;1.000000;1.000000;1.000000;,
  84;1.000000;1.000000;1.000000;1.000000;,
  85;1.000000;1.000000;1.000000;1.000000;,
  86;1.000000;1.000000;1.000000;1.000000;,
  87;1.000000;1.000000;1.000000;1.000000;,
  88;1.000000;1.000000;1.000000;1.000000;,
  89;1.000000;1.000000;1.000000;1.000000;,
  90;1.000000;1.000000;1.000000;1.000000;,
  91;1.000000;1.000000;1.000000;1.000000;,
  92;1.000000;1.000000;1.000000;1.000000;,
  93;1.000000;1.000000;1.000000;1.000000;,
  94;1.000000;1.000000;1.000000;1.000000;,
  95;1.000000;1.000000;1.000000;1.000000;,
  96;1.000000;1.000000;1.000000;1.000000;,
  97;1.000000;1.000000;1.000000;1.000000;,
  98;1.000000;1.000000;1.000000;1.000000;,
  99;1.000000;1.000000;1.000000;1.000000;,
  100;1.000000;1.000000;1.000000;1.000000;,
  101;1.000000;1.000000;1.000000;1.000000;,
  102;1.000000;1.000000;1.000000;1.000000;,
  103;1.000000;1.000000;1.000000;1.000000;,
  104;1.000000;1.000000;1.000000;1.000000;,
  105;1.000000;1.000000;1.000000;1.000000;,
  106;1.000000;1.000000;1.000000;1.000000;,
  107;1.000000;1.000000;1.000000;1.000000;,
  108;1.000000;1.000000;1.000000;1.000000;,
  109;1.000000;1.000000;1.000000;1.000000;,
  110;1.000000;1.000000;1.000000;1.000000;,
  111;1.000000;1.000000;1.000000;1.000000;,
  112;1.000000;1.000000;1.000000;1.000000;,
  113;1.000000;1.000000;1.000000;1.000000;,
  114;1.000000;1.000000;1.000000;1.000000;,
  115;1.000000;1.000000;1.000000;1.000000;,
  116;1.000000;1.000000;1.000000;1.000000;,
  117;1.000000;1.000000;1.000000;1.000000;,
  118;1.000000;1.000000;1.000000;1.000000;,
  119;1.000000;1.000000;1.000000;1.000000;,
  120;1.000000;1.000000;1.000000;1.000000;,
  121;1.000000;1.000000;1.000000;1.000000;,
  122;1.000000;1.000000;1.000000;1.000000;,
  123;1.000000;1.000000;1.000000;1.000000;,
  124;1.000000;1.000000;1.000000;1.000000;,
  125;1.000000;1.000000;1.000000;1.000000;,
  126;1.000000;1.000000;1.000000;1.000000;,
  127;1.000000;1.000000;1.000000;1.000000;,
  128;1.000000;1.000000;1.000000;1.000000;,
  129;1.000000;1.000000;1.000000;1.000000;,
  130;1.000000;1.000000;1.000000;1.000000;,
  131;1.000000;1.000000;1.000000;1.000000;,
  132;1.000000;1.000000;1.000000;1.000000;,
  133;1.000000;1.000000;1.000000;1.000000;,
  134;1.000000;1.000000;1.000000;1.000000;,
  135;1.000000;1.000000;1.000000;1.000000;,
  136;1.000000;1.000000;1.000000;1.000000;,
  137;1.000000;1.000000;1.000000;1.000000;,
  138;1.000000;1.000000;1.000000;1.000000;,
  139;1.000000;1.000000;1.000000;1.000000;,
  140;1.000000;1.000000;1.000000;1.000000;,
  141;1.000000;1.000000;1.000000;1.000000;,
  142;1.000000;1.000000;1.000000;1.000000;,
  143;1.000000;1.000000;1.000000;1.000000;,
  144;1.000000;1.000000;1.000000;1.000000;,
  145;1.000000;1.000000;1.000000;1.000000;,
  146;1.000000;1.000000;1.000000;1.000000;,
  147;1.000000;1.000000;1.000000;1.000000;,
  148;1.000000;1.000000;1.000000;1.000000;,
  149;1.000000;1.000000;1.000000;1.000000;,
  150;1.000000;1.000000;1.000000;1.000000;,
  151;1.000000;1.000000;1.000000;1.000000;,
  152;1.000000;1.000000;1.000000;1.000000;,
  153;1.000000;1.000000;1.000000;1.000000;,
  154;1.000000;1.000000;1.000000;1.000000;,
  155;1.000000;1.000000;1.000000;1.000000;,
  156;1.000000;1.000000;1.000000;1.000000;,
  157;1.000000;1.000000;1.000000;1.000000;,
  158;1.000000;1.000000;1.000000;1.000000;,
  159;1.000000;1.000000;1.000000;1.000000;,
  160;1.000000;1.000000;1.000000;1.000000;,
  161;1.000000;1.000000;1.000000;1.000000;,
  162;1.000000;1.000000;1.000000;1.000000;,
  163;1.000000;1.000000;1.000000;1.000000;,
  164;1.000000;1.000000;1.000000;1.000000;,
  165;1.000000;1.000000;1.000000;1.000000;,
  166;1.000000;1.000000;1.000000;1.000000;,
  167;1.000000;1.000000;1.000000;1.000000;,
  168;1.000000;1.000000;1.000000;1.000000;,
  169;1.000000;1.000000;1.000000;1.000000;,
  170;1.000000;1.000000;1.000000;1.000000;,
  171;1.000000;1.000000;1.000000;1.000000;,
  172;1.000000;1.000000;1.000000;1.000000;,
  173;1.000000;1.000000;1.000000;1.000000;,
  174;1.000000;1.000000;1.000000;1.000000;,
  175;1.000000;1.000000;1.000000;1.000000;,
  176;1.000000;1.000000;1.000000;1.000000;,
  177;1.000000;1.000000;1.000000;1.000000;,
  178;1.000000;1.000000;1.000000;1.000000;,
  179;1.000000;1.000000;1.000000;1.000000;,
  180;1.000000;1.000000;1.000000;1.000000;,
  181;1.000000;1.000000;1.000000;1.000000;,
  182;1.000000;1.000000;1.000000;1.000000;,
  183;1.000000;1.000000;1.000000;1.000000;,
  184;1.000000;1.000000;1.000000;1.000000;,
  185;1.000000;1.000000;1.000000;1.000000;,
  186;1.000000;1.000000;1.000000;1.000000;,
  187;1.000000;1.000000;1.000000;1.000000;,
  188;1.000000;1.000000;1.000000;1.000000;,
  189;1.000000;1.000000;1.000000;1.000000;,
  190;1.000000;1.000000;1.000000;1.000000;,
  191;1.000000;1.000000;1.000000;1.000000;,
  192;1.000000;1.000000;1.000000;1.000000;,
  193;1.000000;1.000000;1.000000;1.000000;,
  194;1.000000;1.000000;1.000000;1.000000;,
  195;1.000000;1.000000;1.000000;1.000000;,
  196;1.000000;1.000000;1.000000;1.000000;,
  197;1.000000;1.000000;1.000000;1.000000;,
  198;1.000000;1.000000;1.000000;1.000000;,
  199;1.000000;1.000000;1.000000;1.000000;,
  200;1.000000;1.000000;1.000000;1.000000;,
  201;1.000000;1.000000;1.000000;1.000000;,
  202;1.000000;1.000000;1.000000;1.000000;,
  203;1.000000;1.000000;1.000000;1.000000;,
  204;1.000000;1.000000;1.000000;1.000000;,
  205;1.000000;1.000000;1.000000;1.000000;,
  206;1.000000;1.000000;1.000000;1.000000;,
  207;1.000000;1.000000;1.000000;1.000000;,
  208;1.000000;1.000000;1.000000;1.000000;,
  209;1.000000;1.000000;1.000000;1.000000;,
  210;1.000000;1.000000;1.000000;1.000000;,
  211;1.000000;1.000000;1.000000;1.000000;,
  212;1.000000;1.000000;1.000000;1.000000;,
  213;1.000000;1.000000;1.000000;1.000000;,
  214;1.000000;1.000000;1.000000;1.000000;,
  215;1.000000;1.000000;1.000000;1.000000;,
  216;1.000000;1.000000;1.000000;1.000000;,
  217;1.000000;1.000000;1.000000;1.000000;,
  218;1.000000;1.000000;1.000000;1.000000;,
  219;1.000000;1.000000;1.000000;1.000000;,
  220;1.000000;1.000000;1.000000;1.000000;,
  221;1.000000;1.000000;1.000000;1.000000;,
  222;1.000000;1.000000;1.000000;1.000000;,
  223;1.000000;1.000000;1.000000;1.000000;,
  224;1.000000;1.000000;1.000000;1.000000;,
  225;1.000000;1.000000;1.000000;1.000000;,
  226;1.000000;1.000000;1.000000;1.000000;,
  227;1.000000;1.000000;1.000000;1.000000;,
  228;1.000000;1.000000;1.000000;1.000000;,
  229;1.000000;1.000000;1.000000;1.000000;,
  230;1.000000;1.000000;1.000000;1.000000;,
  231;1.000000;1.000000;1.000000;1.000000;,
  232;1.000000;1.000000;1.000000;1.000000;,
  233;1.000000;1.000000;1.000000;1.000000;,
  234;1.000000;1.000000;1.000000;1.000000;,
  235;1.000000;1.000000;1.000000;1.000000;,
  236;1.000000;1.000000;1.000000;1.000000;,
  237;1.000000;1.000000;1.000000;1.000000;,
  238;1.000000;1.000000;1.000000;1.000000;,
  239;1.000000;1.000000;1.000000;1.000000;,
  240;1.000000;1.000000;1.000000;1.000000;,
  241;1.000000;1.000000;1.000000;1.000000;,
  242;1.000000;1.000000;1.000000;1.000000;,
  243;1.000000;1.000000;1.000000;1.000000;,
  244;1.000000;1.000000;1.000000;1.000000;,
  245;1.000000;1.000000;1.000000;1.000000;,
  246;1.000000;1.000000;1.000000;1.000000;,
  247;1.000000;1.000000;1.000000;1.000000;,
  248;1.000000;1.000000;1.000000;1.000000;,
  249;1.000000;1.000000;1.000000;1.000000;,
  250;1.000000;1.000000;1.000000;1.000000;,
  251;1.000000;1.000000;1.000000;1.000000;,
  252;1.000000;1.000000;1.000000;1.000000;,
  253;1.000000;1.000000;1.000000;1.000000;,
  254;1.000000;1.000000;1.000000;1.000000;,
  255;1.000000;1.000000;1.000000;1.000000;,
  256;1.000000;1.000000;1.000000;1.000000;,
  257;1.000000;1.000000;1.000000;1.000000;,
  258;1.000000;1.000000;1.000000;1.000000;,
  259;1.000000;1.000000;1.000000;1.000000;,
  260;1.000000;1.000000;1.000000;1.000000;,
  261;1.000000;1.000000;1.000000;1.000000;,
  262;1.000000;1.000000;1.000000;1.000000;,
  263;1.000000;1.000000;1.000000;1.000000;,
  264;1.000000;1.000000;1.000000;1.000000;,
  265;1.000000;1.000000;1.000000;1.000000;,
  266;1.000000;1.000000;1.000000;1.000000;,
  267;1.000000;1.000000;1.000000;1.000000;,
  268;1.000000;1.000000;1.000000;1.000000;,
  269;1.000000;1.000000;1.000000;1.000000;,
  270;1.000000;1.000000;1.000000;1.000000;,
  271;1.000000;1.000000;1.000000;1.000000;,
  272;1.000000;1.000000;1.000000;1.000000;,
  273;1.000000;1.000000;1.000000;1.000000;,
  274;1.000000;1.000000;1.000000;1.000000;,
  275;1.000000;1.000000;1.000000;1.000000;,
  276;1.000000;1.000000;1.000000;1.000000;,
  277;1.000000;1.000000;1.000000;1.000000;,
  278;1.000000;1.000000;1.000000;1.000000;,
  279;1.000000;1.000000;1.000000;1.000000;,
  280;1.000000;1.000000;1.000000;1.000000;,
  281;1.000000;1.000000;1.000000;1.000000;,
  282;1.000000;1.000000;1.000000;1.000000;,
  283;1.000000;1.000000;1.000000;1.000000;,
  284;1.000000;1.000000;1.000000;1.000000;,
  285;1.000000;1.000000;1.000000;1.000000;,
  286;1.000000;1.000000;1.000000;1.000000;,
  287;1.000000;1.000000;1.000000;1.000000;,
  288;1.000000;1.000000;1.000000;1.000000;,
  289;1.000000;1.000000;1.000000;1.000000;,
  290;1.000000;1.000000;1.000000;1.000000;,
  291;1.000000;1.000000;1.000000;1.000000;,
  292;1.000000;1.000000;1.000000;1.000000;,
  293;1.000000;1.000000;1.000000;1.000000;,
  294;1.000000;1.000000;1.000000;1.000000;,
  295;1.000000;1.000000;1.000000;1.000000;,
  296;1.000000;1.000000;1.000000;1.000000;,
  297;1.000000;1.000000;1.000000;1.000000;,
  298;1.000000;1.000000;1.000000;1.000000;,
  299;1.000000;1.000000;1.000000;1.000000;,
  300;1.000000;1.000000;1.000000;1.000000;,
  301;1.000000;1.000000;1.000000;1.000000;,
  302;1.000000;1.000000;1.000000;1.000000;,
  303;1.000000;1.000000;1.000000;1.000000;,
  304;1.000000;1.000000;1.000000;1.000000;,
  305;1.000000;1.000000;1.000000;1.000000;,
  306;1.000000;1.000000;1.000000;1.000000;,
  307;1.000000;1.000000;1.000000;1.000000;,
  308;1.000000;1.000000;1.000000;1.000000;,
  309;1.000000;1.000000;1.000000;1.000000;,
  310;1.000000;1.000000;1.000000;1.000000;,
  311;1.000000;1.000000;1.000000;1.000000;,
  312;1.000000;1.000000;1.000000;1.000000;,
  313;1.000000;1.000000;1.000000;1.000000;,
  314;1.000000;1.000000;1.000000;1.000000;,
  315;1.000000;1.000000;1.000000;1.000000;,
  316;1.000000;1.000000;1.000000;1.000000;,
  317;1.000000;1.000000;1.000000;1.000000;,
  318;1.000000;1.000000;1.000000;1.000000;,
  319;1.000000;1.000000;1.000000;1.000000;,
  320;1.000000;1.000000;1.000000;1.000000;,
  321;1.000000;1.000000;1.000000;1.000000;,
  322;1.000000;1.000000;1.000000;1.000000;,
  323;1.000000;1.000000;1.000000;1.000000;,
  324;1.000000;1.000000;1.000000;1.000000;,
  325;1.000000;1.000000;1.000000;1.000000;,
  326;1.000000;1.000000;1.000000;1.000000;,
  327;1.000000;1.000000;1.000000;1.000000;,
  328;1.000000;1.000000;1.000000;1.000000;,
  329;1.000000;1.000000;1.000000;1.000000;,
  330;1.000000;1.000000;1.000000;1.000000;,
  331;1.000000;1.000000;1.000000;1.000000;,
  332;1.000000;1.000000;1.000000;1.000000;,
  333;1.000000;1.000000;1.000000;1.000000;,
  334;1.000000;1.000000;1.000000;1.000000;,
  335;1.000000;1.000000;1.000000;1.000000;,
  336;1.000000;1.000000;1.000000;1.000000;,
  337;1.000000;1.000000;1.000000;1.000000;,
  338;1.000000;1.000000;1.000000;1.000000;,
  339;1.000000;1.000000;1.000000;1.000000;,
  340;1.000000;1.000000;1.000000;1.000000;,
  341;1.000000;1.000000;1.000000;1.000000;,
  342;1.000000;1.000000;1.000000;1.000000;,
  343;1.000000;1.000000;1.000000;1.000000;,
  344;1.000000;1.000000;1.000000;1.000000;,
  345;1.000000;1.000000;1.000000;1.000000;,
  346;1.000000;1.000000;1.000000;1.000000;,
  347;1.000000;1.000000;1.000000;1.000000;,
  348;1.000000;1.000000;1.000000;1.000000;,
  349;1.000000;1.000000;1.000000;1.000000;,
  350;1.000000;1.000000;1.000000;1.000000;,
  351;1.000000;1.000000;1.000000;1.000000;,
  352;1.000000;1.000000;1.000000;1.000000;,
  353;1.000000;1.000000;1.000000;1.000000;,
  354;1.000000;1.000000;1.000000;1.000000;,
  355;1.000000;1.000000;1.000000;1.000000;,
  356;1.000000;1.000000;1.000000;1.000000;,
  357;1.000000;1.000000;1.000000;1.000000;,
  358;1.000000;1.000000;1.000000;1.000000;,
  359;1.000000;1.000000;1.000000;1.000000;,
  360;1.000000;1.000000;1.000000;1.000000;,
  361;1.000000;1.000000;1.000000;1.000000;,
  362;1.000000;1.000000;1.000000;1.000000;,
  363;1.000000;1.000000;1.000000;1.000000;,
  364;1.000000;1.000000;1.000000;1.000000;,
  365;1.000000;1.000000;1.000000;1.000000;,
  366;1.000000;1.000000;1.000000;1.000000;,
  367;1.000000;1.000000;1.000000;1.000000;,
  368;1.000000;1.000000;1.000000;1.000000;,
  369;1.000000;1.000000;1.000000;1.000000;,
  370;1.000000;1.000000;1.000000;1.000000;,
  371;1.000000;1.000000;1.000000;1.000000;,
  372;1.000000;1.000000;1.000000;1.000000;,
  373;1.000000;1.000000;1.000000;1.000000;,
  374;1.000000;1.000000;1.000000;1.000000;,
  375;1.000000;1.000000;1.000000;1.000000;,
  376;1.000000;1.000000;1.000000;1.000000;,
  377;1.000000;1.000000;1.000000;1.000000;,
  378;1.000000;1.000000;1.000000;1.000000;,
  379;1.000000;1.000000;1.000000;1.000000;,
  380;1.000000;1.000000;1.000000;1.000000;,
  381;1.000000;1.000000;1.000000;1.000000;,
  382;1.000000;1.000000;1.000000;1.000000;,
  383;1.000000;1.000000;1.000000;1.000000;,
  384;1.000000;1.000000;1.000000;1.000000;,
  385;1.000000;1.000000;1.000000;1.000000;,
  386;1.000000;1.000000;1.000000;1.000000;,
  387;1.000000;1.000000;1.000000;1.000000;,
  388;1.000000;1.000000;1.000000;1.000000;,
  389;1.000000;1.000000;1.000000;1.000000;,
  390;1.000000;1.000000;1.000000;1.000000;,
  391;1.000000;1.000000;1.000000;1.000000;,
  392;1.000000;1.000000;1.000000;1.000000;,
  393;1.000000;1.000000;1.000000;1.000000;,
  394;1.000000;1.000000;1.000000;1.000000;,
  395;1.000000;1.000000;1.000000;1.000000;,
  396;1.000000;1.000000;1.000000;1.000000;,
  397;1.000000;1.000000;1.000000;1.000000;,
  398;1.000000;1.000000;1.000000;1.000000;,
  399;1.000000;1.000000;1.000000;1.000000;,
  400;1.000000;1.000000;1.000000;1.000000;,
  401;1.000000;1.000000;1.000000;1.000000;,
  402;1.000000;1.000000;1.000000;1.000000;,
  403;1.000000;1.000000;1.000000;1.000000;,
  404;1.000000;1.000000;1.000000;1.000000;,
  405;1.000000;1.000000;1.000000;1.000000;,
  406;1.000000;1.000000;1.000000;1.000000;,
  407;1.000000;1.000000;1.000000;1.000000;,
  408;1.000000;1.000000;1.000000;1.000000;,
  409;1.000000;1.000000;1.000000;1.000000;,
  410;1.000000;1.000000;1.000000;1.000000;,
  411;1.000000;1.000000;1.000000;1.000000;,
  412;1.000000;1.000000;1.000000;1.000000;,
  413;1.000000;1.000000;1.000000;1.000000;,
  414;1.000000;1.000000;1.000000;1.000000;,
  415;1.000000;1.000000;1.000000;1.000000;,
  416;1.000000;1.000000;1.000000;1.000000;,
  417;1.000000;1.000000;1.000000;1.000000;,
  418;1.000000;1.000000;1.000000;1.000000;,
  419;1.000000;1.000000;1.000000;1.000000;,
  420;1.000000;1.000000;1.000000;1.000000;,
  421;1.000000;1.000000;1.000000;1.000000;,
  422;1.000000;1.000000;1.000000;1.000000;,
  423;1.000000;1.000000;1.000000;1.000000;,
  424;1.000000;1.000000;1.000000;1.000000;,
  425;1.000000;1.000000;1.000000;1.000000;,
  426;1.000000;1.000000;1.000000;1.000000;,
  427;1.000000;1.000000;1.000000;1.000000;,
  428;1.000000;1.000000;1.000000;1.000000;,
  429;1.000000;1.000000;1.000000;1.000000;,
  430;1.000000;1.000000;1.000000;1.000000;,
  431;1.000000;1.000000;1.000000;1.000000;,
  432;1.000000;1.000000;1.000000;1.000000;,
  433;1.000000;1.000000;1.000000;1.000000;,
  434;1.000000;1.000000;1.000000;1.000000;;
 }
}
