xof 0302txt 0064
template Header {
 <3D82AB43-62DA-11cf-AB39-0020AF71E433>
 WORD major;
 WORD minor;
 DWORD flags;
}

template Vector {
 <3D82AB5E-62DA-11cf-AB39-0020AF71E433>
 FLOAT x;
 FLOAT y;
 FLOAT z;
}

template Coords2d {
 <F6F23F44-7686-11cf-8F52-0040333594A3>
 FLOAT u;
 FLOAT v;
}

template Matrix4x4 {
 <F6F23F45-7686-11cf-8F52-0040333594A3>
 array FLOAT matrix[16];
}

template ColorRGBA {
 <35FF44E0-6C7C-11cf-8F52-0040333594A3>
 FLOAT red;
 FLOAT green;
 FLOAT blue;
 FLOAT alpha;
}

template ColorRGB {
 <D3E16E81-7835-11cf-8F52-0040333594A3>
 FLOAT red;
 FLOAT green;
 FLOAT blue;
}

template IndexedColor {
 <1630B820-7842-11cf-8F52-0040333594A3>
 DWORD index;
 ColorRGBA indexColor;
}

template Boolean {
 <4885AE61-78E8-11cf-8F52-0040333594A3>
 WORD truefalse;
}

template Boolean2d {
 <4885AE63-78E8-11cf-8F52-0040333594A3>
 Boolean u;
 Boolean v;
}

template MaterialWrap {
 <4885AE60-78E8-11cf-8F52-0040333594A3>
 Boolean u;
 Boolean v;
}

template TextureFilename {
 <A42790E1-7810-11cf-8F52-0040333594A3>
 STRING filename;
}

template Material {
 <3D82AB4D-62DA-11cf-AB39-0020AF71E433>
 ColorRGBA faceColor;
 FLOAT power;
 ColorRGB specularColor;
 ColorRGB emissiveColor;
 [...]
}

template MeshFace {
 <3D82AB5F-62DA-11cf-AB39-0020AF71E433>
 DWORD nFaceVertexIndices;
 array DWORD faceVertexIndices[nFaceVertexIndices];
}

template MeshFaceWraps {
 <4885AE62-78E8-11cf-8F52-0040333594A3>
 DWORD nFaceWrapValues;
 Boolean2d faceWrapValues;
}

template MeshTextureCoords {
 <F6F23F40-7686-11cf-8F52-0040333594A3>
 DWORD nTextureCoords;
 array Coords2d textureCoords[nTextureCoords];
}

template MeshMaterialList {
 <F6F23F42-7686-11cf-8F52-0040333594A3>
 DWORD nMaterials;
 DWORD nFaceIndexes;
 array DWORD faceIndexes[nFaceIndexes];
 [Material]
}

template MeshNormals {
 <F6F23F43-7686-11cf-8F52-0040333594A3>
 DWORD nNormals;
 array Vector normals[nNormals];
 DWORD nFaceNormals;
 array MeshFace faceNormals[nFaceNormals];
}

template MeshVertexColors {
 <1630B821-7842-11cf-8F52-0040333594A3>
 DWORD nVertexColors;
 array IndexedColor vertexColors[nVertexColors];
}

template Mesh {
 <3D82AB44-62DA-11cf-AB39-0020AF71E433>
 DWORD nVertices;
 array Vector vertices[nVertices];
 DWORD nFaces;
 array MeshFace faces[nFaces];
 [...]
}

Header{
1;
0;
1;
}

Mesh {
 321;
 0.05353;2.04398;0.43898;,
 -0.13948;1.42906;-0.10717;,
 0.22112;1.99972;0.40074;,
 0.32961;2.02634;0.26279;,
 0.31545;2.10824;0.10594;,
 0.18693;2.19744;0.02207;,
 0.01934;2.24170;0.06032;,
 -0.08915;2.21509;0.19827;,
 -0.07499;2.13319;0.35511;,
 0.12023;2.12071;0.23052;,
 0.32522;0.11570;-0.54702;,
 0.53575;0.33272;-0.80152;,
 0.87552;0.27896;-0.74572;,
 0.54963;0.05047;-0.53778;,
 0.21505;0.05047;-0.75130;,
 0.33953;0.27896;-1.08778;,
 0.00582;0.00270;0.01543;,
 0.00633;1.77646;0.01418;,
 0.37265;1.87001;-0.30874;,
 0.21913;1.80513;-0.36417;,
 0.11840;1.87001;-0.48234;,
 1.23552;0.77118;-0.29412;,
 0.88332;1.51118;-0.19958;,
 0.77563;1.45751;0.01543;,
 1.10676;0.78588;0.01543;,
 1.12423;0.31413;-0.26557;,
 1.00511;0.37354;0.01543;,
 0.66171;0.14878;0.01543;,
 0.75988;0.05047;-0.16161;,
 0.46900;1.87001;-0.13832;,
 0.42588;1.79681;0.01419;,
 0.00475;1.87001;-0.48234;,
 0.00826;0.27896;-1.15567;,
 0.00826;0.05048;-0.81919;,
 0.58355;1.78253;-0.50903;,
 0.75579;1.78253;-0.19391;,
 0.58355;1.78253;-0.50903;,
 0.75579;1.78253;-0.19391;,
 0.88332;1.51118;-0.19958;,
 0.68572;1.53877;-0.60050;,
 0.36117;1.70394;-0.57840;,
 0.67564;1.69906;0.01543;,
 0.20767;1.78253;-0.75664;,
 0.20767;1.78253;-0.75664;,
 0.26115;1.49568;-0.85926;,
 0.00764;1.52493;-0.93398;,
 0.00498;1.78253;-0.83603;,
 0.00498;1.78253;-0.83603;,
 0.00611;0.64565;-0.84337;,
 0.00829;0.78364;-1.27352;,
 0.32334;0.85723;-1.19413;,
 0.21605;0.71924;-0.84337;,
 0.45867;0.84059;-1.04111;,
 0.36899;0.71233;-0.77131;,
 0.80930;0.71924;-0.67925;,
 0.88113;0.85723;-0.92146;,
 0.99390;0.70388;-0.41865;,
 0.00610;0.43111;-0.80454;,
 0.25442;0.43111;-0.80454;,
 0.40462;0.47007;-0.59394;,
 0.65621;0.43111;-0.54812;,
 0.54372;0.56168;-1.03675;,
 0.45404;0.54382;-0.79619;,
 0.88598;0.62192;-0.93205;,
 0.84321;0.58471;-0.71343;,
 0.45051;1.59411;-0.64787;,
 0.26115;1.49568;-0.85926;,
 0.20767;1.78253;-0.75664;,
 0.36117;1.70394;-0.57840;,
 0.68572;1.53877;-0.60050;,
 0.45051;1.59411;-0.64787;,
 0.36117;1.70394;-0.57840;,
 0.58355;1.78253;-0.50903;,
 0.49284;1.03230;-0.96794;,
 0.78185;1.03870;-0.88810;,
 0.49284;1.03230;-0.96794;,
 0.28708;1.22778;-0.97525;,
 0.68572;1.53877;-0.60050;,
 0.46249;1.24982;-0.57915;,
 0.45051;1.59411;-0.64787;,
 0.26115;1.49568;-0.85926;,
 0.45051;1.59411;-0.64787;,
 0.28708;1.22778;-0.97525;,
 0.00798;1.13168;-1.11410;,
 0.28708;1.22778;-0.97525;,
 0.00798;1.13168;-1.11410;,
 0.00764;1.52493;-0.93398;,
 0.26115;1.49568;-0.85926;,
 0.78185;1.03870;-0.88810;,
 0.85746;1.27099;-0.56941;,
 0.88332;1.51118;-0.19958;,
 0.85746;1.27099;-0.56941;,
 0.88332;1.51118;-0.19958;,
 0.85746;1.27099;-0.56941;,
 0.68572;1.53877;-0.60050;,
 0.28708;1.22778;-0.97525;,
 0.26115;1.49568;-0.85926;,
 0.49284;1.03230;-0.96794;,
 0.78185;1.03870;-0.88810;,
 0.49284;1.03230;-0.96794;,
 0.85746;1.27099;-0.56941;,
 0.78185;1.03870;-0.88810;,
 0.68572;1.53877;-0.60050;,
 0.54475;0.05047;0.56865;,
 0.87064;0.31413;0.77659;,
 0.53086;0.36789;0.83239;,
 0.32034;0.11570;0.57789;,
 0.33464;0.31413;1.11865;,
 0.21016;0.05047;0.78217;,
 0.25329;1.52493;0.88546;,
 0.36960;0.77118;1.22500;,
 0.60352;0.82326;0.93041;,
 0.42306;1.45612;0.68998;,
 0.96211;0.77118;0.84687;,
 0.65867;1.52493;0.62675;,
 0.21406;1.80495;0.39636;,
 0.36913;1.87048;0.34037;,
 0.11233;1.87048;0.51571;,
 0.87189;1.52493;0.22869;,
 1.23063;0.77118;0.32499;,
 1.11935;0.31413;0.29643;,
 0.75499;0.05047;0.19248;,
 0.42588;1.79681;0.01419;,
 0.46644;1.87048;0.16824;,
 0.00340;0.77118;1.22500;,
 0.00275;1.52493;0.88546;,
 0.00338;0.31413;1.11865;,
 -0.00247;1.87048;0.51571;,
 0.00338;0.05047;0.78217;,
 0.75091;1.78253;0.22478;,
 0.57867;1.78253;0.53990;,
 0.35629;1.70394;0.60927;,
 0.20279;1.78253;0.78751;,
 0.00010;1.78253;0.78751;,
 -0.51308;0.05047;-0.53778;,
 -0.83897;0.27896;-0.74572;,
 -0.49920;0.33272;-0.80152;,
 -0.28867;0.11570;-0.54702;,
 -0.30298;0.27896;-1.08778;,
 -0.17850;0.05047;-0.75130;,
 -0.18258;1.80513;-0.36417;,
 -0.33610;1.87001;-0.30874;,
 -0.08185;1.87001;-0.48234;,
 -1.07021;0.78588;0.01543;,
 -0.73908;1.45751;0.01543;,
 -0.84677;1.51118;-0.19958;,
 -1.19897;0.77118;-0.29412;,
 -0.72333;0.05047;-0.16161;,
 -0.62516;0.14878;0.01543;,
 -0.96856;0.37354;0.01543;,
 -1.08768;0.31413;-0.26557;,
 -0.38933;1.79681;0.01419;,
 -0.43245;1.87001;-0.13832;,
 -0.71924;1.78253;-0.19391;,
 -0.54700;1.78253;-0.50903;,
 -0.64917;1.53877;-0.60050;,
 -0.84677;1.51118;-0.19958;,
 -0.71924;1.78253;-0.19391;,
 -0.54700;1.78253;-0.50903;,
 -0.32462;1.70394;-0.57840;,
 -0.63909;1.69906;0.01543;,
 -0.17112;1.78253;-0.75664;,
 0.00498;1.78253;-0.83603;,
 0.00764;1.52493;-0.93398;,
 -0.22460;1.49568;-0.85926;,
 -0.17112;1.78253;-0.75664;,
 -0.17950;0.71924;-0.84337;,
 -0.28679;0.85723;-1.19413;,
 -0.33244;0.71233;-0.77131;,
 -0.42212;0.84059;-1.04111;,
 -0.95735;0.70388;-0.41865;,
 -0.84458;0.85723;-0.92146;,
 -0.77275;0.71924;-0.67925;,
 -0.21787;0.43111;-0.80454;,
 -0.36807;0.47007;-0.59394;,
 -0.61966;0.43111;-0.54812;,
 -0.41749;0.54382;-0.79619;,
 -0.50717;0.56168;-1.03675;,
 -0.84943;0.62192;-0.93205;,
 -0.80666;0.58471;-0.71343;,
 -0.32462;1.70394;-0.57840;,
 -0.17112;1.78253;-0.75664;,
 -0.22460;1.49568;-0.85926;,
 -0.41396;1.59411;-0.64787;,
 -0.54700;1.78253;-0.50903;,
 -0.32462;1.70394;-0.57840;,
 -0.41396;1.59411;-0.64787;,
 -0.64917;1.53877;-0.60050;,
 -0.74530;1.03870;-0.88810;,
 -0.45629;1.03230;-0.96794;,
 -0.25053;1.22778;-0.97525;,
 -0.45629;1.03230;-0.96794;,
 -0.41396;1.59411;-0.64787;,
 -0.42594;1.24982;-0.57915;,
 -0.64917;1.53877;-0.60050;,
 -0.41396;1.59411;-0.64787;,
 -0.22460;1.49568;-0.85926;,
 -0.25053;1.22778;-0.97525;,
 -0.22460;1.49568;-0.85926;,
 0.00764;1.52493;-0.93398;,
 0.00798;1.13168;-1.11410;,
 -0.25053;1.22778;-0.97525;,
 -0.82091;1.27099;-0.56941;,
 -0.74530;1.03870;-0.88810;,
 -0.82091;1.27099;-0.56941;,
 -0.84677;1.51118;-0.19958;,
 -0.64917;1.53877;-0.60050;,
 -0.82091;1.27099;-0.56941;,
 -0.84677;1.51118;-0.19958;,
 -0.22460;1.49568;-0.85926;,
 -0.25053;1.22778;-0.97525;,
 -0.45629;1.03230;-0.96794;,
 -0.45629;1.03230;-0.96794;,
 -0.74530;1.03870;-0.88810;,
 -0.74530;1.03870;-0.88810;,
 -0.82091;1.27099;-0.56941;,
 -0.64917;1.53877;-0.60050;,
 -0.28379;0.11570;0.57789;,
 -0.49431;0.36789;0.83239;,
 -0.83409;0.31413;0.77659;,
 -0.50820;0.05047;0.56865;,
 -0.17361;0.05047;0.78217;,
 -0.29809;0.31413;1.11865;,
 -0.38651;1.45612;0.68998;,
 -0.56697;0.82326;0.93041;,
 -0.33305;0.77118;1.22500;,
 -0.21674;1.52493;0.88546;,
 -0.62212;1.52493;0.62675;,
 -0.92556;0.77118;0.84687;,
 -0.33258;1.87048;0.34037;,
 -0.17751;1.80495;0.39636;,
 -0.07578;1.87048;0.51571;,
 -1.19408;0.77118;0.32499;,
 -0.83534;1.52493;0.22869;,
 -1.08280;0.31413;0.29643;,
 -0.71844;0.05047;0.19248;,
 -0.42989;1.87048;0.16824;,
 -0.38933;1.79681;0.01419;,
 -0.54212;1.78253;0.53990;,
 -0.71436;1.78253;0.22478;,
 -0.31974;1.70394;0.60927;,
 -0.16624;1.78253;0.78751;,
 0.00000;0.89589;0.00000;,
 0.12062;0.86196;-0.12062;,
 0.00000;0.86196;-0.17058;,
 0.00000;0.89589;0.00000;,
 0.17058;0.86196;0.00000;,
 0.00000;0.89589;0.00000;,
 0.12062;0.86196;0.12062;,
 0.00000;0.89589;0.00000;,
 0.00000;0.86196;0.17058;,
 0.00000;0.89589;0.00000;,
 -0.12062;0.86196;0.12062;,
 0.00000;0.89589;0.00000;,
 -0.17058;0.86196;0.00000;,
 0.00000;0.89589;0.00000;,
 -0.12062;0.86196;-0.12062;,
 0.00000;0.89589;0.00000;,
 0.00000;0.86196;-0.17058;,
 0.22288;0.76533;-0.22288;,
 0.00000;0.76533;-0.31520;,
 0.31520;0.76533;0.00000;,
 0.22288;0.76533;0.22288;,
 0.00000;0.76533;0.31520;,
 -0.22288;0.76533;0.22288;,
 -0.31520;0.76533;0.00000;,
 -0.22288;0.76533;-0.22288;,
 0.00000;0.76533;-0.31520;,
 0.29120;0.62072;-0.29120;,
 0.00000;0.62072;-0.41183;,
 0.41183;0.62072;0.00000;,
 0.29120;0.62072;0.29120;,
 0.00000;0.62072;0.41183;,
 -0.29120;0.62072;0.29120;,
 -0.41183;0.62072;0.00000;,
 -0.29120;0.62072;-0.29120;,
 0.00000;0.62072;-0.41183;,
 0.31520;0.45013;-0.31520;,
 0.00000;0.45013;-0.44576;,
 0.44576;0.45013;0.00000;,
 0.31520;0.45013;0.31520;,
 0.00000;0.45013;0.44576;,
 -0.31520;0.45013;0.31520;,
 -0.44576;0.45013;0.00000;,
 -0.31520;0.45013;-0.31520;,
 0.00000;0.45013;-0.44576;,
 0.29120;0.27955;-0.29120;,
 0.00000;0.27955;-0.41183;,
 0.41183;0.27955;0.00000;,
 0.29120;0.27955;0.29120;,
 0.00000;0.27955;0.41183;,
 -0.29120;0.27955;0.29120;,
 -0.41183;0.27955;0.00000;,
 -0.29120;0.27955;-0.29120;,
 0.00000;0.27955;-0.41183;,
 0.22288;0.13493;-0.22288;,
 0.00000;0.13493;-0.31520;,
 0.31520;0.13493;0.00000;,
 0.22288;0.13493;0.22288;,
 0.00000;0.13493;0.31520;,
 -0.22288;0.13493;0.22288;,
 -0.31520;0.13493;0.00000;,
 -0.22288;0.13493;-0.22288;,
 0.00000;0.13493;-0.31520;,
 0.12062;0.03831;-0.12062;,
 0.00000;0.03831;-0.17058;,
 0.17058;0.03831;0.00000;,
 0.12062;0.03831;0.12062;,
 0.00000;0.03831;0.17058;,
 -0.12062;0.03831;0.12062;,
 -0.17058;0.03831;0.00000;,
 -0.12062;0.03831;-0.12062;,
 0.00000;0.03831;-0.17058;,
 0.00000;0.00438;0.00000;,
 0.00000;0.00438;0.00000;,
 0.00000;0.00438;0.00000;,
 0.00000;0.00438;0.00000;,
 0.00000;0.00438;0.00000;,
 0.00000;0.00438;0.00000;,
 0.00000;0.00438;0.00000;,
 0.00000;0.00438;0.00000;;
 
 270;
 3;0,1,2;,
 3;2,1,3;,
 3;3,1,4;,
 3;4,1,5;,
 3;5,1,6;,
 3;6,1,7;,
 3;7,1,8;,
 3;8,1,0;,
 3;9,0,2;,
 3;9,2,3;,
 3;9,3,4;,
 3;9,4,5;,
 3;9,5,6;,
 3;9,6,7;,
 3;9,7,8;,
 3;9,8,0;,
 4;10,11,12,13;,
 4;11,10,14,15;,
 3;16,10,13;,
 3;16,14,10;,
 3;17,18,19;,
 3;17,19,20;,
 4;21,22,23,24;,
 4;25,26,27,28;,
 4;25,28,13,12;,
 3;29,17,30;,
 3;29,18,17;,
 3;28,16,13;,
 3;28,27,16;,
 3;31,17,20;,
 4;32,15,14,33;,
 3;33,14,16;,
 4;34,18,29,35;,
 4;36,37,38,39;,
 4;34,40,19,18;,
 4;35,29,30,41;,
 4;35,41,23,22;,
 4;40,42,20,19;,
 4;43,44,45,46;,
 4;42,47,31,20;,
 4;48,49,50,51;,
 4;51,50,52,53;,
 4;54,55,21,56;,
 4;57,58,15,32;,
 4;58,59,11,15;,
 4;59,60,12,11;,
 4;21,24,26,25;,
 3;56,21,25;,
 4;61,62,53,52;,
 4;63,61,52,55;,
 4;64,63,55,54;,
 4;62,61,63,64;,
 4;65,66,67,68;,
 4;69,70,71,72;,
 4;73,74,55,52;,
 4;75,52,50,76;,
 3;77,78,79;,
 3;80,81,78;,
 4;82,50,49,83;,
 4;84,85,86,87;,
 3;25,12,60;,
 3;25,60,56;,
 4;88,89,21,55;,
 3;90,21,91;,
 3;92,93,94;,
 3;95,96,78;,
 3;95,78,97;,
 3;98,99,78;,
 3;100,101,78;,
 3;100,78,102;,
 4;103,104,105,106;,
 4;107,108,106,105;,
 4;109,110,111,112;,
 4;113,114,112,111;,
 4;104,113,111,105;,
 4;110,107,105,111;,
 3;103,106,16;,
 3;106,108,16;,
 3;115,116,17;,
 3;117,115,17;,
 4;118,114,113,119;,
 4;24,23,118,119;,
 4;120,26,24,119;,
 4;113,104,120,119;,
 4;121,27,26,120;,
 4;104,103,121,120;,
 3;122,17,123;,
 3;17,116,123;,
 3;103,16,121;,
 3;16,27,121;,
 4;124,110,109,125;,
 4;126,107,110,124;,
 3;117,17,127;,
 4;128,108,107,126;,
 3;16,108,128;,
 4;129,123,116,130;,
 4;114,118,129,130;,
 4;131,112,114,130;,
 4;116,115,131,130;,
 4;41,122,123,129;,
 4;118,23,41,129;,
 4;132,109,112,131;,
 4;115,117,132,131;,
 4;133,125,109,132;,
 4;117,127,133,132;,
 4;48,51,58,57;,
 4;51,53,59,58;,
 3;53,62,59;,
 4;62,64,60,59;,
 3;64,54,60;,
 3;60,54,56;,
 4;134,135,136,137;,
 4;138,139,137,136;,
 3;134,137,16;,
 3;137,139,16;,
 3;140,141,17;,
 3;142,140,17;,
 4;143,144,145,146;,
 4;147,148,149,150;,
 4;135,134,147,150;,
 3;151,17,152;,
 3;17,141,152;,
 3;134,16,147;,
 3;16,148,147;,
 3;142,17,31;,
 4;33,139,138,32;,
 3;16,139,33;,
 4;153,152,141,154;,
 4;155,156,157,158;,
 4;141,140,159,154;,
 4;160,151,152,153;,
 4;145,144,160,153;,
 4;140,142,161,159;,
 4;162,163,164,165;,
 4;142,31,47,161;,
 4;166,167,49,48;,
 4;168,169,167,166;,
 4;170,146,171,172;,
 4;32,138,173,57;,
 4;138,136,174,173;,
 4;136,135,175,174;,
 4;150,149,143,146;,
 3;150,146,170;,
 4;169,168,176,177;,
 4;171,169,177,178;,
 4;172,171,178,179;,
 4;179,178,177,176;,
 4;180,181,182,183;,
 4;184,185,186,187;,
 4;169,171,188,189;,
 4;190,167,169,191;,
 3;192,193,194;,
 3;193,195,196;,
 4;83,49,167,197;,
 4;198,199,200,201;,
 3;175,135,150;,
 3;170,175,150;,
 4;171,146,202,203;,
 3;204,146,205;,
 3;206,207,208;,
 3;193,209,210;,
 3;211,193,210;,
 3;193,212,213;,
 3;193,214,215;,
 3;216,193,215;,
 4;217,218,219,220;,
 4;218,217,221,222;,
 4;223,224,225,226;,
 4;224,223,227,228;,
 4;218,224,228,219;,
 4;224,218,222,225;,
 3;16,217,220;,
 3;16,221,217;,
 3;17,229,230;,
 3;17,230,231;,
 4;232,228,227,233;,
 4;232,233,144,143;,
 4;232,143,149,234;,
 4;232,234,219,228;,
 4;234,149,148,235;,
 4;234,235,220,219;,
 3;236,17,237;,
 3;236,229,17;,
 3;235,16,220;,
 3;235,148,16;,
 4;125,226,225,124;,
 4;124,225,222,126;,
 3;127,17,231;,
 4;126,222,221,128;,
 3;128,221,16;,
 4;238,229,236,239;,
 4;238,239,233,227;,
 4;238,227,223,240;,
 4;238,240,230,229;,
 4;239,236,237,160;,
 4;239,160,144,233;,
 4;240,223,226,241;,
 4;240,241,231,230;,
 4;241,226,125,133;,
 4;241,133,127,231;,
 4;57,173,166,48;,
 4;173,174,168,166;,
 3;174,176,168;,
 4;174,175,179,176;,
 3;175,172,179;,
 3;170,172,175;,
 3;242,243,244;,
 3;245,246,243;,
 3;247,248,246;,
 3;249,250,248;,
 3;251,252,250;,
 3;253,254,252;,
 3;255,256,254;,
 3;257,258,256;,
 4;244,243,259,260;,
 4;243,246,261,259;,
 4;246,248,262,261;,
 4;248,250,263,262;,
 4;250,252,264,263;,
 4;252,254,265,264;,
 4;254,256,266,265;,
 4;256,258,267,266;,
 4;260,259,268,269;,
 4;259,261,270,268;,
 4;261,262,271,270;,
 4;262,263,272,271;,
 4;263,264,273,272;,
 4;264,265,274,273;,
 4;265,266,275,274;,
 4;266,267,276,275;,
 4;269,268,277,278;,
 4;268,270,279,277;,
 4;270,271,280,279;,
 4;271,272,281,280;,
 4;272,273,282,281;,
 4;273,274,283,282;,
 4;274,275,284,283;,
 4;275,276,285,284;,
 4;278,277,286,287;,
 4;277,279,288,286;,
 4;279,280,289,288;,
 4;280,281,290,289;,
 4;281,282,291,290;,
 4;282,283,292,291;,
 4;283,284,293,292;,
 4;284,285,294,293;,
 4;287,286,295,296;,
 4;286,288,297,295;,
 4;288,289,298,297;,
 4;289,290,299,298;,
 4;290,291,300,299;,
 4;291,292,301,300;,
 4;292,293,302,301;,
 4;293,294,303,302;,
 4;296,295,304,305;,
 4;295,297,306,304;,
 4;297,298,307,306;,
 4;298,299,308,307;,
 4;299,300,309,308;,
 4;300,301,310,309;,
 4;301,302,311,310;,
 4;302,303,312,311;,
 3;305,304,313;,
 3;304,306,314;,
 3;306,307,315;,
 3;307,308,316;,
 3;308,309,317;,
 3;309,310,318;,
 3;310,311,319;,
 3;311,312,320;;
 
 MeshMaterialList {
  4;
  270;
  0,
  0,
  0,
  0,
  0,
  0,
  0,
  0,
  0,
  0,
  0,
  0,
  0,
  0,
  0,
  0,
  0,
  0,
  0,
  0,
  0,
  0,
  0,
  0,
  0,
  0,
  0,
  0,
  0,
  0,
  0,
  0,
  0,
  0,
  0,
  0,
  0,
  0,
  0,
  0,
  0,
  0,
  0,
  0,
  0,
  0,
  0,
  0,
  0,
  0,
  0,
  0,
  0,
  0,
  0,
  0,
  3,
  3,
  0,
  0,
  0,
  0,
  0,
  0,
  0,
  3,
  3,
  3,
  3,
  3,
  0,
  0,
  0,
  0,
  0,
  0,
  0,
  0,
  0,
  0,
  0,
  0,
  0,
  0,
  0,
  0,
  0,
  0,
  0,
  0,
  0,
  0,
  0,
  0,
  0,
  0,
  0,
  0,
  0,
  0,
  0,
  0,
  0,
  0,
  0,
  1,
  1,
  1,
  1,
  1,
  1,
  0,
  0,
  0,
  0,
  0,
  0,
  0,
  0,
  0,
  0,
  0,
  0,
  0,
  0,
  0,
  0,
  0,
  0,
  0,
  0,
  0,
  0,
  0,
  0,
  0,
  0,
  0,
  0,
  0,
  0,
  0,
  0,
  0,
  0,
  0,
  0,
  0,
  0,
  0,
  0,
  3,
  3,
  0,
  0,
  0,
  0,
  0,
  0,
  0,
  3,
  3,
  3,
  3,
  3,
  0,
  0,
  0,
  0,
  0,
  0,
  0,
  0,
  0,
  0,
  0,
  0,
  0,
  0,
  0,
  0,
  0,
  0,
  0,
  0,
  0,
  0,
  0,
  0,
  0,
  0,
  0,
  0,
  0,
  0,
  0,
  0,
  0,
  0,
  0,
  1,
  1,
  1,
  1,
  1,
  1,
  2,
  2,
  2,
  2,
  2,
  2,
  2,
  2,
  2,
  2,
  2,
  2,
  2,
  2,
  2,
  2,
  2,
  2,
  2,
  2,
  2,
  2,
  2,
  2,
  2,
  2,
  2,
  2,
  2,
  2,
  2,
  2,
  2,
  2,
  2,
  2,
  2,
  2,
  2,
  2,
  2,
  2,
  2,
  2,
  2,
  2,
  2,
  2,
  2,
  2,
  2,
  2,
  2,
  2,
  2,
  2,
  2,
  2,
  2,
  2,
  2,
  2,
  2,
  2;;
  Material {
   1.000000;1.000000;1.000000;1.000000;;
   4.000000;
   0.240000;0.240000;0.240000;;
   0.220000;0.220000;0.220000;;
   TextureFilename {
    "Data\\Graphics\\XFileTexture\\kabo.bmp";
   }
  }
  Material {
   0.000000;0.000000;0.000000;0.670000;;
   5.000000;
   0.000000;0.000000;0.000000;;
   0.000000;0.000000;0.000000;;
  }
  Material {
   0.756000;0.800000;0.028000;1.000000;;
   13.000000;
   0.190000;0.190000;0.190000;;
   0.945000;1.000000;0.035000;;
  }
  Material {
   0.800000;0.800000;0.800000;0.810000;;
   5.000000;
   0.680000;0.680000;0.680000;;
   0.210000;0.210000;0.210000;;
   TextureFilename {
    "Data\\Graphics\\XFileTexture\\kabo.bmp";
   }
  }
 }
 MeshNormals {
  269;
  -0.364321;-0.551883;0.750130;,
  0.330535;-0.735386;0.591569;,
  0.780351;-0.625034;0.019620;,
  0.721631;-0.285479;-0.630674;,
  0.188775;0.084379;-0.978388;,
  -0.506078;0.267881;-0.819832;,
  -0.955896;0.157533;-0.247885;,
  -0.897177;-0.182027;0.402418;,
  0.319716;0.851446;0.415718;,
  0.000283;1.000000;0.000074;,
  0.164052;0.986450;0.001800;,
  0.238343;0.970711;0.030215;,
  -0.107821;0.977474;-0.181437;,
  0.912720;0.408524;0.007075;,
  0.629669;0.316985;-0.709251;,
  0.461717;0.268044;-0.845559;,
  0.848024;-0.529915;0.006807;,
  0.404742;-0.830769;-0.382109;,
  0.222423;-0.825188;-0.519224;,
  0.360241;-0.759987;0.540968;,
  0.322959;-0.926519;-0.193030;,
  0.058407;-0.932161;-0.357303;,
  -0.002441;-0.999997;0.000953;,
  0.241629;-0.918593;-0.312733;,
  0.419296;-0.837852;-0.349565;,
  0.994993;0.099670;0.007371;,
  0.098938;0.987009;-0.126589;,
  0.461072;0.402029;-0.791066;,
  0.308587;-0.800456;-0.513853;,
  0.205379;-0.919256;-0.335840;,
  0.181830;-0.921732;-0.342560;,
  0.954718;0.297041;0.016761;,
  0.889183;0.455029;-0.047982;,
  0.716610;-0.648904;0.255721;,
  0.100026;0.969686;0.222945;,
  0.343274;-0.913314;0.219135;,
  -0.014434;0.398271;-0.917154;,
  -0.013976;-0.955522;-0.294589;,
  -0.001792;0.999363;-0.035654;,
  -0.005864;-0.842241;-0.539069;,
  -0.003547;-0.951759;-0.306825;,
  0.306279;0.781800;-0.543122;,
  0.646219;0.754273;0.116068;,
  0.342239;0.769350;-0.539420;,
  0.602912;0.621731;0.499947;,
  0.443608;0.759759;-0.475372;,
  -0.011095;0.760387;-0.649376;,
  0.419942;-0.749382;-0.511933;,
  0.470715;-0.625564;-0.622171;,
  0.546094;-0.718478;-0.430779;,
  0.547758;-0.474114;-0.689331;,
  -0.001402;0.905505;-0.424332;,
  0.179264;0.896488;-0.405184;,
  0.261379;0.873822;-0.410021;,
  0.298514;0.886541;-0.353461;,
  0.276883;0.058049;-0.959149;,
  -0.863932;-0.326734;-0.383232;,
  -0.860696;-0.353999;-0.365905;,
  0.853104;0.040498;0.520167;,
  0.494630;0.219812;-0.840847;,
  0.315255;0.673853;-0.668234;,
  0.451962;0.591830;-0.667433;,
  0.570677;0.454168;-0.684148;,
  -0.009300;0.446647;-0.894662;,
  0.658364;0.589859;-0.467571;,
  0.227178;0.973732;-0.015363;,
  -0.107742;0.977566;0.180986;,
  0.411740;0.420716;0.808374;,
  0.533225;0.424751;0.731613;,
  0.432699;-0.571121;0.697562;,
  0.426318;-0.555679;0.713774;,
  0.298304;-0.926069;0.231107;,
  0.066606;-0.922169;0.381009;,
  0.450596;0.107306;0.886255;,
  0.590103;0.107918;0.800082;,
  0.100022;0.986854;0.126944;,
  0.491181;0.395896;0.775892;,
  0.454025;-0.513804;0.727920;,
  0.222827;-0.905760;0.360481;,
  0.530857;0.098518;0.841716;,
  0.993809;0.109190;0.020516;,
  0.900569;0.434706;-0.002306;,
  0.818577;-0.572132;-0.050956;,
  0.101732;0.969924;-0.221128;,
  0.349659;-0.913909;-0.206178;,
  0.000000;0.383233;0.923652;,
  0.000000;0.097165;0.995268;,
  0.000000;0.997965;0.063769;,
  0.000000;-0.537428;0.843309;,
  0.000000;-0.934683;0.355483;,
  0.313496;0.743013;0.591314;,
  0.657032;0.747170;-0.100234;,
  0.388415;0.704328;0.594185;,
  0.391730;0.744030;0.541264;,
  0.000000;0.724704;0.689061;,
  -0.162556;0.986698;0.001788;,
  -0.243586;0.969490;0.027466;,
  0.111624;0.978105;-0.175646;,
  -0.912720;0.408524;0.007075;,
  -0.638663;0.315067;-0.702027;,
  -0.461717;0.268044;-0.845559;,
  -0.848024;-0.529915;0.006807;,
  -0.410076;-0.829196;-0.379831;,
  -0.222423;-0.825188;-0.519224;,
  -0.363309;-0.758043;0.541643;,
  -0.330061;-0.923672;-0.194653;,
  -0.058513;-0.933063;-0.354923;,
  -0.255176;-0.915429;-0.311247;,
  -0.419296;-0.837852;-0.349565;,
  -0.994993;0.099670;0.007371;,
  -0.101003;0.987006;-0.124974;,
  -0.461072;0.402029;-0.791066;,
  -0.308587;-0.800456;-0.513853;,
  -0.209145;-0.918391;-0.335881;,
  -0.181830;-0.921732;-0.342560;,
  -0.954718;0.297041;0.016761;,
  -0.889183;0.455029;-0.047982;,
  -0.716610;-0.648904;0.255721;,
  -0.097429;0.969716;0.223962;,
  -0.345481;-0.912415;0.219412;,
  -0.306279;0.781800;-0.543122;,
  -0.646220;0.754274;0.116068;,
  -0.342239;0.769350;-0.539420;,
  -0.602912;0.621732;0.499947;,
  -0.453074;0.757525;-0.469978;,
  -0.429308;-0.745416;-0.509951;,
  -0.470715;-0.625564;-0.622172;,
  -0.546094;-0.718478;-0.430779;,
  -0.547758;-0.474114;-0.689331;,
  -0.180643;0.896415;-0.404733;,
  -0.261379;0.873822;-0.410021;,
  -0.298514;0.886541;-0.353461;,
  -0.276883;0.058049;-0.959149;,
  0.863932;-0.326734;-0.383232;,
  0.860696;-0.353999;-0.365905;,
  -0.853104;0.040498;0.520167;,
  -0.494630;0.219812;-0.840847;,
  -0.315255;0.673853;-0.668234;,
  -0.451962;0.591830;-0.667433;,
  -0.576843;0.452295;-0.680207;,
  -0.658364;0.589859;-0.467571;,
  -0.230802;0.972927;-0.011956;,
  0.111562;0.978195;0.175182;,
  -0.411740;0.420716;0.808374;,
  -0.533225;0.424751;0.731613;,
  -0.432699;-0.571121;0.697562;,
  -0.426304;-0.555708;0.713760;,
  -0.302260;-0.924110;0.233795;,
  -0.066725;-0.923138;0.378635;,
  -0.450596;0.107305;0.886255;,
  -0.590102;0.107883;0.800088;,
  -0.102162;0.986832;0.125404;,
  -0.491181;0.395896;0.775892;,
  -0.454025;-0.513804;0.727920;,
  -0.226673;-0.904784;0.360534;,
  -0.530857;0.098518;0.841716;,
  -0.993813;0.109155;0.020512;,
  -0.900569;0.434706;-0.002306;,
  -0.818557;-0.572160;-0.050960;,
  -0.099117;0.969957;-0.222170;,
  -0.351882;-0.913001;-0.206417;,
  -0.313496;0.743013;0.591314;,
  -0.657032;0.747170;-0.100233;,
  -0.388415;0.704328;0.594185;,
  -0.391730;0.744030;0.541264;,
  0.319717;0.851447;0.415715;,
  0.319721;0.851443;0.415720;,
  0.319716;0.851445;0.415720;,
  0.319717;0.851446;0.415717;,
  0.319717;0.851446;0.415716;,
  0.319717;0.851446;0.415717;,
  0.319715;0.851445;0.415720;,
  0.319711;0.851448;0.415719;,
  0.500127;-0.556422;-0.663527;,
  0.482009;-0.175931;-0.858321;,
  0.397268;0.229730;-0.888483;,
  0.478788;0.287386;-0.829561;,
  0.962196;0.096719;0.254607;,
  0.113281;-0.955679;-0.271743;,
  0.160367;-0.983936;-0.078437;,
  0.421851;0.397336;-0.814964;,
  -0.006537;0.471892;-0.881632;,
  0.379778;0.887289;-0.261699;,
  0.437613;-0.603623;-0.666434;,
  0.029703;-0.096463;-0.994893;,
  0.361538;-0.763660;-0.534896;,
  0.608849;0.624400;-0.489313;,
  -0.001392;-0.152801;-0.988256;,
  0.022376;-0.152943;-0.987982;,
  0.352381;-0.173036;-0.919721;,
  0.402003;-0.606699;-0.685792;,
  -0.856554;-0.380890;-0.348193;,
  0.671000;-0.019188;0.741209;,
  -0.500127;-0.556422;-0.663527;,
  -0.482009;-0.175931;-0.858321;,
  -0.478788;0.287386;-0.829561;,
  -0.397268;0.229731;-0.888483;,
  -0.962196;0.096719;0.254607;,
  -0.113281;-0.955679;-0.271743;,
  -0.160367;-0.983936;-0.078437;,
  -0.427776;0.396328;-0.812362;,
  -0.379778;0.887289;-0.261699;,
  -0.437613;-0.603623;-0.666434;,
  -0.029703;-0.096463;-0.994893;,
  -0.364626;-0.761755;-0.535517;,
  -0.608849;0.624400;-0.489313;,
  -0.353686;-0.172756;-0.919272;,
  -0.025159;-0.152573;-0.987972;,
  -0.402003;-0.606699;-0.685792;,
  0.856554;-0.380891;-0.348193;,
  -0.671000;-0.019188;0.741209;,
  0.000000;1.000000;-0.000000;,
  0.000000;0.924736;-0.380610;,
  0.269133;0.924735;-0.269132;,
  0.380610;0.924736;0.000000;,
  0.269132;0.924735;0.269133;,
  0.000000;0.924736;0.380610;,
  -0.269133;0.924735;0.269132;,
  -0.380610;0.924736;0.000000;,
  -0.269132;0.924735;-0.269133;,
  0.000000;0.709231;-0.704976;,
  0.498494;0.709230;-0.498494;,
  0.704976;0.709231;0.000000;,
  0.498494;0.709230;0.498494;,
  0.000000;0.709231;0.704976;,
  -0.498494;0.709230;0.498494;,
  -0.704976;0.709231;0.000000;,
  -0.498494;0.709230;-0.498494;,
  0.000000;0.384552;-0.923104;,
  0.652733;0.384551;-0.652733;,
  0.923104;0.384552;0.000000;,
  0.652733;0.384551;0.652733;,
  0.000000;0.384552;0.923104;,
  -0.652733;0.384551;0.652733;,
  -0.923104;0.384552;0.000000;,
  -0.652733;0.384551;-0.652733;,
  0.000000;-0.000001;-1.000000;,
  0.707107;-0.000001;-0.707107;,
  1.000000;-0.000001;-0.000000;,
  0.707107;-0.000001;0.707107;,
  0.000000;-0.000001;1.000000;,
  -0.707107;-0.000001;0.707107;,
  -1.000000;-0.000001;0.000000;,
  -0.707107;-0.000001;-0.707107;,
  0.000000;-0.384552;-0.923103;,
  0.652733;-0.384552;-0.652733;,
  0.923103;-0.384552;-0.000000;,
  0.652733;-0.384552;0.652733;,
  0.000000;-0.384552;0.923103;,
  -0.652733;-0.384552;0.652733;,
  -0.923103;-0.384552;0.000000;,
  -0.652733;-0.384552;-0.652733;,
  0.000000;-0.709231;-0.704976;,
  0.498494;-0.709231;-0.498494;,
  0.704976;-0.709231;-0.000000;,
  0.498494;-0.709231;0.498494;,
  0.000000;-0.709231;0.704976;,
  -0.498494;-0.709231;0.498494;,
  -0.704976;-0.709231;0.000000;,
  -0.498494;-0.709231;-0.498494;,
  0.000000;-0.924736;-0.380610;,
  0.269133;-0.924735;-0.269133;,
  0.380610;-0.924736;-0.000000;,
  0.269133;-0.924735;0.269133;,
  0.000000;-0.924736;0.380610;,
  -0.269133;-0.924735;0.269133;,
  -0.380610;-0.924736;0.000000;,
  -0.269133;-0.924735;-0.269133;,
  0.000000;-1.000000;-0.000000;;
  270;
  3;0,1,1;,
  3;1,1,2;,
  3;2,3,3;,
  3;3,3,4;,
  3;4,5,5;,
  3;5,5,6;,
  3;6,7,7;,
  3;7,7,0;,
  3;8,165,166;,
  3;8,166,167;,
  3;8,167,168;,
  3;8,168,169;,
  3;8,169,170;,
  3;8,170,171;,
  3;8,171,172;,
  3;8,172,165;,
  4;29,28,18,21;,
  4;28,29,20,17;,
  3;22,29,21;,
  3;22,20,29;,
  3;9,12,26;,
  3;9,26,11;,
  4;31,32,13,25;,
  4;33,16,19,35;,
  4;33,35,21,18;,
  3;34,9,10;,
  3;34,12,9;,
  3;35,22,21;,
  3;35,19,22;,
  3;38,9,11;,
  4;39,17,20,40;,
  3;40,20,22;,
  4;41,12,34,42;,
  4;41,42,32,15;,
  4;41,43,26,12;,
  4;42,34,10,44;,
  4;42,44,13,32;,
  4;43,45,11,26;,
  4;45,14,36,46;,
  4;45,46,38,11;,
  4;37,37,23,47;,
  4;47,23,30,48;,
  4;49,24,173,50;,
  4;51,52,52,51;,
  4;52,53,53,52;,
  4;53,54,54,53;,
  4;31,25,16,33;,
  3;50,173,174;,
  4;56,57,57,56;,
  4;55,55,175,176;,
  4;58,177,177,58;,
  4;178,179,179,178;,
  4;59,14,45,43;,
  4;15,59,43,41;,
  4;61,60,176,175;,
  4;61,175,180,62;,
  3;15,27,59;,
  3;14,59,27;,
  4;62,180,181,63;,
  4;62,63,36,14;,
  3;182,54,54;,
  3;174,183,50;,
  4;60,64,31,176;,
  3;32,31,64;,
  3;32,64,15;,
  3;62,14,27;,
  3;62,27,61;,
  3;60,61,27;,
  3;64,60,27;,
  3;184,27,15;,
  4;72,70,77,78;,
  4;69,71,78,77;,
  4;67,73,79,76;,
  4;74,68,76,79;,
  4;70,74,79,77;,
  4;73,69,77,79;,
  3;72,78,22;,
  3;78,71,22;,
  3;75,66,9;,
  3;65,75,9;,
  4;81,68,74,80;,
  4;25,13,81,80;,
  4;82,16,25,80;,
  4;74,70,82,80;,
  4;84,185,16,82;,
  4;70,72,84,82;,
  3;10,9,83;,
  3;9,66,83;,
  3;72,22,84;,
  3;22,185,84;,
  4;86,73,67,85;,
  4;88,69,73,86;,
  3;65,9,87;,
  4;89,71,69,88;,
  3;22,71,89;,
  4;91,83,66,90;,
  4;68,81,91,90;,
  4;92,76,68,90;,
  4;66,75,92,90;,
  4;186,10,83,91;,
  4;81,13,186,91;,
  4;93,67,76,92;,
  4;75,65,93,92;,
  4;94,85,67,93;,
  4;65,87,94,93;,
  4;187,188,189,187;,
  4;47,48,190,189;,
  3;57,57,191;,
  4;178,178,183,190;,
  3;58,58,192;,
  3;183,49,50;,
  4;106,103,112,113;,
  4;102,105,113,112;,
  3;106,113,22;,
  3;113,105,22;,
  3;110,97,9;,
  3;96,110,9;,
  4;109,98,116,115;,
  4;119,104,101,117;,
  4;103,106,119,117;,
  3;95,9,118;,
  3;9,97,118;,
  3;106,22,119;,
  3;22,104,119;,
  3;96,9,38;,
  4;40,105,102,39;,
  3;22,105,40;,
  4;121,118,97,120;,
  4;100,116,121,120;,
  4;97,110,122,120;,
  4;123,95,118,121;,
  4;116,98,123,121;,
  4;110,96,124,122;,
  4;46,36,99,124;,
  4;96,38,46,124;,
  4;125,107,37,37;,
  4;126,114,107,125;,
  4;128,193,108,127;,
  4;51,129,129,51;,
  4;129,130,130,129;,
  4;130,131,131,130;,
  4;117,101,109,115;,
  3;194,193,128;,
  4;133,134,134,133;,
  4;195,196,132,132;,
  4;135,197,197,135;,
  4;198,199,199,198;,
  4;122,124,99,136;,
  4;120,122,136,100;,
  4;196,195,137,138;,
  4;139,200,196,138;,
  3;136,111,100;,
  3;111,136,99;,
  4;63,181,200,139;,
  4;99,36,63,139;,
  3;131,131,201;,
  3;128,202,194;,
  4;195,115,140,137;,
  3;140,115,116;,
  3;100,140,116;,
  3;111,99,139;,
  3;138,111,139;,
  3;111,138,137;,
  3;111,137,140;,
  3;100,111,203;,
  4;154,153,146,148;,
  4;153,154,147,145;,
  4;152,155,149,143;,
  4;155,152,144,150;,
  4;153,155,150,146;,
  4;155,153,145,149;,
  3;22,154,148;,
  3;22,147,154;,
  3;9,142,151;,
  3;9,151,141;,
  4;156,150,144,157;,
  4;156,157,98,109;,
  4;156,109,101,158;,
  4;156,158,146,150;,
  4;158,101,204,160;,
  4;158,160,148,146;,
  3;159,9,95;,
  3;159,142,9;,
  3;160,22,148;,
  3;160,204,22;,
  4;85,143,149,86;,
  4;86,149,145,88;,
  3;87,9,141;,
  4;88,145,147,89;,
  3;89,147,22;,
  4;161,142,159,162;,
  4;161,162,157,144;,
  4;161,144,152,163;,
  4;161,163,151,142;,
  4;162,159,95,205;,
  4;162,205,98,157;,
  4;163,152,143,164;,
  4;163,164,141,151;,
  4;164,143,85,94;,
  4;164,94,87,141;,
  4;187,206,207,187;,
  4;206,208,126,125;,
  3;209,134,134;,
  4;208,202,198,198;,
  3;210,135,135;,
  3;128,127,202;,
  3;211,213,212;,
  3;211,214,213;,
  3;211,215,214;,
  3;211,216,215;,
  3;211,217,216;,
  3;211,218,217;,
  3;211,219,218;,
  3;211,212,219;,
  4;212,213,221,220;,
  4;213,214,222,221;,
  4;214,215,223,222;,
  4;215,216,224,223;,
  4;216,217,225,224;,
  4;217,218,226,225;,
  4;218,219,227,226;,
  4;219,212,220,227;,
  4;220,221,229,228;,
  4;221,222,230,229;,
  4;222,223,231,230;,
  4;223,224,232,231;,
  4;224,225,233,232;,
  4;225,226,234,233;,
  4;226,227,235,234;,
  4;227,220,228,235;,
  4;228,229,237,236;,
  4;229,230,238,237;,
  4;230,231,239,238;,
  4;231,232,240,239;,
  4;232,233,241,240;,
  4;233,234,242,241;,
  4;234,235,243,242;,
  4;235,228,236,243;,
  4;236,237,245,244;,
  4;237,238,246,245;,
  4;238,239,247,246;,
  4;239,240,248,247;,
  4;240,241,249,248;,
  4;241,242,250,249;,
  4;242,243,251,250;,
  4;243,236,244,251;,
  4;244,245,253,252;,
  4;245,246,254,253;,
  4;246,247,255,254;,
  4;247,248,256,255;,
  4;248,249,257,256;,
  4;249,250,258,257;,
  4;250,251,259,258;,
  4;251,244,252,259;,
  4;252,253,261,260;,
  4;253,254,262,261;,
  4;254,255,263,262;,
  4;255,256,264,263;,
  4;256,257,265,264;,
  4;257,258,266,265;,
  4;258,259,267,266;,
  4;259,252,260,267;,
  3;260,261,268;,
  3;261,262,268;,
  3;262,263,268;,
  3;263,264,268;,
  3;264,265,268;,
  3;265,266,268;,
  3;266,267,268;,
  3;267,260,268;;
 }
 MeshTextureCoords {
  321;
  0.767100;0.666940;,
  0.655840;0.779260;,
  0.786870;0.685960;,
  0.789680;0.691540;,
  0.773350;0.679980;,
  0.747310;0.657860;,
  0.727370;0.638600;,
  0.725330;0.633660;,
  0.741830;0.645470;,
  0.757360;0.662480;,
  0.097300;0.614270;,
  0.097300;0.515730;,
  0.199260;0.515730;,
  0.199260;0.614270;,
  0.049710;0.614270;,
  0.049710;0.515730;,
  0.340700;0.663470;,
  0.354660;0.023430;,
  0.199260;0.064780;,
  0.097300;0.064350;,
  0.049710;0.064350;,
  0.292340;0.326450;,
  0.292340;0.158240;,
  0.351400;0.163970;,
  0.351490;0.329080;,
  0.292340;0.512740;,
  0.351170;0.513000;,
  0.347550;0.619780;,
  0.292340;0.614270;,
  0.292340;0.064780;,
  0.351350;0.065630;,
  0.008520;0.064350;,
  0.008520;0.515730;,
  0.008520;0.614270;,
  0.199260;0.101100;,
  0.292340;0.101100;,
  0.206250;0.095110;,
  0.299330;0.095110;,
  0.299330;0.152250;,
  0.206250;0.152250;,
  0.097300;0.100230;,
  0.352090;0.101980;,
  0.049710;0.100230;,
  0.041720;0.091240;,
  0.041720;0.148390;,
  0.000530;0.148390;,
  0.000530;0.091240;,
  0.008520;0.100230;,
  0.008520;0.427320;,
  0.008520;0.325580;,
  0.049710;0.325580;,
  0.049710;0.427320;,
  0.097300;0.325580;,
  0.097300;0.427320;,
  0.199260;0.428190;,
  0.199260;0.325580;,
  0.214960;0.427320;,
  0.008520;0.442610;,
  0.049710;0.442610;,
  0.097300;0.442610;,
  0.199260;0.443480;,
  0.124370;0.370020;,
  0.123540;0.427320;,
  0.175000;0.370020;,
  0.175280;0.427320;,
  0.093310;0.116000;,
  0.045720;0.139000;,
  0.045720;0.085250;,
  0.093310;0.085250;,
  0.200260;0.130440;,
  0.098300;0.104160;,
  0.098300;0.077270;,
  0.200260;0.078140;,
  0.097300;0.275730;,
  0.199260;0.282070;,
  0.097300;0.278630;,
  0.049710;0.251040;,
  0.189050;0.153770;,
  0.107150;0.155040;,
  0.107150;0.130330;,
  0.068920;0.153660;,
  0.107150;0.133490;,
  0.049710;0.246670;,
  0.008520;0.246610;,
  0.042110;0.245810;,
  0.004210;0.245750;,
  0.004210;0.156510;,
  0.042110;0.156510;,
  0.199260;0.283500;,
  0.229870;0.213560;,
  0.292340;0.164380;,
  0.230690;0.215040;,
  0.304320;0.150330;,
  0.242670;0.204060;,
  0.211240;0.147260;,
  0.068920;0.231540;,
  0.068920;0.155040;,
  0.107150;0.254070;,
  0.189050;0.256880;,
  0.107150;0.251700;,
  0.213640;0.200930;,
  0.189050;0.258040;,
  0.189050;0.155750;,
  0.460950;0.618840;,
  0.513070;0.518580;,
  0.578990;0.518580;,
  0.507170;0.618840;,
  0.635250;0.518580;,
  0.548820;0.618840;,
  0.638250;0.165320;,
  0.649550;0.328950;,
  0.594900;0.328950;,
  0.581590;0.165320;,
  0.522360;0.328950;,
  0.514980;0.165320;,
  0.519030;0.067520;,
  0.480880;0.067520;,
  0.552680;0.067520;,
  0.433310;0.165320;,
  0.436460;0.328950;,
  0.422220;0.518580;,
  0.402110;0.618840;,
  0.353000;0.066220;,
  0.417690;0.067520;,
  0.706360;0.331380;,
  0.689790;0.170400;,
  0.692840;0.514100;,
  0.589860;0.065570;,
  0.571770;0.618000;,
  0.426030;0.103180;,
  0.505660;0.103180;,
  0.571640;0.101860;,
  0.613120;0.103180;,
  0.655530;0.103210;,
  0.199260;0.614270;,
  0.199260;0.515730;,
  0.097300;0.515730;,
  0.097300;0.614270;,
  0.049710;0.515730;,
  0.049710;0.614270;,
  0.097300;0.064350;,
  0.199260;0.064780;,
  0.049710;0.064350;,
  0.351490;0.329080;,
  0.351400;0.163970;,
  0.292340;0.158240;,
  0.292340;0.326450;,
  0.292340;0.614270;,
  0.347550;0.619780;,
  0.351170;0.513000;,
  0.292340;0.512740;,
  0.351350;0.065630;,
  0.292340;0.064780;,
  0.292340;0.101100;,
  0.199260;0.101100;,
  0.208240;0.149250;,
  0.301320;0.149250;,
  0.301320;0.092110;,
  0.208240;0.092110;,
  0.097300;0.100230;,
  0.352090;0.101980;,
  0.049710;0.100230;,
  0.008520;0.081260;,
  0.008520;0.138400;,
  0.049710;0.138400;,
  0.049710;0.081260;,
  0.049710;0.427320;,
  0.049710;0.325580;,
  0.097300;0.427320;,
  0.097300;0.325580;,
  0.214960;0.427320;,
  0.199260;0.325580;,
  0.199260;0.428190;,
  0.049710;0.442610;,
  0.097300;0.442610;,
  0.199260;0.443480;,
  0.123540;0.427320;,
  0.124370;0.370020;,
  0.175000;0.370020;,
  0.175280;0.427320;,
  0.093310;0.083260;,
  0.045720;0.083260;,
  0.045720;0.137010;,
  0.093310;0.114010;,
  0.195270;0.078140;,
  0.093310;0.077270;,
  0.093310;0.104160;,
  0.195270;0.130440;,
  0.199260;0.282070;,
  0.097300;0.275730;,
  0.049710;0.251040;,
  0.097300;0.278630;,
  0.110460;0.124410;,
  0.110460;0.151430;,
  0.194060;0.150040;,
  0.110460;0.127850;,
  0.071430;0.149920;,
  0.049710;0.246670;,
  0.042300;0.154800;,
  0.001110;0.154800;,
  0.001110;0.244040;,
  0.042300;0.244100;,
  0.229870;0.213560;,
  0.199260;0.283500;,
  0.230690;0.215040;,
  0.292340;0.164380;,
  0.215230;0.143260;,
  0.246660;0.200060;,
  0.308310;0.146330;,
  0.071430;0.151430;,
  0.071430;0.235110;,
  0.110460;0.259750;,
  0.110460;0.257160;,
  0.194060;0.262830;,
  0.194060;0.264100;,
  0.219160;0.201630;,
  0.194060;0.152210;,
  0.507170;0.618840;,
  0.578990;0.518580;,
  0.513070;0.518580;,
  0.460950;0.618840;,
  0.548820;0.618840;,
  0.635250;0.518580;,
  0.581590;0.165320;,
  0.594900;0.328950;,
  0.649550;0.328950;,
  0.638250;0.165320;,
  0.514980;0.165320;,
  0.522360;0.328950;,
  0.480880;0.067520;,
  0.519030;0.067520;,
  0.552680;0.067520;,
  0.436460;0.328950;,
  0.433310;0.165320;,
  0.422220;0.518580;,
  0.402110;0.618840;,
  0.417690;0.067520;,
  0.353000;0.066220;,
  0.505660;0.103180;,
  0.426030;0.103180;,
  0.571640;0.101860;,
  0.613120;0.103180;,
  0.062500;0.000000;,
  0.125000;0.125000;,
  0.000000;0.125000;,
  0.187500;0.000000;,
  0.250000;0.125000;,
  0.312500;0.000000;,
  0.375000;0.125000;,
  0.437500;0.000000;,
  0.500000;0.125000;,
  0.562500;0.000000;,
  0.625000;0.125000;,
  0.687500;0.000000;,
  0.750000;0.125000;,
  0.812500;0.000000;,
  0.875000;0.125000;,
  0.937500;0.000000;,
  1.000000;0.125000;,
  0.125000;0.250000;,
  0.000000;0.250000;,
  0.250000;0.250000;,
  0.375000;0.250000;,
  0.500000;0.250000;,
  0.625000;0.250000;,
  0.750000;0.250000;,
  0.875000;0.250000;,
  1.000000;0.250000;,
  0.125000;0.375000;,
  0.000000;0.375000;,
  0.250000;0.375000;,
  0.375000;0.375000;,
  0.500000;0.375000;,
  0.625000;0.375000;,
  0.750000;0.375000;,
  0.875000;0.375000;,
  1.000000;0.375000;,
  0.125000;0.500000;,
  0.000000;0.500000;,
  0.250000;0.500000;,
  0.375000;0.500000;,
  0.500000;0.500000;,
  0.625000;0.500000;,
  0.750000;0.500000;,
  0.875000;0.500000;,
  1.000000;0.500000;,
  0.125000;0.625000;,
  0.000000;0.625000;,
  0.250000;0.625000;,
  0.375000;0.625000;,
  0.500000;0.625000;,
  0.625000;0.625000;,
  0.750000;0.625000;,
  0.875000;0.625000;,
  1.000000;0.625000;,
  0.125000;0.750000;,
  0.000000;0.750000;,
  0.250000;0.750000;,
  0.375000;0.750000;,
  0.500000;0.750000;,
  0.625000;0.750000;,
  0.750000;0.750000;,
  0.875000;0.750000;,
  1.000000;0.750000;,
  0.125000;0.875000;,
  0.000000;0.875000;,
  0.250000;0.875000;,
  0.375000;0.875000;,
  0.500000;0.875000;,
  0.625000;0.875000;,
  0.750000;0.875000;,
  0.875000;0.875000;,
  1.000000;0.875000;,
  0.062500;1.000000;,
  0.187500;1.000000;,
  0.312500;1.000000;,
  0.437500;1.000000;,
  0.562500;1.000000;,
  0.687500;1.000000;,
  0.812500;1.000000;,
  0.937500;1.000000;;
 }
 MeshVertexColors {
  321;
  0;1.000000;1.000000;1.000000;1.000000;,
  1;1.000000;1.000000;1.000000;1.000000;,
  2;1.000000;1.000000;1.000000;1.000000;,
  3;1.000000;1.000000;1.000000;1.000000;,
  4;1.000000;1.000000;1.000000;1.000000;,
  5;1.000000;1.000000;1.000000;1.000000;,
  6;1.000000;1.000000;1.000000;1.000000;,
  7;1.000000;1.000000;1.000000;1.000000;,
  8;1.000000;1.000000;1.000000;1.000000;,
  9;1.000000;1.000000;1.000000;1.000000;,
  10;1.000000;1.000000;1.000000;1.000000;,
  11;1.000000;1.000000;1.000000;1.000000;,
  12;1.000000;1.000000;1.000000;1.000000;,
  13;1.000000;1.000000;1.000000;1.000000;,
  14;1.000000;1.000000;1.000000;1.000000;,
  15;1.000000;1.000000;1.000000;1.000000;,
  16;1.000000;1.000000;1.000000;1.000000;,
  17;1.000000;1.000000;1.000000;1.000000;,
  18;1.000000;1.000000;1.000000;1.000000;,
  19;1.000000;1.000000;1.000000;1.000000;,
  20;1.000000;1.000000;1.000000;1.000000;,
  21;1.000000;1.000000;1.000000;1.000000;,
  22;1.000000;1.000000;1.000000;1.000000;,
  23;1.000000;1.000000;1.000000;1.000000;,
  24;1.000000;1.000000;1.000000;1.000000;,
  25;1.000000;1.000000;1.000000;1.000000;,
  26;1.000000;1.000000;1.000000;1.000000;,
  27;1.000000;1.000000;1.000000;1.000000;,
  28;1.000000;1.000000;1.000000;1.000000;,
  29;1.000000;1.000000;1.000000;1.000000;,
  30;1.000000;1.000000;1.000000;1.000000;,
  31;1.000000;1.000000;1.000000;1.000000;,
  32;1.000000;1.000000;1.000000;1.000000;,
  33;1.000000;1.000000;1.000000;1.000000;,
  34;1.000000;1.000000;1.000000;1.000000;,
  35;1.000000;1.000000;1.000000;1.000000;,
  36;1.000000;1.000000;1.000000;1.000000;,
  37;1.000000;1.000000;1.000000;1.000000;,
  38;1.000000;1.000000;1.000000;1.000000;,
  39;1.000000;1.000000;1.000000;1.000000;,
  40;1.000000;1.000000;1.000000;1.000000;,
  41;1.000000;1.000000;1.000000;1.000000;,
  42;1.000000;1.000000;1.000000;1.000000;,
  43;1.000000;1.000000;1.000000;1.000000;,
  44;1.000000;1.000000;1.000000;1.000000;,
  45;1.000000;1.000000;1.000000;1.000000;,
  46;1.000000;1.000000;1.000000;1.000000;,
  47;1.000000;1.000000;1.000000;1.000000;,
  48;1.000000;1.000000;1.000000;1.000000;,
  49;1.000000;1.000000;1.000000;1.000000;,
  50;1.000000;1.000000;1.000000;1.000000;,
  51;1.000000;1.000000;1.000000;1.000000;,
  52;1.000000;1.000000;1.000000;1.000000;,
  53;1.000000;1.000000;1.000000;1.000000;,
  54;1.000000;1.000000;1.000000;1.000000;,
  55;1.000000;1.000000;1.000000;1.000000;,
  56;1.000000;1.000000;1.000000;1.000000;,
  57;1.000000;1.000000;1.000000;1.000000;,
  58;1.000000;1.000000;1.000000;1.000000;,
  59;1.000000;1.000000;1.000000;1.000000;,
  60;1.000000;1.000000;1.000000;1.000000;,
  61;1.000000;1.000000;1.000000;1.000000;,
  62;1.000000;1.000000;1.000000;1.000000;,
  63;1.000000;1.000000;1.000000;1.000000;,
  64;1.000000;1.000000;1.000000;1.000000;,
  65;1.000000;1.000000;1.000000;1.000000;,
  66;1.000000;1.000000;1.000000;1.000000;,
  67;1.000000;1.000000;1.000000;1.000000;,
  68;1.000000;1.000000;1.000000;1.000000;,
  69;1.000000;1.000000;1.000000;1.000000;,
  70;1.000000;1.000000;1.000000;1.000000;,
  71;1.000000;1.000000;1.000000;1.000000;,
  72;1.000000;1.000000;1.000000;1.000000;,
  73;1.000000;1.000000;1.000000;1.000000;,
  74;1.000000;1.000000;1.000000;1.000000;,
  75;1.000000;1.000000;1.000000;1.000000;,
  76;1.000000;1.000000;1.000000;1.000000;,
  77;1.000000;1.000000;1.000000;1.000000;,
  78;1.000000;1.000000;1.000000;1.000000;,
  79;1.000000;1.000000;1.000000;1.000000;,
  80;1.000000;1.000000;1.000000;1.000000;,
  81;1.000000;1.000000;1.000000;1.000000;,
  82;1.000000;1.000000;1.000000;1.000000;,
  83;1.000000;1.000000;1.000000;1.000000;,
  84;1.000000;1.000000;1.000000;1.000000;,
  85;1.000000;1.000000;1.000000;1.000000;,
  86;1.000000;1.000000;1.000000;1.000000;,
  87;1.000000;1.000000;1.000000;1.000000;,
  88;1.000000;1.000000;1.000000;1.000000;,
  89;1.000000;1.000000;1.000000;1.000000;,
  90;1.000000;1.000000;1.000000;1.000000;,
  91;1.000000;1.000000;1.000000;1.000000;,
  92;1.000000;1.000000;1.000000;1.000000;,
  93;1.000000;1.000000;1.000000;1.000000;,
  94;1.000000;1.000000;1.000000;1.000000;,
  95;1.000000;1.000000;1.000000;1.000000;,
  96;1.000000;1.000000;1.000000;1.000000;,
  97;1.000000;1.000000;1.000000;1.000000;,
  98;1.000000;1.000000;1.000000;1.000000;,
  99;1.000000;1.000000;1.000000;1.000000;,
  100;1.000000;1.000000;1.000000;1.000000;,
  101;1.000000;1.000000;1.000000;1.000000;,
  102;1.000000;1.000000;1.000000;1.000000;,
  103;1.000000;1.000000;1.000000;1.000000;,
  104;1.000000;1.000000;1.000000;1.000000;,
  105;1.000000;1.000000;1.000000;1.000000;,
  106;1.000000;1.000000;1.000000;1.000000;,
  107;1.000000;1.000000;1.000000;1.000000;,
  108;1.000000;1.000000;1.000000;1.000000;,
  109;1.000000;1.000000;1.000000;1.000000;,
  110;1.000000;1.000000;1.000000;1.000000;,
  111;1.000000;1.000000;1.000000;1.000000;,
  112;1.000000;1.000000;1.000000;1.000000;,
  113;1.000000;1.000000;1.000000;1.000000;,
  114;1.000000;1.000000;1.000000;1.000000;,
  115;1.000000;1.000000;1.000000;1.000000;,
  116;1.000000;1.000000;1.000000;1.000000;,
  117;1.000000;1.000000;1.000000;1.000000;,
  118;1.000000;1.000000;1.000000;1.000000;,
  119;1.000000;1.000000;1.000000;1.000000;,
  120;1.000000;1.000000;1.000000;1.000000;,
  121;1.000000;1.000000;1.000000;1.000000;,
  122;1.000000;1.000000;1.000000;1.000000;,
  123;1.000000;1.000000;1.000000;1.000000;,
  124;1.000000;1.000000;1.000000;1.000000;,
  125;1.000000;1.000000;1.000000;1.000000;,
  126;1.000000;1.000000;1.000000;1.000000;,
  127;1.000000;1.000000;1.000000;1.000000;,
  128;1.000000;1.000000;1.000000;1.000000;,
  129;1.000000;1.000000;1.000000;1.000000;,
  130;1.000000;1.000000;1.000000;1.000000;,
  131;1.000000;1.000000;1.000000;1.000000;,
  132;1.000000;1.000000;1.000000;1.000000;,
  133;1.000000;1.000000;1.000000;1.000000;,
  134;1.000000;1.000000;1.000000;1.000000;,
  135;1.000000;1.000000;1.000000;1.000000;,
  136;1.000000;1.000000;1.000000;1.000000;,
  137;1.000000;1.000000;1.000000;1.000000;,
  138;1.000000;1.000000;1.000000;1.000000;,
  139;1.000000;1.000000;1.000000;1.000000;,
  140;1.000000;1.000000;1.000000;1.000000;,
  141;1.000000;1.000000;1.000000;1.000000;,
  142;1.000000;1.000000;1.000000;1.000000;,
  143;1.000000;1.000000;1.000000;1.000000;,
  144;1.000000;1.000000;1.000000;1.000000;,
  145;1.000000;1.000000;1.000000;1.000000;,
  146;1.000000;1.000000;1.000000;1.000000;,
  147;1.000000;1.000000;1.000000;1.000000;,
  148;1.000000;1.000000;1.000000;1.000000;,
  149;1.000000;1.000000;1.000000;1.000000;,
  150;1.000000;1.000000;1.000000;1.000000;,
  151;1.000000;1.000000;1.000000;1.000000;,
  152;1.000000;1.000000;1.000000;1.000000;,
  153;1.000000;1.000000;1.000000;1.000000;,
  154;1.000000;1.000000;1.000000;1.000000;,
  155;1.000000;1.000000;1.000000;1.000000;,
  156;1.000000;1.000000;1.000000;1.000000;,
  157;1.000000;1.000000;1.000000;1.000000;,
  158;1.000000;1.000000;1.000000;1.000000;,
  159;1.000000;1.000000;1.000000;1.000000;,
  160;1.000000;1.000000;1.000000;1.000000;,
  161;1.000000;1.000000;1.000000;1.000000;,
  162;1.000000;1.000000;1.000000;1.000000;,
  163;1.000000;1.000000;1.000000;1.000000;,
  164;1.000000;1.000000;1.000000;1.000000;,
  165;1.000000;1.000000;1.000000;1.000000;,
  166;1.000000;1.000000;1.000000;1.000000;,
  167;1.000000;1.000000;1.000000;1.000000;,
  168;1.000000;1.000000;1.000000;1.000000;,
  169;1.000000;1.000000;1.000000;1.000000;,
  170;1.000000;1.000000;1.000000;1.000000;,
  171;1.000000;1.000000;1.000000;1.000000;,
  172;1.000000;1.000000;1.000000;1.000000;,
  173;1.000000;1.000000;1.000000;1.000000;,
  174;1.000000;1.000000;1.000000;1.000000;,
  175;1.000000;1.000000;1.000000;1.000000;,
  176;1.000000;1.000000;1.000000;1.000000;,
  177;1.000000;1.000000;1.000000;1.000000;,
  178;1.000000;1.000000;1.000000;1.000000;,
  179;1.000000;1.000000;1.000000;1.000000;,
  180;1.000000;1.000000;1.000000;1.000000;,
  181;1.000000;1.000000;1.000000;1.000000;,
  182;1.000000;1.000000;1.000000;1.000000;,
  183;1.000000;1.000000;1.000000;1.000000;,
  184;1.000000;1.000000;1.000000;1.000000;,
  185;1.000000;1.000000;1.000000;1.000000;,
  186;1.000000;1.000000;1.000000;1.000000;,
  187;1.000000;1.000000;1.000000;1.000000;,
  188;1.000000;1.000000;1.000000;1.000000;,
  189;1.000000;1.000000;1.000000;1.000000;,
  190;1.000000;1.000000;1.000000;1.000000;,
  191;1.000000;1.000000;1.000000;1.000000;,
  192;1.000000;1.000000;1.000000;1.000000;,
  193;1.000000;1.000000;1.000000;1.000000;,
  194;1.000000;1.000000;1.000000;1.000000;,
  195;1.000000;1.000000;1.000000;1.000000;,
  196;1.000000;1.000000;1.000000;1.000000;,
  197;1.000000;1.000000;1.000000;1.000000;,
  198;1.000000;1.000000;1.000000;1.000000;,
  199;1.000000;1.000000;1.000000;1.000000;,
  200;1.000000;1.000000;1.000000;1.000000;,
  201;1.000000;1.000000;1.000000;1.000000;,
  202;1.000000;1.000000;1.000000;1.000000;,
  203;1.000000;1.000000;1.000000;1.000000;,
  204;1.000000;1.000000;1.000000;1.000000;,
  205;1.000000;1.000000;1.000000;1.000000;,
  206;1.000000;1.000000;1.000000;1.000000;,
  207;1.000000;1.000000;1.000000;1.000000;,
  208;1.000000;1.000000;1.000000;1.000000;,
  209;1.000000;1.000000;1.000000;1.000000;,
  210;1.000000;1.000000;1.000000;1.000000;,
  211;1.000000;1.000000;1.000000;1.000000;,
  212;1.000000;1.000000;1.000000;1.000000;,
  213;1.000000;1.000000;1.000000;1.000000;,
  214;1.000000;1.000000;1.000000;1.000000;,
  215;1.000000;1.000000;1.000000;1.000000;,
  216;1.000000;1.000000;1.000000;1.000000;,
  217;1.000000;1.000000;1.000000;1.000000;,
  218;1.000000;1.000000;1.000000;1.000000;,
  219;1.000000;1.000000;1.000000;1.000000;,
  220;1.000000;1.000000;1.000000;1.000000;,
  221;1.000000;1.000000;1.000000;1.000000;,
  222;1.000000;1.000000;1.000000;1.000000;,
  223;1.000000;1.000000;1.000000;1.000000;,
  224;1.000000;1.000000;1.000000;1.000000;,
  225;1.000000;1.000000;1.000000;1.000000;,
  226;1.000000;1.000000;1.000000;1.000000;,
  227;1.000000;1.000000;1.000000;1.000000;,
  228;1.000000;1.000000;1.000000;1.000000;,
  229;1.000000;1.000000;1.000000;1.000000;,
  230;1.000000;1.000000;1.000000;1.000000;,
  231;1.000000;1.000000;1.000000;1.000000;,
  232;1.000000;1.000000;1.000000;1.000000;,
  233;1.000000;1.000000;1.000000;1.000000;,
  234;1.000000;1.000000;1.000000;1.000000;,
  235;1.000000;1.000000;1.000000;1.000000;,
  236;1.000000;1.000000;1.000000;1.000000;,
  237;1.000000;1.000000;1.000000;1.000000;,
  238;1.000000;1.000000;1.000000;1.000000;,
  239;1.000000;1.000000;1.000000;1.000000;,
  240;1.000000;1.000000;1.000000;1.000000;,
  241;1.000000;1.000000;1.000000;1.000000;,
  242;1.000000;1.000000;1.000000;1.000000;,
  243;1.000000;1.000000;1.000000;1.000000;,
  244;1.000000;1.000000;1.000000;1.000000;,
  245;1.000000;1.000000;1.000000;1.000000;,
  246;1.000000;1.000000;1.000000;1.000000;,
  247;1.000000;1.000000;1.000000;1.000000;,
  248;1.000000;1.000000;1.000000;1.000000;,
  249;1.000000;1.000000;1.000000;1.000000;,
  250;1.000000;1.000000;1.000000;1.000000;,
  251;1.000000;1.000000;1.000000;1.000000;,
  252;1.000000;1.000000;1.000000;1.000000;,
  253;1.000000;1.000000;1.000000;1.000000;,
  254;1.000000;1.000000;1.000000;1.000000;,
  255;1.000000;1.000000;1.000000;1.000000;,
  256;1.000000;1.000000;1.000000;1.000000;,
  257;1.000000;1.000000;1.000000;1.000000;,
  258;1.000000;1.000000;1.000000;1.000000;,
  259;1.000000;1.000000;1.000000;1.000000;,
  260;1.000000;1.000000;1.000000;1.000000;,
  261;1.000000;1.000000;1.000000;1.000000;,
  262;1.000000;1.000000;1.000000;1.000000;,
  263;1.000000;1.000000;1.000000;1.000000;,
  264;1.000000;1.000000;1.000000;1.000000;,
  265;1.000000;1.000000;1.000000;1.000000;,
  266;1.000000;1.000000;1.000000;1.000000;,
  267;1.000000;1.000000;1.000000;1.000000;,
  268;1.000000;1.000000;1.000000;1.000000;,
  269;1.000000;1.000000;1.000000;1.000000;,
  270;1.000000;1.000000;1.000000;1.000000;,
  271;1.000000;1.000000;1.000000;1.000000;,
  272;1.000000;1.000000;1.000000;1.000000;,
  273;1.000000;1.000000;1.000000;1.000000;,
  274;1.000000;1.000000;1.000000;1.000000;,
  275;1.000000;1.000000;1.000000;1.000000;,
  276;1.000000;1.000000;1.000000;1.000000;,
  277;1.000000;1.000000;1.000000;1.000000;,
  278;1.000000;1.000000;1.000000;1.000000;,
  279;1.000000;1.000000;1.000000;1.000000;,
  280;1.000000;1.000000;1.000000;1.000000;,
  281;1.000000;1.000000;1.000000;1.000000;,
  282;1.000000;1.000000;1.000000;1.000000;,
  283;1.000000;1.000000;1.000000;1.000000;,
  284;1.000000;1.000000;1.000000;1.000000;,
  285;1.000000;1.000000;1.000000;1.000000;,
  286;1.000000;1.000000;1.000000;1.000000;,
  287;1.000000;1.000000;1.000000;1.000000;,
  288;1.000000;1.000000;1.000000;1.000000;,
  289;1.000000;1.000000;1.000000;1.000000;,
  290;1.000000;1.000000;1.000000;1.000000;,
  291;1.000000;1.000000;1.000000;1.000000;,
  292;1.000000;1.000000;1.000000;1.000000;,
  293;1.000000;1.000000;1.000000;1.000000;,
  294;1.000000;1.000000;1.000000;1.000000;,
  295;1.000000;1.000000;1.000000;1.000000;,
  296;1.000000;1.000000;1.000000;1.000000;,
  297;1.000000;1.000000;1.000000;1.000000;,
  298;1.000000;1.000000;1.000000;1.000000;,
  299;1.000000;1.000000;1.000000;1.000000;,
  300;1.000000;1.000000;1.000000;1.000000;,
  301;1.000000;1.000000;1.000000;1.000000;,
  302;1.000000;1.000000;1.000000;1.000000;,
  303;1.000000;1.000000;1.000000;1.000000;,
  304;1.000000;1.000000;1.000000;1.000000;,
  305;1.000000;1.000000;1.000000;1.000000;,
  306;1.000000;1.000000;1.000000;1.000000;,
  307;1.000000;1.000000;1.000000;1.000000;,
  308;1.000000;1.000000;1.000000;1.000000;,
  309;1.000000;1.000000;1.000000;1.000000;,
  310;1.000000;1.000000;1.000000;1.000000;,
  311;1.000000;1.000000;1.000000;1.000000;,
  312;1.000000;1.000000;1.000000;1.000000;,
  313;1.000000;1.000000;1.000000;1.000000;,
  314;1.000000;1.000000;1.000000;1.000000;,
  315;1.000000;1.000000;1.000000;1.000000;,
  316;1.000000;1.000000;1.000000;1.000000;,
  317;1.000000;1.000000;1.000000;1.000000;,
  318;1.000000;1.000000;1.000000;1.000000;,
  319;1.000000;1.000000;1.000000;1.000000;,
  320;1.000000;1.000000;1.000000;1.000000;;
 }
}
