xof 0302txt 0064
template Header {
 <3D82AB43-62DA-11cf-AB39-0020AF71E433>
 WORD major;
 WORD minor;
 DWORD flags;
}

template Vector {
 <3D82AB5E-62DA-11cf-AB39-0020AF71E433>
 FLOAT x;
 FLOAT y;
 FLOAT z;
}

template Coords2d {
 <F6F23F44-7686-11cf-8F52-0040333594A3>
 FLOAT u;
 FLOAT v;
}

template Matrix4x4 {
 <F6F23F45-7686-11cf-8F52-0040333594A3>
 array FLOAT matrix[16];
}

template ColorRGBA {
 <35FF44E0-6C7C-11cf-8F52-0040333594A3>
 FLOAT red;
 FLOAT green;
 FLOAT blue;
 FLOAT alpha;
}

template ColorRGB {
 <D3E16E81-7835-11cf-8F52-0040333594A3>
 FLOAT red;
 FLOAT green;
 FLOAT blue;
}

template IndexedColor {
 <1630B820-7842-11cf-8F52-0040333594A3>
 DWORD index;
 ColorRGBA indexColor;
}

template Boolean {
 <4885AE61-78E8-11cf-8F52-0040333594A3>
 WORD truefalse;
}

template Boolean2d {
 <4885AE63-78E8-11cf-8F52-0040333594A3>
 Boolean u;
 Boolean v;
}

template MaterialWrap {
 <4885AE60-78E8-11cf-8F52-0040333594A3>
 Boolean u;
 Boolean v;
}

template TextureFilename {
 <A42790E1-7810-11cf-8F52-0040333594A3>
 STRING filename;
}

template Material {
 <3D82AB4D-62DA-11cf-AB39-0020AF71E433>
 ColorRGBA faceColor;
 FLOAT power;
 ColorRGB specularColor;
 ColorRGB emissiveColor;
 [...]
}

template MeshFace {
 <3D82AB5F-62DA-11cf-AB39-0020AF71E433>
 DWORD nFaceVertexIndices;
 array DWORD faceVertexIndices[nFaceVertexIndices];
}

template MeshFaceWraps {
 <4885AE62-78E8-11cf-8F52-0040333594A3>
 DWORD nFaceWrapValues;
 Boolean2d faceWrapValues;
}

template MeshTextureCoords {
 <F6F23F40-7686-11cf-8F52-0040333594A3>
 DWORD nTextureCoords;
 array Coords2d textureCoords[nTextureCoords];
}

template MeshMaterialList {
 <F6F23F42-7686-11cf-8F52-0040333594A3>
 DWORD nMaterials;
 DWORD nFaceIndexes;
 array DWORD faceIndexes[nFaceIndexes];
 [Material]
}

template MeshNormals {
 <F6F23F43-7686-11cf-8F52-0040333594A3>
 DWORD nNormals;
 array Vector normals[nNormals];
 DWORD nFaceNormals;
 array MeshFace faceNormals[nFaceNormals];
}

template MeshVertexColors {
 <1630B821-7842-11cf-8F52-0040333594A3>
 DWORD nVertexColors;
 array IndexedColor vertexColors[nVertexColors];
}

template Mesh {
 <3D82AB44-62DA-11cf-AB39-0020AF71E433>
 DWORD nVertices;
 array Vector vertices[nVertices];
 DWORD nFaces;
 array MeshFace faces[nFaces];
 [...]
}

Header{
1;
0;
1;
}

Mesh {
 57;
 -0.72044;0.00000;0.53401;,
 -0.58898;0.00000;0.75424;,
 -0.45339;0.00000;0.32627;,
 -0.78814;0.00000;0.33475;,
 -0.48729;0.00000;0.94915;,
 -0.29915;0.00000;0.46525;,
 -0.33220;0.00000;1.09322;,
 -0.09915;0.00000;0.46525;,
 -0.36610;0.00000;0.08390;,
 -0.91525;0.00000;0.10170;,
 -0.59661;0.00000;-0.09237;,
 -1.03814;-0.00000;-0.08051;,
 -0.61017;0.00000;-0.37034;,
 -1.10169;0.00000;-0.35169;,
 -0.54915;0.00000;-0.65508;,
 -1.02966;-0.00000;-0.61017;,
 -0.43390;0.00000;-0.83814;,
 -0.89492;0.00000;-0.84492;,
 -0.29830;-0.00000;-0.96695;,
 -0.69831;0.00000;-1.02797;,
 -0.19661;0.00000;-1.04831;,
 -0.43390;-0.00000;-1.12966;,
 -0.00678;0.00000;-1.17034;,
 -0.18983;0.00000;-1.20424;,
 0.71176;0.00000;0.50858;,
 0.77108;0.00000;0.32214;,
 0.45339;0.00000;0.32627;,
 0.58898;0.00000;0.75424;,
 0.29915;0.00000;0.46525;,
 0.48729;0.00000;0.94915;,
 0.09915;0.00000;0.46525;,
 0.33220;0.00000;1.09322;,
 0.91525;0.00000;0.10170;,
 0.36610;0.00000;0.08390;,
 1.03814;-0.00000;-0.08051;,
 0.59661;0.00000;-0.09237;,
 1.10169;0.00000;-0.35169;,
 0.61017;0.00000;-0.37034;,
 1.02966;-0.00000;-0.61017;,
 0.54915;0.00000;-0.65508;,
 0.89492;0.00000;-0.84492;,
 0.43390;0.00000;-0.83814;,
 0.69831;0.00000;-1.02797;,
 0.29830;-0.00000;-0.96695;,
 0.43390;-0.00000;-1.12966;,
 0.19661;0.00000;-1.04831;,
 0.18983;0.00000;-1.20424;,
 0.00678;0.00000;-1.17034;,
 -0.01356;0.00000;0.72558;,
 0.10085;0.00000;0.46525;,
 -0.01356;0.00000;0.46525;,
 -0.01356;0.00000;0.46525;,
 -0.10085;0.00000;0.46525;,
 -0.01356;0.00000;0.62169;,
 0.00678;0.00000;1.22034;,
 0.14492;0.00000;1.17373;,
 -0.14492;0.00000;1.17373;;
 
 106;
 4;0,1,2,3;,
 4;1,4,5,2;,
 4;4,6,7,5;,
 4;3,2,8,9;,
 4;9,8,10,11;,
 4;11,10,12,13;,
 4;13,12,14,15;,
 4;15,14,16,17;,
 4;17,16,18,19;,
 4;19,18,20,21;,
 4;21,20,22,23;,
 4;24,25,26,27;,
 4;27,26,28,29;,
 4;29,28,30,31;,
 4;25,32,33,26;,
 4;32,34,35,33;,
 4;34,36,37,35;,
 4;36,38,39,37;,
 4;38,40,41,39;,
 4;40,42,43,41;,
 4;42,44,45,43;,
 4;44,46,47,45;,
 3;48,49,50;,
 3;51,52,53;,
 3;54,55,53;,
 4;53,52,56,54;,
 3;26,33,28;,
 4;3,2,1,0;,
 4;2,5,4,1;,
 4;5,7,6,4;,
 4;9,8,2,3;,
 4;11,10,8,9;,
 4;13,12,10,11;,
 4;15,14,12,13;,
 4;17,16,14,15;,
 4;19,18,16,17;,
 4;21,20,18,19;,
 4;23,22,20,21;,
 4;27,26,25,24;,
 4;29,28,26,27;,
 4;31,30,28,29;,
 4;26,33,32,25;,
 4;33,35,34,32;,
 4;35,37,36,34;,
 4;37,39,38,36;,
 4;39,41,40,38;,
 4;41,43,42,40;,
 4;43,45,44,42;,
 4;45,47,46,44;,
 3;50,49,48;,
 3;53,52,51;,
 3;53,55,54;,
 4;54,56,52,53;,
 3;28,33,26;,
 3;56,48,6;,
 3;6,48,7;,
 3;48,50,7;,
 3;55,31,53;,
 3;31,30,53;,
 3;30,51,53;,
 3;5,52,2;,
 3;52,50,2;,
 3;50,30,2;,
 3;30,28,2;,
 3;28,33,2;,
 3;33,8,2;,
 3;33,35,8;,
 3;8,35,10;,
 3;35,37,10;,
 3;10,37,12;,
 3;37,39,12;,
 3;12,39,14;,
 3;39,41,14;,
 3;14,41,16;,
 3;41,43,16;,
 3;16,43,18;,
 3;43,45,18;,
 3;18,45,20;,
 3;45,47,20;,
 3;47,22,20;,
 3;56,6,48;,
 3;6,7,48;,
 3;7,50,48;,
 3;55,53,31;,
 3;31,53,30;,
 3;53,51,30;,
 3;28,30,33;,
 3;30,50,33;,
 3;50,52,33;,
 3;52,5,33;,
 3;5,2,33;,
 3;2,8,33;,
 3;8,10,33;,
 3;33,10,35;,
 3;10,12,35;,
 3;35,12,37;,
 3;12,14,37;,
 3;37,14,39;,
 3;14,16,39;,
 3;39,16,41;,
 3;16,18,41;,
 3;41,18,43;,
 3;18,20,43;,
 3;43,20,45;,
 3;20,22,45;,
 3;22,47,45;;
 
 MeshMaterialList {
  1;
  106;
  0,
  0,
  0,
  0,
  0,
  0,
  0,
  0,
  0,
  0,
  0,
  0,
  0,
  0,
  0,
  0,
  0,
  0,
  0,
  0,
  0,
  0,
  0,
  0,
  0,
  0,
  0,
  0,
  0,
  0,
  0,
  0,
  0,
  0,
  0,
  0,
  0,
  0,
  0,
  0,
  0,
  0,
  0,
  0,
  0,
  0,
  0,
  0,
  0,
  0,
  0,
  0,
  0,
  0,
  0,
  0,
  0,
  0,
  0,
  0,
  0,
  0,
  0,
  0,
  0,
  0,
  0,
  0,
  0,
  0,
  0,
  0,
  0,
  0,
  0,
  0,
  0,
  0,
  0,
  0,
  0,
  0,
  0,
  0,
  0,
  0,
  0,
  0,
  0,
  0,
  0,
  0,
  0,
  0,
  0,
  0,
  0,
  0,
  0,
  0,
  0,
  0,
  0,
  0,
  0,
  0;;
  Material {
   0.800000;0.800000;0.800000;1.000000;;
   5.000000;
   0.000000;0.000000;0.000000;;
   0.000000;0.000000;0.000000;;
   TextureFilename {
    "Data\\Graphics\\XFileTexture\\leaf1diffuse.png";
   }
  }
 }
 MeshNormals {
  72;
  0.000000;1.000000;0.000000;,
  -0.000001;1.000000;-0.000001;,
  -0.000000;1.000000;-0.000000;,
  -0.000001;1.000000;0.000001;,
  -0.000000;1.000000;0.000000;,
  -0.000000;1.000000;-0.000000;,
  -0.000000;1.000000;-0.000000;,
  -0.000001;1.000000;-0.000001;,
  -0.000000;1.000000;-0.000001;,
  0.000001;1.000000;-0.000002;,
  0.000000;1.000000;-0.000009;,
  -0.000000;1.000000;-0.000002;,
  -0.000000;1.000000;0.000008;,
  -0.000008;1.000000;0.000001;,
  -0.000003;1.000000;0.000015;,
  -0.000012;1.000000;-0.000001;,
  -0.000006;1.000000;0.000010;,
  -0.000032;1.000000;-0.000013;,
  -0.000016;1.000000;-0.000007;,
  -0.000008;1.000000;-0.000003;,
  0.000001;1.000000;-0.000001;,
  0.000000;1.000000;-0.000000;,
  0.000001;1.000000;0.000001;,
  0.000000;1.000000;0.000000;,
  0.000000;1.000000;-0.000000;,
  0.000000;1.000000;-0.000000;,
  0.000001;1.000000;-0.000001;,
  0.000000;1.000000;-0.000001;,
  -0.000001;1.000000;-0.000002;,
  -0.000000;1.000000;-0.000005;,
  0.000000;1.000000;-0.000002;,
  0.000000;1.000000;-0.000002;,
  0.000008;1.000000;0.000001;,
  0.000003;1.000000;0.000017;,
  0.000012;1.000000;-0.000001;,
  0.000004;1.000000;0.000013;,
  0.000000;-1.000000;-0.000000;,
  0.000001;-1.000000;0.000001;,
  0.000000;-1.000000;0.000001;,
  0.000001;-1.000000;-0.000001;,
  0.000000;-1.000000;-0.000000;,
  0.000000;-1.000000;0.000000;,
  0.000000;-1.000000;0.000000;,
  0.000001;-1.000000;0.000001;,
  0.000000;-1.000000;0.000001;,
  -0.000001;-1.000000;0.000002;,
  -0.000000;-1.000000;0.000005;,
  0.000000;-1.000000;0.000002;,
  0.000000;-1.000000;0.000002;,
  0.000008;-1.000000;-0.000001;,
  0.000003;-1.000000;-0.000017;,
  0.000012;-1.000000;0.000001;,
  0.000004;-1.000000;-0.000013;,
  0.000016;-1.000000;0.000007;,
  0.000008;-1.000000;0.000003;,
  0.000032;-1.000000;0.000013;,
  -0.000000;-1.000000;0.000000;,
  -0.000001;-1.000000;0.000001;,
  -0.000000;-1.000000;-0.000000;,
  -0.000001;-1.000000;-0.000001;,
  -0.000000;-1.000000;0.000000;,
  -0.000000;-1.000000;0.000000;,
  -0.000000;-1.000000;0.000001;,
  -0.000001;-1.000000;0.000001;,
  0.000000;-1.000000;0.000009;,
  0.000001;-1.000000;0.000002;,
  -0.000000;-1.000000;-0.000008;,
  -0.000000;-1.000000;0.000002;,
  -0.000003;-1.000000;-0.000015;,
  -0.000008;-1.000000;-0.000001;,
  -0.000006;-1.000000;-0.000010;,
  -0.000012;-1.000000;0.000001;;
  106;
  4;0,0,0,0;,
  4;0,0,0,0;,
  4;0,0,0,0;,
  4;0,0,2,1;,
  4;1,2,4,3;,
  4;3,4,6,5;,
  4;5,6,8,7;,
  4;7,8,10,9;,
  4;9,10,12,11;,
  4;11,12,14,13;,
  4;13,14,16,15;,
  4;17,18,19,18;,
  4;18,19,0,0;,
  4;0,0,0,0;,
  4;18,20,21,19;,
  4;20,22,23,21;,
  4;22,24,25,23;,
  4;24,26,27,25;,
  4;26,28,29,27;,
  4;28,30,31,29;,
  4;30,32,33,31;,
  4;32,34,35,33;,
  3;0,0,0;,
  3;0,0,0;,
  3;0,0,0;,
  4;0,0,0,0;,
  3;19,21,0;,
  4;36,36,36,36;,
  4;36,36,36,36;,
  4;36,36,36,36;,
  4;37,38,36,36;,
  4;39,40,38,37;,
  4;41,42,40,39;,
  4;43,44,42,41;,
  4;45,46,44,43;,
  4;47,48,46,45;,
  4;49,50,48,47;,
  4;51,52,50,49;,
  4;53,54,53,55;,
  4;36,36,54,53;,
  4;36,36,36,36;,
  4;54,56,57,53;,
  4;56,58,59,57;,
  4;58,60,61,59;,
  4;60,62,63,61;,
  4;62,64,65,63;,
  4;64,66,67,65;,
  4;66,68,69,67;,
  4;68,70,71,69;,
  3;36,36,36;,
  3;36,36,36;,
  3;36,36,36;,
  4;36,36,36,36;,
  3;36,56,54;,
  3;0,0,0;,
  3;0,0,0;,
  3;0,0,0;,
  3;0,0,0;,
  3;0,0,0;,
  3;0,0,0;,
  3;0,0,0;,
  3;0,0,0;,
  3;0,0,0;,
  3;0,0,0;,
  3;0,21,0;,
  3;21,2,0;,
  3;21,23,2;,
  3;2,23,4;,
  3;23,25,4;,
  3;4,25,6;,
  3;25,27,6;,
  3;6,27,8;,
  3;27,29,8;,
  3;8,29,10;,
  3;29,31,10;,
  3;10,31,12;,
  3;31,33,12;,
  3;12,33,14;,
  3;33,35,14;,
  3;35,16,14;,
  3;36,36,36;,
  3;36,36,36;,
  3;36,36,36;,
  3;36,36,36;,
  3;36,36,36;,
  3;36,36,36;,
  3;36,36,56;,
  3;36,36,56;,
  3;36,36,56;,
  3;36,36,56;,
  3;36,36,56;,
  3;36,38,56;,
  3;38,40,56;,
  3;56,40,58;,
  3;40,42,58;,
  3;58,42,60;,
  3;42,44,60;,
  3;60,44,62;,
  3;44,46,62;,
  3;62,46,64;,
  3;46,48,64;,
  3;64,48,66;,
  3;48,50,66;,
  3;66,50,68;,
  3;50,52,68;,
  3;52,70,68;;
 }
 MeshTextureCoords {
  57;
  0.397645;0.327515;,
  0.425873;0.342174;,
  0.375347;0.365143;,
  0.372672;0.320995;,
  0.450693;0.353221;,
  0.393950;0.383773;,
  0.469924;0.371901;,
  0.396163;0.410090;,
  0.346848;0.379533;,
  0.342933;0.307060;,
  0.322868;0.351313;,
  0.319423;0.293074;,
  0.288926;0.352859;,
  0.285752;0.287960;,
  0.254986;0.364299;,
  0.255127;0.300535;,
  0.234008;0.381658;,
  0.228081;0.321077;,
  0.219850;0.401043;,
  0.208005;0.349141;,
  0.211085;0.415399;,
  0.198568;0.385151;,
  0.198351;0.441839;,
  0.192204;0.418159;,
  0.410406;0.516273;,
  0.388398;0.526312;,
  0.385383;0.484460;,
  0.438911;0.497175;,
  0.400572;0.462500;,
  0.461480;0.481458;,
  0.398358;0.436183;,
  0.477278;0.459326;,
  0.363194;0.547924;,
  0.354952;0.475878;,
  0.342404;0.566276;,
  0.336075;0.508321;,
  0.310140;0.577888;,
  0.302433;0.513435;,
  0.277921;0.571506;,
  0.267142;0.508818;,
  0.247892;0.556588;,
  0.243613;0.495845;,
  0.223463;0.532911;,
  0.226453;0.479547;,
  0.208173;0.499338;,
  0.215437;0.467140;,
  0.196406;0.468116;,
  0.198501;0.443624;,
  0.428758;0.418234;,
  0.398377;0.436406;,
  0.397111;0.421352;,
  0.397111;0.421352;,
  0.396144;0.409867;,
  0.416128;0.419478;,
  0.489129;0.414983;,
  0.484992;0.433717;,
  0.481784;0.395581;;
 }
 MeshVertexColors {
  57;
  0;1.000000;1.000000;1.000000;1.000000;,
  1;1.000000;1.000000;1.000000;1.000000;,
  2;1.000000;1.000000;1.000000;1.000000;,
  3;1.000000;1.000000;1.000000;1.000000;,
  4;1.000000;1.000000;1.000000;1.000000;,
  5;1.000000;1.000000;1.000000;1.000000;,
  6;1.000000;1.000000;1.000000;1.000000;,
  7;1.000000;1.000000;1.000000;1.000000;,
  8;1.000000;1.000000;1.000000;1.000000;,
  9;1.000000;1.000000;1.000000;1.000000;,
  10;1.000000;1.000000;1.000000;1.000000;,
  11;1.000000;1.000000;1.000000;1.000000;,
  12;1.000000;1.000000;1.000000;1.000000;,
  13;1.000000;1.000000;1.000000;1.000000;,
  14;1.000000;1.000000;1.000000;1.000000;,
  15;1.000000;1.000000;1.000000;1.000000;,
  16;1.000000;1.000000;1.000000;1.000000;,
  17;1.000000;1.000000;1.000000;1.000000;,
  18;1.000000;1.000000;1.000000;1.000000;,
  19;1.000000;1.000000;1.000000;1.000000;,
  20;1.000000;1.000000;1.000000;1.000000;,
  21;1.000000;1.000000;1.000000;1.000000;,
  22;1.000000;1.000000;1.000000;1.000000;,
  23;1.000000;1.000000;1.000000;1.000000;,
  24;1.000000;1.000000;1.000000;1.000000;,
  25;1.000000;1.000000;1.000000;1.000000;,
  26;1.000000;1.000000;1.000000;1.000000;,
  27;1.000000;1.000000;1.000000;1.000000;,
  28;1.000000;1.000000;1.000000;1.000000;,
  29;1.000000;1.000000;1.000000;1.000000;,
  30;1.000000;1.000000;1.000000;1.000000;,
  31;1.000000;1.000000;1.000000;1.000000;,
  32;1.000000;1.000000;1.000000;1.000000;,
  33;1.000000;1.000000;1.000000;1.000000;,
  34;1.000000;1.000000;1.000000;1.000000;,
  35;1.000000;1.000000;1.000000;1.000000;,
  36;1.000000;1.000000;1.000000;1.000000;,
  37;1.000000;1.000000;1.000000;1.000000;,
  38;1.000000;1.000000;1.000000;1.000000;,
  39;1.000000;1.000000;1.000000;1.000000;,
  40;1.000000;1.000000;1.000000;1.000000;,
  41;1.000000;1.000000;1.000000;1.000000;,
  42;1.000000;1.000000;1.000000;1.000000;,
  43;1.000000;1.000000;1.000000;1.000000;,
  44;1.000000;1.000000;1.000000;1.000000;,
  45;1.000000;1.000000;1.000000;1.000000;,
  46;1.000000;1.000000;1.000000;1.000000;,
  47;1.000000;1.000000;1.000000;1.000000;,
  48;1.000000;1.000000;1.000000;1.000000;,
  49;1.000000;1.000000;1.000000;1.000000;,
  50;1.000000;1.000000;1.000000;1.000000;,
  51;1.000000;1.000000;1.000000;1.000000;,
  52;1.000000;1.000000;1.000000;1.000000;,
  53;1.000000;1.000000;1.000000;1.000000;,
  54;1.000000;1.000000;1.000000;1.000000;,
  55;1.000000;1.000000;1.000000;1.000000;,
  56;1.000000;1.000000;1.000000;1.000000;;
 }
}
