xof 0302txt 0064
template Header {
 <3D82AB43-62DA-11cf-AB39-0020AF71E433>
 WORD major;
 WORD minor;
 DWORD flags;
}

template Vector {
 <3D82AB5E-62DA-11cf-AB39-0020AF71E433>
 FLOAT x;
 FLOAT y;
 FLOAT z;
}

template Coords2d {
 <F6F23F44-7686-11cf-8F52-0040333594A3>
 FLOAT u;
 FLOAT v;
}

template Matrix4x4 {
 <F6F23F45-7686-11cf-8F52-0040333594A3>
 array FLOAT matrix[16];
}

template ColorRGBA {
 <35FF44E0-6C7C-11cf-8F52-0040333594A3>
 FLOAT red;
 FLOAT green;
 FLOAT blue;
 FLOAT alpha;
}

template ColorRGB {
 <D3E16E81-7835-11cf-8F52-0040333594A3>
 FLOAT red;
 FLOAT green;
 FLOAT blue;
}

template IndexedColor {
 <1630B820-7842-11cf-8F52-0040333594A3>
 DWORD index;
 ColorRGBA indexColor;
}

template Boolean {
 <4885AE61-78E8-11cf-8F52-0040333594A3>
 WORD truefalse;
}

template Boolean2d {
 <4885AE63-78E8-11cf-8F52-0040333594A3>
 Boolean u;
 Boolean v;
}

template MaterialWrap {
 <4885AE60-78E8-11cf-8F52-0040333594A3>
 Boolean u;
 Boolean v;
}

template TextureFilename {
 <A42790E1-7810-11cf-8F52-0040333594A3>
 STRING filename;
}

template Material {
 <3D82AB4D-62DA-11cf-AB39-0020AF71E433>
 ColorRGBA faceColor;
 FLOAT power;
 ColorRGB specularColor;
 ColorRGB emissiveColor;
 [...]
}

template MeshFace {
 <3D82AB5F-62DA-11cf-AB39-0020AF71E433>
 DWORD nFaceVertexIndices;
 array DWORD faceVertexIndices[nFaceVertexIndices];
}

template MeshFaceWraps {
 <4885AE62-78E8-11cf-8F52-0040333594A3>
 DWORD nFaceWrapValues;
 Boolean2d faceWrapValues;
}

template MeshTextureCoords {
 <F6F23F40-7686-11cf-8F52-0040333594A3>
 DWORD nTextureCoords;
 array Coords2d textureCoords[nTextureCoords];
}

template MeshMaterialList {
 <F6F23F42-7686-11cf-8F52-0040333594A3>
 DWORD nMaterials;
 DWORD nFaceIndexes;
 array DWORD faceIndexes[nFaceIndexes];
 [Material]
}

template MeshNormals {
 <F6F23F43-7686-11cf-8F52-0040333594A3>
 DWORD nNormals;
 array Vector normals[nNormals];
 DWORD nFaceNormals;
 array MeshFace faceNormals[nFaceNormals];
}

template MeshVertexColors {
 <1630B821-7842-11cf-8F52-0040333594A3>
 DWORD nVertexColors;
 array IndexedColor vertexColors[nVertexColors];
}

template Mesh {
 <3D82AB44-62DA-11cf-AB39-0020AF71E433>
 DWORD nVertices;
 array Vector vertices[nVertices];
 DWORD nFaces;
 array MeshFace faces[nFaces];
 [...]
}

Header{
1;
0;
1;
}

Mesh {
 70;
 0.02626;0.01584;-0.03487;,
 -0.02610;0.00000;0.01750;,
 -0.04779;0.00000;-0.03487;,
 -0.02610;0.00000;-0.08723;,
 0.02626;0.00000;-0.10892;,
 0.07863;0.00000;-0.08723;,
 0.10032;0.00000;-0.03487;,
 0.07863;0.00000;0.01750;,
 0.02626;0.00000;0.03919;,
 0.05231;0.59306;-0.03487;,
 -0.15665;0.59151;0.17409;,
 -0.23313;0.59095;0.04162;,
 -0.23313;0.59095;-0.11135;,
 -0.15665;0.59151;-0.24383;,
 -0.02417;0.59249;-0.32031;,
 0.12879;0.59362;-0.32031;,
 0.26126;0.59460;-0.24383;,
 0.33775;0.59517;-0.11135;,
 0.33775;0.59517;0.04162;,
 0.26126;0.59460;0.17409;,
 0.12879;0.59362;0.25058;,
 -0.02417;0.59249;0.25058;,
 0.05114;0.75071;-0.03487;,
 -0.13443;0.70312;0.01495;,
 -0.08461;0.70349;0.10124;,
 -0.13443;0.70312;-0.08468;,
 -0.08461;0.70349;-0.17097;,
 0.00167;0.70413;-0.22079;,
 0.10130;0.70487;-0.22079;,
 0.18758;0.70550;-0.17097;,
 0.23740;0.70587;-0.08468;,
 0.23740;0.70587;0.01495;,
 0.18758;0.70550;0.10124;,
 0.10130;0.70486;0.15105;,
 0.00167;0.70413;0.15105;,
 0.00062;0.17464;-0.00728;,
 -0.00970;0.16959;-0.03487;,
 0.00062;0.17464;-0.06246;,
 0.02627;0.18402;-0.07390;,
 0.05396;0.18166;-0.06259;,
 0.06555;0.18068;-0.03487;,
 0.05396;0.18166;-0.00714;,
 0.02627;0.18402;0.00417;,
 0.04635;0.40771;0.00415;,
 0.01833;0.40896;-0.00717;,
 0.06109;0.40164;-0.00743;,
 0.07165;0.39737;-0.03487;,
 0.05372;0.40468;-0.06809;,
 0.01833;0.40896;-0.06257;,
 0.00668;0.40946;-0.03487;,
 0.02666;0.61261;-0.00387;,
 0.01334;0.61246;-0.03487;,
 0.02666;0.61261;-0.06587;,
 0.05774;0.61303;-0.07760;,
 0.08722;0.61351;-0.06427;,
 0.09894;0.61372;-0.03487;,
 0.08722;0.61351;-0.00547;,
 0.05774;0.61303;0.00786;,
 -0.12993;0.64313;0.14699;,
 -0.19649;0.64264;0.03170;,
 -0.19649;0.64264;-0.10143;,
 -0.12993;0.64313;-0.21673;,
 -0.01463;0.64398;-0.28329;,
 0.11849;0.64496;-0.28329;,
 0.23378;0.64582;-0.21673;,
 0.30035;0.64631;-0.10143;,
 0.30035;0.64631;0.03170;,
 0.23378;0.64582;0.14699;,
 0.11849;0.64496;0.21356;,
 -0.01463;0.64398;0.21356;;
 
 126;
 3;0,1,2;,
 3;0,2,3;,
 3;0,3,4;,
 3;0,4,5;,
 3;0,5,6;,
 3;0,6,7;,
 3;0,7,8;,
 3;8,1,0;,
 3;9,10,11;,
 3;9,11,12;,
 3;9,12,13;,
 3;9,13,14;,
 3;9,14,15;,
 3;9,15,16;,
 3;9,16,17;,
 3;9,17,18;,
 3;9,18,19;,
 3;9,19,20;,
 3;9,20,21;,
 3;9,21,10;,
 3;22,23,24;,
 3;22,25,23;,
 3;22,26,25;,
 3;22,27,26;,
 3;22,28,27;,
 3;22,29,28;,
 3;22,30,29;,
 3;22,31,30;,
 3;22,32,31;,
 3;22,33,32;,
 3;22,34,33;,
 3;22,24,34;,
 3;1,35,36;,
 3;1,36,2;,
 3;36,37,3;,
 3;36,3,2;,
 3;37,38,4;,
 3;37,4,3;,
 3;4,38,39;,
 3;4,39,5;,
 3;39,40,6;,
 3;39,6,5;,
 3;40,41,7;,
 3;40,7,6;,
 3;41,42,8;,
 3;41,8,7;,
 3;35,1,8;,
 3;35,8,42;,
 3;42,43,44;,
 3;42,44,35;,
 3;42,41,45;,
 3;42,45,43;,
 3;41,40,46;,
 3;41,46,45;,
 3;39,47,46;,
 3;39,46,40;,
 3;38,47,39;,
 3;38,37,48;,
 3;38,48,47;,
 3;37,36,49;,
 3;37,49,48;,
 3;35,44,49;,
 3;35,49,36;,
 3;44,50,51;,
 3;44,51,49;,
 3;48,49,51;,
 3;48,51,52;,
 3;47,48,52;,
 3;47,52,53;,
 3;47,53,54;,
 3;47,54,55;,
 3;47,55,46;,
 3;45,46,55;,
 3;45,55,56;,
 3;43,45,56;,
 3;43,56,57;,
 3;43,57,50;,
 3;43,50,44;,
 3;58,59,11;,
 3;58,11,10;,
 3;59,60,12;,
 3;59,12,11;,
 3;60,61,13;,
 3;60,13,12;,
 3;61,62,14;,
 3;61,14,13;,
 3;14,62,63;,
 3;14,63,15;,
 3;63,64,16;,
 3;63,16,15;,
 3;64,65,17;,
 3;64,17,16;,
 3;65,66,18;,
 3;65,18,17;,
 3;18,66,67;,
 3;18,67,19;,
 3;67,68,20;,
 3;67,20,19;,
 3;68,69,21;,
 3;68,21,20;,
 3;69,58,10;,
 3;69,10,21;,
 3;69,34,24;,
 3;69,24,58;,
 3;69,68,33;,
 3;69,33,34;,
 3;67,32,33;,
 3;67,33,68;,
 3;66,31,32;,
 3;66,32,67;,
 3;65,30,31;,
 3;65,31,66;,
 3;64,29,30;,
 3;64,30,65;,
 3;63,28,29;,
 3;63,29,64;,
 3;62,27,28;,
 3;62,28,63;,
 3;61,26,27;,
 3;61,27,62;,
 3;60,25,26;,
 3;60,26,61;,
 3;59,23,25;,
 3;59,25,60;,
 3;58,24,23;,
 3;58,23,59;;
 
 MeshMaterialList {
  1;
  126;
  0,
  0,
  0,
  0,
  0,
  0,
  0,
  0,
  0,
  0,
  0,
  0,
  0,
  0,
  0,
  0,
  0,
  0,
  0,
  0,
  0,
  0,
  0,
  0,
  0,
  0,
  0,
  0,
  0,
  0,
  0,
  0,
  0,
  0,
  0,
  0,
  0,
  0,
  0,
  0,
  0,
  0,
  0,
  0,
  0,
  0,
  0,
  0,
  0,
  0,
  0,
  0,
  0,
  0,
  0,
  0,
  0,
  0,
  0,
  0,
  0,
  0,
  0,
  0,
  0,
  0,
  0,
  0,
  0,
  0,
  0,
  0,
  0,
  0,
  0,
  0,
  0,
  0,
  0,
  0,
  0,
  0,
  0,
  0,
  0,
  0,
  0,
  0,
  0,
  0,
  0,
  0,
  0,
  0,
  0,
  0,
  0,
  0,
  0,
  0,
  0,
  0,
  0,
  0,
  0,
  0,
  0,
  0,
  0,
  0,
  0,
  0,
  0,
  0,
  0,
  0,
  0,
  0,
  0,
  0,
  0,
  0,
  0,
  0,
  0,
  0;;
  Material {
   0.984314;1.000000;0.031373;1.000000;;
   42.860001;
   1.000000;1.000000;1.000000;;
   0.984314;1.000000;0.031373;;
   TextureFilename {
    "Data\\Graphics\\XFileTexture\\mushrooms_Gord.jpg";
   }
  }
 }
 MeshNormals {
  90;
  0.147873;-0.977890;-0.147870;,
  0.209126;-0.977889;0.000002;,
  0.147875;-0.977889;0.147872;,
  0.000002;-0.977889;0.209123;,
  -0.147872;-0.977890;0.147870;,
  -0.209123;-0.977889;0.000002;,
  -0.147870;-0.977890;-0.147867;,
  0.000002;-0.977890;-0.209121;,
  -0.727888;0.127137;0.673806;,
  -0.986861;0.161574;-0.000010;,
  -0.727889;0.127136;-0.673805;,
  -0.055351;0.084783;-0.994861;,
  0.734051;0.098370;-0.671932;,
  0.991379;0.102478;0.081647;,
  0.708048;0.082525;0.701326;,
  0.023068;0.063308;0.997727;,
  0.000002;-1.000000;0.000002;,
  0.095712;-0.025865;0.995073;,
  0.766369;-0.072049;0.638347;,
  0.997395;-0.058252;-0.042541;,
  0.417241;-0.049802;-0.907430;,
  -0.650787;0.036775;-0.758369;,
  -0.998272;0.058769;-0.000012;,
  -0.705723;0.035187;0.707613;,
  -0.589184;0.012218;0.807906;,
  -0.999444;0.033354;-0.000012;,
  -0.524147;-0.005273;-0.851611;,
  0.032309;-0.046156;-0.998412;,
  0.718479;-0.102641;-0.687934;,
  0.990739;-0.131976;-0.031929;,
  0.678350;-0.083400;0.729990;,
  0.031996;-0.019827;0.999291;,
  0.007391;-0.999973;0.000002;,
  0.007388;-0.999973;-0.000000;,
  0.007388;-0.999973;0.000000;,
  0.007391;-0.999973;-0.000002;,
  0.007394;-0.999973;-0.000005;,
  0.007390;-0.999973;-0.000006;,
  0.007389;-0.999973;-0.000005;,
  0.007392;-0.999973;-0.000001;,
  0.007392;-0.999973;0.000001;,
  0.007389;-0.999973;0.000005;,
  0.007390;-0.999973;0.000006;,
  0.007394;-0.999973;0.000005;,
  -0.576579;0.662675;0.477931;,
  -0.738951;0.661477;0.128060;,
  -0.704636;0.661732;-0.256123;,
  -0.482842;0.663368;-0.571670;,
  -0.158821;0.680255;-0.715562;,
  0.215146;0.659993;-0.719807;,
  0.566728;0.671124;-0.477926;,
  0.729102;0.672318;-0.128057;,
  0.691537;0.686536;0.224599;,
  0.508483;0.662160;0.550444;,
  0.149098;0.655185;0.740610;,
  -0.224794;0.676080;0.701701;,
  0.007391;-0.999973;-0.000000;,
  -0.007392;0.999973;0.000001;,
  -0.128296;0.881467;0.454484;,
  0.135026;0.839040;0.527048;,
  0.384766;0.858807;0.338238;,
  0.501490;0.859666;0.097371;,
  0.482136;0.859526;-0.169587;,
  0.331898;0.858418;-0.391103;,
  0.091042;0.856636;-0.507825;,
  -0.175917;0.854663;-0.488472;,
  -0.397419;0.853026;-0.338238;,
  -0.514129;0.852168;-0.097372;,
  -0.494778;0.852311;0.169589;,
  -0.344550;0.853419;0.391103;,
  -0.793339;0.206781;0.572587;,
  -0.975688;0.219166;-0.000007;,
  -0.793335;0.206781;-0.572592;,
  -0.018040;0.190875;-0.981449;,
  0.694433;0.188511;-0.694425;,
  0.973217;0.187157;-0.133492;,
  0.783653;0.186940;0.592404;,
  -0.018040;0.190874;0.981449;,
  -0.758364;0.590524;0.275980;,
  -0.519367;0.592289;0.615997;,
  -0.795335;0.590255;-0.137990;,
  -0.620372;0.591555;-0.514977;,
  -0.211924;0.596101;-0.774437;,
  0.203088;0.599170;-0.774435;,
  0.510559;0.599904;-0.615991;,
  0.749556;0.601669;-0.275972;,
  0.770008;0.603347;0.207510;,
  0.562504;0.601814;0.566930;,
  0.271561;0.598147;0.753973;,
  -0.142390;0.595088;0.790946;;
  126;
  3;16,0,1;,
  3;16,1,2;,
  3;16,2,3;,
  3;16,3,4;,
  3;16,4,5;,
  3;16,5,6;,
  3;16,6,7;,
  3;7,0,16;,
  3;56,32,33;,
  3;56,33,34;,
  3;56,34,35;,
  3;56,35,36;,
  3;56,36,37;,
  3;56,37,38;,
  3;56,38,39;,
  3;56,39,40;,
  3;56,40,41;,
  3;56,41,42;,
  3;56,42,43;,
  3;56,43,32;,
  3;57,68,69;,
  3;57,67,68;,
  3;57,66,67;,
  3;57,65,66;,
  3;57,64,65;,
  3;57,63,64;,
  3;57,62,63;,
  3;57,61,62;,
  3;57,60,61;,
  3;57,59,60;,
  3;57,58,59;,
  3;57,69,58;,
  3;70,8,9;,
  3;70,9,71;,
  3;9,10,72;,
  3;9,72,71;,
  3;10,11,73;,
  3;10,73,72;,
  3;73,11,12;,
  3;73,12,74;,
  3;12,13,75;,
  3;12,75,74;,
  3;13,14,76;,
  3;13,76,75;,
  3;14,15,77;,
  3;14,77,76;,
  3;8,70,77;,
  3;8,77,15;,
  3;15,17,23;,
  3;15,23,8;,
  3;15,14,18;,
  3;15,18,17;,
  3;14,13,19;,
  3;14,19,18;,
  3;12,20,19;,
  3;12,19,13;,
  3;11,20,12;,
  3;11,10,21;,
  3;11,21,20;,
  3;10,9,22;,
  3;10,22,21;,
  3;8,23,22;,
  3;8,22,9;,
  3;23,24,25;,
  3;23,25,22;,
  3;21,22,25;,
  3;21,25,26;,
  3;20,21,26;,
  3;20,26,27;,
  3;20,27,28;,
  3;20,28,29;,
  3;20,29,19;,
  3;18,19,29;,
  3;18,29,30;,
  3;17,18,30;,
  3;17,30,31;,
  3;17,31,24;,
  3;17,24,23;,
  3;44,45,78;,
  3;44,78,79;,
  3;45,46,80;,
  3;45,80,78;,
  3;46,47,81;,
  3;46,81,80;,
  3;47,48,82;,
  3;47,82,81;,
  3;82,48,49;,
  3;82,49,83;,
  3;49,50,84;,
  3;49,84,83;,
  3;50,51,85;,
  3;50,85,84;,
  3;51,52,86;,
  3;51,86,85;,
  3;86,52,53;,
  3;86,53,87;,
  3;53,54,88;,
  3;53,88,87;,
  3;54,55,89;,
  3;54,89,88;,
  3;55,44,79;,
  3;55,79,89;,
  3;55,58,69;,
  3;55,69,44;,
  3;55,54,59;,
  3;55,59,58;,
  3;53,60,59;,
  3;53,59,54;,
  3;52,61,60;,
  3;52,60,53;,
  3;51,62,61;,
  3;51,61,52;,
  3;50,63,62;,
  3;50,62,51;,
  3;49,64,63;,
  3;49,63,50;,
  3;48,65,64;,
  3;48,64,49;,
  3;47,66,65;,
  3;47,65,48;,
  3;46,67,66;,
  3;46,66,47;,
  3;45,68,67;,
  3;45,67,46;,
  3;44,69,68;,
  3;44,68,45;;
 }
 MeshTextureCoords {
  70;
  0.856394;0.861277;,
  0.861727;0.898719;,
  0.861660;0.914188;,
  0.861727;0.898719;,
  0.861890;0.861373;,
  0.862053;0.824027;,
  0.862121;0.808558;,
  0.862053;0.824027;,
  0.861890;0.861373;,
  0.237764;0.372984;,
  0.059455;0.120097;,
  -0.005812;0.280422;,
  -0.005812;0.465547;,
  0.059455;0.625872;,
  0.172498;0.718435;,
  0.303028;0.718435;,
  0.416070;0.625872;,
  0.481335;0.465547;,
  0.481335;0.280422;,
  0.416070;0.120097;,
  0.303028;0.027534;,
  0.172498;0.027534;,
  0.236769;0.372984;,
  0.078412;0.312694;,
  0.120922;0.208270;,
  0.078412;0.433272;,
  0.120922;0.537698;,
  0.194550;0.597988;,
  0.279569;0.597988;,
  0.353197;0.537698;,
  0.395708;0.433274;,
  0.395708;0.312695;,
  0.353198;0.208270;,
  0.279570;0.147980;,
  0.194551;0.147980;,
  0.801196;0.878609;,
  0.802918;0.885995;,
  0.801196;0.878609;,
  0.798021;0.860259;,
  0.798923;0.840521;,
  0.799303;0.832266;,
  0.798923;0.840521;,
  0.798021;0.860259;,
  0.720442;0.844580;,
  0.719920;0.864554;,
  0.722595;0.834101;,
  0.724109;0.826602;,
  0.721518;0.839340;,
  0.719920;0.864554;,
  0.719711;0.872867;,
  0.649262;0.857382;,
  0.649275;0.866886;,
  0.649262;0.857382;,
  0.649215;0.835213;,
  0.649143;0.814184;,
  0.649103;0.805825;,
  0.649143;0.814184;,
  0.649215;0.835213;,
  0.082256;0.152894;,
  0.025453;0.292425;,
  0.025453;0.453542;,
  0.082255;0.593073;,
  0.180638;0.673633;,
  0.294238;0.673633;,
  0.392620;0.593074;,
  0.449421;0.453542;,
  0.449421;0.292425;,
  0.392620;0.152896;,
  0.294238;0.072336;,
  0.180638;0.072336;;
 }
 MeshVertexColors {
  70;
  0;1.000000;1.000000;1.000000;1.000000;,
  1;1.000000;1.000000;1.000000;1.000000;,
  2;1.000000;1.000000;1.000000;1.000000;,
  3;1.000000;1.000000;1.000000;1.000000;,
  4;1.000000;1.000000;1.000000;1.000000;,
  5;1.000000;1.000000;1.000000;1.000000;,
  6;1.000000;1.000000;1.000000;1.000000;,
  7;1.000000;1.000000;1.000000;1.000000;,
  8;1.000000;1.000000;1.000000;1.000000;,
  9;1.000000;1.000000;1.000000;1.000000;,
  10;1.000000;1.000000;1.000000;1.000000;,
  11;1.000000;1.000000;1.000000;1.000000;,
  12;1.000000;1.000000;1.000000;1.000000;,
  13;1.000000;1.000000;1.000000;1.000000;,
  14;1.000000;1.000000;1.000000;1.000000;,
  15;1.000000;1.000000;1.000000;1.000000;,
  16;1.000000;1.000000;1.000000;1.000000;,
  17;1.000000;1.000000;1.000000;1.000000;,
  18;1.000000;1.000000;1.000000;1.000000;,
  19;1.000000;1.000000;1.000000;1.000000;,
  20;1.000000;1.000000;1.000000;1.000000;,
  21;1.000000;1.000000;1.000000;1.000000;,
  22;1.000000;1.000000;1.000000;1.000000;,
  23;1.000000;1.000000;1.000000;1.000000;,
  24;1.000000;1.000000;1.000000;1.000000;,
  25;1.000000;1.000000;1.000000;1.000000;,
  26;1.000000;1.000000;1.000000;1.000000;,
  27;1.000000;1.000000;1.000000;1.000000;,
  28;1.000000;1.000000;1.000000;1.000000;,
  29;1.000000;1.000000;1.000000;1.000000;,
  30;1.000000;1.000000;1.000000;1.000000;,
  31;1.000000;1.000000;1.000000;1.000000;,
  32;1.000000;1.000000;1.000000;1.000000;,
  33;1.000000;1.000000;1.000000;1.000000;,
  34;1.000000;1.000000;1.000000;1.000000;,
  35;1.000000;1.000000;1.000000;1.000000;,
  36;1.000000;1.000000;1.000000;1.000000;,
  37;1.000000;1.000000;1.000000;1.000000;,
  38;1.000000;1.000000;1.000000;1.000000;,
  39;1.000000;1.000000;1.000000;1.000000;,
  40;1.000000;1.000000;1.000000;1.000000;,
  41;1.000000;1.000000;1.000000;1.000000;,
  42;1.000000;1.000000;1.000000;1.000000;,
  43;1.000000;1.000000;1.000000;1.000000;,
  44;1.000000;1.000000;1.000000;1.000000;,
  45;1.000000;1.000000;1.000000;1.000000;,
  46;1.000000;1.000000;1.000000;1.000000;,
  47;1.000000;1.000000;1.000000;1.000000;,
  48;1.000000;1.000000;1.000000;1.000000;,
  49;1.000000;1.000000;1.000000;1.000000;,
  50;1.000000;1.000000;1.000000;1.000000;,
  51;1.000000;1.000000;1.000000;1.000000;,
  52;1.000000;1.000000;1.000000;1.000000;,
  53;1.000000;1.000000;1.000000;1.000000;,
  54;1.000000;1.000000;1.000000;1.000000;,
  55;1.000000;1.000000;1.000000;1.000000;,
  56;1.000000;1.000000;1.000000;1.000000;,
  57;1.000000;1.000000;1.000000;1.000000;,
  58;1.000000;1.000000;1.000000;1.000000;,
  59;1.000000;1.000000;1.000000;1.000000;,
  60;1.000000;1.000000;1.000000;1.000000;,
  61;1.000000;1.000000;1.000000;1.000000;,
  62;1.000000;1.000000;1.000000;1.000000;,
  63;1.000000;1.000000;1.000000;1.000000;,
  64;1.000000;1.000000;1.000000;1.000000;,
  65;1.000000;1.000000;1.000000;1.000000;,
  66;1.000000;1.000000;1.000000;1.000000;,
  67;1.000000;1.000000;1.000000;1.000000;,
  68;1.000000;1.000000;1.000000;1.000000;,
  69;1.000000;1.000000;1.000000;1.000000;;
 }
}
