xof 0302txt 0064
template Header {
 <3D82AB43-62DA-11cf-AB39-0020AF71E433>
 WORD major;
 WORD minor;
 DWORD flags;
}

template Vector {
 <3D82AB5E-62DA-11cf-AB39-0020AF71E433>
 FLOAT x;
 FLOAT y;
 FLOAT z;
}

template Coords2d {
 <F6F23F44-7686-11cf-8F52-0040333594A3>
 FLOAT u;
 FLOAT v;
}

template Matrix4x4 {
 <F6F23F45-7686-11cf-8F52-0040333594A3>
 array FLOAT matrix[16];
}

template ColorRGBA {
 <35FF44E0-6C7C-11cf-8F52-0040333594A3>
 FLOAT red;
 FLOAT green;
 FLOAT blue;
 FLOAT alpha;
}

template ColorRGB {
 <D3E16E81-7835-11cf-8F52-0040333594A3>
 FLOAT red;
 FLOAT green;
 FLOAT blue;
}

template IndexedColor {
 <1630B820-7842-11cf-8F52-0040333594A3>
 DWORD index;
 ColorRGBA indexColor;
}

template Boolean {
 <4885AE61-78E8-11cf-8F52-0040333594A3>
 WORD truefalse;
}

template Boolean2d {
 <4885AE63-78E8-11cf-8F52-0040333594A3>
 Boolean u;
 Boolean v;
}

template MaterialWrap {
 <4885AE60-78E8-11cf-8F52-0040333594A3>
 Boolean u;
 Boolean v;
}

template TextureFilename {
 <A42790E1-7810-11cf-8F52-0040333594A3>
 STRING filename;
}

template Material {
 <3D82AB4D-62DA-11cf-AB39-0020AF71E433>
 ColorRGBA faceColor;
 FLOAT power;
 ColorRGB specularColor;
 ColorRGB emissiveColor;
 [...]
}

template MeshFace {
 <3D82AB5F-62DA-11cf-AB39-0020AF71E433>
 DWORD nFaceVertexIndices;
 array DWORD faceVertexIndices[nFaceVertexIndices];
}

template MeshFaceWraps {
 <4885AE62-78E8-11cf-8F52-0040333594A3>
 DWORD nFaceWrapValues;
 Boolean2d faceWrapValues;
}

template MeshTextureCoords {
 <F6F23F40-7686-11cf-8F52-0040333594A3>
 DWORD nTextureCoords;
 array Coords2d textureCoords[nTextureCoords];
}

template MeshMaterialList {
 <F6F23F42-7686-11cf-8F52-0040333594A3>
 DWORD nMaterials;
 DWORD nFaceIndexes;
 array DWORD faceIndexes[nFaceIndexes];
 [Material]
}

template MeshNormals {
 <F6F23F43-7686-11cf-8F52-0040333594A3>
 DWORD nNormals;
 array Vector normals[nNormals];
 DWORD nFaceNormals;
 array MeshFace faceNormals[nFaceNormals];
}

template MeshVertexColors {
 <1630B821-7842-11cf-8F52-0040333594A3>
 DWORD nVertexColors;
 array IndexedColor vertexColors[nVertexColors];
}

template Mesh {
 <3D82AB44-62DA-11cf-AB39-0020AF71E433>
 DWORD nVertices;
 array Vector vertices[nVertices];
 DWORD nFaces;
 array MeshFace faces[nFaces];
 [...]
}

Header{
1;
0;
1;
}

Mesh {
 12;
 248.12785;0.00014;-245.00000;,
 28.32924;0.00000;-245.00000;,
 28.32924;0.00000;245.00000;,
 248.12785;0.00014;244.53646;,
 -245.00000;0.00000;24.06590;,
 -245.00000;0.00000;245.00000;,
 248.12785;0.00014;24.08000;,
 -29.39289;0.00000;24.06590;,
 -29.39289;0.00000;-245.00000;,
 -245.00000;0.00000;-245.00000;,
 -29.39289;0.00000;-33.65623;,
 28.32924;0.00000;-33.65623;;
 
 4;
 4;0,1,2,3;,
 4;4,5,3,6;,
 4;4,7,8,9;,
 4;10,11,1,8;;
 
 MeshMaterialList {
  5;
  4;
  4,
  4,
  4,
  4;;
  Material {
   0.800000;0.800000;0.800000;1.000000;;
   5.000000;
   0.000000;0.000000;0.000000;;
   0.000000;0.000000;0.000000;;
   TextureFilename {
    "C:\\Users\\master\\Desktop\\ProjectHobit\\Hobit(製作中)\\Data\\Graphics\\XFileTexture\\ground3.png";
   }
  }
  Material {
   0.800000;0.800000;0.800000;1.000000;;
   5.000000;
   0.000000;0.000000;0.000000;;
   0.000000;0.000000;0.000000;;
   TextureFilename {
    "C:\\Users\\master\\Desktop\\ProjectHobit\\Hobit(製作中)\\Data\\Graphics\\XFileTexture\\oahe.png";
   }
  }
  Material {
   0.800000;0.800000;0.800000;1.000000;;
   5.000000;
   0.000000;0.000000;0.000000;;
   0.000000;0.000000;0.000000;;
   TextureFilename {
    "C:\\Users\\master\\Desktop\\ProjectHobit\\Data\\Graphics\\XFileTexture\\Wall.png";
   }
  }
  Material {
   0.800000;0.800000;0.800000;0.000000;;
   5.000000;
   0.000000;0.000000;0.000000;;
   0.000000;0.000000;0.000000;;
  }
  Material {
   0.880000;0.880000;0.880000;1.000000;;
   5.000000;
   0.230000;0.230000;0.230000;;
   0.500000;0.500000;0.500000;;
   TextureFilename {
    "C:\\Users\\master\\Desktop\\ProjectHobit\\企業提出フォルダ\\ソ\ース(改良)\\Data\\Graphics\\XFileTexture\\27953512_p11_master1200.jpg";
   }
  }
 }
 MeshNormals {
  6;
  -0.000001;1.000000;0.000000;,
  -0.000000;1.000000;0.000000;,
  -0.000000;1.000000;0.000000;,
  -0.000000;1.000000;0.000000;,
  -0.000000;1.000000;0.000000;,
  0.000000;1.000000;0.000000;;
  4;
  4;0,2,0,1;,
  4;3,4,1,4;,
  4;3,5,5,5;,
  4;5,5,2,5;;
 }
 MeshTextureCoords {
  12;
  10.063000;9.435500;,
  0.420006;9.435500;,
  0.420006;-19.227600;,
  10.063000;-19.200399;,
  -11.571500;-6.303780;,
  -11.571500;-19.227600;,
  10.063000;-6.304610;,
  -2.112380;-6.303780;,
  -2.112380;9.435500;,
  -11.571500;9.435500;,
  -2.112380;-2.927270;,
  0.420006;-2.927270;;
 }
 MeshVertexColors {
  12;
  0;1.000000;1.000000;1.000000;1.000000;,
  1;1.000000;1.000000;1.000000;1.000000;,
  2;1.000000;1.000000;1.000000;1.000000;,
  3;1.000000;1.000000;1.000000;1.000000;,
  4;1.000000;1.000000;1.000000;1.000000;,
  5;1.000000;1.000000;1.000000;1.000000;,
  6;1.000000;1.000000;1.000000;1.000000;,
  7;1.000000;1.000000;1.000000;1.000000;,
  8;1.000000;1.000000;1.000000;1.000000;,
  9;1.000000;1.000000;1.000000;1.000000;,
  10;1.000000;1.000000;1.000000;1.000000;,
  11;1.000000;1.000000;1.000000;1.000000;;
 }
}
