xof 0302txt 0064
template Header {
 <3D82AB43-62DA-11cf-AB39-0020AF71E433>
 WORD major;
 WORD minor;
 DWORD flags;
}

template Vector {
 <3D82AB5E-62DA-11cf-AB39-0020AF71E433>
 FLOAT x;
 FLOAT y;
 FLOAT z;
}

template Coords2d {
 <F6F23F44-7686-11cf-8F52-0040333594A3>
 FLOAT u;
 FLOAT v;
}

template Matrix4x4 {
 <F6F23F45-7686-11cf-8F52-0040333594A3>
 array FLOAT matrix[16];
}

template ColorRGBA {
 <35FF44E0-6C7C-11cf-8F52-0040333594A3>
 FLOAT red;
 FLOAT green;
 FLOAT blue;
 FLOAT alpha;
}

template ColorRGB {
 <D3E16E81-7835-11cf-8F52-0040333594A3>
 FLOAT red;
 FLOAT green;
 FLOAT blue;
}

template IndexedColor {
 <1630B820-7842-11cf-8F52-0040333594A3>
 DWORD index;
 ColorRGBA indexColor;
}

template Boolean {
 <4885AE61-78E8-11cf-8F52-0040333594A3>
 WORD truefalse;
}

template Boolean2d {
 <4885AE63-78E8-11cf-8F52-0040333594A3>
 Boolean u;
 Boolean v;
}

template MaterialWrap {
 <4885AE60-78E8-11cf-8F52-0040333594A3>
 Boolean u;
 Boolean v;
}

template TextureFilename {
 <A42790E1-7810-11cf-8F52-0040333594A3>
 STRING filename;
}

template Material {
 <3D82AB4D-62DA-11cf-AB39-0020AF71E433>
 ColorRGBA faceColor;
 FLOAT power;
 ColorRGB specularColor;
 ColorRGB emissiveColor;
 [...]
}

template MeshFace {
 <3D82AB5F-62DA-11cf-AB39-0020AF71E433>
 DWORD nFaceVertexIndices;
 array DWORD faceVertexIndices[nFaceVertexIndices];
}

template MeshFaceWraps {
 <4885AE62-78E8-11cf-8F52-0040333594A3>
 DWORD nFaceWrapValues;
 Boolean2d faceWrapValues;
}

template MeshTextureCoords {
 <F6F23F40-7686-11cf-8F52-0040333594A3>
 DWORD nTextureCoords;
 array Coords2d textureCoords[nTextureCoords];
}

template MeshMaterialList {
 <F6F23F42-7686-11cf-8F52-0040333594A3>
 DWORD nMaterials;
 DWORD nFaceIndexes;
 array DWORD faceIndexes[nFaceIndexes];
 [Material]
}

template MeshNormals {
 <F6F23F43-7686-11cf-8F52-0040333594A3>
 DWORD nNormals;
 array Vector normals[nNormals];
 DWORD nFaceNormals;
 array MeshFace faceNormals[nFaceNormals];
}

template MeshVertexColors {
 <1630B821-7842-11cf-8F52-0040333594A3>
 DWORD nVertexColors;
 array IndexedColor vertexColors[nVertexColors];
}

template Mesh {
 <3D82AB44-62DA-11cf-AB39-0020AF71E433>
 DWORD nVertices;
 array Vector vertices[nVertices];
 DWORD nFaces;
 array MeshFace faces[nFaces];
 [...]
}

Header{
1;
0;
1;
}

Mesh {
 32;
 0.00000;-0.73969;-0.00000;,
 0.65238;-0.94154;-0.37665;,
 0.00000;-0.94154;-0.75331;,
 0.65238;-0.94154;0.37665;,
 0.00000;-0.94154;0.75331;,
 -0.65238;-0.94154;0.37665;,
 -0.65238;-0.94154;-0.37665;,
 1.12997;-1.49300;-0.65238;,
 0.00000;-1.49300;-1.30477;,
 1.12997;-1.49300;0.65238;,
 0.00000;-1.49300;1.30477;,
 -1.12997;-1.49300;0.65238;,
 -1.12997;-1.49300;-0.65238;,
 1.30477;-2.24631;-0.75331;,
 0.00000;-2.24631;-1.50662;,
 1.30477;-2.24631;0.75331;,
 0.00000;-2.24631;1.50662;,
 -1.30477;-2.24631;0.75331;,
 -1.30477;-2.24631;-0.75331;,
 1.12997;-2.53359;-0.65238;,
 0.00000;-2.53359;-1.30477;,
 1.12997;-2.53359;0.65238;,
 0.00000;-2.53359;1.30477;,
 -1.12997;-2.53359;0.65238;,
 -1.12997;-2.53359;-0.65238;,
 0.65238;-2.70839;-0.37665;,
 0.00000;-2.70839;-0.75331;,
 0.65238;-2.70839;0.37665;,
 0.00000;-2.70839;0.75331;,
 -0.65238;-2.70839;0.37665;,
 -0.65238;-2.70839;-0.37665;,
 0.00000;-2.71234;-0.00000;;
 
 36;
 3;0,1,2;,
 3;0,3,1;,
 3;0,4,3;,
 3;0,5,4;,
 3;0,6,5;,
 3;0,2,6;,
 4;2,1,7,8;,
 4;1,3,9,7;,
 4;3,4,10,9;,
 4;4,5,11,10;,
 4;5,6,12,11;,
 4;6,2,8,12;,
 4;8,7,13,14;,
 4;7,9,15,13;,
 4;9,10,16,15;,
 4;10,11,17,16;,
 4;11,12,18,17;,
 4;12,8,14,18;,
 4;14,13,19,20;,
 4;13,15,21,19;,
 4;15,16,22,21;,
 4;16,17,23,22;,
 4;17,18,24,23;,
 4;18,14,20,24;,
 4;20,19,25,26;,
 4;19,21,27,25;,
 4;21,22,28,27;,
 4;22,23,29,28;,
 4;23,24,30,29;,
 4;24,20,26,30;,
 3;26,25,31;,
 3;25,27,31;,
 3;27,28,31;,
 3;28,29,31;,
 3;29,30,31;,
 3;30,26,31;;
 
 MeshMaterialList {
  1;
  36;
  0,
  0,
  0,
  0,
  0,
  0,
  0,
  0,
  0,
  0,
  0,
  0,
  0,
  0,
  0,
  0,
  0,
  0,
  0,
  0,
  0,
  0,
  0,
  0,
  0,
  0,
  0,
  0,
  0,
  0,
  0,
  0,
  0,
  0,
  0,
  0;;
  Material {
   0.800000;0.800000;0.800000;1.000000;;
   5.000000;
   0.000000;0.000000;0.000000;;
   0.000000;0.000000;0.000000;;
   TextureFilename {
    "Data\\Graphics\\XFileTexture\\BulletTex.png";
   }
  }
 }
 MeshNormals {
  32;
  -0.000000;1.000000;0.000000;,
  0.000000;0.870414;-0.492320;,
  0.426363;0.870414;-0.246159;,
  0.426363;0.870414;0.246159;,
  0.000000;0.870414;0.492320;,
  -0.426363;0.870414;0.246159;,
  -0.426363;0.870414;-0.246159;,
  0.000000;0.506751;-0.862092;,
  0.746594;0.506751;-0.431046;,
  0.746594;0.506751;0.431046;,
  0.000000;0.506751;0.862092;,
  -0.746594;0.506751;0.431046;,
  -0.746594;0.506751;-0.431046;,
  0.000000;-0.182423;-0.983220;,
  0.851494;-0.182422;-0.491609;,
  0.851494;-0.182422;0.491609;,
  0.000000;-0.182423;0.983220;,
  -0.851494;-0.182422;0.491609;,
  -0.851494;-0.182422;-0.491609;,
  0.000000;-0.814943;-0.579541;,
  0.501899;-0.814942;-0.289771;,
  0.501899;-0.814942;0.289771;,
  0.000000;-0.814943;0.579541;,
  -0.501899;-0.814942;0.289771;,
  -0.501899;-0.814942;-0.289771;,
  0.000000;-0.988017;-0.154345;,
  0.133666;-0.988017;-0.077172;,
  0.133666;-0.988017;0.077172;,
  0.000000;-0.988017;0.154345;,
  -0.133666;-0.988017;0.077172;,
  -0.133666;-0.988017;-0.077172;,
  0.000000;-1.000000;-0.000000;;
  36;
  3;0,2,1;,
  3;0,3,2;,
  3;0,4,3;,
  3;0,5,4;,
  3;0,6,5;,
  3;0,1,6;,
  4;1,2,8,7;,
  4;2,3,9,8;,
  4;3,4,10,9;,
  4;4,5,11,10;,
  4;5,6,12,11;,
  4;6,1,7,12;,
  4;7,8,14,13;,
  4;8,9,15,14;,
  4;9,10,16,15;,
  4;10,11,17,16;,
  4;11,12,18,17;,
  4;12,7,13,18;,
  4;13,14,20,19;,
  4;14,15,21,20;,
  4;15,16,22,21;,
  4;16,17,23,22;,
  4;17,18,24,23;,
  4;18,13,19,24;,
  4;19,20,26,25;,
  4;20,21,27,26;,
  4;21,22,28,27;,
  4;22,23,29,28;,
  4;23,24,30,29;,
  4;24,19,25,30;,
  3;25,26,31;,
  3;26,27,31;,
  3;27,28,31;,
  3;28,29,31;,
  3;29,30,31;,
  3;30,25,31;;
 }
 MeshTextureCoords {
  32;
  0.539720;0.387550;,
  0.661850;0.493460;,
  0.516380;0.547030;,
  0.685200;0.348330;,
  0.563070;0.256770;,
  0.417600;0.310340;,
  0.394250;0.455470;,
  0.751250;0.599710;,
  0.499280;0.692500;,
  0.791690;0.348340;,
  0.580170;0.189750;,
  0.328200;0.282540;,
  0.287760;0.533910;,
  0.783970;0.677820;,
  0.493030;0.784960;,
  0.830670;0.387560;,
  0.586420;0.204450;,
  0.295480;0.311580;,
  0.248780;0.601840;,
  0.751250;0.673720;,
  0.499280;0.766510;,
  0.791690;0.422350;,
  0.580170;0.263770;,
  0.328200;0.356550;,
  0.287760;0.607920;,
  0.661850;0.619130;,
  0.516380;0.672700;,
  0.685200;0.474000;,
  0.563070;0.382440;,
  0.417600;0.436010;,
  0.394250;0.581140;,
  0.539720;0.527850;;
 }
 MeshVertexColors {
  32;
  0;1.000000;1.000000;1.000000;1.000000;,
  1;1.000000;1.000000;1.000000;1.000000;,
  2;1.000000;1.000000;1.000000;1.000000;,
  3;1.000000;1.000000;1.000000;1.000000;,
  4;1.000000;1.000000;1.000000;1.000000;,
  5;1.000000;1.000000;1.000000;1.000000;,
  6;1.000000;1.000000;1.000000;1.000000;,
  7;1.000000;1.000000;1.000000;1.000000;,
  8;1.000000;1.000000;1.000000;1.000000;,
  9;1.000000;1.000000;1.000000;1.000000;,
  10;1.000000;1.000000;1.000000;1.000000;,
  11;1.000000;1.000000;1.000000;1.000000;,
  12;1.000000;1.000000;1.000000;1.000000;,
  13;1.000000;1.000000;1.000000;1.000000;,
  14;1.000000;1.000000;1.000000;1.000000;,
  15;1.000000;1.000000;1.000000;1.000000;,
  16;1.000000;1.000000;1.000000;1.000000;,
  17;1.000000;1.000000;1.000000;1.000000;,
  18;1.000000;1.000000;1.000000;1.000000;,
  19;1.000000;1.000000;1.000000;1.000000;,
  20;1.000000;1.000000;1.000000;1.000000;,
  21;1.000000;1.000000;1.000000;1.000000;,
  22;1.000000;1.000000;1.000000;1.000000;,
  23;1.000000;1.000000;1.000000;1.000000;,
  24;1.000000;1.000000;1.000000;1.000000;,
  25;1.000000;1.000000;1.000000;1.000000;,
  26;1.000000;1.000000;1.000000;1.000000;,
  27;1.000000;1.000000;1.000000;1.000000;,
  28;1.000000;1.000000;1.000000;1.000000;,
  29;1.000000;1.000000;1.000000;1.000000;,
  30;1.000000;1.000000;1.000000;1.000000;,
  31;1.000000;1.000000;1.000000;1.000000;;
 }
}
