xof 0302txt 0064
template Header {
 <3D82AB43-62DA-11cf-AB39-0020AF71E433>
 WORD major;
 WORD minor;
 DWORD flags;
}

template Vector {
 <3D82AB5E-62DA-11cf-AB39-0020AF71E433>
 FLOAT x;
 FLOAT y;
 FLOAT z;
}

template Coords2d {
 <F6F23F44-7686-11cf-8F52-0040333594A3>
 FLOAT u;
 FLOAT v;
}

template Matrix4x4 {
 <F6F23F45-7686-11cf-8F52-0040333594A3>
 array FLOAT matrix[16];
}

template ColorRGBA {
 <35FF44E0-6C7C-11cf-8F52-0040333594A3>
 FLOAT red;
 FLOAT green;
 FLOAT blue;
 FLOAT alpha;
}

template ColorRGB {
 <D3E16E81-7835-11cf-8F52-0040333594A3>
 FLOAT red;
 FLOAT green;
 FLOAT blue;
}

template IndexedColor {
 <1630B820-7842-11cf-8F52-0040333594A3>
 DWORD index;
 ColorRGBA indexColor;
}

template Boolean {
 <4885AE61-78E8-11cf-8F52-0040333594A3>
 WORD truefalse;
}

template Boolean2d {
 <4885AE63-78E8-11cf-8F52-0040333594A3>
 Boolean u;
 Boolean v;
}

template MaterialWrap {
 <4885AE60-78E8-11cf-8F52-0040333594A3>
 Boolean u;
 Boolean v;
}

template TextureFilename {
 <A42790E1-7810-11cf-8F52-0040333594A3>
 STRING filename;
}

template Material {
 <3D82AB4D-62DA-11cf-AB39-0020AF71E433>
 ColorRGBA faceColor;
 FLOAT power;
 ColorRGB specularColor;
 ColorRGB emissiveColor;
 [...]
}

template MeshFace {
 <3D82AB5F-62DA-11cf-AB39-0020AF71E433>
 DWORD nFaceVertexIndices;
 array DWORD faceVertexIndices[nFaceVertexIndices];
}

template MeshFaceWraps {
 <4885AE62-78E8-11cf-8F52-0040333594A3>
 DWORD nFaceWrapValues;
 Boolean2d faceWrapValues;
}

template MeshTextureCoords {
 <F6F23F40-7686-11cf-8F52-0040333594A3>
 DWORD nTextureCoords;
 array Coords2d textureCoords[nTextureCoords];
}

template MeshMaterialList {
 <F6F23F42-7686-11cf-8F52-0040333594A3>
 DWORD nMaterials;
 DWORD nFaceIndexes;
 array DWORD faceIndexes[nFaceIndexes];
 [Material]
}

template MeshNormals {
 <F6F23F43-7686-11cf-8F52-0040333594A3>
 DWORD nNormals;
 array Vector normals[nNormals];
 DWORD nFaceNormals;
 array MeshFace faceNormals[nFaceNormals];
}

template MeshVertexColors {
 <1630B821-7842-11cf-8F52-0040333594A3>
 DWORD nVertexColors;
 array IndexedColor vertexColors[nVertexColors];
}

template Mesh {
 <3D82AB44-62DA-11cf-AB39-0020AF71E433>
 DWORD nVertices;
 array Vector vertices[nVertices];
 DWORD nFaces;
 array MeshFace faces[nFaces];
 [...]
}

Header{
1;
0;
1;
}

Mesh {
 232;
 -0.03255;-0.30015;-0.07621;,
 0.00000;-0.31321;-0.01996;,
 -0.05631;-0.30005;-0.05235;,
 -0.03234;-0.30043;0.03647;,
 0.00020;-0.30066;0.04513;,
 0.06513;-0.30091;-0.02005;,
 0.05636;-0.30077;-0.05256;,
 0.05003;0.21504;-0.09978;,
 0.00319;0.21537;-0.11224;,
 0.00348;0.23461;-0.01856;,
 -0.09027;0.21572;-0.01844;,
 -0.07764;0.21552;0.02835;,
 0.05032;0.21462;0.06239;,
 0.08453;0.21449;0.02805;,
 0.20292;0.16275;-0.21685;,
 0.23630;0.16597;-0.15930;,
 0.33502;0.16937;-0.21651;,
 0.23626;0.15881;-0.15932;,
 0.26964;0.16203;-0.10177;,
 0.22903;0.23531;0.10596;,
 0.25421;0.23963;0.06664;,
 0.29410;0.20484;0.14340;,
 0.22909;0.24407;0.10598;,
 0.20772;0.23972;0.14749;,
 0.07001;0.16242;0.24543;,
 0.00353;0.16642;0.24556;,
 0.00376;0.17001;0.35965;,
 0.00348;0.15926;0.24554;,
 -0.06300;0.16326;0.24568;,
 0.00351;0.22654;0.02444;,
 -0.02172;0.23029;0.01892;,
 0.00342;0.22680;-0.02476;,
 0.00334;0.22705;-0.07396;,
 0.02776;0.23020;-0.06715;,
 0.00302;0.23774;-0.28388;,
 -0.04358;0.24242;-0.28598;,
 0.00270;0.20797;-0.35924;,
 0.00308;0.24650;-0.28386;,
 0.04968;0.24183;-0.28615;,
 -0.22158;0.23817;0.10678;,
 -0.20007;0.24231;0.14823;,
 -0.28690;0.20853;0.14446;,
 -0.22153;0.24693;0.10680;,
 -0.24684;0.24281;0.06755;,
 -0.26387;0.16542;-0.10080;,
 -0.23070;0.16894;-0.15845;,
 -0.32957;0.17360;-0.21530;,
 -0.23074;0.16178;-0.15847;,
 -0.19757;0.16529;-0.21612;,
 0.05308;0.22993;-0.02346;,
 0.04526;0.22646;-0.04816;,
 0.02877;0.22997;0.01883;,
 0.04682;0.22658;0.00104;,
 -0.03850;0.22699;-0.04801;,
 -0.02102;0.23051;-0.06706;,
 -0.03988;0.22713;0.00119;,
 -0.04619;0.23056;-0.02328;,
 -0.03983;0.23377;0.00121;,
 0.00358;0.25073;-0.02470;,
 0.00356;0.23370;0.02446;,
 0.04686;0.23322;0.00105;,
 0.04530;0.23362;-0.04815;,
 0.00338;0.23369;-0.07395;,
 -0.03845;0.23415;-0.04799;,
 0.03251;-0.30056;-0.07632;,
 0.00008;-0.27418;-0.11317;,
 0.04676;-0.27451;-0.10075;,
 -0.00004;-0.30033;-0.08498;,
 -0.08064;-0.27378;-0.06637;,
 -0.04655;-0.27391;-0.10059;,
 -0.06497;-0.30008;-0.01981;,
 -0.08048;-0.27402;0.02694;,
 -0.09306;-0.27382;-0.01969;,
 -0.05620;-0.30022;0.01270;,
 0.00042;-0.27466;0.07345;,
 -0.04626;-0.27433;0.06103;,
 0.03271;-0.30085;0.03635;,
 0.08114;-0.27505;0.02665;,
 0.04705;-0.27492;0.06086;,
 0.05648;-0.30094;0.01250;,
 0.08097;-0.27481;-0.06666;,
 0.09356;-0.27501;-0.02003;,
 0.08360;-0.18076;-0.16356;,
 0.00114;-0.07265;-0.23480;,
 0.10892;-0.07341;-0.20613;,
 0.00054;-0.18017;-0.18565;,
 -0.08243;-0.17970;-0.16326;,
 -0.18525;-0.07174;-0.12674;,
 -0.10653;-0.07204;-0.20574;,
 -0.14309;-0.17947;-0.10237;,
 -0.16518;-0.17954;-0.01932;,
 -0.18486;-0.07229;0.08872;,
 -0.21392;-0.07183;-0.01896;,
 -0.14279;-0.17990;0.06365;,
 -0.08191;-0.18044;0.12431;,
 0.00191;-0.07375;0.19610;,
 -0.10586;-0.07300;0.16744;,
 0.00114;-0.18102;0.14641;,
 0.08412;-0.18149;0.12401;,
 0.18830;-0.07466;0.08804;,
 0.10959;-0.07436;0.16704;,
 0.14478;-0.18172;0.06313;,
 0.16687;-0.18165;-0.01992;,
 0.18792;-0.07411;-0.12741;,
 0.21697;-0.07457;-0.01974;,
 0.14448;-0.18130;-0.10290;,
 0.00181;0.04321;-0.26935;,
 0.12702;0.04233;-0.23604;,
 -0.21472;0.04426;-0.14381;,
 -0.12327;0.04392;-0.23559;,
 -0.21427;0.04362;0.10649;,
 -0.24803;0.04416;-0.01860;,
 0.00271;0.04193;0.23124;,
 -0.12249;0.04281;0.19794;,
 0.21924;0.04087;0.10570;,
 0.12780;0.04122;0.19748;,
 0.21880;0.04151;-0.14459;,
 0.25255;0.04098;-0.01951;,
 0.00239;0.12951;-0.25155;,
 0.11881;0.12869;-0.22058;,
 -0.19893;0.13049;-0.13483;,
 -0.11391;0.13017;-0.22016;,
 -0.19851;0.12990;0.09789;,
 -0.22990;0.13039;-0.01841;,
 0.00323;0.12832;0.21388;,
 -0.11318;0.12914;0.18292;,
 0.20456;0.12734;0.09716;,
 0.11953;0.12766;0.18250;,
 0.20414;0.12793;-0.13556;,
 0.23552;0.12744;-0.01926;,
 0.00289;0.18979;-0.19134;,
 0.08926;0.18918;-0.16836;,
 -0.14648;0.19052;-0.10474;,
 -0.08340;0.19028;-0.16805;,
 -0.14617;0.19008;0.06792;,
 -0.16946;0.19045;-0.01836;,
 0.00351;0.18891;0.15398;,
 -0.08286;0.18951;0.13101;,
 0.15288;0.18818;0.06738;,
 0.08979;0.18842;0.13069;,
 0.15256;0.18862;-0.10528;,
 0.17585;0.18825;-0.01899;,
 -0.07781;0.21576;-0.06528;,
 -0.04360;0.21563;-0.09961;,
 0.00353;0.21489;0.07502;,
 -0.04331;0.21522;0.06256;,
 0.08436;0.21473;-0.06557;,
 0.09699;0.21453;-0.01878;,
 0.00099;0.24802;-0.02024;,
 0.00800;0.31112;-0.01758;,
 -0.00006;0.31117;-0.01756;,
 0.00614;0.24799;-0.02025;,
 0.01201;0.31111;-0.02456;,
 0.00871;0.24798;-0.02472;,
 0.00797;0.31116;-0.03153;,
 0.00613;0.24801;-0.02917;,
 -0.00008;0.31121;-0.03151;,
 0.00097;0.24805;-0.02916;,
 -0.00409;0.31122;-0.02453;,
 -0.00160;0.24805;-0.02470;,
 0.01201;0.31111;-0.02456;,
 -0.00008;0.31121;-0.03151;,
 -0.00409;0.31122;-0.02453;,
 0.00797;0.31116;-0.03153;,
 -0.00006;0.31117;-0.01756;,
 0.00800;0.31112;-0.01758;,
 0.02776;0.23020;-0.06715;,
 0.09624;0.23204;-0.07769;,
 0.06806;0.22877;-0.12628;,
 0.04530;0.23362;-0.04815;,
 0.04526;0.22646;-0.04816;,
 0.09620;0.22489;-0.07771;,
 0.16832;0.21615;-0.11958;,
 0.12849;0.21300;-0.18825;,
 0.16828;0.20900;-0.11959;,
 0.20811;0.21215;-0.05092;,
 0.12438;0.22816;-0.02912;,
 0.05308;0.22993;-0.02346;,
 0.04682;0.22658;0.00104;,
 0.11973;0.23130;0.00278;,
 0.10547;0.22693;0.03493;,
 0.10553;0.23568;0.03495;,
 0.04686;0.23322;0.00105;,
 0.08486;0.23136;0.06342;,
 0.02877;0.22997;0.01883;,
 0.19331;0.25475;0.01874;,
 0.16402;0.25043;0.06856;,
 0.16408;0.25918;0.06859;,
 0.13571;0.25486;0.11894;,
 0.00365;0.23222;0.08335;,
 0.05978;0.22829;0.08324;,
 0.00356;0.23370;0.02446;,
 0.00351;0.22654;0.02444;,
 0.00361;0.22507;0.08333;,
 0.00371;0.21647;0.16674;,
 0.08305;0.21239;0.16659;,
 0.00366;0.20931;0.16673;,
 -0.07569;0.21340;0.16688;,
 -0.05252;0.22900;0.08345;,
 -0.02172;0.23029;0.01892;,
 0.00334;0.22705;-0.07396;,
 -0.03172;0.23262;-0.13768;,
 0.00322;0.22803;-0.14145;,
 -0.02102;0.23051;-0.06706;,
 0.00327;0.23678;-0.14142;,
 0.00338;0.23369;-0.07395;,
 0.03823;0.23217;-0.13780;,
 -0.05451;0.25690;-0.20916;,
 0.00325;0.25216;-0.20875;,
 0.00330;0.26091;-0.20872;,
 0.06107;0.25617;-0.20937;,
 -0.03988;0.22713;0.00119;,
 -0.07763;0.23240;0.06371;,
 -0.09840;0.22822;0.03530;,
 -0.09834;0.23698;0.03532;,
 -0.03983;0.23377;0.00121;,
 -0.11271;0.23277;0.00320;,
 -0.04619;0.23056;-0.02328;,
 -0.12797;0.25653;0.11942;,
 -0.15652;0.25246;0.06915;,
 -0.15647;0.26122;0.06917;,
 -0.18594;0.25716;0.01943;,
 -0.08951;0.23322;-0.07735;,
 -0.11753;0.22970;-0.02868;,
 -0.03845;0.23415;-0.04799;,
 -0.03850;0.22699;-0.04801;,
 -0.08956;0.22607;-0.07737;,
 -0.16194;0.21825;-0.11898;,
 -0.20152;0.21475;-0.05018;,
 -0.16199;0.21110;-0.11899;,
 -0.12240;0.21460;-0.18779;,
 -0.06155;0.22959;-0.12604;;
 
 400;
 3;0,1,2;,
 3;3,1,4;,
 3;5,1,6;,
 3;7,8,9;,
 3;10,11,9;,
 3;12,13,9;,
 3;14,15,16;,
 3;17,14,16;,
 3;16,15,18;,
 3;18,17,16;,
 3;19,20,21;,
 3;20,22,21;,
 3;23,19,21;,
 3;22,23,21;,
 3;24,25,26;,
 3;27,24,26;,
 3;26,25,28;,
 3;28,27,26;,
 3;29,30,31;,
 3;31,32,33;,
 3;34,35,36;,
 3;35,37,36;,
 3;38,34,36;,
 3;37,38,36;,
 3;39,40,41;,
 3;40,42,41;,
 3;43,39,41;,
 3;42,43,41;,
 3;44,45,46;,
 3;47,44,46;,
 3;46,45,48;,
 3;48,47,46;,
 3;49,31,50;,
 3;51,31,52;,
 3;31,53,54;,
 3;31,55,56;,
 3;30,55,31;,
 3;29,31,51;,
 3;52,31,49;,
 3;31,33,50;,
 3;31,54,32;,
 3;31,56,53;,
 3;57,30,58;,
 3;30,59,58;,
 3;59,51,58;,
 3;51,60,58;,
 3;60,49,58;,
 3;49,61,58;,
 3;61,33,58;,
 3;33,62,58;,
 3;62,54,58;,
 3;54,63,58;,
 3;63,56,58;,
 3;56,57,58;,
 3;64,65,66;,
 3;64,67,65;,
 3;0,68,69;,
 3;0,2,68;,
 3;70,71,72;,
 3;70,73,71;,
 3;3,74,75;,
 3;3,4,74;,
 3;76,77,78;,
 3;76,79,77;,
 3;5,80,81;,
 3;5,6,80;,
 3;82,83,84;,
 3;82,85,83;,
 3;86,87,88;,
 3;86,89,87;,
 3;90,91,92;,
 3;90,93,91;,
 3;94,95,96;,
 3;94,97,95;,
 3;98,99,100;,
 3;98,101,99;,
 3;102,103,104;,
 3;102,105,103;,
 3;84,106,107;,
 3;84,83,106;,
 3;88,108,109;,
 3;88,87,108;,
 3;92,110,111;,
 3;92,91,110;,
 3;96,112,113;,
 3;96,95,112;,
 3;100,114,115;,
 3;100,99,114;,
 3;104,116,117;,
 3;104,103,116;,
 3;107,118,119;,
 3;107,106,118;,
 3;109,120,121;,
 3;109,108,120;,
 3;111,122,123;,
 3;111,110,122;,
 3;113,124,125;,
 3;113,112,124;,
 3;115,126,127;,
 3;115,114,126;,
 3;117,128,129;,
 3;117,116,128;,
 3;119,130,131;,
 3;119,118,130;,
 3;121,132,133;,
 3;121,120,132;,
 3;123,134,135;,
 3;123,122,134;,
 3;125,136,137;,
 3;125,124,136;,
 3;127,138,139;,
 3;127,126,138;,
 3;129,140,141;,
 3;129,128,140;,
 3;131,8,7;,
 3;131,130,8;,
 3;133,142,143;,
 3;133,132,142;,
 3;135,11,10;,
 3;135,134,11;,
 3;137,144,145;,
 3;137,136,144;,
 3;139,13,12;,
 3;139,138,13;,
 3;141,146,147;,
 3;141,140,146;,
 3;75,97,94;,
 3;75,74,97;,
 3;72,93,90;,
 3;72,71,93;,
 3;69,89,86;,
 3;69,68,89;,
 3;66,85,82;,
 3;66,65,85;,
 3;81,105,102;,
 3;81,80,105;,
 3;78,101,98;,
 3;78,77,101;,
 3;148,149,150;,
 3;148,151,149;,
 3;151,152,149;,
 3;151,153,152;,
 3;153,154,152;,
 3;153,155,154;,
 3;155,156,154;,
 3;155,157,156;,
 3;157,158,156;,
 3;157,159,158;,
 3;159,150,158;,
 3;159,148,150;,
 3;160,161,162;,
 3;160,163,161;,
 3;160,164,165;,
 3;160,162,164;,
 3;166,167,168;,
 3;166,169,167;,
 3;170,168,171;,
 3;170,166,168;,
 3;168,172,173;,
 3;168,167,172;,
 3;171,173,174;,
 3;171,168,173;,
 3;17,173,14;,
 3;17,174,173;,
 3;172,14,173;,
 3;172,15,14;,
 3;167,175,172;,
 3;167,176,175;,
 3;18,172,175;,
 3;18,15,172;,
 3;18,174,17;,
 3;18,175,174;,
 3;176,174,175;,
 3;176,171,174;,
 3;177,171,176;,
 3;177,170,171;,
 3;167,177,176;,
 3;167,169,177;,
 3;178,179,180;,
 3;178,177,179;,
 3;177,181,179;,
 3;177,182,181;,
 3;178,183,184;,
 3;178,180,183;,
 3;184,181,182;,
 3;184,183,181;,
 3;180,185,186;,
 3;180,179,185;,
 3;179,187,185;,
 3;179,181,187;,
 3;183,186,188;,
 3;183,180,186;,
 3;181,188,187;,
 3;181,183,188;,
 3;186,20,19;,
 3;186,185,20;,
 3;185,22,20;,
 3;185,187,22;,
 3;188,19,23;,
 3;188,186,19;,
 3;187,23,22;,
 3;187,188,23;,
 3;184,189,190;,
 3;184,191,189;,
 3;192,190,193;,
 3;192,184,190;,
 3;190,194,195;,
 3;190,189,194;,
 3;193,195,196;,
 3;193,190,195;,
 3;27,195,24;,
 3;27,196,195;,
 3;194,24,195;,
 3;194,25,24;,
 3;189,197,194;,
 3;189,198,197;,
 3;28,194,197;,
 3;28,25,194;,
 3;28,196,27;,
 3;28,197,196;,
 3;198,196,197;,
 3;198,193,196;,
 3;199,193,198;,
 3;199,192,193;,
 3;189,199,198;,
 3;189,191,199;,
 3;200,201,202;,
 3;200,203,201;,
 3;203,204,201;,
 3;203,205,204;,
 3;200,206,166;,
 3;200,202,206;,
 3;166,204,205;,
 3;166,206,204;,
 3;202,207,208;,
 3;202,201,207;,
 3;201,209,207;,
 3;201,204,209;,
 3;206,208,210;,
 3;206,202,208;,
 3;204,210,209;,
 3;204,206,210;,
 3;208,35,34;,
 3;208,207,35;,
 3;207,37,35;,
 3;207,209,37;,
 3;210,34,38;,
 3;210,208,34;,
 3;209,38,37;,
 3;209,210,38;,
 3;211,212,213;,
 3;211,199,212;,
 3;199,214,212;,
 3;199,215,214;,
 3;211,216,217;,
 3;211,213,216;,
 3;217,214,215;,
 3;217,216,214;,
 3;213,218,219;,
 3;213,212,218;,
 3;212,220,218;,
 3;212,214,220;,
 3;216,219,221;,
 3;216,213,219;,
 3;214,221,220;,
 3;214,216,221;,
 3;219,40,39;,
 3;219,218,40;,
 3;218,42,40;,
 3;218,220,42;,
 3;221,39,43;,
 3;221,219,39;,
 3;220,43,42;,
 3;220,221,43;,
 3;217,222,223;,
 3;217,224,222;,
 3;225,223,226;,
 3;225,217,223;,
 3;223,227,228;,
 3;223,222,227;,
 3;226,228,229;,
 3;226,223,228;,
 3;47,228,44;,
 3;47,229,228;,
 3;227,44,228;,
 3;227,45,44;,
 3;222,230,227;,
 3;222,231,230;,
 3;48,227,230;,
 3;48,45,227;,
 3;48,229,47;,
 3;48,230,229;,
 3;231,229,230;,
 3;231,226,229;,
 3;203,226,231;,
 3;203,225,226;,
 3;222,203,231;,
 3;222,224,203;,
 3;80,6,66;,
 3;66,6,64;,
 3;6,1,64;,
 3;64,1,67;,
 3;1,0,67;,
 3;67,0,65;,
 3;0,69,65;,
 3;65,69,85;,
 3;69,86,85;,
 3;85,86,83;,
 3;86,88,83;,
 3;83,88,106;,
 3;88,109,106;,
 3;106,109,118;,
 3;109,121,118;,
 3;118,121,130;,
 3;121,133,130;,
 3;130,133,8;,
 3;133,143,8;,
 3;8,143,9;,
 3;143,142,9;,
 3;9,142,10;,
 3;142,132,10;,
 3;10,132,135;,
 3;132,120,135;,
 3;135,120,123;,
 3;120,108,123;,
 3;123,108,111;,
 3;108,87,111;,
 3;111,87,92;,
 3;87,89,92;,
 3;92,89,90;,
 3;89,68,90;,
 3;90,68,72;,
 3;68,2,72;,
 3;72,2,70;,
 3;2,1,70;,
 3;70,1,73;,
 3;1,3,73;,
 3;73,3,71;,
 3;3,75,71;,
 3;71,75,93;,
 3;75,94,93;,
 3;93,94,91;,
 3;94,96,91;,
 3;91,96,110;,
 3;96,113,110;,
 3;110,113,122;,
 3;113,125,122;,
 3;122,125,134;,
 3;125,137,134;,
 3;134,137,11;,
 3;137,145,11;,
 3;11,145,9;,
 3;145,144,9;,
 3;9,144,12;,
 3;144,136,12;,
 3;12,136,139;,
 3;136,124,139;,
 3;139,124,127;,
 3;124,112,127;,
 3;127,112,115;,
 3;112,95,115;,
 3;115,95,100;,
 3;95,97,100;,
 3;100,97,98;,
 3;97,74,98;,
 3;98,74,78;,
 3;74,4,78;,
 3;78,4,76;,
 3;4,1,76;,
 3;76,1,79;,
 3;1,5,79;,
 3;79,5,77;,
 3;5,81,77;,
 3;77,81,101;,
 3;81,102,101;,
 3;101,102,99;,
 3;102,104,99;,
 3;99,104,114;,
 3;104,117,114;,
 3;114,117,126;,
 3;117,129,126;,
 3;126,129,138;,
 3;129,141,138;,
 3;138,141,13;,
 3;141,147,13;,
 3;13,147,9;,
 3;147,146,9;,
 3;9,146,7;,
 3;146,140,7;,
 3;7,140,131;,
 3;140,128,131;,
 3;131,128,119;,
 3;128,116,119;,
 3;119,116,107;,
 3;116,103,107;,
 3;107,103,84;,
 3;103,105,84;,
 3;84,105,82;,
 3;105,80,82;,
 3;82,80,66;;
 
 MeshMaterialList {
  1;
  400;
  0,
  0,
  0,
  0,
  0,
  0,
  0,
  0,
  0,
  0,
  0,
  0,
  0,
  0,
  0,
  0,
  0,
  0,
  0,
  0,
  0,
  0,
  0,
  0,
  0,
  0,
  0,
  0,
  0,
  0,
  0,
  0,
  0,
  0,
  0,
  0,
  0,
  0,
  0,
  0,
  0,
  0,
  0,
  0,
  0,
  0,
  0,
  0,
  0,
  0,
  0,
  0,
  0,
  0,
  0,
  0,
  0,
  0,
  0,
  0,
  0,
  0,
  0,
  0,
  0,
  0,
  0,
  0,
  0,
  0,
  0,
  0,
  0,
  0,
  0,
  0,
  0,
  0,
  0,
  0,
  0,
  0,
  0,
  0,
  0,
  0,
  0,
  0,
  0,
  0,
  0,
  0,
  0,
  0,
  0,
  0,
  0,
  0,
  0,
  0,
  0,
  0,
  0,
  0,
  0,
  0,
  0,
  0,
  0,
  0,
  0,
  0,
  0,
  0,
  0,
  0,
  0,
  0,
  0,
  0,
  0,
  0,
  0,
  0,
  0,
  0,
  0,
  0,
  0,
  0,
  0,
  0,
  0,
  0,
  0,
  0,
  0,
  0,
  0,
  0,
  0,
  0,
  0,
  0,
  0,
  0,
  0,
  0,
  0,
  0,
  0,
  0,
  0,
  0,
  0,
  0,
  0,
  0,
  0,
  0,
  0,
  0,
  0,
  0,
  0,
  0,
  0,
  0,
  0,
  0,
  0,
  0,
  0,
  0,
  0,
  0,
  0,
  0,
  0,
  0,
  0,
  0,
  0,
  0,
  0,
  0,
  0,
  0,
  0,
  0,
  0,
  0,
  0,
  0,
  0,
  0,
  0,
  0,
  0,
  0,
  0,
  0,
  0,
  0,
  0,
  0,
  0,
  0,
  0,
  0,
  0,
  0,
  0,
  0,
  0,
  0,
  0,
  0,
  0,
  0,
  0,
  0,
  0,
  0,
  0,
  0,
  0,
  0,
  0,
  0,
  0,
  0,
  0,
  0,
  0,
  0,
  0,
  0,
  0,
  0,
  0,
  0,
  0,
  0,
  0,
  0,
  0,
  0,
  0,
  0,
  0,
  0,
  0,
  0,
  0,
  0,
  0,
  0,
  0,
  0,
  0,
  0,
  0,
  0,
  0,
  0,
  0,
  0,
  0,
  0,
  0,
  0,
  0,
  0,
  0,
  0,
  0,
  0,
  0,
  0,
  0,
  0,
  0,
  0,
  0,
  0,
  0,
  0,
  0,
  0,
  0,
  0,
  0,
  0,
  0,
  0,
  0,
  0,
  0,
  0,
  0,
  0,
  0,
  0,
  0,
  0,
  0,
  0,
  0,
  0,
  0,
  0,
  0,
  0,
  0,
  0,
  0,
  0,
  0,
  0,
  0,
  0,
  0,
  0,
  0,
  0,
  0,
  0,
  0,
  0,
  0,
  0,
  0,
  0,
  0,
  0,
  0,
  0,
  0,
  0,
  0,
  0,
  0,
  0,
  0,
  0,
  0,
  0,
  0,
  0,
  0,
  0,
  0,
  0,
  0,
  0,
  0,
  0,
  0,
  0,
  0,
  0,
  0,
  0,
  0,
  0,
  0,
  0,
  0,
  0,
  0,
  0,
  0,
  0,
  0,
  0,
  0,
  0,
  0,
  0,
  0,
  0,
  0,
  0,
  0,
  0,
  0,
  0,
  0,
  0,
  0,
  0,
  0,
  0,
  0,
  0,
  0,
  0,
  0,
  0;;
  Material {
   0.556863;0.556863;0.556863;1.000000;;
   12.700000;
   0.660000;0.660000;0.660000;;
   0.384235;0.384235;0.384235;;
   TextureFilename {
    "Data\\Graphics\\XFileTexture\\Strawberry Texture.png";
   }
  }
 }
 MeshNormals {
  268;
  -0.006363;-0.999977;-0.002550;,
  0.293512;0.930448;-0.219358;,
  -0.023108;0.999540;0.019634;,
  0.275055;0.951137;0.140295;,
  -0.326498;-0.926578;-0.186685;,
  0.054145;0.930489;0.362297;,
  0.006284;0.999484;-0.031515;,
  -0.041003;0.931092;0.362473;,
  0.006602;0.964491;0.264035;,
  0.003832;-0.999584;-0.028580;,
  -0.006353;-0.999975;-0.002946;,
  -0.005247;-0.930041;0.367418;,
  0.253418;-0.966342;-0.044306;,
  0.313996;-0.930654;-0.187855;,
  -0.220636;0.966932;-0.127916;,
  0.035875;0.999166;0.019525;,
  -0.282462;0.934106;-0.218316;,
  -0.006367;-0.999937;-0.009289;,
  0.011255;-0.999756;0.018990;,
  -0.048230;-0.998381;0.030157;,
  0.006354;0.999980;-0.000554;,
  0.160864;0.983078;-0.087633;,
  0.006037;0.989909;-0.141577;,
  -0.014169;-0.998331;-0.055992;,
  -0.272436;-0.843570;-0.462783;,
  -0.625281;-0.693344;0.358187;,
  -0.395186;-0.890985;0.223547;,
  -0.270788;-0.845929;0.459433;,
  0.527072;-0.849815;-0.003118;,
  -0.441421;-0.481289;-0.757303;,
  -0.814029;-0.347722;-0.465239;,
  -0.746796;-0.513215;-0.422973;,
  -0.438695;-0.485165;0.756414;,
  0.001504;-0.356476;0.934303;,
  0.801023;-0.381937;0.460963;,
  0.719801;-0.556877;0.414458;,
  0.941047;-0.338267;-0.002562;,
  0.805770;-0.358009;-0.471768;,
  0.462099;-0.354952;-0.812695;,
  -0.002608;-0.126718;-0.991935;,
  -0.475164;-0.327184;-0.816805;,
  0.000779;0.386423;-0.922321;,
  -0.500951;0.043166;-0.864399;,
  0.501562;-0.051318;0.863598;,
  0.999505;0.031423;-0.001716;,
  0.770707;0.470210;-0.430015;,
  0.452252;0.473065;-0.756093;,
  -0.412367;0.563299;-0.715994;,
  -0.011649;0.851045;0.524963;,
  0.434221;0.469293;0.768906;,
  0.516292;0.803654;0.295944;,
  0.802863;0.377791;0.461177;,
  0.458711;0.888584;0.001446;,
  -0.221557;0.893908;-0.389667;,
  -0.504947;0.810151;0.297798;,
  0.126070;0.961918;0.242527;,
  0.003285;-0.521238;0.853405;,
  -0.382927;-0.651433;-0.654983;,
  0.358685;-0.676887;-0.642783;,
  -0.005009;-0.549081;-0.835754;,
  0.870841;-0.491556;-0.002827;,
  0.001598;-0.042312;0.999103;,
  0.001668;-0.042320;0.999103;,
  0.001633;-0.042316;0.999103;,
  0.865911;-0.046539;0.498028;,
  0.865900;-0.046537;0.498047;,
  0.864152;-0.043984;-0.501305;,
  0.864119;-0.043990;-0.501361;,
  -0.001969;-0.037198;-0.999306;,
  -0.866491;-0.032977;-0.498103;,
  -0.866462;-0.032971;-0.498152;,
  -0.002033;-0.037204;-0.999306;,
  0.011583;-0.998577;-0.052065;,
  -0.034188;-0.999414;0.001388;,
  0.297627;0.930089;-0.215294;,
  0.077198;0.991523;-0.104512;,
  0.338880;0.919048;-0.201273;,
  0.078801;0.996373;-0.032121;,
  0.232435;0.964054;-0.128739;,
  0.341241;0.929934;-0.137033;,
  -0.266224;-0.953829;0.139055;,
  -0.313429;-0.928929;0.197113;,
  0.105817;0.994221;0.018116;,
  0.290863;0.950889;-0.105875;,
  -0.094506;-0.993317;0.066252;,
  -0.000380;-1.000000;0.000506;,
  0.146563;-0.986467;-0.073503;,
  0.043393;-0.998904;0.017576;,
  -0.147715;0.986273;-0.073791;,
  0.128261;0.989122;0.072012;,
  0.170119;-0.981858;0.083751;,
  0.050105;-0.997929;0.040327;,
  0.171200;-0.985109;-0.015819;,
  -0.067692;-0.995956;0.059068;,
  0.074386;-0.979954;0.184813;,
  -0.239068;-0.963705;-0.118828;,
  -0.172151;-0.963223;-0.206314;,
  -0.058094;0.997718;-0.034398;,
  -0.292416;-0.955052;-0.048660;,
  0.027013;-0.998960;0.036740;,
  0.063554;0.991044;0.117447;,
  0.000085;0.996581;0.082616;,
  -0.024915;-0.929320;-0.368435;,
  0.048555;0.930197;0.363836;,
  -0.021822;-0.993320;-0.113311;,
  0.001477;-0.954415;-0.298479;,
  0.015678;0.919588;0.392572;,
  -0.042546;0.951966;0.303234;,
  -0.056927;0.995097;0.080879;,
  0.006599;0.984097;0.177509;,
  -0.144048;-0.984583;-0.099234;,
  0.115738;-0.979295;-0.166087;,
  0.002557;-0.997339;-0.072858;,
  -0.019690;-0.979929;-0.198372;,
  0.077705;-0.996780;0.019805;,
  0.017235;0.984578;0.174097;,
  -0.099694;-0.964827;0.243248;,
  -0.106480;-0.983004;-0.149550;,
  0.006556;0.997024;0.076817;,
  0.009538;-0.966242;0.257457;,
  -0.009038;0.954064;-0.299466;,
  0.097083;-0.958337;0.268637;,
  -0.012319;-0.999924;0.000546;,
  0.149269;0.984431;-0.092810;,
  -0.115442;0.990671;0.072418;,
  -0.057690;-0.998311;0.006920;,
  -0.169136;-0.979758;0.107086;,
  -0.083472;-0.983933;0.157822;,
  -0.021051;-0.986063;0.165033;,
  -0.209007;-0.977560;-0.026322;,
  -0.071689;-0.997116;0.024905;,
  -0.029022;-0.995829;-0.086506;,
  0.211097;-0.966498;-0.146013;,
  -0.247831;0.954395;0.166466;,
  0.070555;0.996901;-0.034781;,
  0.177100;-0.957581;-0.227319;,
  -0.148679;0.985047;-0.087048;,
  -0.121858;0.992533;-0.005335;,
  -0.328426;0.933883;-0.141419;,
  -0.329899;0.934196;-0.135812;,
  0.320595;-0.932875;0.164203;,
  -0.336999;0.923301;-0.184249;,
  0.246542;-0.957119;0.152117;,
  -0.230142;0.954415;-0.190072;,
  -0.029901;0.995365;-0.091403;,
  0.097378;-0.994468;0.039378;,
  -0.059869;0.997282;-0.042948;,
  0.630594;-0.679282;-0.375402;,
  0.408072;-0.867223;-0.285309;,
  0.211119;-0.865541;-0.454167;,
  -0.006468;-0.891728;-0.452525;,
  -0.005713;-0.694530;-0.719441;,
  -0.004058;-0.373278;-0.927711;,
  0.004075;0.809165;-0.587568;,
  0.005620;0.962136;-0.272511;,
  -0.122884;0.967709;-0.220087;,
  -0.217789;0.965095;-0.145462;,
  -0.261754;0.965038;-0.013686;,
  -0.438797;0.855796;-0.273988;,
  -0.517366;0.855635;-0.014880;,
  -0.754268;0.479951;-0.448026;,
  -0.866764;-0.039148;-0.497179;,
  -0.877428;0.479620;-0.009192;,
  -0.999213;-0.039578;0.002660;,
  -0.937442;-0.348129;0.002866;,
  -0.858014;-0.513600;0.005272;,
  -0.645344;-0.671206;-0.364710;,
  -0.740951;-0.671545;0.004448;,
  -0.457450;-0.861891;-0.218825;,
  -0.505203;-0.862242;0.036174;,
  -0.380571;-0.654778;0.653017;,
  -0.725308;-0.547693;0.417086;,
  -0.804132;-0.371737;0.463878;,
  -0.472222;-0.331368;0.816825;,
  -0.858671;-0.125072;0.497032;,
  -0.497833;0.038737;0.866407;,
  -0.796314;0.387957;0.464083;,
  -0.409777;0.559631;0.720344;,
  -0.220141;0.891896;0.395044;,
  -0.231761;0.962593;0.140366;,
  -0.122075;0.966566;0.225494;,
  -0.010018;0.962711;0.270348;,
  0.252030;0.849525;0.463453;,
  -0.007404;0.471822;0.881663;,
  0.002468;-0.048486;0.998821;,
  0.468596;-0.359124;0.807123;,
  0.429760;-0.523648;0.735595;,
  0.001858;-0.678119;0.734950;,
  0.032871;-0.866836;0.497508;,
  0.369379;-0.680203;0.633153;,
  0.277596;-0.868168;0.411370;,
  0.384651;-0.895930;0.222155;,
  0.617733;-0.701225;0.355933;,
  0.750994;-0.660302;-0.003040;,
  0.858812;-0.135984;0.493913;,
  0.832810;0.553560;-0.000080;,
  0.244481;0.959567;0.139497;,
  0.006358;0.999977;0.002548;,
  0.263396;0.964686;0.001988;,
  0.246187;0.962072;-0.117509;,
  0.154048;0.962923;-0.221468;,
  0.466694;0.849964;-0.244455;,
  0.281588;0.851645;-0.442051;,
  0.863418;-0.050140;-0.501991;,
  0.496778;-0.046877;-0.866611;,
  0.733616;-0.522598;-0.434395;,
  0.418361;-0.519806;-0.744833;,
  -0.229623;-0.970999;0.066589;,
  0.077036;-0.995730;-0.050874;,
  -0.274387;-0.938701;0.208690;,
  0.328606;0.938731;0.103934;,
  0.402167;0.886145;0.230236;,
  0.215559;0.954295;0.207014;,
  0.045736;-0.971992;-0.230519;,
  -0.006146;-0.995569;0.093831;,
  -0.054576;-0.938698;-0.340395;,
  -0.067382;0.942353;-0.327767;,
  0.004836;0.890417;-0.455120;,
  0.078516;0.956409;-0.281279;,
  -0.243261;0.942046;0.231026;,
  -0.390014;0.891187;0.231680;,
  -0.275825;0.957739;0.081586;,
  0.165374;-0.973738;0.156481;,
  -0.089855;-0.994670;-0.050565;,
  0.311030;-0.942207;0.124522;,
  -0.057454;0.987821;0.144601;,
  0.070531;0.987006;0.144374;,
  0.163168;0.986508;-0.013368;,
  0.098863;0.986947;-0.127130;,
  -0.086772;0.988127;-0.126788;,
  -0.150675;0.988501;-0.012794;,
  0.865922;-0.046541;0.498009;,
  0.864185;-0.043978;-0.501248;,
  -0.002097;-0.037210;-0.999305;,
  -0.866519;-0.032983;-0.498054;,
  -0.864675;-0.035537;0.501074;,
  -0.864714;-0.035528;0.501007;,
  -0.864635;-0.035545;0.501141;,
  0.006336;0.999977;0.002441;,
  0.006369;0.999977;0.002438;,
  0.006398;0.999976;0.002499;,
  0.006341;0.999977;0.002487;,
  0.006303;0.999977;0.002445;,
  0.006208;0.999978;0.002281;,
  -0.135102;-0.990542;-0.023954;,
  -0.347835;-0.927055;0.139931;,
  -0.303201;-0.927561;0.218403;,
  -0.101555;-0.987752;0.118456;,
  -0.156324;0.967625;-0.198151;,
  -0.212690;0.977101;-0.006111;,
  0.060763;0.996516;-0.057127;,
  -0.175351;0.984441;-0.011323;,
  0.076631;-0.991690;-0.103342;,
  0.041832;-0.928232;-0.369642;,
  -0.048462;-0.927680;-0.370218;,
  -0.063407;-0.987319;-0.145535;,
  -0.086378;0.966027;0.243577;,
  0.108224;0.974549;0.196319;,
  -0.072562;0.997255;-0.014751;,
  0.085082;0.982330;0.166702;,
  0.261219;0.964531;-0.038011;,
  0.122943;0.975451;-0.182705;,
  0.030795;0.996358;0.079510;,
  0.109050;0.982980;-0.147845;,
  0.039505;-0.992037;0.119592;,
  0.288292;-0.931312;0.222591;,
  0.333930;-0.931423;0.144715;,
  0.146136;-0.989072;0.019513;;
  400;
  3;24,0,168;,
  3;27,0,188;,
  3;28,0,148;,
  3;200,154,197;,
  3;157,179,197;,
  3;55,196,197;,
  3;1,78,2;,
  3;80,207,208;,
  3;2,78,79;,
  3;209,80,208;,
  3;95,96,4;,
  3;210,3,211;,
  3;98,95,4;,
  3;3,212,211;,
  3;5,8,6;,
  3;105,213,214;,
  3;6,8,7;,
  3;215,105,214;,
  3;9,19,10;,
  3;10,17,72;,
  3;119,116,11;,
  3;216,120,217;,
  3;121,119,11;,
  3;120,218,217;,
  3;132,12,13;,
  3;219,133,220;,
  3;135,132,13;,
  3;133,221,220;,
  3;139,14,15;,
  3;142,222,223;,
  3;15,14,16;,
  3;224,142,223;,
  3;87,10,73;,
  3;99,10,85;,
  3;10,18,23;,
  3;10,122,125;,
  3;19,122,10;,
  3;9,10,99;,
  3;85,10,87;,
  3;10,72,73;,
  3;10,23,17;,
  3;10,125,18;,
  3;124,225,20;,
  3;225,109,20;,
  3;109,226,20;,
  3;226,89,20;,
  3;89,227,20;,
  3;227,21,20;,
  3;21,228,20;,
  3;228,22,20;,
  3;22,229,20;,
  3;229,136,20;,
  3;136,230,20;,
  3;230,124,20;,
  3;149,151,58;,
  3;149,150,151;,
  3;24,166,57;,
  3;24,168,166;,
  3;169,25,167;,
  3;169,26,25;,
  3;27,187,170;,
  3;27,188,187;,
  3;190,192,189;,
  3;190,191,192;,
  3;28,147,193;,
  3;28,148,147;,
  3;206,152,38;,
  3;206,59,152;,
  3;29,30,40;,
  3;29,31,30;,
  3;165,172,164;,
  3;165,171,172;,
  3;32,33,173;,
  3;32,56,33;,
  3;186,34,185;,
  3;186,35,34;,
  3;60,37,36;,
  3;60,205,37;,
  3;38,39,204;,
  3;38,152,39;,
  3;40,161,42;,
  3;40,30,161;,
  3;164,174,163;,
  3;164,172,174;,
  3;173,184,175;,
  3;173,33,184;,
  3;185,194,43;,
  3;185,34,194;,
  3;36,203,44;,
  3;36,37,203;,
  3;204,41,46;,
  3;204,39,41;,
  3;42,160,47;,
  3;42,161,160;,
  3;163,176,162;,
  3;163,174,176;,
  3;175,183,177;,
  3;175,184,183;,
  3;43,51,49;,
  3;43,194,51;,
  3;44,45,195;,
  3;44,203,45;,
  3;46,153,202;,
  3;46,41,153;,
  3;47,158,53;,
  3;47,160,158;,
  3;162,54,159;,
  3;162,176,54;,
  3;177,48,178;,
  3;177,183,48;,
  3;49,50,182;,
  3;49,51,50;,
  3;195,201,52;,
  3;195,45,201;,
  3;202,154,200;,
  3;202,153,154;,
  3;53,156,155;,
  3;53,158,156;,
  3;159,179,157;,
  3;159,54,179;,
  3;178,181,180;,
  3;178,48,181;,
  3;182,196,55;,
  3;182,50,196;,
  3;52,199,198;,
  3;52,201,199;,
  3;170,56,32;,
  3;170,187,56;,
  3;167,171,165;,
  3;167,25,171;,
  3;57,31,29;,
  3;57,166,31;,
  3;58,59,206;,
  3;58,151,59;,
  3;193,205,60;,
  3;193,147,205;,
  3;189,35,186;,
  3;189,192,35;,
  3;63,63,61;,
  3;63,62,63;,
  3;64,64,231;,
  3;64,65,64;,
  3;66,66,232;,
  3;66,67,66;,
  3;71,71,233;,
  3;71,68,71;,
  3;69,69,234;,
  3;69,70,69;,
  3;235,235,236;,
  3;235,237,235;,
  3;238,239,240;,
  3;238,241,239;,
  3;238,242,243;,
  3;238,240,242;,
  3;228,77,75;,
  3;228,21,77;,
  3;73,244,84;,
  3;73,72,244;,
  3;75,76,74;,
  3;75,77,76;,
  3;84,245,81;,
  3;84,244,245;,
  3;80,245,207;,
  3;80,81,245;,
  3;76,1,74;,
  3;76,78,1;,
  3;77,83,76;,
  3;77,82,83;,
  3;79,76,83;,
  3;79,78,76;,
  3;209,81,80;,
  3;209,246,81;,
  3;247,81,246;,
  3;247,84,81;,
  3;87,84,247;,
  3;87,73,84;,
  3;77,227,82;,
  3;77,21,227;,
  3;85,86,90;,
  3;85,87,86;,
  3;227,88,248;,
  3;227,89,88;,
  3;85,94,99;,
  3;85,90,94;,
  3;226,88,89;,
  3;226,249,88;,
  3;90,92,91;,
  3;90,86,92;,
  3;248,97,250;,
  3;248,88,97;,
  3;94,91,93;,
  3;94,90,91;,
  3;88,251,97;,
  3;88,249,251;,
  3;91,96,95;,
  3;91,92,96;,
  3;250,3,210;,
  3;250,97,3;,
  3;93,95,98;,
  3;93,91,95;,
  3;97,212,3;,
  3;97,251,212;,
  3;226,101,100;,
  3;226,109,101;,
  3;9,252,104;,
  3;9,99,252;,
  3;100,106,103;,
  3;100,101,106;,
  3;104,253,102;,
  3;104,252,253;,
  3;105,253,213;,
  3;105,102,253;,
  3;106,5,103;,
  3;106,8,5;,
  3;101,107,106;,
  3;101,108,107;,
  3;7,106,107;,
  3;7,8,106;,
  3;215,102,105;,
  3;215,254,102;,
  3;255,102,254;,
  3;255,104,102;,
  3;19,104,255;,
  3;19,9,104;,
  3;101,225,108;,
  3;101,109,225;,
  3;17,110,113;,
  3;17,23,110;,
  3;229,115,256;,
  3;229,22,115;,
  3;17,111,72;,
  3;17,113,111;,
  3;228,115,22;,
  3;228,257,115;,
  3;113,117,112;,
  3;113,110,117;,
  3;256,118,258;,
  3;256,115,118;,
  3;111,112,114;,
  3;111,113,112;,
  3;115,259,118;,
  3;115,257,259;,
  3;112,116,119;,
  3;112,117,116;,
  3;258,120,216;,
  3;258,118,120;,
  3;114,119,121;,
  3;114,112,119;,
  3;118,218,120;,
  3;118,259,218;,
  3;122,128,126;,
  3;122,19,128;,
  3;225,123,260;,
  3;225,124,123;,
  3;122,129,125;,
  3;122,126,129;,
  3;230,123,124;,
  3;230,261,123;,
  3;126,127,130;,
  3;126,128,127;,
  3;260,134,262;,
  3;260,123,134;,
  3;129,130,131;,
  3;129,126,130;,
  3;123,263,134;,
  3;123,261,263;,
  3;130,12,132;,
  3;130,127,12;,
  3;262,133,219;,
  3;262,134,133;,
  3;131,132,135;,
  3;131,130,132;,
  3;134,221,133;,
  3;134,263,221;,
  3;230,146,137;,
  3;230,136,146;,
  3;18,264,145;,
  3;18,125,264;,
  3;137,141,138;,
  3;137,146,141;,
  3;145,265,140;,
  3;145,264,265;,
  3;142,265,222;,
  3;142,140,265;,
  3;141,139,138;,
  3;141,14,139;,
  3;146,143,141;,
  3;146,144,143;,
  3;16,141,143;,
  3;16,14,141;,
  3;224,140,142;,
  3;224,266,140;,
  3;267,140,266;,
  3;267,145,140;,
  3;23,145,267;,
  3;23,18,145;,
  3;146,229,144;,
  3;146,136,229;,
  3;147,148,58;,
  3;58,148,149;,
  3;148,0,149;,
  3;149,0,150;,
  3;0,24,150;,
  3;150,24,151;,
  3;24,57,151;,
  3;151,57,59;,
  3;57,29,59;,
  3;59,29,152;,
  3;29,40,152;,
  3;152,40,39;,
  3;40,42,39;,
  3;39,42,41;,
  3;42,47,41;,
  3;41,47,153;,
  3;47,53,153;,
  3;153,53,154;,
  3;53,155,154;,
  3;154,155,197;,
  3;155,156,197;,
  3;197,156,157;,
  3;156,158,157;,
  3;157,158,159;,
  3;158,160,159;,
  3;159,160,162;,
  3;160,161,162;,
  3;162,161,163;,
  3;161,30,163;,
  3;163,30,164;,
  3;30,31,164;,
  3;164,31,165;,
  3;31,166,165;,
  3;165,166,167;,
  3;166,168,167;,
  3;167,168,169;,
  3;168,0,169;,
  3;169,0,26;,
  3;0,27,26;,
  3;26,27,25;,
  3;27,170,25;,
  3;25,170,171;,
  3;170,32,171;,
  3;171,32,172;,
  3;32,173,172;,
  3;172,173,174;,
  3;173,175,174;,
  3;174,175,176;,
  3;175,177,176;,
  3;176,177,54;,
  3;177,178,54;,
  3;54,178,179;,
  3;178,180,179;,
  3;179,180,197;,
  3;180,181,197;,
  3;197,181,55;,
  3;181,48,55;,
  3;55,48,182;,
  3;48,183,182;,
  3;182,183,49;,
  3;183,184,49;,
  3;49,184,43;,
  3;184,33,43;,
  3;43,33,185;,
  3;33,56,185;,
  3;185,56,186;,
  3;56,187,186;,
  3;186,187,189;,
  3;187,188,189;,
  3;189,188,190;,
  3;188,0,190;,
  3;190,0,191;,
  3;0,28,191;,
  3;191,28,192;,
  3;28,193,192;,
  3;192,193,35;,
  3;193,60,35;,
  3;35,60,34;,
  3;60,36,34;,
  3;34,36,194;,
  3;36,44,194;,
  3;194,44,51;,
  3;44,195,51;,
  3;51,195,50;,
  3;195,52,50;,
  3;50,52,196;,
  3;52,198,196;,
  3;196,198,197;,
  3;198,199,197;,
  3;197,199,200;,
  3;199,201,200;,
  3;200,201,202;,
  3;201,45,202;,
  3;202,45,46;,
  3;45,203,46;,
  3;46,203,204;,
  3;203,37,204;,
  3;204,37,38;,
  3;37,205,38;,
  3;38,205,206;,
  3;205,147,206;,
  3;206,147,58;;
 }
 MeshTextureCoords {
  232;
  0.380000;0.977000;,
  0.419000;1.000000;,
  0.342000;0.977000;,
  0.380000;0.977000;,
  0.419000;0.977000;,
  0.530000;0.977000;,
  0.497000;0.977000;,
  0.522000;0.035000;,
  0.419000;0.035000;,
  0.419000;0.000000;,
  0.133000;0.035000;,
  0.218000;0.035000;,
  0.522000;0.035000;,
  0.621000;0.035000;,
  0.747000;0.643000;,
  0.852000;0.643000;,
  0.852000;0.476000;,
  0.852000;0.643000;,
  0.958000;0.643000;,
  0.852000;0.643000;,
  0.958000;0.643000;,
  0.852000;0.476000;,
  0.852000;0.643000;,
  0.747000;0.643000;,
  0.747000;0.643000;,
  0.852000;0.643000;,
  0.852000;0.476000;,
  0.852000;0.643000;,
  0.958000;0.643000;,
  0.881000;0.011000;,
  0.923000;0.020000;,
  0.881000;0.087000;,
  0.881000;0.163000;,
  0.840000;0.152000;,
  0.852000;0.643000;,
  0.958000;0.643000;,
  0.852000;0.476000;,
  0.852000;0.643000;,
  0.747000;0.643000;,
  0.852000;0.643000;,
  0.958000;0.643000;,
  0.852000;0.476000;,
  0.852000;0.643000;,
  0.747000;0.643000;,
  0.747000;0.643000;,
  0.852000;0.643000;,
  0.852000;0.476000;,
  0.852000;0.643000;,
  0.958000;0.643000;,
  0.798000;0.085000;,
  0.811000;0.123000;,
  0.839000;0.020000;,
  0.809000;0.047000;,
  0.951000;0.123000;,
  0.921000;0.152000;,
  0.953000;0.047000;,
  0.963000;0.085000;,
  0.953000;0.047000;,
  0.881000;0.087000;,
  0.881000;0.011000;,
  0.809000;0.047000;,
  0.811000;0.123000;,
  0.881000;0.163000;,
  0.951000;0.123000;,
  0.459000;0.977000;,
  0.419000;0.923000;,
  0.482000;0.923000;,
  0.419000;0.977000;,
  0.295000;0.923000;,
  0.356000;0.923000;,
  0.309000;0.977000;,
  0.295000;0.923000;,
  0.243000;0.923000;,
  0.342000;0.977000;,
  0.419000;0.923000;,
  0.356000;0.923000;,
  0.459000;0.977000;,
  0.544000;0.923000;,
  0.482000;0.923000;,
  0.497000;0.977000;,
  0.544000;0.923000;,
  0.596000;0.923000;,
  0.513000;0.735000;,
  0.419000;0.517000;,
  0.542000;0.517000;,
  0.419000;0.735000;,
  0.326000;0.735000;,
  0.178000;0.517000;,
  0.297000;0.517000;,
  0.236000;0.735000;,
  0.158000;0.735000;,
  0.178000;0.517000;,
  0.076000;0.517000;,
  0.236000;0.735000;,
  0.326000;0.735000;,
  0.419000;0.517000;,
  0.297000;0.517000;,
  0.419000;0.735000;,
  0.513000;0.735000;,
  0.661000;0.517000;,
  0.542000;0.517000;,
  0.603000;0.735000;,
  0.680000;0.735000;,
  0.661000;0.517000;,
  0.763000;0.517000;,
  0.603000;0.735000;,
  0.419000;0.365000;,
  0.563000;0.365000;,
  0.138000;0.365000;,
  0.276000;0.365000;,
  0.138000;0.365000;,
  0.019000;0.365000;,
  0.419000;0.365000;,
  0.276000;0.365000;,
  0.701000;0.365000;,
  0.563000;0.365000;,
  0.701000;0.365000;,
  0.820000;0.365000;,
  0.419000;0.234000;,
  0.556000;0.234000;,
  0.151000;0.234000;,
  0.283000;0.234000;,
  0.151000;0.234000;,
  0.038000;0.234000;,
  0.419000;0.234000;,
  0.283000;0.234000;,
  0.688000;0.234000;,
  0.556000;0.234000;,
  0.688000;0.234000;,
  0.800000;0.234000;,
  0.419000;0.132000;,
  0.542000;0.132000;,
  0.178000;0.132000;,
  0.297000;0.132000;,
  0.178000;0.132000;,
  0.076000;0.132000;,
  0.419000;0.132000;,
  0.297000;0.132000;,
  0.661000;0.132000;,
  0.542000;0.132000;,
  0.661000;0.132000;,
  0.763000;0.132000;,
  0.218000;0.035000;,
  0.317000;0.035000;,
  0.419000;0.035000;,
  0.317000;0.035000;,
  0.621000;0.035000;,
  0.705000;0.035000;,
  0.959000;0.463000;,
  0.935000;0.198000;,
  0.964000;0.198000;,
  0.941000;0.463000;,
  0.910000;0.198000;,
  0.925000;0.463000;,
  0.935000;0.198000;,
  0.941000;0.463000;,
  0.964000;0.198000;,
  0.959000;0.463000;,
  0.989000;0.198000;,
  0.975000;0.463000;,
  0.656000;0.941000;,
  0.713000;0.971000;,
  0.732000;0.941000;,
  0.675000;0.971000;,
  0.713000;0.911000;,
  0.675000;0.911000;,
  0.812000;0.975000;,
  0.852000;0.880000;,
  0.763000;0.880000;,
  0.852000;0.967000;,
  0.852000;0.967000;,
  0.852000;0.880000;,
  0.852000;0.758000;,
  0.727000;0.758000;,
  0.852000;0.758000;,
  0.978000;0.758000;,
  0.941000;0.880000;,
  0.892000;0.975000;,
  0.852000;0.967000;,
  0.941000;0.880000;,
  0.852000;0.880000;,
  0.852000;0.880000;,
  0.852000;0.967000;,
  0.763000;0.880000;,
  0.812000;0.975000;,
  0.978000;0.758000;,
  0.852000;0.758000;,
  0.852000;0.758000;,
  0.727000;0.758000;,
  0.852000;0.880000;,
  0.763000;0.880000;,
  0.852000;0.967000;,
  0.852000;0.967000;,
  0.852000;0.880000;,
  0.852000;0.758000;,
  0.727000;0.758000;,
  0.852000;0.758000;,
  0.978000;0.758000;,
  0.941000;0.880000;,
  0.892000;0.975000;,
  0.852000;0.967000;,
  0.941000;0.880000;,
  0.852000;0.880000;,
  0.892000;0.975000;,
  0.852000;0.880000;,
  0.852000;0.967000;,
  0.763000;0.880000;,
  0.978000;0.758000;,
  0.852000;0.758000;,
  0.852000;0.758000;,
  0.727000;0.758000;,
  0.852000;0.967000;,
  0.941000;0.880000;,
  0.852000;0.880000;,
  0.852000;0.880000;,
  0.852000;0.967000;,
  0.763000;0.880000;,
  0.812000;0.975000;,
  0.978000;0.758000;,
  0.852000;0.758000;,
  0.852000;0.758000;,
  0.727000;0.758000;,
  0.852000;0.880000;,
  0.763000;0.880000;,
  0.852000;0.967000;,
  0.852000;0.967000;,
  0.852000;0.880000;,
  0.852000;0.758000;,
  0.727000;0.758000;,
  0.852000;0.758000;,
  0.978000;0.758000;,
  0.941000;0.880000;;
 }
 MeshVertexColors {
  232;
  0;1.000000;1.000000;1.000000;1.000000;,
  1;1.000000;1.000000;1.000000;1.000000;,
  2;1.000000;1.000000;1.000000;1.000000;,
  3;1.000000;1.000000;1.000000;1.000000;,
  4;1.000000;1.000000;1.000000;1.000000;,
  5;1.000000;1.000000;1.000000;1.000000;,
  6;1.000000;1.000000;1.000000;1.000000;,
  7;1.000000;1.000000;1.000000;1.000000;,
  8;1.000000;1.000000;1.000000;1.000000;,
  9;1.000000;1.000000;1.000000;1.000000;,
  10;1.000000;1.000000;1.000000;1.000000;,
  11;1.000000;1.000000;1.000000;1.000000;,
  12;1.000000;1.000000;1.000000;1.000000;,
  13;1.000000;1.000000;1.000000;1.000000;,
  14;1.000000;1.000000;1.000000;1.000000;,
  15;1.000000;1.000000;1.000000;1.000000;,
  16;1.000000;1.000000;1.000000;1.000000;,
  17;1.000000;1.000000;1.000000;1.000000;,
  18;1.000000;1.000000;1.000000;1.000000;,
  19;1.000000;1.000000;1.000000;1.000000;,
  20;1.000000;1.000000;1.000000;1.000000;,
  21;1.000000;1.000000;1.000000;1.000000;,
  22;1.000000;1.000000;1.000000;1.000000;,
  23;1.000000;1.000000;1.000000;1.000000;,
  24;1.000000;1.000000;1.000000;1.000000;,
  25;1.000000;1.000000;1.000000;1.000000;,
  26;1.000000;1.000000;1.000000;1.000000;,
  27;1.000000;1.000000;1.000000;1.000000;,
  28;1.000000;1.000000;1.000000;1.000000;,
  29;1.000000;1.000000;1.000000;1.000000;,
  30;1.000000;1.000000;1.000000;1.000000;,
  31;1.000000;1.000000;1.000000;1.000000;,
  32;1.000000;1.000000;1.000000;1.000000;,
  33;1.000000;1.000000;1.000000;1.000000;,
  34;1.000000;1.000000;1.000000;1.000000;,
  35;1.000000;1.000000;1.000000;1.000000;,
  36;1.000000;1.000000;1.000000;1.000000;,
  37;1.000000;1.000000;1.000000;1.000000;,
  38;1.000000;1.000000;1.000000;1.000000;,
  39;1.000000;1.000000;1.000000;1.000000;,
  40;1.000000;1.000000;1.000000;1.000000;,
  41;1.000000;1.000000;1.000000;1.000000;,
  42;1.000000;1.000000;1.000000;1.000000;,
  43;1.000000;1.000000;1.000000;1.000000;,
  44;1.000000;1.000000;1.000000;1.000000;,
  45;1.000000;1.000000;1.000000;1.000000;,
  46;1.000000;1.000000;1.000000;1.000000;,
  47;1.000000;1.000000;1.000000;1.000000;,
  48;1.000000;1.000000;1.000000;1.000000;,
  49;1.000000;1.000000;1.000000;1.000000;,
  50;1.000000;1.000000;1.000000;1.000000;,
  51;1.000000;1.000000;1.000000;1.000000;,
  52;1.000000;1.000000;1.000000;1.000000;,
  53;1.000000;1.000000;1.000000;1.000000;,
  54;1.000000;1.000000;1.000000;1.000000;,
  55;1.000000;1.000000;1.000000;1.000000;,
  56;1.000000;1.000000;1.000000;1.000000;,
  57;1.000000;1.000000;1.000000;1.000000;,
  58;1.000000;1.000000;1.000000;1.000000;,
  59;1.000000;1.000000;1.000000;1.000000;,
  60;1.000000;1.000000;1.000000;1.000000;,
  61;1.000000;1.000000;1.000000;1.000000;,
  62;1.000000;1.000000;1.000000;1.000000;,
  63;1.000000;1.000000;1.000000;1.000000;,
  64;1.000000;1.000000;1.000000;1.000000;,
  65;1.000000;1.000000;1.000000;1.000000;,
  66;1.000000;1.000000;1.000000;1.000000;,
  67;1.000000;1.000000;1.000000;1.000000;,
  68;1.000000;1.000000;1.000000;1.000000;,
  69;1.000000;1.000000;1.000000;1.000000;,
  70;1.000000;1.000000;1.000000;1.000000;,
  71;1.000000;1.000000;1.000000;1.000000;,
  72;1.000000;1.000000;1.000000;1.000000;,
  73;1.000000;1.000000;1.000000;1.000000;,
  74;1.000000;1.000000;1.000000;1.000000;,
  75;1.000000;1.000000;1.000000;1.000000;,
  76;1.000000;1.000000;1.000000;1.000000;,
  77;1.000000;1.000000;1.000000;1.000000;,
  78;1.000000;1.000000;1.000000;1.000000;,
  79;1.000000;1.000000;1.000000;1.000000;,
  80;1.000000;1.000000;1.000000;1.000000;,
  81;1.000000;1.000000;1.000000;1.000000;,
  82;1.000000;1.000000;1.000000;1.000000;,
  83;1.000000;1.000000;1.000000;1.000000;,
  84;1.000000;1.000000;1.000000;1.000000;,
  85;1.000000;1.000000;1.000000;1.000000;,
  86;1.000000;1.000000;1.000000;1.000000;,
  87;1.000000;1.000000;1.000000;1.000000;,
  88;1.000000;1.000000;1.000000;1.000000;,
  89;1.000000;1.000000;1.000000;1.000000;,
  90;1.000000;1.000000;1.000000;1.000000;,
  91;1.000000;1.000000;1.000000;1.000000;,
  92;1.000000;1.000000;1.000000;1.000000;,
  93;1.000000;1.000000;1.000000;1.000000;,
  94;1.000000;1.000000;1.000000;1.000000;,
  95;1.000000;1.000000;1.000000;1.000000;,
  96;1.000000;1.000000;1.000000;1.000000;,
  97;1.000000;1.000000;1.000000;1.000000;,
  98;1.000000;1.000000;1.000000;1.000000;,
  99;1.000000;1.000000;1.000000;1.000000;,
  100;1.000000;1.000000;1.000000;1.000000;,
  101;1.000000;1.000000;1.000000;1.000000;,
  102;1.000000;1.000000;1.000000;1.000000;,
  103;1.000000;1.000000;1.000000;1.000000;,
  104;1.000000;1.000000;1.000000;1.000000;,
  105;1.000000;1.000000;1.000000;1.000000;,
  106;1.000000;1.000000;1.000000;1.000000;,
  107;1.000000;1.000000;1.000000;1.000000;,
  108;1.000000;1.000000;1.000000;1.000000;,
  109;1.000000;1.000000;1.000000;1.000000;,
  110;1.000000;1.000000;1.000000;1.000000;,
  111;1.000000;1.000000;1.000000;1.000000;,
  112;1.000000;1.000000;1.000000;1.000000;,
  113;1.000000;1.000000;1.000000;1.000000;,
  114;1.000000;1.000000;1.000000;1.000000;,
  115;1.000000;1.000000;1.000000;1.000000;,
  116;1.000000;1.000000;1.000000;1.000000;,
  117;1.000000;1.000000;1.000000;1.000000;,
  118;1.000000;1.000000;1.000000;1.000000;,
  119;1.000000;1.000000;1.000000;1.000000;,
  120;1.000000;1.000000;1.000000;1.000000;,
  121;1.000000;1.000000;1.000000;1.000000;,
  122;1.000000;1.000000;1.000000;1.000000;,
  123;1.000000;1.000000;1.000000;1.000000;,
  124;1.000000;1.000000;1.000000;1.000000;,
  125;1.000000;1.000000;1.000000;1.000000;,
  126;1.000000;1.000000;1.000000;1.000000;,
  127;1.000000;1.000000;1.000000;1.000000;,
  128;1.000000;1.000000;1.000000;1.000000;,
  129;1.000000;1.000000;1.000000;1.000000;,
  130;1.000000;1.000000;1.000000;1.000000;,
  131;1.000000;1.000000;1.000000;1.000000;,
  132;1.000000;1.000000;1.000000;1.000000;,
  133;1.000000;1.000000;1.000000;1.000000;,
  134;1.000000;1.000000;1.000000;1.000000;,
  135;1.000000;1.000000;1.000000;1.000000;,
  136;1.000000;1.000000;1.000000;1.000000;,
  137;1.000000;1.000000;1.000000;1.000000;,
  138;1.000000;1.000000;1.000000;1.000000;,
  139;1.000000;1.000000;1.000000;1.000000;,
  140;1.000000;1.000000;1.000000;1.000000;,
  141;1.000000;1.000000;1.000000;1.000000;,
  142;1.000000;1.000000;1.000000;1.000000;,
  143;1.000000;1.000000;1.000000;1.000000;,
  144;1.000000;1.000000;1.000000;1.000000;,
  145;1.000000;1.000000;1.000000;1.000000;,
  146;1.000000;1.000000;1.000000;1.000000;,
  147;1.000000;1.000000;1.000000;1.000000;,
  148;1.000000;1.000000;1.000000;1.000000;,
  149;1.000000;1.000000;1.000000;1.000000;,
  150;1.000000;1.000000;1.000000;1.000000;,
  151;1.000000;1.000000;1.000000;1.000000;,
  152;1.000000;1.000000;1.000000;1.000000;,
  153;1.000000;1.000000;1.000000;1.000000;,
  154;1.000000;1.000000;1.000000;1.000000;,
  155;1.000000;1.000000;1.000000;1.000000;,
  156;1.000000;1.000000;1.000000;1.000000;,
  157;1.000000;1.000000;1.000000;1.000000;,
  158;1.000000;1.000000;1.000000;1.000000;,
  159;1.000000;1.000000;1.000000;1.000000;,
  160;1.000000;1.000000;1.000000;1.000000;,
  161;1.000000;1.000000;1.000000;1.000000;,
  162;1.000000;1.000000;1.000000;1.000000;,
  163;1.000000;1.000000;1.000000;1.000000;,
  164;1.000000;1.000000;1.000000;1.000000;,
  165;1.000000;1.000000;1.000000;1.000000;,
  166;1.000000;1.000000;1.000000;1.000000;,
  167;1.000000;1.000000;1.000000;1.000000;,
  168;1.000000;1.000000;1.000000;1.000000;,
  169;1.000000;1.000000;1.000000;1.000000;,
  170;1.000000;1.000000;1.000000;1.000000;,
  171;1.000000;1.000000;1.000000;1.000000;,
  172;1.000000;1.000000;1.000000;1.000000;,
  173;1.000000;1.000000;1.000000;1.000000;,
  174;1.000000;1.000000;1.000000;1.000000;,
  175;1.000000;1.000000;1.000000;1.000000;,
  176;1.000000;1.000000;1.000000;1.000000;,
  177;1.000000;1.000000;1.000000;1.000000;,
  178;1.000000;1.000000;1.000000;1.000000;,
  179;1.000000;1.000000;1.000000;1.000000;,
  180;1.000000;1.000000;1.000000;1.000000;,
  181;1.000000;1.000000;1.000000;1.000000;,
  182;1.000000;1.000000;1.000000;1.000000;,
  183;1.000000;1.000000;1.000000;1.000000;,
  184;1.000000;1.000000;1.000000;1.000000;,
  185;1.000000;1.000000;1.000000;1.000000;,
  186;1.000000;1.000000;1.000000;1.000000;,
  187;1.000000;1.000000;1.000000;1.000000;,
  188;1.000000;1.000000;1.000000;1.000000;,
  189;1.000000;1.000000;1.000000;1.000000;,
  190;1.000000;1.000000;1.000000;1.000000;,
  191;1.000000;1.000000;1.000000;1.000000;,
  192;1.000000;1.000000;1.000000;1.000000;,
  193;1.000000;1.000000;1.000000;1.000000;,
  194;1.000000;1.000000;1.000000;1.000000;,
  195;1.000000;1.000000;1.000000;1.000000;,
  196;1.000000;1.000000;1.000000;1.000000;,
  197;1.000000;1.000000;1.000000;1.000000;,
  198;1.000000;1.000000;1.000000;1.000000;,
  199;1.000000;1.000000;1.000000;1.000000;,
  200;1.000000;1.000000;1.000000;1.000000;,
  201;1.000000;1.000000;1.000000;1.000000;,
  202;1.000000;1.000000;1.000000;1.000000;,
  203;1.000000;1.000000;1.000000;1.000000;,
  204;1.000000;1.000000;1.000000;1.000000;,
  205;1.000000;1.000000;1.000000;1.000000;,
  206;1.000000;1.000000;1.000000;1.000000;,
  207;1.000000;1.000000;1.000000;1.000000;,
  208;1.000000;1.000000;1.000000;1.000000;,
  209;1.000000;1.000000;1.000000;1.000000;,
  210;1.000000;1.000000;1.000000;1.000000;,
  211;1.000000;1.000000;1.000000;1.000000;,
  212;1.000000;1.000000;1.000000;1.000000;,
  213;1.000000;1.000000;1.000000;1.000000;,
  214;1.000000;1.000000;1.000000;1.000000;,
  215;1.000000;1.000000;1.000000;1.000000;,
  216;1.000000;1.000000;1.000000;1.000000;,
  217;1.000000;1.000000;1.000000;1.000000;,
  218;1.000000;1.000000;1.000000;1.000000;,
  219;1.000000;1.000000;1.000000;1.000000;,
  220;1.000000;1.000000;1.000000;1.000000;,
  221;1.000000;1.000000;1.000000;1.000000;,
  222;1.000000;1.000000;1.000000;1.000000;,
  223;1.000000;1.000000;1.000000;1.000000;,
  224;1.000000;1.000000;1.000000;1.000000;,
  225;1.000000;1.000000;1.000000;1.000000;,
  226;1.000000;1.000000;1.000000;1.000000;,
  227;1.000000;1.000000;1.000000;1.000000;,
  228;1.000000;1.000000;1.000000;1.000000;,
  229;1.000000;1.000000;1.000000;1.000000;,
  230;1.000000;1.000000;1.000000;1.000000;,
  231;1.000000;1.000000;1.000000;1.000000;;
 }
}
