xof 0303txt 0032
template AnimTicksPerSecond {
 <9e415a43-7ba6-4a73-8743-b73d47e88476>
 DWORD AnimTicksPerSecond;
}

template Frame {
 <3d82ab46-62da-11cf-ab39-0020af71e433>
 [...]
}

template Matrix4x4 {
 <f6f23f45-7686-11cf-8f52-0040333594a3>
 array FLOAT matrix[16];
}

template FrameTransformMatrix {
 <f6f23f41-7686-11cf-8f52-0040333594a3>
 Matrix4x4 frameMatrix;
}

template Vector {
 <3d82ab5e-62da-11cf-ab39-0020af71e433>
 FLOAT x;
 FLOAT y;
 FLOAT z;
}

template MeshFace {
 <3d82ab5f-62da-11cf-ab39-0020af71e433>
 DWORD nFaceVertexIndices;
 array DWORD faceVertexIndices[nFaceVertexIndices];
}

template Mesh {
 <3d82ab44-62da-11cf-ab39-0020af71e433>
 DWORD nVertices;
 array Vector vertices[nVertices];
 DWORD nFaces;
 array MeshFace faces[nFaces];
 [...]
}

template MeshNormals {
 <f6f23f43-7686-11cf-8f52-0040333594a3>
 DWORD nNormals;
 array Vector normals[nNormals];
 DWORD nFaceNormals;
 array MeshFace faceNormals[nFaceNormals];
}

template Coords2d {
 <f6f23f44-7686-11cf-8f52-0040333594a3>
 FLOAT u;
 FLOAT v;
}

template MeshTextureCoords {
 <f6f23f40-7686-11cf-8f52-0040333594a3>
 DWORD nTextureCoords;
 array Coords2d textureCoords[nTextureCoords];
}

template ColorRGBA {
 <35ff44e0-6c7c-11cf-8f52-0040333594a3>
 FLOAT red;
 FLOAT green;
 FLOAT blue;
 FLOAT alpha;
}

template ColorRGB {
 <d3e16e81-7835-11cf-8f52-0040333594a3>
 FLOAT red;
 FLOAT green;
 FLOAT blue;
}

template Material {
 <3d82ab4d-62da-11cf-ab39-0020af71e433>
 ColorRGBA faceColor;
 FLOAT power;
 ColorRGB specularColor;
 ColorRGB emissiveColor;
 [...]
}

template MeshMaterialList {
 <f6f23f42-7686-11cf-8f52-0040333594a3>
 DWORD nMaterials;
 DWORD nFaceIndexes;
 array DWORD faceIndexes[nFaceIndexes];
 [Material <3d82ab4d-62da-11cf-ab39-0020af71e433>]
}

template TextureFilename {
 <a42790e1-7810-11cf-8f52-0040333594a3>
 STRING filename;
}

template VertexDuplicationIndices {
 <b8d65549-d7c9-4995-89cf-53a9a8b031e3>
 DWORD nIndices;
 DWORD nOriginalVertices;
 array DWORD indices[nIndices];
}

template XSkinMeshHeader {
 <3cf169ce-ff7c-44ab-93c0-f78f62d172e2>
 WORD nMaxSkinWeightsPerVertex;
 WORD nMaxSkinWeightsPerFace;
 WORD nBones;
}

template SkinWeights {
 <6f0d123b-bad2-4167-a0d0-80224f25fabb>
 STRING transformNodeName;
 DWORD nWeights;
 array DWORD vertexIndices[nWeights];
 array FLOAT weights[nWeights];
 Matrix4x4 matrixOffset;
}

template Animation {
 <3d82ab4f-62da-11cf-ab39-0020af71e433>
 [...]
}

template AnimationSet {
 <3d82ab50-62da-11cf-ab39-0020af71e433>
 [Animation <3d82ab4f-62da-11cf-ab39-0020af71e433>]
}

template FloatKeys {
 <10dd46a9-775b-11cf-8f52-0040333594a3>
 DWORD nValues;
 array FLOAT values[nValues];
}

template TimedFloatKeys {
 <f406b180-7b3b-11cf-8f52-0040333594a3>
 DWORD time;
 FloatKeys tfkeys;
}

template AnimationKey {
 <10dd46a8-775b-11cf-8f52-0040333594a3>
 DWORD keyType;
 DWORD nKeys;
 array TimedFloatKeys keys[nKeys];
}


AnimTicksPerSecond {
 60;
}

Frame Root {
 

 FrameTransformMatrix {
  1.000000,0.000000,0.000000,0.000000,0.000000,1.000000,0.000000,0.000000,0.000000,0.000000,1.000000,0.000000,0.000000,-0.043271,0.000000,1.000000;;
 }

 Mesh  {
  220;
  0.054720;-0.319300;0.047730;,
  0.054720;-0.489730;0.047730;,
  0.054720;-0.489730;-0.047760;,
  0.054720;-0.319300;-0.047760;,
  -0.103480;-0.489730;0.047730;,
  -0.103480;-0.489730;-0.047760;,
  -0.103480;-0.319300;0.047730;,
  -0.103480;-0.319300;-0.047760;,
  0.063580;-0.192990;0.072710;,
  -0.114110;-0.192990;0.072710;,
  -0.114110;-0.192990;-0.072740;,
  0.063580;-0.192990;-0.072740;,
  -0.115350;-0.162520;0.072710;,
  -0.115350;-0.162520;-0.072740;,
  -0.111630;-0.087400;0.072710;,
  -0.111630;-0.087400;-0.072740;,
  -0.080450;-0.011220;0.072710;,
  -0.080450;-0.011220;-0.072740;,
  -0.012070;0.049720;0.072710;,
  -0.012070;0.049720;-0.072740;,
  0.084660;0.133170;0.072710;,
  0.084660;0.133170;-0.072740;,
  0.105390;0.149640;0.072710;,
  0.105390;0.149640;-0.072740;,
  0.117090;0.162580;0.072710;,
  0.117090;0.162580;-0.072740;,
  0.128780;0.182240;0.072710;,
  0.128780;0.182240;-0.072740;,
  0.135690;0.207220;0.072710;,
  0.135690;0.207220;-0.072740;,
  0.137990;0.237160;0.072710;,
  0.137990;0.237160;-0.072740;,
  0.130550;0.298110;0.072710;,
  0.130550;0.298110;-0.072740;,
  0.104510;0.329640;0.072710;,
  0.104510;0.329640;-0.072740;,
  0.007780;0.338680;0.072710;,
  0.007780;0.338680;-0.072740;,
  -0.089310;0.335310;0.072710;,
  -0.089310;0.335310;-0.072740;,
  -0.118360;0.305370;0.072710;,
  -0.118360;0.305370;-0.072740;,
  -0.125270;0.243900;0.072710;,
  -0.125270;0.243900;-0.072740;,
  -0.125270;0.234510;0.072710;,
  -0.125270;0.234510;-0.072740;,
  -0.125270;0.222640;0.072710;,
  -0.125270;0.222640;-0.072740;,
  -0.125270;0.206510;0.072710;,
  -0.125270;0.206510;-0.072740;,
  -0.265590;0.206510;0.072710;,
  -0.265590;0.206510;-0.072740;,
  -0.264700;0.253990;0.072710;,
  -0.264700;0.253990;-0.072740;,
  -0.254960;0.351960;0.072710;,
  -0.254960;0.351960;-0.072740;,
  -0.242020;0.366850;0.072710;,
  -0.242020;0.366850;-0.072740;,
  -0.217400;0.410600;0.072710;,
  -0.217400;0.410600;-0.072740;,
  -0.163010;0.459680;0.072710;,
  -0.163010;0.459680;-0.072740;,
  -0.088420;0.486780;0.072710;,
  -0.088420;0.486780;-0.072740;,
  0.012380;0.495290;0.072710;,
  0.012380;0.495290;-0.072740;,
  0.162790;0.468010;0.072710;,
  0.162790;0.468010;-0.072740;,
  0.242340;0.374640;0.072710;,
  0.242340;0.374640;-0.072740;,
  0.265550;0.245490;0.072710;,
  0.265550;0.245490;-0.072740;,
  0.260940;0.145750;0.072710;,
  0.260940;0.145750;-0.072740;,
  0.244470;0.074880;0.072710;,
  0.244470;0.074880;-0.072740;,
  0.213280;0.020320;0.072710;,
  0.213280;0.020320;-0.072740;,
  0.200000;0.005790;0.072710;,
  0.200000;0.005790;-0.072740;,
  0.183340;-0.009090;0.072710;,
  0.183340;-0.009090;-0.072740;,
  0.159960;-0.027160;0.072710;,
  0.159960;-0.027160;-0.072740;,
  0.154820;-0.031060;0.072710;,
  0.154820;-0.031060;-0.072740;,
  0.148090;-0.036200;0.072710;,
  0.148090;-0.036200;-0.072740;,
  0.139050;-0.042400;0.072710;,
  0.139050;-0.042400;-0.072740;,
  0.129840;-0.048950;0.072710;,
  0.129840;-0.048950;-0.072740;,
  0.123820;-0.052680;0.072710;,
  0.123820;-0.052680;-0.072740;,
  0.119390;-0.055860;0.072710;,
  0.119390;-0.055860;-0.072740;,
  0.084130;-0.084560;0.072710;,
  0.084130;-0.084560;-0.072740;,
  0.067660;-0.121410;0.072710;,
  0.067660;-0.121410;-0.072740;,
  0.063580;-0.179520;0.072710;,
  0.063580;-0.179520;-0.072740;,
  0.054720;-0.489730;0.047730;,
  0.054720;-0.489730;-0.047760;,
  -0.103480;-0.489730;0.047730;,
  -0.103480;-0.489730;-0.047760;,
  -0.103480;-0.319300;0.047730;,
  0.054720;-0.319300;0.047730;,
  0.054720;-0.319300;-0.047760;,
  -0.103480;-0.319300;-0.047760;,
  -0.114110;-0.192990;0.072710;,
  -0.114110;-0.192990;-0.072740;,
  -0.125270;0.206510;0.072710;,
  -0.125270;0.206510;-0.072740;,
  -0.265590;0.206510;0.072710;,
  -0.265590;0.206510;-0.072740;,
  0.063580;-0.192990;0.072710;,
  0.063580;-0.192990;-0.072740;,
  0.054720;-0.319300;0.047730;,
  -0.103480;-0.319300;0.047730;,
  -0.103480;-0.489730;0.047730;,
  0.054720;-0.489730;0.047730;,
  -0.264700;0.253990;0.072710;,
  -0.265590;0.206510;0.072710;,
  -0.125270;0.206510;0.072710;,
  -0.125270;0.222640;0.072710;,
  -0.125270;0.234510;0.072710;,
  -0.125270;0.243900;0.072710;,
  -0.254960;0.351960;0.072710;,
  -0.118360;0.305370;0.072710;,
  -0.242020;0.366850;0.072710;,
  -0.217400;0.410600;0.072710;,
  -0.163010;0.459680;0.072710;,
  -0.088420;0.486780;0.072710;,
  -0.089310;0.335310;0.072710;,
  0.012380;0.495290;0.072710;,
  0.007780;0.338680;0.072710;,
  0.162790;0.468010;0.072710;,
  0.104510;0.329640;0.072710;,
  0.242340;0.374640;0.072710;,
  0.130550;0.298110;0.072710;,
  0.265550;0.245490;0.072710;,
  0.137990;0.237160;0.072710;,
  0.260940;0.145750;0.072710;,
  0.135690;0.207220;0.072710;,
  0.244470;0.074880;0.072710;,
  0.128780;0.182240;0.072710;,
  0.213280;0.020320;0.072710;,
  0.200000;0.005790;0.072710;,
  0.183340;-0.009090;0.072710;,
  0.117090;0.162580;0.072710;,
  0.159960;-0.027160;0.072710;,
  0.154820;-0.031060;0.072710;,
  0.105390;0.149640;0.072710;,
  0.148090;-0.036200;0.072710;,
  0.139050;-0.042400;0.072710;,
  0.129840;-0.048950;0.072710;,
  0.123820;-0.052680;0.072710;,
  0.084660;0.133170;0.072710;,
  0.119390;-0.055860;0.072710;,
  0.084130;-0.084560;0.072710;,
  -0.012070;0.049720;0.072710;,
  -0.114110;-0.192990;0.072710;,
  0.063580;-0.192990;0.072710;,
  0.063580;-0.179520;0.072710;,
  -0.115350;-0.162520;0.072710;,
  -0.111630;-0.087400;0.072710;,
  0.067660;-0.121410;0.072710;,
  -0.080450;-0.011220;0.072710;,
  -0.103480;-0.489730;-0.047760;,
  -0.103480;-0.319300;-0.047760;,
  0.054720;-0.319300;-0.047760;,
  0.054720;-0.489730;-0.047760;,
  -0.125270;0.206510;-0.072740;,
  -0.265590;0.206510;-0.072740;,
  -0.264700;0.253990;-0.072740;,
  -0.125270;0.222640;-0.072740;,
  -0.125270;0.234510;-0.072740;,
  -0.125270;0.243900;-0.072740;,
  -0.254960;0.351960;-0.072740;,
  -0.118360;0.305370;-0.072740;,
  -0.242020;0.366850;-0.072740;,
  -0.217400;0.410600;-0.072740;,
  -0.163010;0.459680;-0.072740;,
  -0.088420;0.486780;-0.072740;,
  -0.089310;0.335310;-0.072740;,
  0.012380;0.495290;-0.072740;,
  0.007780;0.338680;-0.072740;,
  0.162790;0.468010;-0.072740;,
  0.104510;0.329640;-0.072740;,
  0.242340;0.374640;-0.072740;,
  0.130550;0.298110;-0.072740;,
  0.265550;0.245490;-0.072740;,
  0.137990;0.237160;-0.072740;,
  0.260940;0.145750;-0.072740;,
  0.135690;0.207220;-0.072740;,
  0.244470;0.074880;-0.072740;,
  0.128780;0.182240;-0.072740;,
  0.213280;0.020320;-0.072740;,
  0.200000;0.005790;-0.072740;,
  0.183340;-0.009090;-0.072740;,
  0.117090;0.162580;-0.072740;,
  0.159960;-0.027160;-0.072740;,
  0.154820;-0.031060;-0.072740;,
  0.105390;0.149640;-0.072740;,
  0.148090;-0.036200;-0.072740;,
  0.139050;-0.042400;-0.072740;,
  0.129840;-0.048950;-0.072740;,
  0.123820;-0.052680;-0.072740;,
  0.084660;0.133170;-0.072740;,
  0.119390;-0.055860;-0.072740;,
  0.084130;-0.084560;-0.072740;,
  -0.012070;0.049720;-0.072740;,
  0.063580;-0.179520;-0.072740;,
  0.063580;-0.192990;-0.072740;,
  -0.114110;-0.192990;-0.072740;,
  -0.115350;-0.162520;-0.072740;,
  -0.111630;-0.087400;-0.072740;,
  0.067660;-0.121410;-0.072740;,
  -0.080450;-0.011220;-0.072740;;
  196;
  3;8,9,10;,
  3;8,10,11;,
  3;110,12,13;,
  3;110,13,111;,
  3;12,14,15;,
  3;12,15,13;,
  3;14,16,17;,
  3;14,17,15;,
  3;16,18,19;,
  3;16,19,17;,
  3;18,20,21;,
  3;18,21,19;,
  3;20,22,23;,
  3;20,23,21;,
  3;22,24,25;,
  3;22,25,23;,
  3;24,26,27;,
  3;24,27,25;,
  3;26,28,29;,
  3;26,29,27;,
  3;28,30,31;,
  3;28,31,29;,
  3;30,32,33;,
  3;30,33,31;,
  3;32,34,35;,
  3;32,35,33;,
  3;34,36,37;,
  3;34,37,35;,
  3;36,38,39;,
  3;36,39,37;,
  3;38,40,41;,
  3;38,41,39;,
  3;40,42,43;,
  3;40,43,41;,
  3;42,44,45;,
  3;42,45,43;,
  3;44,46,47;,
  3;44,47,45;,
  3;46,48,49;,
  3;46,49,47;,
  3;112,50,51;,
  3;112,51,113;,
  3;114,52,53;,
  3;114,53,115;,
  3;52,54,55;,
  3;52,55,53;,
  3;54,56,57;,
  3;54,57,55;,
  3;56,58,59;,
  3;56,59,57;,
  3;58,60,61;,
  3;58,61,59;,
  3;60,62,63;,
  3;60,63,61;,
  3;62,64,65;,
  3;62,65,63;,
  3;64,66,67;,
  3;64,67,65;,
  3;66,68,69;,
  3;66,69,67;,
  3;68,70,71;,
  3;68,71,69;,
  3;70,72,73;,
  3;70,73,71;,
  3;72,74,75;,
  3;72,75,73;,
  3;74,76,77;,
  3;74,77,75;,
  3;76,78,79;,
  3;76,79,77;,
  3;78,80,81;,
  3;78,81,79;,
  3;80,82,83;,
  3;80,83,81;,
  3;82,84,85;,
  3;82,85,83;,
  3;84,86,87;,
  3;84,87,85;,
  3;86,88,89;,
  3;86,89,87;,
  3;88,90,91;,
  3;88,91,89;,
  3;90,92,93;,
  3;90,93,91;,
  3;92,94,95;,
  3;92,95,93;,
  3;94,96,97;,
  3;94,97,95;,
  3;96,98,99;,
  3;96,99,97;,
  3;98,100,101;,
  3;98,101,99;,
  3;100,116,117;,
  3;100,117,101;,
  3;122,123,124;,
  3;122,124,125;,
  3;122,125,126;,
  3;122,126,127;,
  3;128,122,127;,
  3;128,127,129;,
  3;130,128,129;,
  3;131,130,129;,
  3;132,131,129;,
  3;133,132,129;,
  3;133,129,134;,
  3;135,133,134;,
  3;135,134,136;,
  3;137,135,136;,
  3;137,136,138;,
  3;139,137,138;,
  3;139,138,140;,
  3;141,139,140;,
  3;141,140,142;,
  3;143,141,142;,
  3;143,142,144;,
  3;145,143,144;,
  3;145,144,146;,
  3;147,145,146;,
  3;148,147,146;,
  3;149,148,146;,
  3;149,146,150;,
  3;151,149,150;,
  3;152,151,150;,
  3;152,150,153;,
  3;154,152,153;,
  3;155,154,153;,
  3;156,155,153;,
  3;157,156,153;,
  3;157,153,158;,
  3;159,157,158;,
  3;160,159,158;,
  3;160,158,161;,
  3;162,163,164;,
  3;165,162,164;,
  3;166,165,164;,
  3;166,164,167;,
  3;168,166,167;,
  3;161,168,167;,
  3;160,161,167;,
  3;173,174,175;,
  3;176,173,175;,
  3;177,176,175;,
  3;178,177,175;,
  3;178,175,179;,
  3;180,178,179;,
  3;180,179,181;,
  3;180,181,182;,
  3;180,182,183;,
  3;180,183,184;,
  3;185,180,184;,
  3;185,184,186;,
  3;187,185,186;,
  3;187,186,188;,
  3;189,187,188;,
  3;189,188,190;,
  3;191,189,190;,
  3;191,190,192;,
  3;193,191,192;,
  3;193,192,194;,
  3;195,193,194;,
  3;195,194,196;,
  3;197,195,196;,
  3;197,196,198;,
  3;197,198,199;,
  3;197,199,200;,
  3;201,197,200;,
  3;201,200,202;,
  3;201,202,203;,
  3;204,201,203;,
  3;204,203,205;,
  3;204,205,206;,
  3;204,206,207;,
  3;204,207,208;,
  3;209,204,208;,
  3;209,208,210;,
  3;209,210,211;,
  3;212,209,211;,
  3;213,214,215;,
  3;213,215,216;,
  3;213,216,217;,
  3;218,213,217;,
  3;218,217,219;,
  3;218,219,212;,
  3;218,212,211;,
  3;0,1,2;,
  3;0,2,3;,
  3;102,4,5;,
  3;102,5,103;,
  3;104,6,7;,
  3;104,7,105;,
  3;106,107,108;,
  3;106,108,109;,
  3;118,119,120;,
  3;121,118,120;,
  3;169,170,171;,
  3;169,171,172;;

  MeshNormals {
   220;
   1.000000;0.000000;0.000000;,
   1.000000;0.000000;0.000000;,
   1.000000;0.000000;0.000000;,
   1.000000;0.000000;0.000000;,
   0.000000;-1.000000;0.000000;,
   0.000000;-1.000000;0.000000;,
   -1.000000;0.000000;0.000000;,
   -1.000000;0.000000;0.000000;,
   0.000000;-1.000000;0.000000;,
   0.000000;-1.000000;0.000000;,
   0.000000;-1.000000;0.000000;,
   0.000000;-1.000000;0.000000;,
   -0.999811;0.019443;0.000000;,
   -0.999943;-0.010627;0.000000;,
   -0.962158;0.272491;0.000000;,
   -0.986906;0.161299;0.000000;,
   -0.769594;0.638534;0.000000;,
   -0.858336;0.513087;0.000000;,
   -0.657252;0.753671;0.000000;,
   -0.661297;0.750124;0.000000;,
   -0.632671;0.774421;0.000000;,
   -0.642988;0.765876;0.000000;,
   -0.704034;0.710167;0.000000;,
   -0.664071;0.747669;0.000000;,
   -0.823891;0.566748;0.000000;,
   -0.784463;0.620175;0.000000;,
   -0.936433;0.350846;0.000000;,
   -0.901399;0.432989;0.000000;,
   -0.990070;0.140575;0.000000;,
   -0.978943;0.204134;0.000000;,
   -0.998460;-0.055473;0.000000;,
   -0.999942;0.010780;0.000000;,
   -0.876128;-0.482078;0.000000;,
   -0.952712;-0.303875;0.000000;,
   -0.342182;-0.939634;0.000000;,
   -0.584613;-0.811312;0.000000;,
   -0.007909;-0.999969;0.000000;,
   -0.050539;-0.998722;0.000000;,
   0.523529;-0.852008;0.000000;,
   0.280279;-0.959918;0.000000;,
   0.946768;-0.321918;0.000000;,
   0.850134;-0.526566;0.000000;,
   0.999305;-0.037282;0.000000;,
   0.997216;-0.074563;0.000000;,
   1.000000;0.000000;0.000000;,
   1.000000;0.000000;0.000000;,
   1.000000;0.000000;0.000000;,
   1.000000;0.000000;0.000000;,
   1.000000;0.000000;0.000000;,
   1.000000;0.000000;0.000000;,
   0.000000;-1.000000;0.000000;,
   0.000000;-1.000000;0.000000;,
   -0.997387;0.072247;0.000000;,
   -0.998966;0.045454;0.000000;,
   -0.871269;0.490806;0.000000;,
   -0.954864;0.297044;0.000000;,
   -0.836401;0.548117;0.000000;,
   -0.797322;0.603554;0.000000;,
   -0.745776;0.666197;0.000000;,
   -0.813760;0.581201;0.000000;,
   -0.458552;0.888668;0.000000;,
   -0.569827;0.821765;0.000000;,
   -0.171223;0.985232;0.000000;,
   -0.257729;0.966217;0.000000;,
   0.091672;0.995789;0.000000;,
   0.003479;0.999994;0.000000;,
   0.597773;0.801665;0.000000;,
   0.392977;0.919548;0.000000;,
   0.938722;0.344674;0.000000;,
   0.862018;0.506877;0.000000;,
   0.999598;0.028359;0.000000;,
   0.994670;0.103107;0.000000;,
   0.985963;-0.166967;0.000000;,
   0.994298;-0.106634;0.000000;,
   0.912046;-0.410088;0.000000;,
   0.947638;-0.319345;0.000000;,
   0.785632;-0.618694;0.000000;,
   0.829318;-0.558777;0.000000;,
   0.690971;-0.722883;0.000000;,
   0.714851;-0.699277;0.000000;,
   0.630098;-0.776515;0.000000;,
   0.648408;-0.761293;0.000000;,
   0.606741;-0.794899;0.000000;,
   0.609095;-0.793098;0.000000;,
   0.605909;-0.795534;0.000000;,
   0.605146;-0.796114;0.000000;,
   0.579617;-0.814889;0.000000;,
   0.593230;-0.805033;0.000000;,
   0.575142;-0.818053;0.000000;,
   0.570503;-0.821296;0.000000;,
   0.543828;-0.839197;0.000000;,
   0.561933;-0.827183;0.000000;,
   0.565023;-0.825075;0.000000;,
   0.545395;-0.838179;0.000000;,
   0.615898;-0.787826;0.000000;,
   0.600225;-0.799831;0.000000;,
   0.839266;-0.543722;0.000000;,
   0.743089;-0.669193;0.000000;,
   0.982699;-0.185210;0.000000;,
   0.954095;-0.299505;0.000000;,
   0.999728;-0.023330;0.000000;,
   0.998911;-0.046659;0.000000;,
   0.000000;-1.000000;0.000000;,
   0.000000;-1.000000;0.000000;,
   -1.000000;0.000000;0.000000;,
   -1.000000;0.000000;0.000000;,
   0.000000;1.000000;0.000000;,
   0.000000;1.000000;0.000000;,
   0.000000;1.000000;0.000000;,
   0.000000;1.000000;0.000000;,
   -0.999173;-0.040660;0.000000;,
   -0.999173;-0.040660;0.000000;,
   0.000000;-1.000000;0.000000;,
   0.000000;-1.000000;0.000000;,
   -0.999826;0.018648;0.000000;,
   -0.999826;0.018648;0.000000;,
   1.000000;0.000000;0.000000;,
   1.000000;0.000000;0.000000;,
   0.000000;0.000000;1.000000;,
   0.000000;0.000000;1.000000;,
   0.000000;0.000000;1.000000;,
   0.000000;0.000000;1.000000;,
   0.000000;0.000000;1.000000;,
   0.000000;0.000000;1.000000;,
   0.000000;0.000000;1.000000;,
   0.000000;0.000000;1.000000;,
   0.000000;0.000000;1.000000;,
   0.000000;0.000000;1.000000;,
   0.000000;0.000000;1.000000;,
   0.000000;0.000000;1.000000;,
   0.000000;0.000000;1.000000;,
   0.000000;0.000000;1.000000;,
   0.000000;0.000000;1.000000;,
   0.000000;0.000000;1.000000;,
   0.000000;0.000000;1.000000;,
   0.000000;0.000000;1.000000;,
   0.000000;0.000000;1.000000;,
   0.000000;0.000000;1.000000;,
   0.000000;0.000000;1.000000;,
   0.000000;0.000000;1.000000;,
   0.000000;0.000000;1.000000;,
   0.000000;0.000000;1.000000;,
   0.000000;0.000000;1.000000;,
   0.000000;0.000000;1.000000;,
   0.000000;0.000000;1.000000;,
   0.000000;0.000000;1.000000;,
   0.000000;0.000000;1.000000;,
   0.000000;0.000000;1.000000;,
   0.000000;0.000000;1.000000;,
   0.000000;0.000000;1.000000;,
   0.000000;0.000000;1.000000;,
   0.000000;0.000000;1.000000;,
   0.000000;0.000000;1.000000;,
   0.000000;0.000000;1.000000;,
   0.000000;0.000000;1.000000;,
   0.000000;0.000000;1.000000;,
   0.000000;0.000000;1.000000;,
   0.000000;0.000000;1.000000;,
   0.000000;0.000000;1.000000;,
   0.000000;0.000000;1.000000;,
   0.000000;0.000000;1.000000;,
   0.000000;0.000000;1.000000;,
   0.000000;0.000000;1.000000;,
   0.000000;0.000000;1.000000;,
   0.000000;0.000000;1.000000;,
   0.000000;0.000000;1.000000;,
   0.000000;0.000000;1.000000;,
   0.000000;0.000000;1.000000;,
   0.000000;0.000000;1.000000;,
   0.000000;0.000000;-1.000000;,
   0.000000;0.000000;-1.000000;,
   0.000000;0.000000;-1.000000;,
   0.000000;0.000000;-1.000000;,
   0.000000;0.000000;-1.000000;,
   0.000000;0.000000;-1.000000;,
   0.000000;0.000000;-1.000000;,
   0.000000;0.000000;-1.000000;,
   0.000000;0.000000;-1.000000;,
   0.000000;0.000000;-1.000000;,
   0.000000;0.000000;-1.000000;,
   0.000000;0.000000;-1.000000;,
   0.000000;0.000000;-1.000000;,
   0.000000;0.000000;-1.000000;,
   0.000000;0.000000;-1.000000;,
   0.000000;0.000000;-1.000000;,
   0.000000;0.000000;-1.000000;,
   0.000000;0.000000;-1.000000;,
   0.000000;0.000000;-1.000000;,
   0.000000;0.000000;-1.000000;,
   0.000000;0.000000;-1.000000;,
   0.000000;0.000000;-1.000000;,
   0.000000;0.000000;-1.000000;,
   0.000000;0.000000;-1.000000;,
   0.000000;0.000000;-1.000000;,
   0.000000;0.000000;-1.000000;,
   0.000000;0.000000;-1.000000;,
   0.000000;0.000000;-1.000000;,
   0.000000;0.000000;-1.000000;,
   0.000000;0.000000;-1.000000;,
   0.000000;0.000000;-1.000000;,
   0.000000;0.000000;-1.000000;,
   0.000000;0.000000;-1.000000;,
   0.000000;0.000000;-1.000000;,
   0.000000;0.000000;-1.000000;,
   0.000000;0.000000;-1.000000;,
   0.000000;0.000000;-1.000000;,
   0.000000;0.000000;-1.000000;,
   0.000000;0.000000;-1.000000;,
   0.000000;0.000000;-1.000000;,
   0.000000;0.000000;-1.000000;,
   0.000000;0.000000;-1.000000;,
   0.000000;0.000000;-1.000000;,
   0.000000;0.000000;-1.000000;,
   0.000000;0.000000;-1.000000;,
   0.000000;0.000000;-1.000000;,
   0.000000;0.000000;-1.000000;,
   0.000000;0.000000;-1.000000;,
   0.000000;0.000000;-1.000000;,
   0.000000;0.000000;-1.000000;,
   0.000000;0.000000;-1.000000;;
   196;
   3;8,9,10;,
   3;8,10,11;,
   3;110,12,13;,
   3;110,13,111;,
   3;12,14,15;,
   3;12,15,13;,
   3;14,16,17;,
   3;14,17,15;,
   3;16,18,19;,
   3;16,19,17;,
   3;18,20,21;,
   3;18,21,19;,
   3;20,22,23;,
   3;20,23,21;,
   3;22,24,25;,
   3;22,25,23;,
   3;24,26,27;,
   3;24,27,25;,
   3;26,28,29;,
   3;26,29,27;,
   3;28,30,31;,
   3;28,31,29;,
   3;30,32,33;,
   3;30,33,31;,
   3;32,34,35;,
   3;32,35,33;,
   3;34,36,37;,
   3;34,37,35;,
   3;36,38,39;,
   3;36,39,37;,
   3;38,40,41;,
   3;38,41,39;,
   3;40,42,43;,
   3;40,43,41;,
   3;42,44,45;,
   3;42,45,43;,
   3;44,46,47;,
   3;44,47,45;,
   3;46,48,49;,
   3;46,49,47;,
   3;112,50,51;,
   3;112,51,113;,
   3;114,52,53;,
   3;114,53,115;,
   3;52,54,55;,
   3;52,55,53;,
   3;54,56,57;,
   3;54,57,55;,
   3;56,58,59;,
   3;56,59,57;,
   3;58,60,61;,
   3;58,61,59;,
   3;60,62,63;,
   3;60,63,61;,
   3;62,64,65;,
   3;62,65,63;,
   3;64,66,67;,
   3;64,67,65;,
   3;66,68,69;,
   3;66,69,67;,
   3;68,70,71;,
   3;68,71,69;,
   3;70,72,73;,
   3;70,73,71;,
   3;72,74,75;,
   3;72,75,73;,
   3;74,76,77;,
   3;74,77,75;,
   3;76,78,79;,
   3;76,79,77;,
   3;78,80,81;,
   3;78,81,79;,
   3;80,82,83;,
   3;80,83,81;,
   3;82,84,85;,
   3;82,85,83;,
   3;84,86,87;,
   3;84,87,85;,
   3;86,88,89;,
   3;86,89,87;,
   3;88,90,91;,
   3;88,91,89;,
   3;90,92,93;,
   3;90,93,91;,
   3;92,94,95;,
   3;92,95,93;,
   3;94,96,97;,
   3;94,97,95;,
   3;96,98,99;,
   3;96,99,97;,
   3;98,100,101;,
   3;98,101,99;,
   3;100,116,117;,
   3;100,117,101;,
   3;122,123,124;,
   3;122,124,125;,
   3;122,125,126;,
   3;122,126,127;,
   3;128,122,127;,
   3;128,127,129;,
   3;130,128,129;,
   3;131,130,129;,
   3;132,131,129;,
   3;133,132,129;,
   3;133,129,134;,
   3;135,133,134;,
   3;135,134,136;,
   3;137,135,136;,
   3;137,136,138;,
   3;139,137,138;,
   3;139,138,140;,
   3;141,139,140;,
   3;141,140,142;,
   3;143,141,142;,
   3;143,142,144;,
   3;145,143,144;,
   3;145,144,146;,
   3;147,145,146;,
   3;148,147,146;,
   3;149,148,146;,
   3;149,146,150;,
   3;151,149,150;,
   3;152,151,150;,
   3;152,150,153;,
   3;154,152,153;,
   3;155,154,153;,
   3;156,155,153;,
   3;157,156,153;,
   3;157,153,158;,
   3;159,157,158;,
   3;160,159,158;,
   3;160,158,161;,
   3;162,163,164;,
   3;165,162,164;,
   3;166,165,164;,
   3;166,164,167;,
   3;168,166,167;,
   3;161,168,167;,
   3;160,161,167;,
   3;173,174,175;,
   3;176,173,175;,
   3;177,176,175;,
   3;178,177,175;,
   3;178,175,179;,
   3;180,178,179;,
   3;180,179,181;,
   3;180,181,182;,
   3;180,182,183;,
   3;180,183,184;,
   3;185,180,184;,
   3;185,184,186;,
   3;187,185,186;,
   3;187,186,188;,
   3;189,187,188;,
   3;189,188,190;,
   3;191,189,190;,
   3;191,190,192;,
   3;193,191,192;,
   3;193,192,194;,
   3;195,193,194;,
   3;195,194,196;,
   3;197,195,196;,
   3;197,196,198;,
   3;197,198,199;,
   3;197,199,200;,
   3;201,197,200;,
   3;201,200,202;,
   3;201,202,203;,
   3;204,201,203;,
   3;204,203,205;,
   3;204,205,206;,
   3;204,206,207;,
   3;204,207,208;,
   3;209,204,208;,
   3;209,208,210;,
   3;209,210,211;,
   3;212,209,211;,
   3;213,214,215;,
   3;213,215,216;,
   3;213,216,217;,
   3;218,213,217;,
   3;218,217,219;,
   3;218,219,212;,
   3;218,212,211;,
   3;0,1,2;,
   3;0,2,3;,
   3;102,4,5;,
   3;102,5,103;,
   3;104,6,7;,
   3;104,7,105;,
   3;106,107,108;,
   3;106,108,109;,
   3;118,119,120;,
   3;121,118,120;,
   3;169,170,171;,
   3;169,171,172;;
  }

  MeshTextureCoords {
   220;
   0.000000;1.000000;,
   0.000000;1.000000;,
   0.000000;1.000000;,
   0.000000;1.000000;,
   0.000000;1.000000;,
   0.000000;1.000000;,
   0.000000;1.000000;,
   0.000000;1.000000;,
   0.000000;1.000000;,
   0.000000;1.000000;,
   0.000000;1.000000;,
   0.000000;1.000000;,
   0.000000;1.000000;,
   0.000000;1.000000;,
   0.000000;1.000000;,
   0.000000;1.000000;,
   0.000000;1.000000;,
   0.000000;1.000000;,
   0.000000;1.000000;,
   0.000000;1.000000;,
   0.000000;1.000000;,
   0.000000;1.000000;,
   0.000000;1.000000;,
   0.000000;1.000000;,
   0.000000;1.000000;,
   0.000000;1.000000;,
   0.000000;1.000000;,
   0.000000;1.000000;,
   0.000000;1.000000;,
   0.000000;1.000000;,
   0.000000;1.000000;,
   0.000000;1.000000;,
   0.000000;1.000000;,
   0.000000;1.000000;,
   0.000000;1.000000;,
   0.000000;1.000000;,
   0.000000;1.000000;,
   0.000000;1.000000;,
   0.000000;1.000000;,
   0.000000;1.000000;,
   0.000000;1.000000;,
   0.000000;1.000000;,
   0.000000;1.000000;,
   0.000000;1.000000;,
   0.000000;1.000000;,
   0.000000;1.000000;,
   0.000000;1.000000;,
   0.000000;1.000000;,
   0.000000;1.000000;,
   0.000000;1.000000;,
   0.000000;1.000000;,
   0.000000;1.000000;,
   0.000000;1.000000;,
   0.000000;1.000000;,
   0.000000;1.000000;,
   0.000000;1.000000;,
   0.000000;1.000000;,
   0.000000;1.000000;,
   0.000000;1.000000;,
   0.000000;1.000000;,
   0.000000;1.000000;,
   0.000000;1.000000;,
   0.000000;1.000000;,
   0.000000;1.000000;,
   0.000000;1.000000;,
   0.000000;1.000000;,
   0.000000;1.000000;,
   0.000000;1.000000;,
   0.000000;1.000000;,
   0.000000;1.000000;,
   0.000000;1.000000;,
   0.000000;1.000000;,
   0.000000;1.000000;,
   0.000000;1.000000;,
   0.000000;1.000000;,
   0.000000;1.000000;,
   0.000000;1.000000;,
   0.000000;1.000000;,
   0.000000;1.000000;,
   0.000000;1.000000;,
   0.000000;1.000000;,
   0.000000;1.000000;,
   0.000000;1.000000;,
   0.000000;1.000000;,
   0.000000;1.000000;,
   0.000000;1.000000;,
   0.000000;1.000000;,
   0.000000;1.000000;,
   0.000000;1.000000;,
   0.000000;1.000000;,
   0.000000;1.000000;,
   0.000000;1.000000;,
   0.000000;1.000000;,
   0.000000;1.000000;,
   0.000000;1.000000;,
   0.000000;1.000000;,
   0.000000;1.000000;,
   0.000000;1.000000;,
   0.000000;1.000000;,
   0.000000;1.000000;,
   0.000000;1.000000;,
   0.000000;1.000000;,
   0.000000;1.000000;,
   0.000000;1.000000;,
   0.000000;1.000000;,
   0.000000;1.000000;,
   0.000000;1.000000;,
   0.000000;1.000000;,
   0.000000;1.000000;,
   0.000000;1.000000;,
   0.000000;1.000000;,
   0.000000;1.000000;,
   0.000000;1.000000;,
   0.000000;1.000000;,
   0.000000;1.000000;,
   0.000000;1.000000;,
   0.000000;1.000000;,
   0.000000;1.000000;,
   0.000000;1.000000;,
   0.000000;1.000000;,
   0.000000;1.000000;,
   0.000000;1.000000;,
   0.000000;1.000000;,
   0.000000;1.000000;,
   0.000000;1.000000;,
   0.000000;1.000000;,
   0.000000;1.000000;,
   0.000000;1.000000;,
   0.000000;1.000000;,
   0.000000;1.000000;,
   0.000000;1.000000;,
   0.000000;1.000000;,
   0.000000;1.000000;,
   0.000000;1.000000;,
   0.000000;1.000000;,
   0.000000;1.000000;,
   0.000000;1.000000;,
   0.000000;1.000000;,
   0.000000;1.000000;,
   0.000000;1.000000;,
   0.000000;1.000000;,
   0.000000;1.000000;,
   0.000000;1.000000;,
   0.000000;1.000000;,
   0.000000;1.000000;,
   0.000000;1.000000;,
   0.000000;1.000000;,
   0.000000;1.000000;,
   0.000000;1.000000;,
   0.000000;1.000000;,
   0.000000;1.000000;,
   0.000000;1.000000;,
   0.000000;1.000000;,
   0.000000;1.000000;,
   0.000000;1.000000;,
   0.000000;1.000000;,
   0.000000;1.000000;,
   0.000000;1.000000;,
   0.000000;1.000000;,
   0.000000;1.000000;,
   0.000000;1.000000;,
   0.000000;1.000000;,
   0.000000;1.000000;,
   0.000000;1.000000;,
   0.000000;1.000000;,
   0.000000;1.000000;,
   0.000000;1.000000;,
   0.000000;1.000000;,
   0.000000;1.000000;,
   0.000000;1.000000;,
   0.000000;1.000000;,
   0.000000;1.000000;,
   0.000000;1.000000;,
   0.000000;1.000000;,
   0.000000;1.000000;,
   0.000000;1.000000;,
   0.000000;1.000000;,
   0.000000;1.000000;,
   0.000000;1.000000;,
   0.000000;1.000000;,
   0.000000;1.000000;,
   0.000000;1.000000;,
   0.000000;1.000000;,
   0.000000;1.000000;,
   0.000000;1.000000;,
   0.000000;1.000000;,
   0.000000;1.000000;,
   0.000000;1.000000;,
   0.000000;1.000000;,
   0.000000;1.000000;,
   0.000000;1.000000;,
   0.000000;1.000000;,
   0.000000;1.000000;,
   0.000000;1.000000;,
   0.000000;1.000000;,
   0.000000;1.000000;,
   0.000000;1.000000;,
   0.000000;1.000000;,
   0.000000;1.000000;,
   0.000000;1.000000;,
   0.000000;1.000000;,
   0.000000;1.000000;,
   0.000000;1.000000;,
   0.000000;1.000000;,
   0.000000;1.000000;,
   0.000000;1.000000;,
   0.000000;1.000000;,
   0.000000;1.000000;,
   0.000000;1.000000;,
   0.000000;1.000000;,
   0.000000;1.000000;,
   0.000000;1.000000;,
   0.000000;1.000000;,
   0.000000;1.000000;,
   0.000000;1.000000;,
   0.000000;1.000000;,
   0.000000;1.000000;,
   0.000000;1.000000;,
   0.000000;1.000000;,
   0.000000;1.000000;;
  }

  MeshMaterialList {
   2;
   196;
   0,
   0,
   0,
   0,
   0,
   0,
   0,
   0,
   0,
   0,
   0,
   0,
   0,
   0,
   0,
   0,
   0,
   0,
   0,
   0,
   0,
   0,
   0,
   0,
   0,
   0,
   0,
   0,
   0,
   0,
   0,
   0,
   0,
   0,
   0,
   0,
   0,
   0,
   0,
   0,
   0,
   0,
   0,
   0,
   0,
   0,
   0,
   0,
   0,
   0,
   0,
   0,
   0,
   0,
   0,
   0,
   0,
   0,
   0,
   0,
   0,
   0,
   0,
   0,
   0,
   0,
   0,
   0,
   0,
   0,
   0,
   0,
   0,
   0,
   0,
   0,
   0,
   0,
   0,
   0,
   0,
   0,
   0,
   0,
   0,
   0,
   0,
   0,
   0,
   0,
   0,
   0,
   0,
   0,
   0,
   0,
   0,
   0,
   0,
   0,
   0,
   0,
   0,
   0,
   0,
   0,
   0,
   0,
   0,
   0,
   0,
   0,
   0,
   0,
   0,
   0,
   0,
   0,
   0,
   0,
   0,
   0,
   0,
   0,
   0,
   0,
   0,
   0,
   0,
   0,
   0,
   0,
   0,
   0,
   0,
   0,
   0,
   0,
   0,
   0,
   0,
   0,
   0,
   0,
   0,
   0,
   0,
   0,
   0,
   0,
   0,
   0,
   0,
   0,
   0,
   0,
   0,
   0,
   0,
   0,
   0,
   0,
   0,
   0,
   0,
   0,
   0,
   0,
   0,
   0,
   0,
   0,
   0,
   0,
   0,
   0,
   0,
   0,
   0,
   0,
   0,
   0,
   0,
   0,
   1,
   1,
   1,
   1,
   1,
   1,
   1,
   1,
   1,
   1,
   1,
   1;

   Material {
    0.800000;0.060000;0.116000;1.000000;;
    5.000000;
    0.280000;0.280000;0.280000;;
    0.143000;0.010725;0.020735;;

    TextureFilename {
     "";
    }
   }

   Material {
    0.790400;0.780800;0.800000;1.000000;;
    5.000000;
    0.220000;0.220000;0.220000;;
    0.149188;0.147376;0.151000;;

    TextureFilename {
     "";
    }
   }
  }

  VertexDuplicationIndices {
   220;
   220;
   0,
   1,
   2,
   3,
   4,
   5,
   6,
   7,
   8,
   9,
   10,
   11,
   12,
   13,
   14,
   15,
   16,
   17,
   18,
   19,
   20,
   21,
   22,
   23,
   24,
   25,
   26,
   27,
   28,
   29,
   30,
   31,
   32,
   33,
   34,
   35,
   36,
   37,
   38,
   39,
   40,
   41,
   42,
   43,
   44,
   45,
   46,
   47,
   48,
   49,
   50,
   51,
   52,
   53,
   54,
   55,
   56,
   57,
   58,
   59,
   60,
   61,
   62,
   63,
   64,
   65,
   66,
   67,
   68,
   69,
   70,
   71,
   72,
   73,
   74,
   75,
   76,
   77,
   78,
   79,
   80,
   81,
   82,
   83,
   84,
   85,
   86,
   87,
   88,
   89,
   90,
   91,
   92,
   93,
   94,
   95,
   96,
   97,
   98,
   99,
   100,
   101,
   102,
   103,
   104,
   105,
   106,
   107,
   108,
   109,
   110,
   111,
   112,
   113,
   114,
   115,
   116,
   117,
   118,
   119,
   120,
   121,
   122,
   123,
   124,
   125,
   126,
   127,
   128,
   129,
   130,
   131,
   132,
   133,
   134,
   135,
   136,
   137,
   138,
   139,
   140,
   141,
   142,
   143,
   144,
   145,
   146,
   147,
   148,
   149,
   150,
   151,
   152,
   153,
   154,
   155,
   156,
   157,
   158,
   159,
   160,
   161,
   162,
   163,
   164,
   165,
   166,
   167,
   168,
   169,
   170,
   171,
   172,
   173,
   174,
   175,
   176,
   177,
   178,
   179,
   180,
   181,
   182,
   183,
   184,
   185,
   186,
   187,
   188,
   189,
   190,
   191,
   192,
   193,
   194,
   195,
   196,
   197,
   198,
   199,
   200,
   201,
   202,
   203,
   204,
   205,
   206,
   207,
   208,
   209,
   210,
   211,
   212,
   213,
   214,
   215,
   216,
   217,
   218,
   219;
  }

  XSkinMeshHeader {
   3;
   3;
   6;
  }

  SkinWeights {
   "NewBone2";
   24;
   0,
   1,
   2,
   3,
   4,
   5,
   6,
   7,
   102,
   103,
   104,
   105,
   106,
   107,
   108,
   109,
   118,
   119,
   120,
   121,
   169,
   170,
   171,
   172;
   1.000000,
   1.000000,
   1.000000,
   1.000000,
   1.000000,
   1.000000,
   1.000000,
   1.000000,
   1.000000,
   1.000000,
   1.000000,
   1.000000,
   1.000000,
   1.000000,
   1.000000,
   1.000000,
   1.000000,
   1.000000,
   1.000000,
   1.000000,
   1.000000,
   1.000000,
   1.000000,
   1.000000;
   1.000000,0.000000,0.000000,0.000000,0.000000,1.000000,0.000000,0.000000,0.000000,0.000000,1.000000,0.000000,0.000000,0.398417,0.000000,1.000000;;
  }

  SkinWeights {
   "NewBone3";
   80;
   8,
   9,
   10,
   11,
   12,
   13,
   14,
   15,
   16,
   17,
   18,
   19,
   76,
   77,
   78,
   79,
   80,
   81,
   82,
   83,
   84,
   85,
   86,
   87,
   88,
   89,
   90,
   91,
   92,
   93,
   94,
   95,
   96,
   97,
   98,
   99,
   100,
   101,
   110,
   111,
   116,
   117,
   147,
   148,
   149,
   151,
   152,
   154,
   155,
   156,
   157,
   159,
   160,
   161,
   162,
   163,
   164,
   165,
   166,
   167,
   168,
   198,
   199,
   200,
   202,
   203,
   205,
   206,
   207,
   208,
   210,
   211,
   212,
   213,
   214,
   215,
   216,
   217,
   218,
   219;
   0.963349,
   0.965133,
   0.965133,
   0.963349,
   0.892949,
   0.892949,
   0.504693,
   0.504693,
   0.107813,
   0.107813,
   0.004290,
   0.004290,
   0.030769,
   0.030769,
   0.057441,
   0.057441,
   0.096142,
   0.096142,
   0.160492,
   0.160492,
   0.176968,
   0.176968,
   0.200069,
   0.200069,
   0.230010,
   0.230010,
   0.263946,
   0.263946,
   0.284290,
   0.284290,
   0.302140,
   0.302140,
   0.478804,
   0.478804,
   0.705751,
   0.705751,
   0.936700,
   0.936700,
   0.965133,
   0.965133,
   0.963349,
   0.963349,
   0.030769,
   0.057441,
   0.096142,
   0.160492,
   0.176968,
   0.200069,
   0.230010,
   0.263946,
   0.284290,
   0.302140,
   0.478804,
   0.004290,
   0.965133,
   0.963349,
   0.936700,
   0.892949,
   0.504693,
   0.705751,
   0.107813,
   0.030769,
   0.057441,
   0.096142,
   0.160492,
   0.176968,
   0.200069,
   0.230010,
   0.263946,
   0.284290,
   0.302140,
   0.478804,
   0.004290,
   0.936700,
   0.963349,
   0.965133,
   0.892949,
   0.504693,
   0.705751,
   0.107813;
   1.000000,0.000000,0.000000,0.000000,0.000000,1.000000,0.000000,0.000000,0.000000,0.000000,1.000000,0.000000,0.000000,-0.034984,0.000000,1.000000;;
  }

  SkinWeights {
   "NewBone4";
   36;
   20,
   21,
   22,
   23,
   24,
   25,
   26,
   27,
   28,
   29,
   30,
   31,
   70,
   71,
   72,
   73,
   74,
   75,
   141,
   142,
   143,
   144,
   145,
   146,
   150,
   153,
   158,
   192,
   193,
   194,
   195,
   196,
   197,
   201,
   204,
   209;
   0.113981,
   0.113981,
   0.117654,
   0.117654,
   0.115827,
   0.115827,
   0.107034,
   0.107034,
   0.089344,
   0.089344,
   0.181906,
   0.181842,
   0.325153,
   0.325071,
   0.350340,
   0.350340,
   0.458899,
   0.458899,
   0.325153,
   0.181906,
   0.350340,
   0.089344,
   0.458899,
   0.107034,
   0.115827,
   0.117654,
   0.113981,
   0.325071,
   0.181842,
   0.350340,
   0.089344,
   0.458899,
   0.107034,
   0.115827,
   0.117654,
   0.113981;
   1.000000,0.000000,0.000000,0.000000,0.000000,1.000000,0.000000,0.000000,0.000000,0.000000,1.000000,0.000000,-0.186366,-0.133515,0.000000,1.000000;;
  }

  SkinWeights {
   "NewBone";
   196;
   8,
   9,
   10,
   11,
   12,
   13,
   14,
   15,
   16,
   17,
   18,
   19,
   20,
   21,
   22,
   23,
   24,
   25,
   26,
   27,
   28,
   29,
   30,
   31,
   32,
   33,
   34,
   35,
   36,
   37,
   38,
   39,
   40,
   41,
   42,
   43,
   44,
   45,
   46,
   47,
   48,
   49,
   50,
   51,
   52,
   53,
   54,
   55,
   56,
   57,
   58,
   59,
   60,
   61,
   62,
   63,
   64,
   65,
   66,
   67,
   68,
   69,
   70,
   71,
   72,
   73,
   74,
   75,
   76,
   77,
   78,
   79,
   80,
   81,
   82,
   83,
   84,
   85,
   86,
   87,
   88,
   89,
   90,
   91,
   92,
   93,
   94,
   95,
   96,
   97,
   98,
   99,
   100,
   101,
   110,
   111,
   112,
   113,
   114,
   115,
   116,
   117,
   122,
   123,
   124,
   125,
   126,
   127,
   128,
   129,
   130,
   131,
   132,
   133,
   134,
   135,
   136,
   137,
   138,
   139,
   140,
   141,
   142,
   143,
   144,
   145,
   146,
   147,
   148,
   149,
   150,
   151,
   152,
   153,
   154,
   155,
   156,
   157,
   158,
   159,
   160,
   161,
   162,
   163,
   164,
   165,
   166,
   167,
   168,
   173,
   174,
   175,
   176,
   177,
   178,
   179,
   180,
   181,
   182,
   183,
   184,
   185,
   186,
   187,
   188,
   189,
   190,
   191,
   192,
   193,
   194,
   195,
   196,
   197,
   198,
   199,
   200,
   201,
   202,
   203,
   204,
   205,
   206,
   207,
   208,
   209,
   210,
   211,
   212,
   213,
   214,
   215,
   216,
   217,
   218,
   219;
   0.036651,
   0.034867,
   0.034867,
   0.036651,
   0.107051,
   0.107051,
   0.495307,
   0.495307,
   0.892187,
   0.892187,
   0.995710,
   0.995710,
   0.886019,
   0.886019,
   0.882346,
   0.882346,
   0.884173,
   0.884173,
   0.892966,
   0.892966,
   0.910656,
   0.910656,
   0.657179,
   0.657162,
   0.872143,
   0.872092,
   0.902716,
   0.902672,
   0.992562,
   0.992552,
   0.942841,
   0.942796,
   0.891137,
   0.891070,
   0.863060,
   0.862983,
   0.860792,
   0.860714,
   0.857893,
   0.857814,
   0.853898,
   0.853818,
   0.382995,
   0.382867,
   0.405268,
   0.405139,
   0.482026,
   0.481893,
   0.537330,
   0.537197,
   0.645861,
   0.645736,
   0.829563,
   0.829475,
   0.962680,
   0.962645,
   0.959447,
   0.959421,
   0.648626,
   0.648540,
   0.467359,
   0.467267,
   0.445949,
   0.445938,
   0.649660,
   0.649660,
   0.541101,
   0.541101,
   0.969231,
   0.969231,
   0.942559,
   0.942559,
   0.903858,
   0.903858,
   0.839508,
   0.839508,
   0.823032,
   0.823032,
   0.799931,
   0.799931,
   0.769990,
   0.769990,
   0.736054,
   0.736054,
   0.715710,
   0.715710,
   0.697860,
   0.697860,
   0.521196,
   0.521196,
   0.294249,
   0.294249,
   0.063300,
   0.063300,
   0.034867,
   0.034867,
   0.853898,
   0.853818,
   0.382995,
   0.382867,
   0.036651,
   0.036651,
   0.405268,
   0.382995,
   0.853898,
   0.857893,
   0.860792,
   0.863060,
   0.482026,
   0.891137,
   0.537330,
   0.645861,
   0.829563,
   0.962680,
   0.942841,
   0.959447,
   0.992562,
   0.648626,
   0.902716,
   0.467359,
   0.872143,
   0.445949,
   0.657179,
   0.649660,
   0.910656,
   0.541101,
   0.892966,
   0.969231,
   0.942559,
   0.903858,
   0.884173,
   0.839508,
   0.823032,
   0.882346,
   0.799931,
   0.769990,
   0.736054,
   0.715710,
   0.886019,
   0.697860,
   0.521196,
   0.995710,
   0.034867,
   0.036651,
   0.063300,
   0.107051,
   0.495307,
   0.294249,
   0.892187,
   0.853818,
   0.382867,
   0.405139,
   0.857814,
   0.860714,
   0.862983,
   0.481893,
   0.891070,
   0.537197,
   0.645736,
   0.829475,
   0.962645,
   0.942796,
   0.959421,
   0.992552,
   0.648540,
   0.902672,
   0.467267,
   0.872092,
   0.445938,
   0.657162,
   0.649660,
   0.910656,
   0.541101,
   0.892966,
   0.969231,
   0.942559,
   0.903858,
   0.884173,
   0.839508,
   0.823032,
   0.882346,
   0.799931,
   0.769990,
   0.736054,
   0.715710,
   0.886019,
   0.697860,
   0.521196,
   0.995710,
   0.063300,
   0.036651,
   0.034867,
   0.107051,
   0.495307,
   0.294249,
   0.892187;
   1.000000,0.000000,0.000000,0.000000,0.000000,1.000000,0.000000,0.000000,0.000000,0.000000,1.000000,0.000000,-0.001792,-0.325691,0.000000,1.000000;;
  }

  SkinWeights {
   "NewBone1";
   32;
   30,
   31,
   32,
   33,
   34,
   35,
   36,
   37,
   64,
   65,
   66,
   67,
   68,
   69,
   70,
   71,
   135,
   136,
   137,
   138,
   139,
   140,
   141,
   142,
   186,
   187,
   188,
   189,
   190,
   191,
   192,
   193;
   0.160914,
   0.160995,
   0.127857,
   0.127908,
   0.097285,
   0.097328,
   0.007438,
   0.007448,
   0.040553,
   0.040579,
   0.351374,
   0.351461,
   0.532641,
   0.532733,
   0.228899,
   0.228990,
   0.040553,
   0.007438,
   0.351374,
   0.097285,
   0.532641,
   0.127857,
   0.228899,
   0.160914,
   0.040579,
   0.007448,
   0.351461,
   0.097328,
   0.532733,
   0.127908,
   0.228990,
   0.160995;
   1.000000,0.000000,0.000000,0.000000,0.000000,1.000000,0.000000,0.000000,0.000000,0.000000,1.000000,0.000000,-0.143401,-0.367669,0.000025,1.000000;;
  }

  SkinWeights {
   "NewBone5";
   56;
   38,
   39,
   40,
   41,
   42,
   43,
   44,
   45,
   46,
   47,
   48,
   49,
   50,
   51,
   52,
   53,
   54,
   55,
   56,
   57,
   58,
   59,
   60,
   61,
   62,
   63,
   112,
   113,
   114,
   115,
   122,
   123,
   124,
   125,
   126,
   127,
   128,
   129,
   130,
   131,
   132,
   133,
   134,
   173,
   174,
   175,
   176,
   177,
   178,
   179,
   180,
   181,
   182,
   183,
   184,
   185;
   0.057159,
   0.057204,
   0.108862,
   0.108930,
   0.136940,
   0.137017,
   0.139208,
   0.139286,
   0.142107,
   0.142186,
   0.146102,
   0.146182,
   0.617005,
   0.617133,
   0.594732,
   0.594861,
   0.517974,
   0.518107,
   0.462670,
   0.462803,
   0.354139,
   0.354264,
   0.170437,
   0.170525,
   0.037320,
   0.037355,
   0.146102,
   0.146182,
   0.617005,
   0.617133,
   0.594732,
   0.617005,
   0.146102,
   0.142107,
   0.139208,
   0.136940,
   0.517974,
   0.108862,
   0.462670,
   0.354139,
   0.170437,
   0.037320,
   0.057159,
   0.146182,
   0.617133,
   0.594861,
   0.142186,
   0.139286,
   0.137017,
   0.518107,
   0.108930,
   0.462803,
   0.354264,
   0.170525,
   0.037355,
   0.057204;
   1.000000,0.000000,0.000000,0.000000,0.000000,1.000000,0.000000,0.000000,0.000000,0.000000,1.000000,0.000000,0.174903,-0.306434,0.000043,1.000000;;
  }
 }

 Frame NewBone2 {
  

  FrameTransformMatrix {
   1.000000,0.000000,0.000000,0.000000,0.000000,1.000000,0.000000,0.000000,0.000000,0.000000,1.000000,0.000000,0.000000,-0.355146,0.000000,1.000000;;
  }
 }

 Frame NewBone3 {
  

  FrameTransformMatrix {
   1.000000,0.000000,0.000000,0.000000,0.000000,1.000000,0.000000,0.000000,0.000000,0.000000,1.000000,0.000000,0.000000,0.078255,0.000000,1.000000;;
  }

  Frame NewBone4 {
   

   FrameTransformMatrix {
    1.000000,0.000000,0.000000,0.000000,0.000000,1.000000,0.000000,0.000000,0.000000,0.000000,1.000000,0.000000,0.186366,0.098530,0.000000,1.000000;;
   }

   Frame NewBone {
    

    FrameTransformMatrix {
     1.000000,0.000000,0.000000,0.000000,0.000000,1.000000,0.000000,0.000000,0.000000,0.000000,1.000000,0.000000,-0.184574,0.192176,0.000000,1.000000;;
    }

    Frame NewBone1 {
     

     FrameTransformMatrix {
      1.000000,0.000000,0.000000,0.000000,0.000000,1.000000,0.000000,0.000000,0.000000,0.000000,1.000000,0.000000,0.141609,0.041978,-0.000025,1.000000;;
     }

     Frame NewBone5 {
      

      FrameTransformMatrix {
       1.000000,0.000000,0.000000,0.000000,0.000000,1.000000,0.000000,0.000000,0.000000,0.000000,1.000000,0.000000,-0.318304,-0.061235,-0.000017,1.000000;;
      }
     }
    }
   }
  }
 }
}

AnimationSet NewAnimation {
 

 Animation {
  

  AnimationKey {
   0;
   8;
   0;4;-1.000000,0.000000,0.000000,0.000000;;,
   20;4;-1.000000,0.000000,0.000000,0.000000;;,
   40;4;-1.000000,0.000000,0.000000,0.000000;;,
   60;4;-1.000000,0.000000,0.000000,0.000000;;,
   80;4;-1.000000,0.000000,0.000000,0.000000;;,
   100;4;-1.000000,0.000000,0.000000,0.000000;;,
   120;4;-1.000000,0.000000,0.000000,0.000000;;,
   140;4;-1.000000,0.000000,0.000000,0.000000;;;
  }

  AnimationKey {
   1;
   8;
   0;3;1.000000,1.000000,1.000000;;,
   20;3;1.000000,1.000000,1.000000;;,
   40;3;1.000000,1.000000,1.000000;;,
   60;3;1.000000,1.000000,1.000000;;,
   80;3;1.000000,1.000000,1.000000;;,
   100;3;1.000000,1.000000,1.000000;;,
   120;3;1.000000,1.000000,1.000000;;,
   140;3;1.000000,1.000000,1.000000;;;
  }

  AnimationKey {
   2;
   8;
   0;3;0.000000,-0.043271,0.000000;;,
   20;3;0.000000,-0.043271,0.000000;;,
   40;3;0.000000,-0.043271,0.000000;;,
   60;3;0.000000,-0.043271,0.000000;;,
   80;3;0.000000,-0.043271,0.000000;;,
   100;3;0.000000,-0.043271,0.000000;;,
   120;3;0.000000,-0.043271,0.000000;;,
   140;3;0.000000,-0.043271,0.000000;;;
  }
  { Root }
 }

 Animation {
  

  AnimationKey {
   0;
   9;
   0;4;-1.000000,0.000000,0.000000,0.000000;;,
   20;4;-1.000000,0.000000,0.000000,0.000000;;,
   40;4;-1.000000,0.000000,0.000000,0.000000;;,
   60;4;-1.000000,0.000000,0.000000,0.000000;;,
   80;4;-1.000000,0.000000,0.000000,0.000000;;,
   100;4;-1.000000,0.000000,0.000000,0.000000;;,
   120;4;-1.000000,0.000000,0.000000,0.000000;;,
   140;4;-1.000000,0.000000,0.000000,0.000000;;,
   160;4;-1.000000,0.000000,0.000000,0.000000;;;
  }

  AnimationKey {
   1;
   9;
   0;3;1.000000,0.306389,1.000000;;,
   20;3;1.000000,1.000000,1.000000;;,
   40;3;1.000000,1.279118,1.000000;;,
   60;3;1.000000,1.000000,1.000000;;,
   80;3;1.000000,0.306389,1.000000;;,
   100;3;1.000000,1.000000,1.000000;;,
   120;3;1.000000,1.279118,1.000000;;,
   140;3;1.000000,1.000000,1.000000;;,
   160;3;1.000000,0.306389,1.000000;;;
  }

  AnimationKey {
   2;
   9;
   0;3;0.000000,-0.355146,0.000000;;,
   20;3;0.000000,-0.355146,0.000000;;,
   40;3;0.000000,-0.355146,0.000000;;,
   60;3;0.000000,-0.355146,0.000000;;,
   80;3;0.000000,-0.355146,0.000000;;,
   100;3;0.000000,-0.355146,0.000000;;,
   120;3;0.000000,-0.355146,0.000000;;,
   140;3;0.000000,-0.355146,0.000000;;,
   160;3;0.000000,-0.355146,0.000000;;;
  }
  { NewBone2 }
 }

 Animation {
  

  AnimationKey {
   0;
   9;
   0;4;-1.000000,0.000000,0.000000,0.000000;;,
   20;4;-1.000000,0.000000,0.000000,0.000000;;,
   40;4;-1.000000,0.000000,0.000000,0.000000;;,
   60;4;-1.000000,0.000000,0.000000,0.000000;;,
   80;4;-1.000000,0.000000,0.000000,0.000000;;,
   100;4;-1.000000,0.000000,0.000000,0.000000;;,
   120;4;-1.000000,0.000000,0.000000,0.000000;;,
   140;4;-1.000000,0.000000,0.000000,0.000000;;,
   160;4;-1.000000,0.000000,0.000000,0.000000;;;
  }

  AnimationKey {
   1;
   9;
   0;3;1.000000,0.447231,1.000000;;,
   20;3;1.000000,1.000000,1.000000;;,
   40;3;1.000000,1.275123,1.000000;;,
   60;3;1.000000,1.000000,1.000000;;,
   80;3;1.000000,0.447231,1.000000;;,
   100;3;1.000000,1.000000,1.000000;;,
   120;3;1.000000,1.275123,1.000000;;,
   140;3;1.000000,1.000000,1.000000;;,
   160;3;1.000000,0.447231,1.000000;;;
  }

  AnimationKey {
   2;
   9;
   0;3;0.000080,-0.169582,-0.000941;;,
   20;3;0.000000,0.078255,0.000000;;,
   40;3;0.000000,0.248114,0.000000;;,
   60;3;0.000000,0.078255,0.000000;;,
   80;3;0.000080,-0.169582,-0.000941;;,
   100;3;0.000000,0.078255,0.000000;;,
   120;3;0.000000,0.248114,0.000000;;,
   140;3;0.000000,0.078255,0.000000;;,
   160;3;0.000080,-0.169582,-0.000941;;;
  }
  { NewBone3 }
 }

 Animation {
  

  AnimationKey {
   0;
   9;
   0;4;-0.978129,0.207998,0.000000,0.000000;;,
   20;4;-1.000000,0.000000,0.000000,0.000000;;,
   40;4;-0.963591,-0.267382,0.000000,0.000000;;,
   60;4;-1.000000,0.000000,0.000000,0.000000;;,
   80;4;-0.978129,0.207998,0.000000,0.000000;;,
   100;4;-1.000000,0.000000,0.000000,0.000000;;,
   120;4;-0.963591,-0.267382,0.000000,0.000000;;,
   140;4;-1.000000,0.000000,0.000000,0.000000;;,
   160;4;-0.978129,0.207998,0.000000,0.000000;;;
  }

  AnimationKey {
   1;
   9;
   0;3;1.000000,1.000000,1.000000;;,
   20;3;1.000000,1.000000,1.000000;;,
   40;3;1.000000,1.000000,1.000000;;,
   60;3;1.000000,1.000000,1.000000;;,
   80;3;1.000000,1.000000,1.000000;;,
   100;3;1.000000,1.000000,1.000000;;,
   120;3;1.000000,1.000000,1.000000;;,
   140;3;1.000000,1.000000,1.000000;;,
   160;3;1.000000,1.000000,1.000000;;;
  }

  AnimationKey {
   2;
   9;
   0;3;0.186366,0.098530,0.000000;;,
   20;3;0.186366,0.098530,0.000000;;,
   40;3;0.186366,0.098530,0.000000;;,
   60;3;0.186366,0.098530,0.000000;;,
   80;3;0.186366,0.098530,0.000000;;,
   100;3;0.186366,0.098530,0.000000;;,
   120;3;0.186366,0.098530,0.000000;;,
   140;3;0.186366,0.098530,0.000000;;,
   160;3;0.186366,0.098530,0.000000;;;
  }
  { NewBone4 }
 }

 Animation {
  

  AnimationKey {
   0;
   8;
   0;4;-1.000000,0.000000,0.000000,0.000000;;,
   20;4;-1.000000,0.000000,0.000000,0.000000;;,
   40;4;-1.000000,0.000000,0.000000,0.000000;;,
   60;4;-1.000000,0.000000,0.000000,0.000000;;,
   80;4;-1.000000,0.000000,0.000000,0.000000;;,
   100;4;-1.000000,0.000000,0.000000,0.000000;;,
   120;4;-1.000000,0.000000,0.000000,0.000000;;,
   140;4;-1.000000,0.000000,0.000000,0.000000;;;
  }

  AnimationKey {
   1;
   8;
   0;3;1.000000,1.000000,1.000000;;,
   20;3;1.000000,1.000000,1.000000;;,
   40;3;1.000000,1.000000,1.000000;;,
   60;3;1.000000,1.000000,1.000000;;,
   80;3;1.000000,1.000000,1.000000;;,
   100;3;1.000000,1.000000,1.000000;;,
   120;3;1.000000,1.000000,1.000000;;,
   140;3;1.000000,1.000000,1.000000;;;
  }

  AnimationKey {
   2;
   8;
   0;3;-0.184574,0.192176,0.000000;;,
   20;3;-0.184574,0.192176,0.000000;;,
   40;3;-0.184574,0.192176,0.000000;;,
   60;3;-0.184574,0.192176,0.000000;;,
   80;3;-0.184574,0.192176,0.000000;;,
   100;3;-0.184574,0.192176,0.000000;;,
   120;3;-0.184574,0.192176,0.000000;;,
   140;3;-0.184574,0.192176,0.000000;;;
  }
  { NewBone }
 }

 Animation {
  

  AnimationKey {
   0;
   8;
   0;4;-1.000000,0.000000,0.000000,0.000000;;,
   20;4;-1.000000,0.000000,0.000000,0.000000;;,
   40;4;-1.000000,0.000000,0.000000,0.000000;;,
   60;4;-1.000000,0.000000,0.000000,0.000000;;,
   80;4;-1.000000,0.000000,0.000000,0.000000;;,
   100;4;-1.000000,0.000000,0.000000,0.000000;;,
   120;4;-1.000000,0.000000,0.000000,0.000000;;,
   140;4;-1.000000,0.000000,0.000000,0.000000;;;
  }

  AnimationKey {
   1;
   8;
   0;3;1.000000,1.000000,1.000000;;,
   20;3;1.000000,1.000000,1.000000;;,
   40;3;1.000000,1.000000,1.000000;;,
   60;3;1.000000,1.000000,1.000000;;,
   80;3;1.000000,1.000000,1.000000;;,
   100;3;1.000000,1.000000,1.000000;;,
   120;3;1.000000,1.000000,1.000000;;,
   140;3;1.000000,1.000000,1.000000;;;
  }

  AnimationKey {
   2;
   8;
   0;3;0.141609,0.041978,-0.000025;;,
   20;3;0.141609,0.041978,-0.000025;;,
   40;3;0.141609,0.041978,-0.000025;;,
   60;3;0.141609,0.041978,-0.000025;;,
   80;3;0.141609,0.041978,-0.000025;;,
   100;3;0.141609,0.041978,-0.000025;;,
   120;3;0.141609,0.041978,-0.000025;;,
   140;3;0.141609,0.041978,-0.000025;;;
  }
  { NewBone1 }
 }

 Animation {
  

  AnimationKey {
   0;
   8;
   0;4;-1.000000,0.000000,0.000000,0.000000;;,
   20;4;-1.000000,0.000000,0.000000,0.000000;;,
   40;4;-1.000000,0.000000,0.000000,0.000000;;,
   60;4;-1.000000,0.000000,0.000000,0.000000;;,
   80;4;-1.000000,0.000000,0.000000,0.000000;;,
   100;4;-1.000000,0.000000,0.000000,0.000000;;,
   120;4;-1.000000,0.000000,0.000000,0.000000;;,
   140;4;-1.000000,0.000000,0.000000,0.000000;;;
  }

  AnimationKey {
   1;
   8;
   0;3;1.000000,1.000000,1.000000;;,
   20;3;1.000000,1.000000,1.000000;;,
   40;3;1.000000,1.000000,1.000000;;,
   60;3;1.000000,1.000000,1.000000;;,
   80;3;1.000000,1.000000,1.000000;;,
   100;3;1.000000,1.000000,1.000000;;,
   120;3;1.000000,1.000000,1.000000;;,
   140;3;1.000000,1.000000,1.000000;;;
  }

  AnimationKey {
   2;
   8;
   0;3;-0.318304,-0.061235,-0.000017;;,
   20;3;-0.318304,-0.061235,-0.000017;;,
   40;3;-0.318304,-0.061235,-0.000017;;,
   60;3;-0.318304,-0.061235,-0.000017;;,
   80;3;-0.318304,-0.061235,-0.000017;;,
   100;3;-0.318304,-0.061235,-0.000017;;,
   120;3;-0.318304,-0.061235,-0.000017;;,
   140;3;-0.318304,-0.061235,-0.000017;;;
  }
  { NewBone5 }
 }
}