xof 0302txt 0064
template Header {
 <3D82AB43-62DA-11cf-AB39-0020AF71E433>
 WORD major;
 WORD minor;
 DWORD flags;
}

template Vector {
 <3D82AB5E-62DA-11cf-AB39-0020AF71E433>
 FLOAT x;
 FLOAT y;
 FLOAT z;
}

template Coords2d {
 <F6F23F44-7686-11cf-8F52-0040333594A3>
 FLOAT u;
 FLOAT v;
}

template Matrix4x4 {
 <F6F23F45-7686-11cf-8F52-0040333594A3>
 array FLOAT matrix[16];
}

template ColorRGBA {
 <35FF44E0-6C7C-11cf-8F52-0040333594A3>
 FLOAT red;
 FLOAT green;
 FLOAT blue;
 FLOAT alpha;
}

template ColorRGB {
 <D3E16E81-7835-11cf-8F52-0040333594A3>
 FLOAT red;
 FLOAT green;
 FLOAT blue;
}

template IndexedColor {
 <1630B820-7842-11cf-8F52-0040333594A3>
 DWORD index;
 ColorRGBA indexColor;
}

template Boolean {
 <4885AE61-78E8-11cf-8F52-0040333594A3>
 WORD truefalse;
}

template Boolean2d {
 <4885AE63-78E8-11cf-8F52-0040333594A3>
 Boolean u;
 Boolean v;
}

template MaterialWrap {
 <4885AE60-78E8-11cf-8F52-0040333594A3>
 Boolean u;
 Boolean v;
}

template TextureFilename {
 <A42790E1-7810-11cf-8F52-0040333594A3>
 STRING filename;
}

template Material {
 <3D82AB4D-62DA-11cf-AB39-0020AF71E433>
 ColorRGBA faceColor;
 FLOAT power;
 ColorRGB specularColor;
 ColorRGB emissiveColor;
 [...]
}

template MeshFace {
 <3D82AB5F-62DA-11cf-AB39-0020AF71E433>
 DWORD nFaceVertexIndices;
 array DWORD faceVertexIndices[nFaceVertexIndices];
}

template MeshFaceWraps {
 <4885AE62-78E8-11cf-8F52-0040333594A3>
 DWORD nFaceWrapValues;
 Boolean2d faceWrapValues;
}

template MeshTextureCoords {
 <F6F23F40-7686-11cf-8F52-0040333594A3>
 DWORD nTextureCoords;
 array Coords2d textureCoords[nTextureCoords];
}

template MeshMaterialList {
 <F6F23F42-7686-11cf-8F52-0040333594A3>
 DWORD nMaterials;
 DWORD nFaceIndexes;
 array DWORD faceIndexes[nFaceIndexes];
 [Material]
}

template MeshNormals {
 <F6F23F43-7686-11cf-8F52-0040333594A3>
 DWORD nNormals;
 array Vector normals[nNormals];
 DWORD nFaceNormals;
 array MeshFace faceNormals[nFaceNormals];
}

template MeshVertexColors {
 <1630B821-7842-11cf-8F52-0040333594A3>
 DWORD nVertexColors;
 array IndexedColor vertexColors[nVertexColors];
}

template Mesh {
 <3D82AB44-62DA-11cf-AB39-0020AF71E433>
 DWORD nVertices;
 array Vector vertices[nVertices];
 DWORD nFaces;
 array MeshFace faces[nFaces];
 [...]
}

Header{
1;
0;
1;
}

Mesh {
 21;
 0.00000;0.99925;2.05125;,
 0.00000;-0.00075;0.05125;,
 -0.30902;0.95030;2.05125;,
 -0.58778;0.80826;2.05125;,
 -0.80902;0.58703;2.05125;,
 -0.95106;0.30826;2.05125;,
 -1.00000;-0.00075;2.05125;,
 -0.95106;-0.30977;2.05125;,
 -0.80902;-0.58854;2.05125;,
 -0.58778;-0.80977;2.05125;,
 -0.30902;-0.95181;2.05125;,
 0.00000;-1.00075;2.05125;,
 0.30902;-0.95181;2.05125;,
 0.58779;-0.80977;2.05125;,
 0.80902;-0.58854;2.05125;,
 0.95106;-0.30977;2.05125;,
 1.00000;-0.00075;2.05125;,
 0.95106;0.30826;2.05125;,
 0.80902;0.58703;2.05125;,
 0.58778;0.80826;2.05125;,
 0.30902;0.95030;2.05125;;
 
 40;
 3;0,1,2;,
 3;2,1,3;,
 3;3,1,4;,
 3;4,1,5;,
 3;5,1,6;,
 3;6,1,7;,
 3;7,1,8;,
 3;8,1,9;,
 3;9,1,10;,
 3;10,1,11;,
 3;11,1,12;,
 3;12,1,13;,
 3;13,1,14;,
 3;14,1,15;,
 3;15,1,16;,
 3;16,1,17;,
 3;17,1,18;,
 3;18,1,19;,
 3;19,1,20;,
 3;20,1,0;,
 3;2,1,0;,
 3;3,1,2;,
 3;4,1,3;,
 3;5,1,4;,
 3;6,1,5;,
 3;7,1,6;,
 3;8,1,7;,
 3;9,1,8;,
 3;10,1,9;,
 3;11,1,10;,
 3;12,1,11;,
 3;13,1,12;,
 3;14,1,13;,
 3;15,1,14;,
 3;16,1,15;,
 3;17,1,16;,
 3;18,1,17;,
 3;19,1,18;,
 3;20,1,19;,
 3;0,1,20;;
 
 MeshMaterialList {
  1;
  40;
  0,
  0,
  0,
  0,
  0,
  0,
  0,
  0,
  0,
  0,
  0,
  0,
  0,
  0,
  0,
  0,
  0,
  0,
  0,
  0,
  0,
  0,
  0,
  0,
  0,
  0,
  0,
  0,
  0,
  0,
  0,
  0,
  0,
  0,
  0,
  0,
  0,
  0,
  0,
  0;;
  Material {
   1.000000;1.000000;1.000000;1.000000;;
   5.000000;
   0.280000;0.280000;0.280000;;
   0.430000;0.430000;0.430000;;
   TextureFilename {
    "Data\\Graphics\\Effect\\Absorption - コピー - コピー.png";
   }
  }
 }
 MeshNormals {
  45;
  0.000000;0.894427;-0.447214;,
  -0.276393;0.850651;-0.447214;,
  -0.525732;0.723606;-0.447214;,
  -0.723606;0.525732;-0.447214;,
  -0.850651;0.276393;-0.447214;,
  -0.894427;0.000000;-0.447214;,
  -0.850651;-0.276393;-0.447214;,
  -0.723606;-0.525732;-0.447214;,
  -0.525731;-0.723607;-0.447214;,
  -0.276393;-0.850651;-0.447214;,
  0.000000;-0.894427;-0.447214;,
  0.276394;-0.850650;-0.447214;,
  0.525731;-0.723607;-0.447214;,
  0.723606;-0.525732;-0.447214;,
  0.850651;-0.276393;-0.447214;,
  0.894427;0.000001;-0.447214;,
  0.850650;0.276394;-0.447214;,
  0.723606;0.525732;-0.447214;,
  0.525731;0.723607;-0.447214;,
  0.276392;0.850651;-0.447214;,
  -0.909693;0.348215;-0.226284;,
  0.155709;-0.983104;-0.096233;,
  0.720117;0.684873;-0.111264;,
  0.276393;-0.850651;0.447214;,
  -0.000000;-0.894427;0.447214;,
  0.525732;-0.723606;0.447214;,
  0.723606;-0.525732;0.447214;,
  0.850651;-0.276393;0.447214;,
  0.879689;-0.139330;0.454681;,
  0.894427;-0.000000;0.447214;,
  0.850651;0.276393;0.447214;,
  0.723606;0.525732;0.447214;,
  0.525731;0.723607;0.447214;,
  0.276393;0.850651;0.447214;,
  0.000000;0.894427;0.447214;,
  -0.276394;0.850650;0.447214;,
  -0.404349;0.793579;0.454681;,
  -0.525731;0.723607;0.447214;,
  -0.723606;0.525732;0.447214;,
  -0.850651;0.276393;0.447214;,
  -0.894427;-0.000001;0.447214;,
  -0.850650;-0.276394;0.447214;,
  -0.723606;-0.525732;0.447214;,
  -0.525731;-0.723607;0.447214;,
  -0.276392;-0.850651;0.447214;;
  40;
  3;0,20,1;,
  3;1,20,2;,
  3;2,20,3;,
  3;3,20,4;,
  3;4,20,5;,
  3;5,20,6;,
  3;6,20,7;,
  3;7,21,8;,
  3;8,21,9;,
  3;9,21,10;,
  3;10,21,11;,
  3;11,21,12;,
  3;12,21,13;,
  3;13,21,14;,
  3;14,22,15;,
  3;15,22,16;,
  3;16,22,17;,
  3;17,22,18;,
  3;18,22,19;,
  3;19,22,0;,
  3;23,21,24;,
  3;25,21,23;,
  3;26,21,25;,
  3;27,28,26;,
  3;29,28,27;,
  3;30,28,29;,
  3;31,22,30;,
  3;32,22,31;,
  3;33,22,32;,
  3;34,22,33;,
  3;35,36,34;,
  3;37,36,35;,
  3;38,36,37;,
  3;39,20,38;,
  3;40,20,39;,
  3;41,20,40;,
  3;42,42,41;,
  3;43,42,42;,
  3;44,21,43;,
  3;24,21,44;;
 }
 MeshTextureCoords {
  21;
  0.459290;1.828950;,
  0.459290;-0.713730;,
  0.550940;1.828950;,
  0.633620;1.828950;,
  0.699230;1.828950;,
  0.741360;1.828950;,
  0.755880;1.828950;,
  0.741360;1.828950;,
  0.699230;1.828950;,
  0.633620;1.828950;,
  0.550940;1.828950;,
  0.459290;1.828950;,
  0.367640;1.828950;,
  0.284960;1.828950;,
  0.219350;1.828950;,
  0.177220;1.828950;,
  0.162710;1.828950;,
  0.177220;1.828950;,
  0.219350;1.828950;,
  0.284960;1.828950;,
  0.367640;1.828950;;
 }
 MeshVertexColors {
  21;
  0;1.000000;1.000000;1.000000;1.000000;,
  1;1.000000;1.000000;1.000000;1.000000;,
  2;1.000000;1.000000;1.000000;1.000000;,
  3;1.000000;1.000000;1.000000;1.000000;,
  4;1.000000;1.000000;1.000000;1.000000;,
  5;1.000000;1.000000;1.000000;1.000000;,
  6;1.000000;1.000000;1.000000;1.000000;,
  7;1.000000;1.000000;1.000000;1.000000;,
  8;1.000000;1.000000;1.000000;1.000000;,
  9;1.000000;1.000000;1.000000;1.000000;,
  10;1.000000;1.000000;1.000000;1.000000;,
  11;1.000000;1.000000;1.000000;1.000000;,
  12;1.000000;1.000000;1.000000;1.000000;,
  13;1.000000;1.000000;1.000000;1.000000;,
  14;1.000000;1.000000;1.000000;1.000000;,
  15;1.000000;1.000000;1.000000;1.000000;,
  16;1.000000;1.000000;1.000000;1.000000;,
  17;1.000000;1.000000;1.000000;1.000000;,
  18;1.000000;1.000000;1.000000;1.000000;,
  19;1.000000;1.000000;1.000000;1.000000;,
  20;1.000000;1.000000;1.000000;1.000000;;
 }
}
