xof 0302txt 0064
template Header {
 <3D82AB43-62DA-11cf-AB39-0020AF71E433>
 WORD major;
 WORD minor;
 DWORD flags;
}

template Vector {
 <3D82AB5E-62DA-11cf-AB39-0020AF71E433>
 FLOAT x;
 FLOAT y;
 FLOAT z;
}

template Coords2d {
 <F6F23F44-7686-11cf-8F52-0040333594A3>
 FLOAT u;
 FLOAT v;
}

template Matrix4x4 {
 <F6F23F45-7686-11cf-8F52-0040333594A3>
 array FLOAT matrix[16];
}

template ColorRGBA {
 <35FF44E0-6C7C-11cf-8F52-0040333594A3>
 FLOAT red;
 FLOAT green;
 FLOAT blue;
 FLOAT alpha;
}

template ColorRGB {
 <D3E16E81-7835-11cf-8F52-0040333594A3>
 FLOAT red;
 FLOAT green;
 FLOAT blue;
}

template IndexedColor {
 <1630B820-7842-11cf-8F52-0040333594A3>
 DWORD index;
 ColorRGBA indexColor;
}

template Boolean {
 <4885AE61-78E8-11cf-8F52-0040333594A3>
 WORD truefalse;
}

template Boolean2d {
 <4885AE63-78E8-11cf-8F52-0040333594A3>
 Boolean u;
 Boolean v;
}

template MaterialWrap {
 <4885AE60-78E8-11cf-8F52-0040333594A3>
 Boolean u;
 Boolean v;
}

template TextureFilename {
 <A42790E1-7810-11cf-8F52-0040333594A3>
 STRING filename;
}

template Material {
 <3D82AB4D-62DA-11cf-AB39-0020AF71E433>
 ColorRGBA faceColor;
 FLOAT power;
 ColorRGB specularColor;
 ColorRGB emissiveColor;
 [...]
}

template MeshFace {
 <3D82AB5F-62DA-11cf-AB39-0020AF71E433>
 DWORD nFaceVertexIndices;
 array DWORD faceVertexIndices[nFaceVertexIndices];
}

template MeshFaceWraps {
 <4885AE62-78E8-11cf-8F52-0040333594A3>
 DWORD nFaceWrapValues;
 Boolean2d faceWrapValues;
}

template MeshTextureCoords {
 <F6F23F40-7686-11cf-8F52-0040333594A3>
 DWORD nTextureCoords;
 array Coords2d textureCoords[nTextureCoords];
}

template MeshMaterialList {
 <F6F23F42-7686-11cf-8F52-0040333594A3>
 DWORD nMaterials;
 DWORD nFaceIndexes;
 array DWORD faceIndexes[nFaceIndexes];
 [Material]
}

template MeshNormals {
 <F6F23F43-7686-11cf-8F52-0040333594A3>
 DWORD nNormals;
 array Vector normals[nNormals];
 DWORD nFaceNormals;
 array MeshFace faceNormals[nFaceNormals];
}

template MeshVertexColors {
 <1630B821-7842-11cf-8F52-0040333594A3>
 DWORD nVertexColors;
 array IndexedColor vertexColors[nVertexColors];
}

template Mesh {
 <3D82AB44-62DA-11cf-AB39-0020AF71E433>
 DWORD nVertices;
 array Vector vertices[nVertices];
 DWORD nFaces;
 array MeshFace faces[nFaces];
 [...]
}

Header{
1;
0;
1;
}

Mesh {
 456;
 -19.01595;84.09732;-13.31971;,
 -14.89994;84.09732;-12.66779;,
 -19.01595;85.14567;0.00000;,
 -11.18683;84.09732;-10.77587;,
 -19.01595;85.14567;0.00000;,
 -8.24009;84.09732;-7.82913;,
 -19.01595;85.14567;0.00000;,
 -6.34816;84.09732;-4.11601;,
 -19.01595;85.14567;0.00000;,
 -5.69625;84.09732;0.00000;,
 -19.01595;85.14567;0.00000;,
 -6.34816;84.09732;4.11601;,
 -19.01595;85.14567;0.00000;,
 -8.24009;84.09732;7.82913;,
 -19.01595;85.14567;0.00000;,
 -11.18683;84.09732;10.77587;,
 -19.01595;85.14567;0.00000;,
 -14.89994;84.09732;12.66779;,
 -19.01595;85.14567;0.00000;,
 -19.01595;84.09732;13.31971;,
 -19.01595;85.14567;0.00000;,
 -23.13196;84.09732;12.66779;,
 -19.01595;85.14567;0.00000;,
 -26.84508;84.09732;10.77587;,
 -19.01595;85.14567;0.00000;,
 -29.79182;84.09732;7.82913;,
 -19.01595;85.14567;0.00000;,
 -31.68376;84.09732;4.11601;,
 -19.01595;85.14567;0.00000;,
 -32.33567;84.09732;0.00000;,
 -19.01595;85.14567;0.00000;,
 -31.68376;84.09732;-4.11601;,
 -19.01595;85.14567;0.00000;,
 -29.79182;84.09732;-7.82913;,
 -19.01595;85.14567;0.00000;,
 -26.84508;84.09732;-10.77587;,
 -19.01595;85.14567;0.00000;,
 -23.13196;84.09732;-12.66779;,
 -19.01595;85.14567;0.00000;,
 -19.01595;84.09732;-13.31971;,
 -19.01595;85.14567;0.00000;,
 -19.01595;80.97828;-26.31145;,
 -10.88527;80.97828;-25.02367;,
 -3.55049;80.97828;-21.28642;,
 2.27045;80.97828;-15.46547;,
 6.00772;80.97828;-8.13068;,
 7.29550;80.97828;0.00000;,
 6.00772;80.97828;8.13068;,
 2.27045;80.97828;15.46547;,
 -3.55049;80.97828;21.28642;,
 -10.88527;80.97828;25.02367;,
 -19.01595;80.97828;26.31145;,
 -27.14664;80.97828;25.02367;,
 -34.48143;80.97828;21.28642;,
 -40.30236;80.97828;15.46547;,
 -44.03964;80.97828;8.13068;,
 -45.32743;80.97828;0.00000;,
 -44.03964;80.97828;-8.13068;,
 -40.30236;80.97828;-15.46547;,
 -34.48143;80.97828;-21.28642;,
 -27.14664;80.97828;-25.02367;,
 -19.01595;80.97828;-26.31145;,
 -19.01595;75.86528;-38.65530;,
 -7.07081;75.86528;-36.76336;,
 3.70506;75.86528;-31.27279;,
 12.25684;75.86528;-22.72101;,
 17.74741;75.86528;-11.94515;,
 19.63935;75.86528;0.00000;,
 17.74741;75.86528;11.94515;,
 12.25684;75.86528;22.72101;,
 3.70506;75.86528;31.27279;,
 -7.07081;75.86528;36.76336;,
 -19.01595;75.86528;38.65530;,
 -30.96111;75.86528;36.76336;,
 -41.73698;75.86528;31.27279;,
 -50.28877;75.86528;22.72101;,
 -55.77932;75.86528;11.94515;,
 -57.67126;75.86528;0.00000;,
 -55.77932;75.86528;-11.94515;,
 -50.28877;75.86528;-22.72101;,
 -41.73698;75.86528;-31.27279;,
 -30.96111;75.86528;-36.76336;,
 -19.01595;75.86528;-38.65530;,
 -19.01595;68.88425;-50.04733;,
 -3.55049;68.88425;-47.59782;,
 10.40113;68.88425;-40.48913;,
 21.47319;68.88425;-29.41708;,
 28.58186;68.88425;-15.46547;,
 31.03138;68.88425;0.00000;,
 28.58186;68.88425;15.46547;,
 21.47319;68.88425;29.41708;,
 10.40113;68.88425;40.48913;,
 -3.55049;68.88425;47.59782;,
 -19.01595;68.88425;50.04733;,
 -34.48143;68.88425;47.59782;,
 -48.43304;68.88425;40.48913;,
 -59.50510;68.88425;29.41708;,
 -66.61381;68.88425;15.46547;,
 -69.06334;68.88425;0.00000;,
 -66.61381;68.88425;-15.46547;,
 -59.50510;68.88425;-29.41708;,
 -48.43304;68.88425;-40.48913;,
 -34.48143;68.88425;-47.59782;,
 -19.01595;68.88425;-50.04733;,
 -19.01595;60.20706;-60.20706;,
 -0.41097;60.20706;-57.26031;,
 16.37288;60.20706;-48.70851;,
 29.69256;60.20706;-35.38883;,
 38.24435;60.20706;-18.60500;,
 41.19107;60.20706;0.00000;,
 38.24435;60.20706;18.60500;,
 29.69256;60.20706;35.38883;,
 16.37288;60.20706;48.70851;,
 -0.41097;60.20706;57.26031;,
 -19.01595;60.20706;60.20706;,
 -37.62095;60.20706;57.26031;,
 -54.40479;60.20706;48.70851;,
 -67.72450;60.20706;35.38883;,
 -76.27633;60.20706;18.60500;,
 -79.22310;60.20706;0.00000;,
 -76.27633;60.20706;-18.60500;,
 -67.72450;60.20706;-35.38883;,
 -54.40479;60.20706;-48.70851;,
 -37.62095;60.20706;-57.26031;,
 -19.01595;60.20706;-60.20706;,
 -19.01595;50.04733;-68.88425;,
 2.27045;50.04733;-65.51283;,
 21.47319;50.04733;-55.72850;,
 36.71253;50.04733;-40.48913;,
 46.49686;50.04733;-21.28642;,
 49.86826;50.04733;0.00000;,
 46.49686;50.04733;21.28642;,
 36.71253;50.04733;40.48913;,
 21.47319;50.04733;55.72850;,
 2.27045;50.04733;65.51283;,
 -19.01595;50.04733;68.88425;,
 -40.30236;50.04733;65.51283;,
 -59.50510;50.04733;55.72850;,
 -74.74452;50.04733;40.48913;,
 -84.52881;50.04733;21.28642;,
 -87.90023;50.04733;0.00000;,
 -84.52881;50.04733;-21.28642;,
 -74.74452;50.04733;-40.48913;,
 -59.50510;50.04733;-55.72850;,
 -40.30236;50.04733;-65.51283;,
 -19.01595;50.04733;-68.88425;,
 -19.01595;38.65530;-75.86528;,
 4.42773;38.65530;-72.15218;,
 2.27045;50.04733;-65.51283;,
 -19.01595;50.04733;-68.88425;,
 25.57655;38.65530;-61.37634;,
 21.47319;50.04733;-55.72850;,
 42.36036;38.65530;-44.59252;,
 36.71253;50.04733;-40.48913;,
 42.36036;38.65530;-44.59252;,
 53.13618;38.65530;-23.44368;,
 56.84928;38.65530;0.00000;,
 53.13618;38.65530;23.44368;,
 42.36036;38.65530;44.59252;,
 25.57655;38.65530;61.37634;,
 4.42773;38.65530;72.15218;,
 -19.01595;38.65530;75.86528;,
 -42.45966;38.65530;72.15218;,
 -63.60850;38.65530;61.37634;,
 -80.39233;38.65530;44.59252;,
 -91.16816;38.65530;23.44368;,
 -94.88126;38.65530;0.00000;,
 -91.16816;38.65530;-23.44368;,
 -80.39233;38.65530;-44.59252;,
 -63.60850;38.65530;-61.37634;,
 -42.45966;38.65530;-72.15218;,
 -19.01595;38.65530;-75.86528;,
 -19.01595;26.31145;-80.97828;,
 6.00772;26.31145;-77.01488;,
 4.42773;38.65530;-72.15218;,
 -19.01595;38.65530;-75.86528;,
 6.00772;26.31145;-77.01488;,
 28.58186;26.31145;-65.51283;,
 25.57655;38.65530;-61.37634;,
 4.42773;38.65530;-72.15218;,
 28.58186;26.31145;-65.51283;,
 46.49686;26.31145;-47.59782;,
 42.36036;38.65530;-44.59252;,
 25.57655;38.65530;-61.37634;,
 46.49686;26.31145;-47.59782;,
 57.99891;26.31145;-25.02367;,
 61.96231;26.31145;0.00000;,
 57.99891;26.31145;25.02367;,
 46.49686;26.31145;47.59782;,
 28.58186;26.31145;65.51283;,
 6.00772;26.31145;77.01488;,
 -19.01595;26.31145;80.97828;,
 -44.03964;26.31145;77.01488;,
 -66.61381;26.31145;65.51283;,
 -84.52881;26.31145;47.59782;,
 -96.03082;26.31145;25.02367;,
 -99.99420;26.31145;0.00000;,
 -96.03082;26.31145;-25.02367;,
 -84.52881;26.31145;-47.59782;,
 -66.61381;26.31145;-65.51283;,
 -44.03964;26.31145;-77.01488;,
 -19.01595;26.31145;-80.97828;,
 -19.01595;13.31971;-84.09732;,
 6.97154;13.31971;-79.98126;,
 6.00772;26.31145;-77.01488;,
 -19.01595;26.31145;-80.97828;,
 30.41524;13.31971;-68.03611;,
 28.58186;26.31145;-65.51283;,
 49.02014;13.31971;-49.43119;,
 60.96528;13.31971;-25.98749;,
 65.08134;13.31971;0.00000;,
 60.96528;13.31971;25.98749;,
 49.02014;13.31971;49.43119;,
 30.41524;13.31971;68.03611;,
 6.97154;13.31971;79.98126;,
 -19.01595;13.31971;84.09732;,
 -45.00345;13.31971;79.98126;,
 -68.44717;13.31971;68.03611;,
 -87.05211;13.31971;49.43119;,
 -98.99719;13.31971;25.98749;,
 -103.11326;13.31971;0.00000;,
 -98.99719;13.31971;-25.98749;,
 -87.05211;13.31971;-49.43119;,
 -68.44717;13.31971;-68.03611;,
 -45.00345;13.31971;-79.98126;,
 -19.01595;13.31971;-84.09732;,
 -19.01595;0.00000;-85.14567;,
 7.29550;0.00000;-80.97828;,
 31.03138;0.00000;-68.88425;,
 49.86826;0.00000;-50.04733;,
 61.96231;0.00000;-26.31145;,
 66.12969;0.00000;0.00000;,
 61.96231;0.00000;26.31145;,
 49.86826;0.00000;50.04733;,
 31.03138;0.00000;68.88425;,
 7.29550;0.00000;80.97828;,
 -19.01595;0.00000;85.14567;,
 -45.32743;0.00000;80.97828;,
 -69.06334;0.00000;68.88425;,
 -87.90023;0.00000;50.04733;,
 -99.99420;0.00000;26.31145;,
 -104.16156;0.00000;0.00000;,
 -99.99420;0.00000;-26.31145;,
 -87.90023;0.00000;-50.04733;,
 -69.06334;0.00000;-68.88425;,
 -45.32743;0.00000;-80.97828;,
 -19.01595;0.00000;-85.14567;,
 -19.01595;-13.31971;-84.09732;,
 6.97154;-13.31971;-79.98126;,
 30.41524;-13.31971;-68.03611;,
 49.02014;-13.31971;-49.43119;,
 60.96528;-13.31971;-25.98749;,
 65.08134;-13.31971;-0.00000;,
 60.96528;-13.31971;25.98749;,
 49.02014;-13.31971;49.43119;,
 30.41524;-13.31971;68.03611;,
 6.97154;-13.31971;79.98126;,
 -19.01595;-13.31971;84.09732;,
 -45.00345;-13.31971;79.98126;,
 -68.44717;-13.31971;68.03611;,
 -87.05211;-13.31971;49.43119;,
 -98.99719;-13.31971;25.98749;,
 -103.11326;-13.31971;0.00000;,
 -98.99719;-13.31971;-25.98749;,
 -87.05211;-13.31971;-49.43119;,
 -68.44717;-13.31971;-68.03611;,
 -45.00345;-13.31971;-79.98126;,
 -19.01595;-13.31971;-84.09732;,
 -19.01595;-26.31145;-80.97828;,
 6.00772;-26.31145;-77.01488;,
 28.58186;-26.31145;-65.51283;,
 46.49686;-26.31145;-47.59782;,
 57.99891;-26.31145;-25.02367;,
 61.96231;-26.31145;-0.00000;,
 57.99891;-26.31145;25.02367;,
 46.49686;-26.31145;47.59782;,
 28.58186;-26.31145;65.51283;,
 6.00772;-26.31145;77.01488;,
 -19.01595;-26.31145;80.97828;,
 -44.03964;-26.31145;77.01488;,
 -66.61381;-26.31145;65.51283;,
 -84.52881;-26.31145;47.59782;,
 -96.03082;-26.31145;25.02367;,
 -99.99420;-26.31145;0.00000;,
 -96.03082;-26.31145;-25.02367;,
 -84.52881;-26.31145;-47.59782;,
 -66.61381;-26.31145;-65.51283;,
 -44.03964;-26.31145;-77.01488;,
 -19.01595;-26.31145;-80.97828;,
 -19.01595;-38.65530;-75.86528;,
 4.42773;-38.65530;-72.15218;,
 25.57655;-38.65530;-61.37634;,
 42.36036;-38.65530;-44.59252;,
 53.13618;-38.65530;-23.44368;,
 56.84928;-38.65530;-0.00000;,
 53.13618;-38.65530;23.44368;,
 42.36036;-38.65530;44.59252;,
 25.57655;-38.65530;61.37634;,
 4.42773;-38.65530;72.15218;,
 -19.01595;-38.65530;75.86528;,
 -42.45966;-38.65530;72.15218;,
 -63.60850;-38.65530;61.37634;,
 -80.39233;-38.65530;44.59252;,
 -91.16816;-38.65530;23.44368;,
 -94.88126;-38.65530;0.00000;,
 -91.16816;-38.65530;-23.44368;,
 -80.39233;-38.65530;-44.59252;,
 -63.60850;-38.65530;-61.37634;,
 -42.45966;-38.65530;-72.15218;,
 -19.01595;-38.65530;-75.86528;,
 -19.01595;-50.04733;-68.88425;,
 2.27045;-50.04733;-65.51283;,
 21.47319;-50.04733;-55.72850;,
 36.71253;-50.04733;-40.48913;,
 46.49686;-50.04733;-21.28642;,
 49.86826;-50.04733;-0.00000;,
 46.49686;-50.04733;21.28642;,
 36.71253;-50.04733;40.48913;,
 21.47319;-50.04733;55.72850;,
 2.27045;-50.04733;65.51283;,
 -19.01595;-50.04733;68.88425;,
 -40.30236;-50.04733;65.51283;,
 -59.50510;-50.04733;55.72850;,
 -74.74452;-50.04733;40.48913;,
 -84.52881;-50.04733;21.28642;,
 -87.90023;-50.04733;0.00000;,
 -84.52881;-50.04733;-21.28642;,
 -74.74452;-50.04733;-40.48913;,
 -59.50510;-50.04733;-55.72850;,
 -40.30236;-50.04733;-65.51283;,
 -19.01595;-50.04733;-68.88425;,
 -19.01595;-60.20706;-60.20706;,
 -0.41097;-60.20706;-57.26031;,
 16.37288;-60.20706;-48.70851;,
 29.69256;-60.20706;-35.38883;,
 38.24435;-60.20706;-18.60500;,
 41.19107;-60.20706;-0.00000;,
 38.24435;-60.20706;18.60500;,
 29.69256;-60.20706;35.38883;,
 16.37288;-60.20706;48.70851;,
 -0.41097;-60.20706;57.26031;,
 -19.01595;-60.20706;60.20706;,
 -37.62095;-60.20706;57.26031;,
 -54.40479;-60.20706;48.70851;,
 -67.72450;-60.20706;35.38883;,
 -76.27633;-60.20706;18.60500;,
 -79.22310;-60.20706;0.00000;,
 -76.27633;-60.20706;-18.60500;,
 -67.72450;-60.20706;-35.38883;,
 -54.40479;-60.20706;-48.70851;,
 -37.62095;-60.20706;-57.26031;,
 -19.01595;-60.20706;-60.20706;,
 -19.01595;-68.88425;-50.04733;,
 -3.55049;-68.88425;-47.59782;,
 10.40113;-68.88425;-40.48913;,
 21.47319;-68.88425;-29.41708;,
 28.58186;-68.88425;-15.46547;,
 31.03138;-68.88425;-0.00000;,
 28.58186;-68.88425;15.46547;,
 21.47319;-68.88425;29.41708;,
 10.40113;-68.88425;40.48913;,
 -3.55049;-68.88425;47.59782;,
 -19.01595;-68.88425;50.04733;,
 -34.48143;-68.88425;47.59782;,
 -48.43304;-68.88425;40.48913;,
 -59.50510;-68.88425;29.41708;,
 -66.61381;-68.88425;15.46547;,
 -69.06334;-68.88425;0.00000;,
 -66.61381;-68.88425;-15.46547;,
 -59.50510;-68.88425;-29.41708;,
 -48.43304;-68.88425;-40.48913;,
 -34.48143;-68.88425;-47.59782;,
 -19.01595;-68.88425;-50.04733;,
 -19.01595;-75.86528;-38.65530;,
 -7.07081;-75.86528;-36.76336;,
 3.70506;-75.86528;-31.27279;,
 12.25684;-75.86528;-22.72101;,
 17.74741;-75.86528;-11.94515;,
 19.63935;-75.86528;-0.00000;,
 17.74741;-75.86528;11.94515;,
 12.25684;-75.86528;22.72101;,
 3.70506;-75.86528;31.27279;,
 -7.07081;-75.86528;36.76336;,
 -19.01595;-75.86528;38.65530;,
 -30.96111;-75.86528;36.76336;,
 -41.73698;-75.86528;31.27279;,
 -50.28877;-75.86528;22.72101;,
 -55.77932;-75.86528;11.94515;,
 -57.67126;-75.86528;0.00000;,
 -55.77932;-75.86528;-11.94515;,
 -50.28877;-75.86528;-22.72101;,
 -41.73698;-75.86528;-31.27279;,
 -30.96111;-75.86528;-36.76336;,
 -19.01595;-75.86528;-38.65530;,
 -19.01595;-80.97828;-26.31145;,
 -10.88527;-80.97828;-25.02367;,
 -3.55049;-80.97828;-21.28642;,
 2.27045;-80.97828;-15.46547;,
 6.00772;-80.97828;-8.13068;,
 7.29550;-80.97828;-0.00000;,
 6.00772;-80.97828;8.13068;,
 2.27045;-80.97828;15.46547;,
 -3.55049;-80.97828;21.28642;,
 -10.88527;-80.97828;25.02367;,
 -19.01595;-80.97828;26.31145;,
 -27.14664;-80.97828;25.02367;,
 -34.48143;-80.97828;21.28642;,
 -40.30236;-80.97828;15.46547;,
 -44.03964;-80.97828;8.13068;,
 -45.32743;-80.97828;0.00000;,
 -44.03964;-80.97828;-8.13068;,
 -40.30236;-80.97828;-15.46547;,
 -34.48143;-80.97828;-21.28642;,
 -27.14664;-80.97828;-25.02367;,
 -19.01595;-80.97828;-26.31145;,
 -19.01595;-84.09732;-13.31971;,
 -14.89994;-84.09732;-12.66779;,
 -11.18683;-84.09732;-10.77587;,
 -8.24009;-84.09732;-7.82913;,
 -6.34816;-84.09732;-4.11601;,
 -5.69625;-84.09732;0.00000;,
 -6.34816;-84.09732;4.11601;,
 -8.24009;-84.09732;7.82913;,
 -11.18683;-84.09732;10.77587;,
 -14.89994;-84.09732;12.66779;,
 -19.01595;-84.09732;13.31971;,
 -23.13196;-84.09732;12.66779;,
 -26.84508;-84.09732;10.77587;,
 -29.79182;-84.09732;7.82913;,
 -31.68376;-84.09732;4.11601;,
 -32.33567;-84.09732;0.00000;,
 -31.68376;-84.09732;-4.11601;,
 -29.79182;-84.09732;-7.82913;,
 -26.84508;-84.09732;-10.77587;,
 -23.13196;-84.09732;-12.66779;,
 -19.01595;-84.09732;-13.31971;,
 -19.01595;-85.14567;0.00000;,
 -19.01595;-85.14567;0.00000;,
 -19.01595;-85.14567;0.00000;,
 -19.01595;-85.14567;0.00000;,
 -19.01595;-85.14567;0.00000;,
 -19.01595;-85.14567;0.00000;,
 -19.01595;-85.14567;0.00000;,
 -19.01595;-85.14567;0.00000;,
 -19.01595;-85.14567;0.00000;,
 -19.01595;-85.14567;0.00000;,
 -19.01595;-85.14567;0.00000;,
 -19.01595;-85.14567;0.00000;,
 -19.01595;-85.14567;0.00000;,
 -19.01595;-85.14567;0.00000;,
 -19.01595;-85.14567;0.00000;,
 -19.01595;-85.14567;0.00000;,
 -19.01595;-85.14567;0.00000;,
 -19.01595;-85.14567;0.00000;,
 -19.01595;-85.14567;0.00000;,
 -19.01595;-85.14567;0.00000;;
 
 400;
 3;0,1,2;,
 3;1,3,4;,
 3;3,5,6;,
 3;5,7,8;,
 3;7,9,10;,
 3;9,11,12;,
 3;11,13,14;,
 3;13,15,16;,
 3;15,17,18;,
 3;17,19,20;,
 3;19,21,22;,
 3;21,23,24;,
 3;23,25,26;,
 3;25,27,28;,
 3;27,29,30;,
 3;29,31,32;,
 3;31,33,34;,
 3;33,35,36;,
 3;35,37,38;,
 3;37,39,40;,
 4;41,42,1,0;,
 4;42,43,3,1;,
 4;43,44,5,3;,
 4;44,45,7,5;,
 4;45,46,9,7;,
 4;46,47,11,9;,
 4;47,48,13,11;,
 4;48,49,15,13;,
 4;49,50,17,15;,
 4;50,51,19,17;,
 4;51,52,21,19;,
 4;52,53,23,21;,
 4;53,54,25,23;,
 4;54,55,27,25;,
 4;55,56,29,27;,
 4;56,57,31,29;,
 4;57,58,33,31;,
 4;58,59,35,33;,
 4;59,60,37,35;,
 4;60,61,39,37;,
 4;62,63,42,41;,
 4;63,64,43,42;,
 4;64,65,44,43;,
 4;65,66,45,44;,
 4;66,67,46,45;,
 4;67,68,47,46;,
 4;68,69,48,47;,
 4;69,70,49,48;,
 4;70,71,50,49;,
 4;71,72,51,50;,
 4;72,73,52,51;,
 4;73,74,53,52;,
 4;74,75,54,53;,
 4;75,76,55,54;,
 4;76,77,56,55;,
 4;77,78,57,56;,
 4;78,79,58,57;,
 4;79,80,59,58;,
 4;80,81,60,59;,
 4;81,82,61,60;,
 4;83,84,63,62;,
 4;84,85,64,63;,
 4;85,86,65,64;,
 4;86,87,66,65;,
 4;87,88,67,66;,
 4;88,89,68,67;,
 4;89,90,69,68;,
 4;90,91,70,69;,
 4;91,92,71,70;,
 4;92,93,72,71;,
 4;93,94,73,72;,
 4;94,95,74,73;,
 4;95,96,75,74;,
 4;96,97,76,75;,
 4;97,98,77,76;,
 4;98,99,78,77;,
 4;99,100,79,78;,
 4;100,101,80,79;,
 4;101,102,81,80;,
 4;102,103,82,81;,
 4;104,105,84,83;,
 4;105,106,85,84;,
 4;106,107,86,85;,
 4;107,108,87,86;,
 4;108,109,88,87;,
 4;109,110,89,88;,
 4;110,111,90,89;,
 4;111,112,91,90;,
 4;112,113,92,91;,
 4;113,114,93,92;,
 4;114,115,94,93;,
 4;115,116,95,94;,
 4;116,117,96,95;,
 4;117,118,97,96;,
 4;118,119,98,97;,
 4;119,120,99,98;,
 4;120,121,100,99;,
 4;121,122,101,100;,
 4;122,123,102,101;,
 4;123,124,103,102;,
 4;125,126,105,104;,
 4;126,127,106,105;,
 4;127,128,107,106;,
 4;128,129,108,107;,
 4;129,130,109,108;,
 4;130,131,110,109;,
 4;131,132,111,110;,
 4;132,133,112,111;,
 4;133,134,113,112;,
 4;134,135,114,113;,
 4;135,136,115,114;,
 4;136,137,116,115;,
 4;137,138,117,116;,
 4;138,139,118,117;,
 4;139,140,119,118;,
 4;140,141,120,119;,
 4;141,142,121,120;,
 4;142,143,122,121;,
 4;143,144,123,122;,
 4;144,145,124,123;,
 4;146,147,148,149;,
 4;147,150,151,148;,
 4;150,152,153,151;,
 4;154,155,129,128;,
 4;155,156,130,129;,
 4;156,157,131,130;,
 4;157,158,132,131;,
 4;158,159,133,132;,
 4;159,160,134,133;,
 4;160,161,135,134;,
 4;161,162,136,135;,
 4;162,163,137,136;,
 4;163,164,138,137;,
 4;164,165,139,138;,
 4;165,166,140,139;,
 4;166,167,141,140;,
 4;167,168,142,141;,
 4;168,169,143,142;,
 4;169,170,144,143;,
 4;170,171,145,144;,
 4;172,173,174,175;,
 4;176,177,178,179;,
 4;180,181,182,183;,
 4;184,185,155,154;,
 4;185,186,156,155;,
 4;186,187,157,156;,
 4;187,188,158,157;,
 4;188,189,159,158;,
 4;189,190,160,159;,
 4;190,191,161,160;,
 4;191,192,162,161;,
 4;192,193,163,162;,
 4;193,194,164,163;,
 4;194,195,165,164;,
 4;195,196,166,165;,
 4;196,197,167,166;,
 4;197,198,168,167;,
 4;198,199,169,168;,
 4;199,200,170,169;,
 4;200,201,171,170;,
 4;202,203,204,205;,
 4;203,206,207,204;,
 4;206,208,184,207;,
 4;208,209,185,184;,
 4;209,210,186,185;,
 4;210,211,187,186;,
 4;211,212,188,187;,
 4;212,213,189,188;,
 4;213,214,190,189;,
 4;214,215,191,190;,
 4;215,216,192,191;,
 4;216,217,193,192;,
 4;217,218,194,193;,
 4;218,219,195,194;,
 4;219,220,196,195;,
 4;220,221,197,196;,
 4;221,222,198,197;,
 4;222,223,199,198;,
 4;223,224,200,199;,
 4;224,225,201,200;,
 4;226,227,203,202;,
 4;227,228,206,203;,
 4;228,229,208,206;,
 4;229,230,209,208;,
 4;230,231,210,209;,
 4;231,232,211,210;,
 4;232,233,212,211;,
 4;233,234,213,212;,
 4;234,235,214,213;,
 4;235,236,215,214;,
 4;236,237,216,215;,
 4;237,238,217,216;,
 4;238,239,218,217;,
 4;239,240,219,218;,
 4;240,241,220,219;,
 4;241,242,221,220;,
 4;242,243,222,221;,
 4;243,244,223,222;,
 4;244,245,224,223;,
 4;245,246,225,224;,
 4;247,248,227,226;,
 4;248,249,228,227;,
 4;249,250,229,228;,
 4;250,251,230,229;,
 4;251,252,231,230;,
 4;252,253,232,231;,
 4;253,254,233,232;,
 4;254,255,234,233;,
 4;255,256,235,234;,
 4;256,257,236,235;,
 4;257,258,237,236;,
 4;258,259,238,237;,
 4;259,260,239,238;,
 4;260,261,240,239;,
 4;261,262,241,240;,
 4;262,263,242,241;,
 4;263,264,243,242;,
 4;264,265,244,243;,
 4;265,266,245,244;,
 4;266,267,246,245;,
 4;268,269,248,247;,
 4;269,270,249,248;,
 4;270,271,250,249;,
 4;271,272,251,250;,
 4;272,273,252,251;,
 4;273,274,253,252;,
 4;274,275,254,253;,
 4;275,276,255,254;,
 4;276,277,256,255;,
 4;277,278,257,256;,
 4;278,279,258,257;,
 4;279,280,259,258;,
 4;280,281,260,259;,
 4;281,282,261,260;,
 4;282,283,262,261;,
 4;283,284,263,262;,
 4;284,285,264,263;,
 4;285,286,265,264;,
 4;286,287,266,265;,
 4;287,288,267,266;,
 4;289,290,269,268;,
 4;290,291,270,269;,
 4;291,292,271,270;,
 4;292,293,272,271;,
 4;293,294,273,272;,
 4;294,295,274,273;,
 4;295,296,275,274;,
 4;296,297,276,275;,
 4;297,298,277,276;,
 4;298,299,278,277;,
 4;299,300,279,278;,
 4;300,301,280,279;,
 4;301,302,281,280;,
 4;302,303,282,281;,
 4;303,304,283,282;,
 4;304,305,284,283;,
 4;305,306,285,284;,
 4;306,307,286,285;,
 4;307,308,287,286;,
 4;308,309,288,287;,
 4;310,311,290,289;,
 4;311,312,291,290;,
 4;312,313,292,291;,
 4;313,314,293,292;,
 4;314,315,294,293;,
 4;315,316,295,294;,
 4;316,317,296,295;,
 4;317,318,297,296;,
 4;318,319,298,297;,
 4;319,320,299,298;,
 4;320,321,300,299;,
 4;321,322,301,300;,
 4;322,323,302,301;,
 4;323,324,303,302;,
 4;324,325,304,303;,
 4;325,326,305,304;,
 4;326,327,306,305;,
 4;327,328,307,306;,
 4;328,329,308,307;,
 4;329,330,309,308;,
 4;331,332,311,310;,
 4;332,333,312,311;,
 4;333,334,313,312;,
 4;334,335,314,313;,
 4;335,336,315,314;,
 4;336,337,316,315;,
 4;337,338,317,316;,
 4;338,339,318,317;,
 4;339,340,319,318;,
 4;340,341,320,319;,
 4;341,342,321,320;,
 4;342,343,322,321;,
 4;343,344,323,322;,
 4;344,345,324,323;,
 4;345,346,325,324;,
 4;346,347,326,325;,
 4;347,348,327,326;,
 4;348,349,328,327;,
 4;349,350,329,328;,
 4;350,351,330,329;,
 4;352,353,332,331;,
 4;353,354,333,332;,
 4;354,355,334,333;,
 4;355,356,335,334;,
 4;356,357,336,335;,
 4;357,358,337,336;,
 4;358,359,338,337;,
 4;359,360,339,338;,
 4;360,361,340,339;,
 4;361,362,341,340;,
 4;362,363,342,341;,
 4;363,364,343,342;,
 4;364,365,344,343;,
 4;365,366,345,344;,
 4;366,367,346,345;,
 4;367,368,347,346;,
 4;368,369,348,347;,
 4;369,370,349,348;,
 4;370,371,350,349;,
 4;371,372,351,350;,
 4;373,374,353,352;,
 4;374,375,354,353;,
 4;375,376,355,354;,
 4;376,377,356,355;,
 4;377,378,357,356;,
 4;378,379,358,357;,
 4;379,380,359,358;,
 4;380,381,360,359;,
 4;381,382,361,360;,
 4;382,383,362,361;,
 4;383,384,363,362;,
 4;384,385,364,363;,
 4;385,386,365,364;,
 4;386,387,366,365;,
 4;387,388,367,366;,
 4;388,389,368,367;,
 4;389,390,369,368;,
 4;390,391,370,369;,
 4;391,392,371,370;,
 4;392,393,372,371;,
 4;394,395,374,373;,
 4;395,396,375,374;,
 4;396,397,376,375;,
 4;397,398,377,376;,
 4;398,399,378,377;,
 4;399,400,379,378;,
 4;400,401,380,379;,
 4;401,402,381,380;,
 4;402,403,382,381;,
 4;403,404,383,382;,
 4;404,405,384,383;,
 4;405,406,385,384;,
 4;406,407,386,385;,
 4;407,408,387,386;,
 4;408,409,388,387;,
 4;409,410,389,388;,
 4;410,411,390,389;,
 4;411,412,391,390;,
 4;412,413,392,391;,
 4;413,414,393,392;,
 4;415,416,395,394;,
 4;416,417,396,395;,
 4;417,418,397,396;,
 4;418,419,398,397;,
 4;419,420,399,398;,
 4;420,421,400,399;,
 4;421,422,401,400;,
 4;422,423,402,401;,
 4;423,424,403,402;,
 4;424,425,404,403;,
 4;425,426,405,404;,
 4;426,427,406,405;,
 4;427,428,407,406;,
 4;428,429,408,407;,
 4;429,430,409,408;,
 4;430,431,410,409;,
 4;431,432,411,410;,
 4;432,433,412,411;,
 4;433,434,413,412;,
 4;434,435,414,413;,
 3;436,416,415;,
 3;437,417,416;,
 3;438,418,417;,
 3;439,419,418;,
 3;440,420,419;,
 3;441,421,420;,
 3;442,422,421;,
 3;443,423,422;,
 3;444,424,423;,
 3;445,425,424;,
 3;446,426,425;,
 3;447,427,426;,
 3;448,428,427;,
 3;449,429,428;,
 3;450,430,429;,
 3;451,431,430;,
 3;452,432,431;,
 3;453,433,432;,
 3;454,434,433;,
 3;455,435,434;;
 
 MeshMaterialList {
  1;
  400;
  0,
  0,
  0,
  0,
  0,
  0,
  0,
  0,
  0,
  0,
  0,
  0,
  0,
  0,
  0,
  0,
  0,
  0,
  0,
  0,
  0,
  0,
  0,
  0,
  0,
  0,
  0,
  0,
  0,
  0,
  0,
  0,
  0,
  0,
  0,
  0,
  0,
  0,
  0,
  0,
  0,
  0,
  0,
  0,
  0,
  0,
  0,
  0,
  0,
  0,
  0,
  0,
  0,
  0,
  0,
  0,
  0,
  0,
  0,
  0,
  0,
  0,
  0,
  0,
  0,
  0,
  0,
  0,
  0,
  0,
  0,
  0,
  0,
  0,
  0,
  0,
  0,
  0,
  0,
  0,
  0,
  0,
  0,
  0,
  0,
  0,
  0,
  0,
  0,
  0,
  0,
  0,
  0,
  0,
  0,
  0,
  0,
  0,
  0,
  0,
  0,
  0,
  0,
  0,
  0,
  0,
  0,
  0,
  0,
  0,
  0,
  0,
  0,
  0,
  0,
  0,
  0,
  0,
  0,
  0,
  0,
  0,
  0,
  0,
  0,
  0,
  0,
  0,
  0,
  0,
  0,
  0,
  0,
  0,
  0,
  0,
  0,
  0,
  0,
  0,
  0,
  0,
  0,
  0,
  0,
  0,
  0,
  0,
  0,
  0,
  0,
  0,
  0,
  0,
  0,
  0,
  0,
  0,
  0,
  0,
  0,
  0,
  0,
  0,
  0,
  0,
  0,
  0,
  0,
  0,
  0,
  0,
  0,
  0,
  0,
  0,
  0,
  0,
  0,
  0,
  0,
  0,
  0,
  0,
  0,
  0,
  0,
  0,
  0,
  0,
  0,
  0,
  0,
  0,
  0,
  0,
  0,
  0,
  0,
  0,
  0,
  0,
  0,
  0,
  0,
  0,
  0,
  0,
  0,
  0,
  0,
  0,
  0,
  0,
  0,
  0,
  0,
  0,
  0,
  0,
  0,
  0,
  0,
  0,
  0,
  0,
  0,
  0,
  0,
  0,
  0,
  0,
  0,
  0,
  0,
  0,
  0,
  0,
  0,
  0,
  0,
  0,
  0,
  0,
  0,
  0,
  0,
  0,
  0,
  0,
  0,
  0,
  0,
  0,
  0,
  0,
  0,
  0,
  0,
  0,
  0,
  0,
  0,
  0,
  0,
  0,
  0,
  0,
  0,
  0,
  0,
  0,
  0,
  0,
  0,
  0,
  0,
  0,
  0,
  0,
  0,
  0,
  0,
  0,
  0,
  0,
  0,
  0,
  0,
  0,
  0,
  0,
  0,
  0,
  0,
  0,
  0,
  0,
  0,
  0,
  0,
  0,
  0,
  0,
  0,
  0,
  0,
  0,
  0,
  0,
  0,
  0,
  0,
  0,
  0,
  0,
  0,
  0,
  0,
  0,
  0,
  0,
  0,
  0,
  0,
  0,
  0,
  0,
  0,
  0,
  0,
  0,
  0,
  0,
  0,
  0,
  0,
  0,
  0,
  0,
  0,
  0,
  0,
  0,
  0,
  0,
  0,
  0,
  0,
  0,
  0,
  0,
  0,
  0,
  0,
  0,
  0,
  0,
  0,
  0,
  0,
  0,
  0,
  0,
  0,
  0,
  0,
  0,
  0,
  0,
  0,
  0,
  0,
  0,
  0,
  0,
  0,
  0,
  0,
  0,
  0,
  0,
  0,
  0,
  0,
  0,
  0,
  0,
  0,
  0,
  0,
  0,
  0,
  0,
  0,
  0,
  0,
  0,
  0,
  0;;
  Material {
   0.510000;0.510000;0.510000;1.000000;;
   5.000000;
   0.100000;0.100000;0.100000;;
   1.000000;1.000000;1.000000;;
   TextureFilename {
    "Data\\Graphics\\XFileTexture\\Sky.bmp";
   }
  }
 }
 MeshNormals {
  382;
  -0.000000;-1.000000;0.000000;,
  -0.000000;-0.987692;0.156413;,
  -0.048334;-0.987692;0.148758;,
  -0.091938;-0.987692;0.126541;,
  -0.126541;-0.987692;0.091938;,
  -0.148758;-0.987692;0.048334;,
  -0.156413;-0.987692;0.000000;,
  -0.148758;-0.987692;-0.048334;,
  -0.126541;-0.987692;-0.091938;,
  -0.091938;-0.987692;-0.126541;,
  -0.048334;-0.987692;-0.148758;,
  -0.000000;-0.987692;-0.156413;,
  0.048334;-0.987692;-0.148758;,
  0.091937;-0.987692;-0.126541;,
  0.126541;-0.987692;-0.091938;,
  0.148758;-0.987692;-0.048335;,
  0.156413;-0.987692;-0.000000;,
  0.148758;-0.987692;0.048335;,
  0.126541;-0.987692;0.091938;,
  0.091937;-0.987692;0.126541;,
  0.048334;-0.987692;0.148758;,
  -0.000000;-0.951070;0.308974;,
  -0.095478;-0.951070;0.293852;,
  -0.181610;-0.951070;0.249965;,
  -0.249965;-0.951070;0.181610;,
  -0.293852;-0.951070;0.095478;,
  -0.308974;-0.951070;0.000000;,
  -0.293852;-0.951070;-0.095478;,
  -0.249965;-0.951070;-0.181611;,
  -0.181610;-0.951070;-0.249965;,
  -0.095478;-0.951070;-0.293852;,
  -0.000000;-0.951070;-0.308974;,
  0.095478;-0.951070;-0.293852;,
  0.181610;-0.951070;-0.249965;,
  0.249965;-0.951070;-0.181611;,
  0.293852;-0.951070;-0.095479;,
  0.308974;-0.951070;-0.000000;,
  0.293852;-0.951070;0.095479;,
  0.249965;-0.951070;0.181611;,
  0.181610;-0.951070;0.249965;,
  0.095478;-0.951070;0.293852;,
  -0.000000;-0.891035;0.453935;,
  -0.140274;-0.891035;0.431718;,
  -0.266816;-0.891035;0.367241;,
  -0.367241;-0.891035;0.266816;,
  -0.431718;-0.891035;0.140274;,
  -0.453935;-0.891035;0.000000;,
  -0.431718;-0.891035;-0.140274;,
  -0.367241;-0.891035;-0.266816;,
  -0.266816;-0.891035;-0.367241;,
  -0.140274;-0.891035;-0.431718;,
  -0.000000;-0.891035;-0.453935;,
  0.140274;-0.891035;-0.431718;,
  0.266816;-0.891035;-0.367241;,
  0.367241;-0.891035;-0.266816;,
  0.431718;-0.891035;-0.140274;,
  0.453934;-0.891035;-0.000000;,
  0.431718;-0.891035;0.140274;,
  0.367241;-0.891035;0.266816;,
  0.266816;-0.891035;0.367241;,
  0.140274;-0.891035;0.431718;,
  -0.000000;-0.809061;0.587725;,
  -0.181617;-0.809061;0.558960;,
  -0.345456;-0.809061;0.475480;,
  -0.475480;-0.809061;0.345456;,
  -0.558960;-0.809061;0.181617;,
  -0.587725;-0.809061;0.000000;,
  -0.558960;-0.809061;-0.181617;,
  -0.475480;-0.809061;-0.345456;,
  -0.345456;-0.809061;-0.475480;,
  -0.181617;-0.809061;-0.558960;,
  -0.000000;-0.809061;-0.587725;,
  0.181617;-0.809061;-0.558960;,
  0.345456;-0.809061;-0.475480;,
  0.475479;-0.809061;-0.345456;,
  0.558959;-0.809061;-0.181617;,
  0.587724;-0.809062;-0.000000;,
  0.558959;-0.809061;0.181617;,
  0.475479;-0.809061;0.345456;,
  0.345456;-0.809061;0.475480;,
  0.181617;-0.809061;0.558960;,
  -0.000000;-0.707161;0.707052;,
  -0.218492;-0.707161;0.672447;,
  -0.415595;-0.707161;0.572018;,
  -0.572018;-0.707160;0.415595;,
  -0.672447;-0.707161;0.218491;,
  -0.707053;-0.707161;0.000000;,
  -0.672447;-0.707161;-0.218491;,
  -0.572018;-0.707161;-0.415595;,
  -0.415595;-0.707161;-0.572018;,
  -0.218492;-0.707161;-0.672447;,
  -0.000000;-0.707161;-0.707052;,
  0.218492;-0.707161;-0.672447;,
  0.415595;-0.707161;-0.572018;,
  0.572017;-0.707161;-0.415596;,
  0.672447;-0.707161;-0.218492;,
  0.707053;-0.707161;-0.000000;,
  0.672447;-0.707161;0.218492;,
  0.572017;-0.707161;0.415596;,
  0.415595;-0.707161;0.572018;,
  0.218492;-0.707161;0.672447;,
  -0.000000;-0.587843;0.808975;,
  -0.249987;-0.587843;0.769381;,
  -0.475504;-0.587844;0.654474;,
  -0.654474;-0.587843;0.475504;,
  -0.769382;-0.587842;0.249987;,
  -0.808976;-0.587842;0.000000;,
  -0.769381;-0.587842;-0.249987;,
  -0.654474;-0.587843;-0.475504;,
  -0.475504;-0.587844;-0.654474;,
  -0.249987;-0.587843;-0.769381;,
  -0.000000;-0.587843;-0.808975;,
  0.249987;-0.587843;-0.769381;,
  0.475503;-0.587844;-0.654474;,
  0.654474;-0.587844;-0.475504;,
  0.769381;-0.587842;-0.249987;,
  0.808976;-0.587841;-0.000000;,
  0.769381;-0.587842;0.249987;,
  0.654474;-0.587844;0.475504;,
  0.475503;-0.587844;0.654474;,
  0.249987;-0.587843;0.769381;,
  -0.000000;-0.454044;0.890979;,
  -0.275328;-0.454044;0.847372;,
  -0.523704;-0.454045;0.720817;,
  -0.720817;-0.454045;0.523704;,
  -0.847372;-0.454044;0.275327;,
  -0.890979;-0.454044;0.000000;,
  -0.847372;-0.454044;-0.275327;,
  -0.720817;-0.454045;-0.523704;,
  -0.523704;-0.454045;-0.720817;,
  -0.275327;-0.454044;-0.847372;,
  -0.000000;-0.454044;-0.890979;,
  0.275327;-0.454044;-0.847372;,
  0.523704;-0.454045;-0.720817;,
  0.720817;-0.454045;-0.523704;,
  0.847372;-0.454043;-0.275327;,
  0.890980;-0.454042;-0.000000;,
  0.847372;-0.454043;0.275327;,
  0.720817;-0.454045;0.523704;,
  0.523704;-0.454045;0.720817;,
  0.275327;-0.454044;0.847372;,
  -0.000000;-0.309059;0.951043;,
  -0.293889;-0.309058;0.904496;,
  -0.559009;-0.309057;0.769410;,
  -0.769411;-0.309058;0.559009;,
  -0.904496;-0.309058;0.293888;,
  -0.951043;-0.309059;0.000000;,
  -0.904496;-0.309058;-0.293888;,
  -0.769411;-0.309058;-0.559009;,
  -0.559009;-0.309057;-0.769410;,
  -0.293889;-0.309058;-0.904496;,
  -0.000000;-0.309059;-0.951043;,
  0.293888;-0.309058;-0.904496;,
  0.559009;-0.309057;-0.769411;,
  0.769411;-0.309057;-0.559008;,
  0.904496;-0.309057;-0.293888;,
  0.951043;-0.309057;-0.000000;,
  0.904496;-0.309057;0.293888;,
  0.769411;-0.309057;0.559008;,
  0.559009;-0.309057;0.769411;,
  0.293888;-0.309058;0.904496;,
  -0.000000;-0.156459;0.987684;,
  -0.305212;-0.156459;0.939344;,
  -0.580546;-0.156458;0.799054;,
  -0.799054;-0.156458;0.580546;,
  -0.939344;-0.156459;0.305212;,
  -0.987684;-0.156459;0.000000;,
  -0.939344;-0.156459;-0.305212;,
  -0.799054;-0.156458;-0.580546;,
  -0.580546;-0.156458;-0.799054;,
  -0.305212;-0.156459;-0.939344;,
  -0.000000;-0.156459;-0.987684;,
  0.305212;-0.156459;-0.939344;,
  0.580546;-0.156458;-0.799054;,
  0.799054;-0.156458;-0.580545;,
  0.939344;-0.156458;-0.305211;,
  0.987685;-0.156459;-0.000000;,
  0.939344;-0.156458;0.305211;,
  0.799054;-0.156458;0.580545;,
  0.580546;-0.156458;0.799054;,
  0.305212;-0.156459;0.939344;,
  -0.000000;0.000000;1.000000;,
  -0.309018;-0.000000;0.951056;,
  -0.587785;0.000000;0.809017;,
  -0.809017;0.000000;0.587785;,
  -0.951056;0.000000;0.309018;,
  -1.000000;0.000000;0.000000;,
  -0.951056;0.000000;-0.309018;,
  -0.809017;0.000000;-0.587785;,
  -0.587785;0.000000;-0.809017;,
  -0.309018;-0.000000;-0.951056;,
  -0.000000;0.000000;-1.000000;,
  0.309018;0.000000;-0.951056;,
  0.587785;0.000000;-0.809017;,
  0.809018;-0.000000;-0.587784;,
  0.951057;-0.000000;-0.309017;,
  1.000000;0.000000;0.000000;,
  0.951057;-0.000000;0.309017;,
  0.809018;-0.000000;0.587784;,
  0.587785;0.000000;0.809017;,
  0.309018;0.000000;0.951056;,
  -0.000000;0.156459;0.987684;,
  -0.305212;0.156459;0.939344;,
  -0.580546;0.156458;0.799054;,
  -0.799054;0.156458;0.580546;,
  -0.939344;0.156459;0.305212;,
  -0.987684;0.156459;0.000000;,
  -0.939344;0.156459;-0.305212;,
  -0.799054;0.156458;-0.580546;,
  -0.580546;0.156458;-0.799054;,
  -0.305212;0.156459;-0.939344;,
  -0.000000;0.156459;-0.987684;,
  0.305212;0.156459;-0.939344;,
  0.580546;0.156458;-0.799054;,
  0.799054;0.156458;-0.580545;,
  0.939344;0.156458;-0.305211;,
  0.987685;0.156459;0.000000;,
  0.939344;0.156458;0.305211;,
  0.799054;0.156458;0.580545;,
  0.580546;0.156458;0.799054;,
  0.305212;0.156459;0.939344;,
  -0.000000;0.309059;0.951043;,
  -0.293889;0.309058;0.904496;,
  -0.559009;0.309057;0.769410;,
  -0.769411;0.309058;0.559009;,
  -0.904496;0.309058;0.293888;,
  -0.951043;0.309059;0.000000;,
  -0.904496;0.309058;-0.293888;,
  -0.769411;0.309058;-0.559009;,
  -0.559009;0.309057;-0.769410;,
  -0.293889;0.309058;-0.904496;,
  -0.000000;0.309059;-0.951043;,
  0.293888;0.309058;-0.904496;,
  0.559009;0.309057;-0.769411;,
  0.769411;0.309057;-0.559008;,
  0.904497;0.309057;-0.293888;,
  0.951043;0.309057;0.000000;,
  0.904496;0.309057;0.293888;,
  0.769411;0.309057;0.559008;,
  0.559009;0.309057;0.769411;,
  0.293888;0.309058;0.904496;,
  -0.000000;0.454044;0.890979;,
  -0.275327;0.454044;0.847372;,
  -0.523704;0.454045;0.720817;,
  -0.720817;0.454045;0.523704;,
  -0.847372;0.454044;0.275327;,
  -0.890979;0.454044;0.000000;,
  -0.847372;0.454044;-0.275327;,
  -0.720817;0.454045;-0.523704;,
  -0.523704;0.454045;-0.720817;,
  -0.275327;0.454044;-0.847372;,
  -0.000000;0.454044;-0.890979;,
  0.275327;0.454044;-0.847372;,
  0.523704;0.454045;-0.720817;,
  0.720817;0.454045;-0.523704;,
  0.847372;0.454043;-0.275327;,
  0.890980;0.454042;0.000000;,
  0.847372;0.454043;0.275327;,
  0.720817;0.454045;0.523704;,
  0.523704;0.454045;0.720817;,
  0.275327;0.454044;0.847372;,
  -0.000000;0.587843;0.808975;,
  -0.249987;0.587843;0.769381;,
  -0.475504;0.587844;0.654474;,
  -0.654474;0.587843;0.475504;,
  -0.769382;0.587842;0.249987;,
  -0.808976;0.587842;0.000000;,
  -0.769382;0.587842;-0.249987;,
  -0.654474;0.587843;-0.475504;,
  -0.475504;0.587844;-0.654474;,
  -0.249987;0.587843;-0.769381;,
  -0.000000;0.587843;-0.808975;,
  0.249987;0.587843;-0.769381;,
  0.475503;0.587844;-0.654474;,
  0.654474;0.587844;-0.475504;,
  0.769381;0.587842;-0.249987;,
  0.808976;0.587841;0.000000;,
  0.769381;0.587842;0.249987;,
  0.654474;0.587844;0.475504;,
  0.475503;0.587844;0.654474;,
  0.249987;0.587843;0.769381;,
  -0.000000;0.707161;0.707052;,
  -0.218492;0.707161;0.672447;,
  -0.415595;0.707161;0.572018;,
  -0.572018;0.707161;0.415595;,
  -0.672447;0.707161;0.218491;,
  -0.707053;0.707161;0.000000;,
  -0.672447;0.707161;-0.218491;,
  -0.572018;0.707161;-0.415595;,
  -0.415595;0.707161;-0.572018;,
  -0.218492;0.707161;-0.672447;,
  -0.000000;0.707161;-0.707052;,
  0.218492;0.707161;-0.672447;,
  0.415595;0.707161;-0.572018;,
  0.572017;0.707161;-0.415596;,
  0.672447;0.707161;-0.218492;,
  0.707053;0.707161;0.000000;,
  0.672447;0.707161;0.218492;,
  0.572017;0.707161;0.415596;,
  0.415595;0.707161;0.572018;,
  0.218492;0.707161;0.672447;,
  -0.000000;0.809061;0.587725;,
  -0.181617;0.809061;0.558960;,
  -0.345456;0.809061;0.475480;,
  -0.475480;0.809061;0.345456;,
  -0.558960;0.809061;0.181617;,
  -0.587725;0.809061;0.000000;,
  -0.558960;0.809061;-0.181617;,
  -0.475480;0.809061;-0.345456;,
  -0.345456;0.809061;-0.475480;,
  -0.181617;0.809061;-0.558960;,
  -0.000000;0.809061;-0.587725;,
  0.181617;0.809061;-0.558960;,
  0.345456;0.809061;-0.475480;,
  0.475479;0.809061;-0.345456;,
  0.558959;0.809061;-0.181617;,
  0.587724;0.809062;0.000000;,
  0.558959;0.809061;0.181617;,
  0.475479;0.809061;0.345456;,
  0.345456;0.809061;0.475480;,
  0.181617;0.809061;0.558960;,
  -0.000000;0.891035;0.453935;,
  -0.140274;0.891035;0.431718;,
  -0.266816;0.891035;0.367241;,
  -0.367241;0.891035;0.266816;,
  -0.431718;0.891035;0.140274;,
  -0.453935;0.891035;0.000000;,
  -0.431718;0.891035;-0.140274;,
  -0.367241;0.891035;-0.266816;,
  -0.266816;0.891035;-0.367241;,
  -0.140274;0.891035;-0.431718;,
  -0.000000;0.891035;-0.453935;,
  0.140274;0.891035;-0.431718;,
  0.266816;0.891035;-0.367241;,
  0.367241;0.891035;-0.266816;,
  0.431718;0.891035;-0.140274;,
  0.453934;0.891035;0.000000;,
  0.431718;0.891035;0.140274;,
  0.367241;0.891035;0.266816;,
  0.266816;0.891035;0.367241;,
  0.140274;0.891035;0.431718;,
  -0.000000;0.951070;0.308974;,
  -0.095478;0.951070;0.293852;,
  -0.181610;0.951070;0.249965;,
  -0.249965;0.951070;0.181610;,
  -0.293852;0.951070;0.095478;,
  -0.308974;0.951070;0.000000;,
  -0.293852;0.951070;-0.095478;,
  -0.249965;0.951070;-0.181610;,
  -0.181610;0.951070;-0.249965;,
  -0.095478;0.951070;-0.293852;,
  -0.000000;0.951070;-0.308974;,
  0.095478;0.951070;-0.293852;,
  0.181610;0.951070;-0.249965;,
  0.249965;0.951070;-0.181611;,
  0.293852;0.951070;-0.095479;,
  0.308974;0.951070;0.000000;,
  0.293852;0.951070;0.095479;,
  0.249965;0.951070;0.181611;,
  0.181610;0.951070;0.249965;,
  0.095478;0.951070;0.293852;,
  -0.000000;0.987692;0.156413;,
  -0.048334;0.987692;0.148758;,
  -0.091938;0.987692;0.126541;,
  -0.126541;0.987692;0.091938;,
  -0.148758;0.987692;0.048334;,
  -0.156413;0.987692;0.000000;,
  -0.148758;0.987692;-0.048334;,
  -0.126541;0.987692;-0.091938;,
  -0.091938;0.987692;-0.126541;,
  -0.048334;0.987692;-0.148758;,
  -0.000000;0.987692;-0.156413;,
  0.048334;0.987692;-0.148758;,
  0.091937;0.987692;-0.126541;,
  0.126541;0.987692;-0.091938;,
  0.148758;0.987692;-0.048335;,
  0.156413;0.987692;0.000000;,
  0.148758;0.987692;0.048335;,
  0.126541;0.987692;0.091938;,
  0.091937;0.987692;0.126541;,
  0.048334;0.987692;0.148758;,
  -0.000000;1.000000;0.000000;;
  400;
  3;1,2,0;,
  3;2,3,0;,
  3;3,4,0;,
  3;4,5,0;,
  3;5,6,0;,
  3;6,7,0;,
  3;7,8,0;,
  3;8,9,0;,
  3;9,10,0;,
  3;10,11,0;,
  3;11,12,0;,
  3;12,13,0;,
  3;13,14,0;,
  3;14,15,0;,
  3;15,16,0;,
  3;16,17,0;,
  3;17,18,0;,
  3;18,19,0;,
  3;19,20,0;,
  3;20,1,0;,
  4;21,22,2,1;,
  4;22,23,3,2;,
  4;23,24,4,3;,
  4;24,25,5,4;,
  4;25,26,6,5;,
  4;26,27,7,6;,
  4;27,28,8,7;,
  4;28,29,9,8;,
  4;29,30,10,9;,
  4;30,31,11,10;,
  4;31,32,12,11;,
  4;32,33,13,12;,
  4;33,34,14,13;,
  4;34,35,15,14;,
  4;35,36,16,15;,
  4;36,37,17,16;,
  4;37,38,18,17;,
  4;38,39,19,18;,
  4;39,40,20,19;,
  4;40,21,1,20;,
  4;41,42,22,21;,
  4;42,43,23,22;,
  4;43,44,24,23;,
  4;44,45,25,24;,
  4;45,46,26,25;,
  4;46,47,27,26;,
  4;47,48,28,27;,
  4;48,49,29,28;,
  4;49,50,30,29;,
  4;50,51,31,30;,
  4;51,52,32,31;,
  4;52,53,33,32;,
  4;53,54,34,33;,
  4;54,55,35,34;,
  4;55,56,36,35;,
  4;56,57,37,36;,
  4;57,58,38,37;,
  4;58,59,39,38;,
  4;59,60,40,39;,
  4;60,41,21,40;,
  4;61,62,42,41;,
  4;62,63,43,42;,
  4;63,64,44,43;,
  4;64,65,45,44;,
  4;65,66,46,45;,
  4;66,67,47,46;,
  4;67,68,48,47;,
  4;68,69,49,48;,
  4;69,70,50,49;,
  4;70,71,51,50;,
  4;71,72,52,51;,
  4;72,73,53,52;,
  4;73,74,54,53;,
  4;74,75,55,54;,
  4;75,76,56,55;,
  4;76,77,57,56;,
  4;77,78,58,57;,
  4;78,79,59,58;,
  4;79,80,60,59;,
  4;80,61,41,60;,
  4;81,82,62,61;,
  4;82,83,63,62;,
  4;83,84,64,63;,
  4;84,85,65,64;,
  4;85,86,66,65;,
  4;86,87,67,66;,
  4;87,88,68,67;,
  4;88,89,69,68;,
  4;89,90,70,69;,
  4;90,91,71,70;,
  4;91,92,72,71;,
  4;92,93,73,72;,
  4;93,94,74,73;,
  4;94,95,75,74;,
  4;95,96,76,75;,
  4;96,97,77,76;,
  4;97,98,78,77;,
  4;98,99,79,78;,
  4;99,100,80,79;,
  4;100,81,61,80;,
  4;101,102,82,81;,
  4;102,103,83,82;,
  4;103,104,84,83;,
  4;104,105,85,84;,
  4;105,106,86,85;,
  4;106,107,87,86;,
  4;107,108,88,87;,
  4;108,109,89,88;,
  4;109,110,90,89;,
  4;110,111,91,90;,
  4;111,112,92,91;,
  4;112,113,93,92;,
  4;113,114,94,93;,
  4;114,115,95,94;,
  4;115,116,96,95;,
  4;116,117,97,96;,
  4;117,118,98,97;,
  4;118,119,99,98;,
  4;119,120,100,99;,
  4;120,101,81,100;,
  4;121,122,102,101;,
  4;122,123,103,102;,
  4;123,124,104,103;,
  4;124,125,105,104;,
  4;125,126,106,105;,
  4;126,127,107,106;,
  4;127,128,108,107;,
  4;128,129,109,108;,
  4;129,130,110,109;,
  4;130,131,111,110;,
  4;131,132,112,111;,
  4;132,133,113,112;,
  4;133,134,114,113;,
  4;134,135,115,114;,
  4;135,136,116,115;,
  4;136,137,117,116;,
  4;137,138,118,117;,
  4;138,139,119,118;,
  4;139,140,120,119;,
  4;140,121,101,120;,
  4;141,142,122,121;,
  4;142,143,123,122;,
  4;143,144,124,123;,
  4;144,145,125,124;,
  4;145,146,126,125;,
  4;146,147,127,126;,
  4;147,148,128,127;,
  4;148,149,129,128;,
  4;149,150,130,129;,
  4;150,151,131,130;,
  4;151,152,132,131;,
  4;152,153,133,132;,
  4;153,154,134,133;,
  4;154,155,135,134;,
  4;155,156,136,135;,
  4;156,157,137,136;,
  4;157,158,138,137;,
  4;158,159,139,138;,
  4;159,160,140,139;,
  4;160,141,121,140;,
  4;161,162,142,141;,
  4;162,163,143,142;,
  4;163,164,144,143;,
  4;164,165,145,144;,
  4;165,166,146,145;,
  4;166,167,147,146;,
  4;167,168,148,147;,
  4;168,169,149,148;,
  4;169,170,150,149;,
  4;170,171,151,150;,
  4;171,172,152,151;,
  4;172,173,153,152;,
  4;173,174,154,153;,
  4;174,175,155,154;,
  4;175,176,156,155;,
  4;176,177,157,156;,
  4;177,178,158,157;,
  4;178,179,159,158;,
  4;179,180,160,159;,
  4;180,161,141,160;,
  4;181,182,162,161;,
  4;182,183,163,162;,
  4;183,184,164,163;,
  4;184,185,165,164;,
  4;185,186,166,165;,
  4;186,187,167,166;,
  4;187,188,168,167;,
  4;188,189,169,168;,
  4;189,190,170,169;,
  4;190,191,171,170;,
  4;191,192,172,171;,
  4;192,193,173,172;,
  4;193,194,174,173;,
  4;194,195,175,174;,
  4;195,196,176,175;,
  4;196,197,177,176;,
  4;197,198,178,177;,
  4;198,199,179,178;,
  4;199,200,180,179;,
  4;200,181,161,180;,
  4;201,202,182,181;,
  4;202,203,183,182;,
  4;203,204,184,183;,
  4;204,205,185,184;,
  4;205,206,186,185;,
  4;206,207,187,186;,
  4;207,208,188,187;,
  4;208,209,189,188;,
  4;209,210,190,189;,
  4;210,211,191,190;,
  4;211,212,192,191;,
  4;212,213,193,192;,
  4;213,214,194,193;,
  4;214,215,195,194;,
  4;215,216,196,195;,
  4;216,217,197,196;,
  4;217,218,198,197;,
  4;218,219,199,198;,
  4;219,220,200,199;,
  4;220,201,181,200;,
  4;221,222,202,201;,
  4;222,223,203,202;,
  4;223,224,204,203;,
  4;224,225,205,204;,
  4;225,226,206,205;,
  4;226,227,207,206;,
  4;227,228,208,207;,
  4;228,229,209,208;,
  4;229,230,210,209;,
  4;230,231,211,210;,
  4;231,232,212,211;,
  4;232,233,213,212;,
  4;233,234,214,213;,
  4;234,235,215,214;,
  4;235,236,216,215;,
  4;236,237,217,216;,
  4;237,238,218,217;,
  4;238,239,219,218;,
  4;239,240,220,219;,
  4;240,221,201,220;,
  4;241,242,222,221;,
  4;242,243,223,222;,
  4;243,244,224,223;,
  4;244,245,225,224;,
  4;245,246,226,225;,
  4;246,247,227,226;,
  4;247,248,228,227;,
  4;248,249,229,228;,
  4;249,250,230,229;,
  4;250,251,231,230;,
  4;251,252,232,231;,
  4;252,253,233,232;,
  4;253,254,234,233;,
  4;254,255,235,234;,
  4;255,256,236,235;,
  4;256,257,237,236;,
  4;257,258,238,237;,
  4;258,259,239,238;,
  4;259,260,240,239;,
  4;260,241,221,240;,
  4;261,262,242,241;,
  4;262,263,243,242;,
  4;263,264,244,243;,
  4;264,265,245,244;,
  4;265,266,246,245;,
  4;266,267,247,246;,
  4;267,268,248,247;,
  4;268,269,249,248;,
  4;269,270,250,249;,
  4;270,271,251,250;,
  4;271,272,252,251;,
  4;272,273,253,252;,
  4;273,274,254,253;,
  4;274,275,255,254;,
  4;275,276,256,255;,
  4;276,277,257,256;,
  4;277,278,258,257;,
  4;278,279,259,258;,
  4;279,280,260,259;,
  4;280,261,241,260;,
  4;281,282,262,261;,
  4;282,283,263,262;,
  4;283,284,264,263;,
  4;284,285,265,264;,
  4;285,286,266,265;,
  4;286,287,267,266;,
  4;287,288,268,267;,
  4;288,289,269,268;,
  4;289,290,270,269;,
  4;290,291,271,270;,
  4;291,292,272,271;,
  4;292,293,273,272;,
  4;293,294,274,273;,
  4;294,295,275,274;,
  4;295,296,276,275;,
  4;296,297,277,276;,
  4;297,298,278,277;,
  4;298,299,279,278;,
  4;299,300,280,279;,
  4;300,281,261,280;,
  4;301,302,282,281;,
  4;302,303,283,282;,
  4;303,304,284,283;,
  4;304,305,285,284;,
  4;305,306,286,285;,
  4;306,307,287,286;,
  4;307,308,288,287;,
  4;308,309,289,288;,
  4;309,310,290,289;,
  4;310,311,291,290;,
  4;311,312,292,291;,
  4;312,313,293,292;,
  4;313,314,294,293;,
  4;314,315,295,294;,
  4;315,316,296,295;,
  4;316,317,297,296;,
  4;317,318,298,297;,
  4;318,319,299,298;,
  4;319,320,300,299;,
  4;320,301,281,300;,
  4;321,322,302,301;,
  4;322,323,303,302;,
  4;323,324,304,303;,
  4;324,325,305,304;,
  4;325,326,306,305;,
  4;326,327,307,306;,
  4;327,328,308,307;,
  4;328,329,309,308;,
  4;329,330,310,309;,
  4;330,331,311,310;,
  4;331,332,312,311;,
  4;332,333,313,312;,
  4;333,334,314,313;,
  4;334,335,315,314;,
  4;335,336,316,315;,
  4;336,337,317,316;,
  4;337,338,318,317;,
  4;338,339,319,318;,
  4;339,340,320,319;,
  4;340,321,301,320;,
  4;341,342,322,321;,
  4;342,343,323,322;,
  4;343,344,324,323;,
  4;344,345,325,324;,
  4;345,346,326,325;,
  4;346,347,327,326;,
  4;347,348,328,327;,
  4;348,349,329,328;,
  4;349,350,330,329;,
  4;350,351,331,330;,
  4;351,352,332,331;,
  4;352,353,333,332;,
  4;353,354,334,333;,
  4;354,355,335,334;,
  4;355,356,336,335;,
  4;356,357,337,336;,
  4;357,358,338,337;,
  4;358,359,339,338;,
  4;359,360,340,339;,
  4;360,341,321,340;,
  4;361,362,342,341;,
  4;362,363,343,342;,
  4;363,364,344,343;,
  4;364,365,345,344;,
  4;365,366,346,345;,
  4;366,367,347,346;,
  4;367,368,348,347;,
  4;368,369,349,348;,
  4;369,370,350,349;,
  4;370,371,351,350;,
  4;371,372,352,351;,
  4;372,373,353,352;,
  4;373,374,354,353;,
  4;374,375,355,354;,
  4;375,376,356,355;,
  4;376,377,357,356;,
  4;377,378,358,357;,
  4;378,379,359,358;,
  4;379,380,360,359;,
  4;380,361,341,360;,
  3;381,362,361;,
  3;381,363,362;,
  3;381,364,363;,
  3;381,365,364;,
  3;381,366,365;,
  3;381,367,366;,
  3;381,368,367;,
  3;381,369,368;,
  3;381,370,369;,
  3;381,371,370;,
  3;381,372,371;,
  3;381,373,372;,
  3;381,374,373;,
  3;381,375,374;,
  3;381,376,375;,
  3;381,377,376;,
  3;381,378,377;,
  3;381,379,378;,
  3;381,380,379;,
  3;381,361,380;;
 }
 MeshTextureCoords {
  456;
  -0.440080;0.047070;,
  -0.359750;0.047070;,
  -0.399920;-0.005230;,
  -0.279430;0.047070;,
  -0.319590;-0.005230;,
  -0.199100;0.047070;,
  -0.239260;-0.005230;,
  -0.118770;0.047070;,
  -0.158940;-0.005230;,
  -0.038450;0.047070;,
  -0.078610;-0.005230;,
  0.041880;0.047070;,
  0.001720;-0.005230;,
  0.122210;0.047070;,
  0.082040;-0.005230;,
  0.202540;0.047070;,
  0.162370;-0.005230;,
  0.282860;0.047070;,
  0.242700;-0.005230;,
  0.363190;0.047070;,
  0.323030;-0.005230;,
  0.443520;0.047070;,
  0.403350;-0.005230;,
  0.523840;0.047070;,
  0.483680;-0.005230;,
  0.604170;0.047070;,
  0.564010;-0.005230;,
  0.684500;0.047070;,
  0.644330;-0.005230;,
  0.764820;0.047070;,
  0.724660;-0.005230;,
  0.845150;0.047070;,
  0.804990;-0.005230;,
  0.925480;0.047070;,
  0.885320;-0.005230;,
  1.005810;0.047070;,
  0.965640;-0.005230;,
  1.086130;0.047070;,
  1.045970;-0.005230;,
  1.166460;0.047070;,
  1.126300;-0.005230;,
  -0.437650;0.019850;,
  -0.357320;0.019850;,
  -0.277000;0.019850;,
  -0.196670;0.019850;,
  -0.116340;0.019850;,
  -0.036020;0.019850;,
  0.044310;0.019850;,
  0.124640;0.019850;,
  0.204960;0.019850;,
  0.285290;0.019850;,
  0.365620;0.019850;,
  0.445950;0.019850;,
  0.526270;0.019850;,
  0.606600;0.019850;,
  0.686930;0.019850;,
  0.767250;0.019850;,
  0.847580;0.019850;,
  0.927910;0.019850;,
  1.008230;0.019850;,
  1.088560;0.019850;,
  1.168890;0.019850;,
  -0.437650;0.072160;,
  -0.357320;0.072160;,
  -0.277000;0.072160;,
  -0.196670;0.072160;,
  -0.116340;0.072160;,
  -0.036020;0.072160;,
  0.044310;0.072160;,
  0.124640;0.072160;,
  0.204960;0.072160;,
  0.285290;0.072160;,
  0.365620;0.072160;,
  0.445950;0.072160;,
  0.526270;0.072160;,
  0.606600;0.072160;,
  0.686930;0.072160;,
  0.767250;0.072160;,
  0.847580;0.072160;,
  0.927910;0.072160;,
  1.008230;0.072160;,
  1.088560;0.072160;,
  1.168890;0.072160;,
  -0.437650;0.124470;,
  -0.357320;0.124470;,
  -0.277000;0.124470;,
  -0.196670;0.124470;,
  -0.116340;0.124470;,
  -0.036020;0.124470;,
  0.044310;0.124470;,
  0.124640;0.124470;,
  0.204960;0.124470;,
  0.285290;0.124470;,
  0.365620;0.124470;,
  0.445950;0.124470;,
  0.526270;0.124470;,
  0.606600;0.124470;,
  0.686930;0.124470;,
  0.767250;0.124470;,
  0.847580;0.124470;,
  0.927910;0.124470;,
  1.008230;0.124470;,
  1.088560;0.124470;,
  1.168890;0.124470;,
  -0.437650;0.176770;,
  -0.357320;0.176770;,
  -0.277000;0.176770;,
  -0.196670;0.176770;,
  -0.116340;0.176770;,
  -0.036020;0.176770;,
  0.044310;0.176770;,
  0.124640;0.176770;,
  0.204960;0.176770;,
  0.285290;0.176770;,
  0.365620;0.176770;,
  0.445950;0.176770;,
  0.526270;0.176770;,
  0.606600;0.176770;,
  0.686930;0.176770;,
  0.767250;0.176770;,
  0.847580;0.176770;,
  0.927910;0.176770;,
  1.008230;0.176770;,
  1.088560;0.176770;,
  1.168890;0.176770;,
  -0.437650;0.229080;,
  -0.357320;0.229080;,
  -0.277000;0.229080;,
  -0.196670;0.229080;,
  -0.116340;0.229080;,
  -0.036020;0.229080;,
  0.044310;0.229080;,
  0.124640;0.229080;,
  0.204960;0.229080;,
  0.285290;0.229080;,
  0.365620;0.229080;,
  0.445950;0.229080;,
  0.526270;0.229080;,
  0.606600;0.229080;,
  0.686930;0.229080;,
  0.767250;0.229080;,
  0.847580;0.229080;,
  0.927910;0.229080;,
  1.008230;0.229080;,
  1.088560;0.229080;,
  1.168890;0.229080;,
  -0.433500;0.280880;,
  -0.354780;0.280880;,
  -0.354780;0.229610;,
  -0.433500;0.229610;,
  -0.276060;0.280880;,
  -0.276060;0.229610;,
  -0.197340;0.280880;,
  -0.197340;0.229610;,
  -0.196670;0.281390;,
  -0.116340;0.281390;,
  -0.036020;0.281390;,
  0.044310;0.281390;,
  0.124640;0.281390;,
  0.204960;0.281390;,
  0.285290;0.281390;,
  0.365620;0.281390;,
  0.445950;0.281390;,
  0.526270;0.281390;,
  0.606600;0.281390;,
  0.686930;0.281390;,
  0.767250;0.281390;,
  0.847580;0.281390;,
  0.927910;0.281390;,
  1.008230;0.281390;,
  1.088560;0.281390;,
  1.168890;0.281390;,
  0.523560;0.313490;,
  0.572570;0.313490;,
  0.165900;0.271370;,
  0.087180;0.271370;,
  0.435540;0.317560;,
  0.484540;0.317560;,
  0.107600;0.275450;,
  0.028880;0.275450;,
  0.390990;0.329780;,
  0.439990;0.329780;,
  0.092770;0.287660;,
  0.014050;0.287660;,
  0.157640;0.324370;,
  0.207640;0.324370;,
  0.257640;0.324370;,
  0.307640;0.324370;,
  0.357640;0.324370;,
  0.407640;0.324370;,
  0.457640;0.324370;,
  0.507640;0.324370;,
  0.557640;0.324370;,
  0.607640;0.324370;,
  0.657640;0.324370;,
  0.707640;0.324370;,
  0.757640;0.324370;,
  0.807640;0.324370;,
  0.857640;0.324370;,
  0.907640;0.324370;,
  0.957640;0.324370;,
  1.007640;0.324370;,
  0.007640;0.374370;,
  0.057640;0.374370;,
  0.057640;0.324370;,
  0.007640;0.324370;,
  0.107640;0.374370;,
  0.107640;0.324370;,
  0.157640;0.374370;,
  0.207640;0.374370;,
  0.257640;0.374370;,
  0.307640;0.374370;,
  0.357640;0.374370;,
  0.407640;0.374370;,
  0.457640;0.374370;,
  0.507640;0.374370;,
  0.557640;0.374370;,
  0.607640;0.374370;,
  0.657640;0.374370;,
  0.707640;0.374370;,
  0.757640;0.374370;,
  0.807640;0.374370;,
  0.857640;0.374370;,
  0.907640;0.374370;,
  0.957640;0.374370;,
  1.007640;0.374370;,
  0.007640;0.424370;,
  0.057640;0.424370;,
  0.107640;0.424370;,
  0.157640;0.424370;,
  0.207640;0.424370;,
  0.257640;0.424370;,
  0.307640;0.424370;,
  0.357640;0.424370;,
  0.407640;0.424370;,
  0.457640;0.424370;,
  0.507640;0.424370;,
  0.557640;0.424370;,
  0.607640;0.424370;,
  0.657640;0.424370;,
  0.707640;0.424370;,
  0.757640;0.424370;,
  0.807640;0.424370;,
  0.857640;0.424370;,
  0.907640;0.424370;,
  0.957640;0.424370;,
  1.007640;0.424370;,
  0.007640;0.474370;,
  0.057640;0.474370;,
  0.107640;0.474370;,
  0.157640;0.474370;,
  0.207640;0.474370;,
  0.257640;0.474370;,
  0.307640;0.474370;,
  0.357640;0.474370;,
  0.407640;0.474370;,
  0.457640;0.474370;,
  0.507640;0.474370;,
  0.557640;0.474370;,
  0.607640;0.474370;,
  0.657640;0.474370;,
  0.707640;0.474370;,
  0.757640;0.474370;,
  0.807640;0.474370;,
  0.857640;0.474370;,
  0.907640;0.474370;,
  0.957640;0.474370;,
  1.007640;0.474370;,
  0.007640;0.524370;,
  0.057640;0.524370;,
  0.107640;0.524370;,
  0.157640;0.524370;,
  0.207640;0.524370;,
  0.257640;0.524370;,
  0.307640;0.524370;,
  0.357640;0.524370;,
  0.407640;0.524370;,
  0.457640;0.524370;,
  0.507640;0.524370;,
  0.557640;0.524370;,
  0.607640;0.524370;,
  0.657640;0.524370;,
  0.707640;0.524370;,
  0.757640;0.524370;,
  0.807640;0.524370;,
  0.857640;0.524370;,
  0.907640;0.524370;,
  0.957640;0.524370;,
  1.007640;0.524370;,
  0.007640;0.574370;,
  0.057640;0.574370;,
  0.107640;0.574370;,
  0.157640;0.574370;,
  0.207640;0.574370;,
  0.257640;0.574370;,
  0.307640;0.574370;,
  0.357640;0.574370;,
  0.407640;0.574370;,
  0.457640;0.574370;,
  0.507640;0.574370;,
  0.557640;0.574370;,
  0.607640;0.574370;,
  0.657640;0.574370;,
  0.707640;0.574370;,
  0.757640;0.574370;,
  0.807640;0.574370;,
  0.857640;0.574370;,
  0.907640;0.574370;,
  0.957640;0.574370;,
  1.007640;0.574370;,
  0.007640;0.624370;,
  0.057640;0.624370;,
  0.107640;0.624370;,
  0.157640;0.624370;,
  0.207640;0.624370;,
  0.257640;0.624370;,
  0.307640;0.624370;,
  0.357640;0.624370;,
  0.407640;0.624370;,
  0.457640;0.624370;,
  0.507640;0.624370;,
  0.557640;0.624370;,
  0.607640;0.624370;,
  0.657640;0.624370;,
  0.707640;0.624370;,
  0.757640;0.624370;,
  0.807640;0.624370;,
  0.857640;0.624370;,
  0.907640;0.624370;,
  0.957640;0.624370;,
  1.007640;0.624370;,
  0.007640;0.674370;,
  0.057640;0.674370;,
  0.107640;0.674370;,
  0.157640;0.674370;,
  0.207640;0.674370;,
  0.257640;0.674370;,
  0.307640;0.674370;,
  0.357640;0.674370;,
  0.407640;0.674370;,
  0.457640;0.674370;,
  0.507640;0.674370;,
  0.557640;0.674370;,
  0.607640;0.674370;,
  0.657640;0.674370;,
  0.707640;0.674370;,
  0.757640;0.674370;,
  0.807640;0.674370;,
  0.857640;0.674370;,
  0.907640;0.674370;,
  0.957640;0.674370;,
  1.007640;0.674370;,
  0.007640;0.724370;,
  0.057640;0.724370;,
  0.107640;0.724370;,
  0.157640;0.724370;,
  0.207640;0.724370;,
  0.257640;0.724370;,
  0.307640;0.724370;,
  0.357640;0.724370;,
  0.407640;0.724370;,
  0.457640;0.724370;,
  0.507640;0.724370;,
  0.557640;0.724370;,
  0.607640;0.724370;,
  0.657640;0.724370;,
  0.707640;0.724370;,
  0.757640;0.724370;,
  0.807640;0.724370;,
  0.857640;0.724370;,
  0.907640;0.724370;,
  0.957640;0.724370;,
  1.007640;0.724370;,
  0.007640;0.774370;,
  0.057640;0.774370;,
  0.107640;0.774370;,
  0.157640;0.774370;,
  0.207640;0.774370;,
  0.257640;0.774370;,
  0.307640;0.774370;,
  0.357640;0.774370;,
  0.407640;0.774370;,
  0.457640;0.774370;,
  0.507640;0.774370;,
  0.557640;0.774370;,
  0.607640;0.774370;,
  0.657640;0.774370;,
  0.707640;0.774370;,
  0.757640;0.774370;,
  0.807640;0.774370;,
  0.857640;0.774370;,
  0.907640;0.774370;,
  0.957640;0.774370;,
  1.007640;0.774370;,
  0.007640;0.824370;,
  0.057640;0.824370;,
  0.107640;0.824370;,
  0.157640;0.824370;,
  0.207640;0.824370;,
  0.257640;0.824370;,
  0.307640;0.824370;,
  0.357640;0.824370;,
  0.407640;0.824370;,
  0.457640;0.824370;,
  0.507640;0.824370;,
  0.557640;0.824370;,
  0.607640;0.824370;,
  0.657640;0.824370;,
  0.707640;0.824370;,
  0.757640;0.824370;,
  0.807640;0.824370;,
  0.857640;0.824370;,
  0.907640;0.824370;,
  0.957640;0.824370;,
  1.007640;0.824370;,
  0.007640;0.874370;,
  0.057640;0.874370;,
  0.107640;0.874370;,
  0.157640;0.874370;,
  0.207640;0.874370;,
  0.257640;0.874370;,
  0.307640;0.874370;,
  0.357640;0.874370;,
  0.407640;0.874370;,
  0.457640;0.874370;,
  0.507640;0.874370;,
  0.557640;0.874370;,
  0.607640;0.874370;,
  0.657640;0.874370;,
  0.707640;0.874370;,
  0.757640;0.874370;,
  0.807640;0.874370;,
  0.857640;0.874370;,
  0.907640;0.874370;,
  0.957640;0.874370;,
  1.007640;0.874370;,
  0.032640;0.924370;,
  0.082640;0.924370;,
  0.132640;0.924370;,
  0.182640;0.924370;,
  0.232640;0.924370;,
  0.282640;0.924370;,
  0.332640;0.924370;,
  0.382640;0.924370;,
  0.432640;0.924370;,
  0.482640;0.924370;,
  0.532640;0.924370;,
  0.582640;0.924370;,
  0.632640;0.924370;,
  0.682640;0.924370;,
  0.732640;0.924370;,
  0.782640;0.924370;,
  0.832640;0.924370;,
  0.882640;0.924370;,
  0.932640;0.924370;,
  0.982640;0.924370;;
 }
 MeshVertexColors {
  456;
  0;1.000000;1.000000;1.000000;1.000000;,
  1;1.000000;1.000000;1.000000;1.000000;,
  2;1.000000;1.000000;1.000000;1.000000;,
  3;1.000000;1.000000;1.000000;1.000000;,
  4;1.000000;1.000000;1.000000;1.000000;,
  5;1.000000;1.000000;1.000000;1.000000;,
  6;1.000000;1.000000;1.000000;1.000000;,
  7;1.000000;1.000000;1.000000;1.000000;,
  8;1.000000;1.000000;1.000000;1.000000;,
  9;1.000000;1.000000;1.000000;1.000000;,
  10;1.000000;1.000000;1.000000;1.000000;,
  11;1.000000;1.000000;1.000000;1.000000;,
  12;1.000000;1.000000;1.000000;1.000000;,
  13;1.000000;1.000000;1.000000;1.000000;,
  14;1.000000;1.000000;1.000000;1.000000;,
  15;1.000000;1.000000;1.000000;1.000000;,
  16;1.000000;1.000000;1.000000;1.000000;,
  17;1.000000;1.000000;1.000000;1.000000;,
  18;1.000000;1.000000;1.000000;1.000000;,
  19;1.000000;1.000000;1.000000;1.000000;,
  20;1.000000;1.000000;1.000000;1.000000;,
  21;1.000000;1.000000;1.000000;1.000000;,
  22;1.000000;1.000000;1.000000;1.000000;,
  23;1.000000;1.000000;1.000000;1.000000;,
  24;1.000000;1.000000;1.000000;1.000000;,
  25;1.000000;1.000000;1.000000;1.000000;,
  26;1.000000;1.000000;1.000000;1.000000;,
  27;1.000000;1.000000;1.000000;1.000000;,
  28;1.000000;1.000000;1.000000;1.000000;,
  29;1.000000;1.000000;1.000000;1.000000;,
  30;1.000000;1.000000;1.000000;1.000000;,
  31;1.000000;1.000000;1.000000;1.000000;,
  32;1.000000;1.000000;1.000000;1.000000;,
  33;1.000000;1.000000;1.000000;1.000000;,
  34;1.000000;1.000000;1.000000;1.000000;,
  35;1.000000;1.000000;1.000000;1.000000;,
  36;1.000000;1.000000;1.000000;1.000000;,
  37;1.000000;1.000000;1.000000;1.000000;,
  38;1.000000;1.000000;1.000000;1.000000;,
  39;1.000000;1.000000;1.000000;1.000000;,
  40;1.000000;1.000000;1.000000;1.000000;,
  41;1.000000;1.000000;1.000000;1.000000;,
  42;1.000000;1.000000;1.000000;1.000000;,
  43;1.000000;1.000000;1.000000;1.000000;,
  44;1.000000;1.000000;1.000000;1.000000;,
  45;1.000000;1.000000;1.000000;1.000000;,
  46;1.000000;1.000000;1.000000;1.000000;,
  47;1.000000;1.000000;1.000000;1.000000;,
  48;1.000000;1.000000;1.000000;1.000000;,
  49;1.000000;1.000000;1.000000;1.000000;,
  50;1.000000;1.000000;1.000000;1.000000;,
  51;1.000000;1.000000;1.000000;1.000000;,
  52;1.000000;1.000000;1.000000;1.000000;,
  53;1.000000;1.000000;1.000000;1.000000;,
  54;1.000000;1.000000;1.000000;1.000000;,
  55;1.000000;1.000000;1.000000;1.000000;,
  56;1.000000;1.000000;1.000000;1.000000;,
  57;1.000000;1.000000;1.000000;1.000000;,
  58;1.000000;1.000000;1.000000;1.000000;,
  59;1.000000;1.000000;1.000000;1.000000;,
  60;1.000000;1.000000;1.000000;1.000000;,
  61;1.000000;1.000000;1.000000;1.000000;,
  62;1.000000;1.000000;1.000000;1.000000;,
  63;1.000000;1.000000;1.000000;1.000000;,
  64;1.000000;1.000000;1.000000;1.000000;,
  65;1.000000;1.000000;1.000000;1.000000;,
  66;1.000000;1.000000;1.000000;1.000000;,
  67;1.000000;1.000000;1.000000;1.000000;,
  68;1.000000;1.000000;1.000000;1.000000;,
  69;1.000000;1.000000;1.000000;1.000000;,
  70;1.000000;1.000000;1.000000;1.000000;,
  71;1.000000;1.000000;1.000000;1.000000;,
  72;1.000000;1.000000;1.000000;1.000000;,
  73;1.000000;1.000000;1.000000;1.000000;,
  74;1.000000;1.000000;1.000000;1.000000;,
  75;1.000000;1.000000;1.000000;1.000000;,
  76;1.000000;1.000000;1.000000;1.000000;,
  77;1.000000;1.000000;1.000000;1.000000;,
  78;1.000000;1.000000;1.000000;1.000000;,
  79;1.000000;1.000000;1.000000;1.000000;,
  80;1.000000;1.000000;1.000000;1.000000;,
  81;1.000000;1.000000;1.000000;1.000000;,
  82;1.000000;1.000000;1.000000;1.000000;,
  83;1.000000;1.000000;1.000000;1.000000;,
  84;1.000000;1.000000;1.000000;1.000000;,
  85;1.000000;1.000000;1.000000;1.000000;,
  86;1.000000;1.000000;1.000000;1.000000;,
  87;1.000000;1.000000;1.000000;1.000000;,
  88;1.000000;1.000000;1.000000;1.000000;,
  89;1.000000;1.000000;1.000000;1.000000;,
  90;1.000000;1.000000;1.000000;1.000000;,
  91;1.000000;1.000000;1.000000;1.000000;,
  92;1.000000;1.000000;1.000000;1.000000;,
  93;1.000000;1.000000;1.000000;1.000000;,
  94;1.000000;1.000000;1.000000;1.000000;,
  95;1.000000;1.000000;1.000000;1.000000;,
  96;1.000000;1.000000;1.000000;1.000000;,
  97;1.000000;1.000000;1.000000;1.000000;,
  98;1.000000;1.000000;1.000000;1.000000;,
  99;1.000000;1.000000;1.000000;1.000000;,
  100;1.000000;1.000000;1.000000;1.000000;,
  101;1.000000;1.000000;1.000000;1.000000;,
  102;1.000000;1.000000;1.000000;1.000000;,
  103;1.000000;1.000000;1.000000;1.000000;,
  104;1.000000;1.000000;1.000000;1.000000;,
  105;1.000000;1.000000;1.000000;1.000000;,
  106;1.000000;1.000000;1.000000;1.000000;,
  107;1.000000;1.000000;1.000000;1.000000;,
  108;1.000000;1.000000;1.000000;1.000000;,
  109;1.000000;1.000000;1.000000;1.000000;,
  110;1.000000;1.000000;1.000000;1.000000;,
  111;1.000000;1.000000;1.000000;1.000000;,
  112;1.000000;1.000000;1.000000;1.000000;,
  113;1.000000;1.000000;1.000000;1.000000;,
  114;1.000000;1.000000;1.000000;1.000000;,
  115;1.000000;1.000000;1.000000;1.000000;,
  116;1.000000;1.000000;1.000000;1.000000;,
  117;1.000000;1.000000;1.000000;1.000000;,
  118;1.000000;1.000000;1.000000;1.000000;,
  119;1.000000;1.000000;1.000000;1.000000;,
  120;1.000000;1.000000;1.000000;1.000000;,
  121;1.000000;1.000000;1.000000;1.000000;,
  122;1.000000;1.000000;1.000000;1.000000;,
  123;1.000000;1.000000;1.000000;1.000000;,
  124;1.000000;1.000000;1.000000;1.000000;,
  125;1.000000;1.000000;1.000000;1.000000;,
  126;1.000000;1.000000;1.000000;1.000000;,
  127;1.000000;1.000000;1.000000;1.000000;,
  128;1.000000;1.000000;1.000000;1.000000;,
  129;1.000000;1.000000;1.000000;1.000000;,
  130;1.000000;1.000000;1.000000;1.000000;,
  131;1.000000;1.000000;1.000000;1.000000;,
  132;1.000000;1.000000;1.000000;1.000000;,
  133;1.000000;1.000000;1.000000;1.000000;,
  134;1.000000;1.000000;1.000000;1.000000;,
  135;1.000000;1.000000;1.000000;1.000000;,
  136;1.000000;1.000000;1.000000;1.000000;,
  137;1.000000;1.000000;1.000000;1.000000;,
  138;1.000000;1.000000;1.000000;1.000000;,
  139;1.000000;1.000000;1.000000;1.000000;,
  140;1.000000;1.000000;1.000000;1.000000;,
  141;1.000000;1.000000;1.000000;1.000000;,
  142;1.000000;1.000000;1.000000;1.000000;,
  143;1.000000;1.000000;1.000000;1.000000;,
  144;1.000000;1.000000;1.000000;1.000000;,
  145;1.000000;1.000000;1.000000;1.000000;,
  146;1.000000;1.000000;1.000000;1.000000;,
  147;1.000000;1.000000;1.000000;1.000000;,
  148;1.000000;1.000000;1.000000;1.000000;,
  149;1.000000;1.000000;1.000000;1.000000;,
  150;1.000000;1.000000;1.000000;1.000000;,
  151;1.000000;1.000000;1.000000;1.000000;,
  152;1.000000;1.000000;1.000000;1.000000;,
  153;1.000000;1.000000;1.000000;1.000000;,
  154;1.000000;1.000000;1.000000;1.000000;,
  155;1.000000;1.000000;1.000000;1.000000;,
  156;1.000000;1.000000;1.000000;1.000000;,
  157;1.000000;1.000000;1.000000;1.000000;,
  158;1.000000;1.000000;1.000000;1.000000;,
  159;1.000000;1.000000;1.000000;1.000000;,
  160;1.000000;1.000000;1.000000;1.000000;,
  161;1.000000;1.000000;1.000000;1.000000;,
  162;1.000000;1.000000;1.000000;1.000000;,
  163;1.000000;1.000000;1.000000;1.000000;,
  164;1.000000;1.000000;1.000000;1.000000;,
  165;1.000000;1.000000;1.000000;1.000000;,
  166;1.000000;1.000000;1.000000;1.000000;,
  167;1.000000;1.000000;1.000000;1.000000;,
  168;1.000000;1.000000;1.000000;1.000000;,
  169;1.000000;1.000000;1.000000;1.000000;,
  170;1.000000;1.000000;1.000000;1.000000;,
  171;1.000000;1.000000;1.000000;1.000000;,
  172;1.000000;1.000000;1.000000;1.000000;,
  173;1.000000;1.000000;1.000000;1.000000;,
  174;1.000000;1.000000;1.000000;1.000000;,
  175;1.000000;1.000000;1.000000;1.000000;,
  176;1.000000;1.000000;1.000000;1.000000;,
  177;1.000000;1.000000;1.000000;1.000000;,
  178;1.000000;1.000000;1.000000;1.000000;,
  179;1.000000;1.000000;1.000000;1.000000;,
  180;1.000000;1.000000;1.000000;1.000000;,
  181;1.000000;1.000000;1.000000;1.000000;,
  182;1.000000;1.000000;1.000000;1.000000;,
  183;1.000000;1.000000;1.000000;1.000000;,
  184;1.000000;1.000000;1.000000;1.000000;,
  185;1.000000;1.000000;1.000000;1.000000;,
  186;1.000000;1.000000;1.000000;1.000000;,
  187;1.000000;1.000000;1.000000;1.000000;,
  188;1.000000;1.000000;1.000000;1.000000;,
  189;1.000000;1.000000;1.000000;1.000000;,
  190;1.000000;1.000000;1.000000;1.000000;,
  191;1.000000;1.000000;1.000000;1.000000;,
  192;1.000000;1.000000;1.000000;1.000000;,
  193;1.000000;1.000000;1.000000;1.000000;,
  194;1.000000;1.000000;1.000000;1.000000;,
  195;1.000000;1.000000;1.000000;1.000000;,
  196;1.000000;1.000000;1.000000;1.000000;,
  197;1.000000;1.000000;1.000000;1.000000;,
  198;1.000000;1.000000;1.000000;1.000000;,
  199;1.000000;1.000000;1.000000;1.000000;,
  200;1.000000;1.000000;1.000000;1.000000;,
  201;1.000000;1.000000;1.000000;1.000000;,
  202;1.000000;1.000000;1.000000;1.000000;,
  203;1.000000;1.000000;1.000000;1.000000;,
  204;1.000000;1.000000;1.000000;1.000000;,
  205;1.000000;1.000000;1.000000;1.000000;,
  206;1.000000;1.000000;1.000000;1.000000;,
  207;1.000000;1.000000;1.000000;1.000000;,
  208;1.000000;1.000000;1.000000;1.000000;,
  209;1.000000;1.000000;1.000000;1.000000;,
  210;1.000000;1.000000;1.000000;1.000000;,
  211;1.000000;1.000000;1.000000;1.000000;,
  212;1.000000;1.000000;1.000000;1.000000;,
  213;1.000000;1.000000;1.000000;1.000000;,
  214;1.000000;1.000000;1.000000;1.000000;,
  215;1.000000;1.000000;1.000000;1.000000;,
  216;1.000000;1.000000;1.000000;1.000000;,
  217;1.000000;1.000000;1.000000;1.000000;,
  218;1.000000;1.000000;1.000000;1.000000;,
  219;1.000000;1.000000;1.000000;1.000000;,
  220;1.000000;1.000000;1.000000;1.000000;,
  221;1.000000;1.000000;1.000000;1.000000;,
  222;1.000000;1.000000;1.000000;1.000000;,
  223;1.000000;1.000000;1.000000;1.000000;,
  224;1.000000;1.000000;1.000000;1.000000;,
  225;1.000000;1.000000;1.000000;1.000000;,
  226;1.000000;1.000000;1.000000;1.000000;,
  227;1.000000;1.000000;1.000000;1.000000;,
  228;1.000000;1.000000;1.000000;1.000000;,
  229;1.000000;1.000000;1.000000;1.000000;,
  230;1.000000;1.000000;1.000000;1.000000;,
  231;1.000000;1.000000;1.000000;1.000000;,
  232;1.000000;1.000000;1.000000;1.000000;,
  233;1.000000;1.000000;1.000000;1.000000;,
  234;1.000000;1.000000;1.000000;1.000000;,
  235;1.000000;1.000000;1.000000;1.000000;,
  236;1.000000;1.000000;1.000000;1.000000;,
  237;1.000000;1.000000;1.000000;1.000000;,
  238;1.000000;1.000000;1.000000;1.000000;,
  239;1.000000;1.000000;1.000000;1.000000;,
  240;1.000000;1.000000;1.000000;1.000000;,
  241;1.000000;1.000000;1.000000;1.000000;,
  242;1.000000;1.000000;1.000000;1.000000;,
  243;1.000000;1.000000;1.000000;1.000000;,
  244;1.000000;1.000000;1.000000;1.000000;,
  245;1.000000;1.000000;1.000000;1.000000;,
  246;1.000000;1.000000;1.000000;1.000000;,
  247;1.000000;1.000000;1.000000;1.000000;,
  248;1.000000;1.000000;1.000000;1.000000;,
  249;1.000000;1.000000;1.000000;1.000000;,
  250;1.000000;1.000000;1.000000;1.000000;,
  251;1.000000;1.000000;1.000000;1.000000;,
  252;1.000000;1.000000;1.000000;1.000000;,
  253;1.000000;1.000000;1.000000;1.000000;,
  254;1.000000;1.000000;1.000000;1.000000;,
  255;1.000000;1.000000;1.000000;1.000000;,
  256;1.000000;1.000000;1.000000;1.000000;,
  257;1.000000;1.000000;1.000000;1.000000;,
  258;1.000000;1.000000;1.000000;1.000000;,
  259;1.000000;1.000000;1.000000;1.000000;,
  260;1.000000;1.000000;1.000000;1.000000;,
  261;1.000000;1.000000;1.000000;1.000000;,
  262;1.000000;1.000000;1.000000;1.000000;,
  263;1.000000;1.000000;1.000000;1.000000;,
  264;1.000000;1.000000;1.000000;1.000000;,
  265;1.000000;1.000000;1.000000;1.000000;,
  266;1.000000;1.000000;1.000000;1.000000;,
  267;1.000000;1.000000;1.000000;1.000000;,
  268;1.000000;1.000000;1.000000;1.000000;,
  269;1.000000;1.000000;1.000000;1.000000;,
  270;1.000000;1.000000;1.000000;1.000000;,
  271;1.000000;1.000000;1.000000;1.000000;,
  272;1.000000;1.000000;1.000000;1.000000;,
  273;1.000000;1.000000;1.000000;1.000000;,
  274;1.000000;1.000000;1.000000;1.000000;,
  275;1.000000;1.000000;1.000000;1.000000;,
  276;1.000000;1.000000;1.000000;1.000000;,
  277;1.000000;1.000000;1.000000;1.000000;,
  278;1.000000;1.000000;1.000000;1.000000;,
  279;1.000000;1.000000;1.000000;1.000000;,
  280;1.000000;1.000000;1.000000;1.000000;,
  281;1.000000;1.000000;1.000000;1.000000;,
  282;1.000000;1.000000;1.000000;1.000000;,
  283;1.000000;1.000000;1.000000;1.000000;,
  284;1.000000;1.000000;1.000000;1.000000;,
  285;1.000000;1.000000;1.000000;1.000000;,
  286;1.000000;1.000000;1.000000;1.000000;,
  287;1.000000;1.000000;1.000000;1.000000;,
  288;1.000000;1.000000;1.000000;1.000000;,
  289;1.000000;1.000000;1.000000;1.000000;,
  290;1.000000;1.000000;1.000000;1.000000;,
  291;1.000000;1.000000;1.000000;1.000000;,
  292;1.000000;1.000000;1.000000;1.000000;,
  293;1.000000;1.000000;1.000000;1.000000;,
  294;1.000000;1.000000;1.000000;1.000000;,
  295;1.000000;1.000000;1.000000;1.000000;,
  296;1.000000;1.000000;1.000000;1.000000;,
  297;1.000000;1.000000;1.000000;1.000000;,
  298;1.000000;1.000000;1.000000;1.000000;,
  299;1.000000;1.000000;1.000000;1.000000;,
  300;1.000000;1.000000;1.000000;1.000000;,
  301;1.000000;1.000000;1.000000;1.000000;,
  302;1.000000;1.000000;1.000000;1.000000;,
  303;1.000000;1.000000;1.000000;1.000000;,
  304;1.000000;1.000000;1.000000;1.000000;,
  305;1.000000;1.000000;1.000000;1.000000;,
  306;1.000000;1.000000;1.000000;1.000000;,
  307;1.000000;1.000000;1.000000;1.000000;,
  308;1.000000;1.000000;1.000000;1.000000;,
  309;1.000000;1.000000;1.000000;1.000000;,
  310;1.000000;1.000000;1.000000;1.000000;,
  311;1.000000;1.000000;1.000000;1.000000;,
  312;1.000000;1.000000;1.000000;1.000000;,
  313;1.000000;1.000000;1.000000;1.000000;,
  314;1.000000;1.000000;1.000000;1.000000;,
  315;1.000000;1.000000;1.000000;1.000000;,
  316;1.000000;1.000000;1.000000;1.000000;,
  317;1.000000;1.000000;1.000000;1.000000;,
  318;1.000000;1.000000;1.000000;1.000000;,
  319;1.000000;1.000000;1.000000;1.000000;,
  320;1.000000;1.000000;1.000000;1.000000;,
  321;1.000000;1.000000;1.000000;1.000000;,
  322;1.000000;1.000000;1.000000;1.000000;,
  323;1.000000;1.000000;1.000000;1.000000;,
  324;1.000000;1.000000;1.000000;1.000000;,
  325;1.000000;1.000000;1.000000;1.000000;,
  326;1.000000;1.000000;1.000000;1.000000;,
  327;1.000000;1.000000;1.000000;1.000000;,
  328;1.000000;1.000000;1.000000;1.000000;,
  329;1.000000;1.000000;1.000000;1.000000;,
  330;1.000000;1.000000;1.000000;1.000000;,
  331;1.000000;1.000000;1.000000;1.000000;,
  332;1.000000;1.000000;1.000000;1.000000;,
  333;1.000000;1.000000;1.000000;1.000000;,
  334;1.000000;1.000000;1.000000;1.000000;,
  335;1.000000;1.000000;1.000000;1.000000;,
  336;1.000000;1.000000;1.000000;1.000000;,
  337;1.000000;1.000000;1.000000;1.000000;,
  338;1.000000;1.000000;1.000000;1.000000;,
  339;1.000000;1.000000;1.000000;1.000000;,
  340;1.000000;1.000000;1.000000;1.000000;,
  341;1.000000;1.000000;1.000000;1.000000;,
  342;1.000000;1.000000;1.000000;1.000000;,
  343;1.000000;1.000000;1.000000;1.000000;,
  344;1.000000;1.000000;1.000000;1.000000;,
  345;1.000000;1.000000;1.000000;1.000000;,
  346;1.000000;1.000000;1.000000;1.000000;,
  347;1.000000;1.000000;1.000000;1.000000;,
  348;1.000000;1.000000;1.000000;1.000000;,
  349;1.000000;1.000000;1.000000;1.000000;,
  350;1.000000;1.000000;1.000000;1.000000;,
  351;1.000000;1.000000;1.000000;1.000000;,
  352;1.000000;1.000000;1.000000;1.000000;,
  353;1.000000;1.000000;1.000000;1.000000;,
  354;1.000000;1.000000;1.000000;1.000000;,
  355;1.000000;1.000000;1.000000;1.000000;,
  356;1.000000;1.000000;1.000000;1.000000;,
  357;1.000000;1.000000;1.000000;1.000000;,
  358;1.000000;1.000000;1.000000;1.000000;,
  359;1.000000;1.000000;1.000000;1.000000;,
  360;1.000000;1.000000;1.000000;1.000000;,
  361;1.000000;1.000000;1.000000;1.000000;,
  362;1.000000;1.000000;1.000000;1.000000;,
  363;1.000000;1.000000;1.000000;1.000000;,
  364;1.000000;1.000000;1.000000;1.000000;,
  365;1.000000;1.000000;1.000000;1.000000;,
  366;1.000000;1.000000;1.000000;1.000000;,
  367;1.000000;1.000000;1.000000;1.000000;,
  368;1.000000;1.000000;1.000000;1.000000;,
  369;1.000000;1.000000;1.000000;1.000000;,
  370;1.000000;1.000000;1.000000;1.000000;,
  371;1.000000;1.000000;1.000000;1.000000;,
  372;1.000000;1.000000;1.000000;1.000000;,
  373;1.000000;1.000000;1.000000;1.000000;,
  374;1.000000;1.000000;1.000000;1.000000;,
  375;1.000000;1.000000;1.000000;1.000000;,
  376;1.000000;1.000000;1.000000;1.000000;,
  377;1.000000;1.000000;1.000000;1.000000;,
  378;1.000000;1.000000;1.000000;1.000000;,
  379;1.000000;1.000000;1.000000;1.000000;,
  380;1.000000;1.000000;1.000000;1.000000;,
  381;1.000000;1.000000;1.000000;1.000000;,
  382;1.000000;1.000000;1.000000;1.000000;,
  383;1.000000;1.000000;1.000000;1.000000;,
  384;1.000000;1.000000;1.000000;1.000000;,
  385;1.000000;1.000000;1.000000;1.000000;,
  386;1.000000;1.000000;1.000000;1.000000;,
  387;1.000000;1.000000;1.000000;1.000000;,
  388;1.000000;1.000000;1.000000;1.000000;,
  389;1.000000;1.000000;1.000000;1.000000;,
  390;1.000000;1.000000;1.000000;1.000000;,
  391;1.000000;1.000000;1.000000;1.000000;,
  392;1.000000;1.000000;1.000000;1.000000;,
  393;1.000000;1.000000;1.000000;1.000000;,
  394;1.000000;1.000000;1.000000;1.000000;,
  395;1.000000;1.000000;1.000000;1.000000;,
  396;1.000000;1.000000;1.000000;1.000000;,
  397;1.000000;1.000000;1.000000;1.000000;,
  398;1.000000;1.000000;1.000000;1.000000;,
  399;1.000000;1.000000;1.000000;1.000000;,
  400;1.000000;1.000000;1.000000;1.000000;,
  401;1.000000;1.000000;1.000000;1.000000;,
  402;1.000000;1.000000;1.000000;1.000000;,
  403;1.000000;1.000000;1.000000;1.000000;,
  404;1.000000;1.000000;1.000000;1.000000;,
  405;1.000000;1.000000;1.000000;1.000000;,
  406;1.000000;1.000000;1.000000;1.000000;,
  407;1.000000;1.000000;1.000000;1.000000;,
  408;1.000000;1.000000;1.000000;1.000000;,
  409;1.000000;1.000000;1.000000;1.000000;,
  410;1.000000;1.000000;1.000000;1.000000;,
  411;1.000000;1.000000;1.000000;1.000000;,
  412;1.000000;1.000000;1.000000;1.000000;,
  413;1.000000;1.000000;1.000000;1.000000;,
  414;1.000000;1.000000;1.000000;1.000000;,
  415;1.000000;1.000000;1.000000;1.000000;,
  416;1.000000;1.000000;1.000000;1.000000;,
  417;1.000000;1.000000;1.000000;1.000000;,
  418;1.000000;1.000000;1.000000;1.000000;,
  419;1.000000;1.000000;1.000000;1.000000;,
  420;1.000000;1.000000;1.000000;1.000000;,
  421;1.000000;1.000000;1.000000;1.000000;,
  422;1.000000;1.000000;1.000000;1.000000;,
  423;1.000000;1.000000;1.000000;1.000000;,
  424;1.000000;1.000000;1.000000;1.000000;,
  425;1.000000;1.000000;1.000000;1.000000;,
  426;1.000000;1.000000;1.000000;1.000000;,
  427;1.000000;1.000000;1.000000;1.000000;,
  428;1.000000;1.000000;1.000000;1.000000;,
  429;1.000000;1.000000;1.000000;1.000000;,
  430;1.000000;1.000000;1.000000;1.000000;,
  431;1.000000;1.000000;1.000000;1.000000;,
  432;1.000000;1.000000;1.000000;1.000000;,
  433;1.000000;1.000000;1.000000;1.000000;,
  434;1.000000;1.000000;1.000000;1.000000;,
  435;1.000000;1.000000;1.000000;1.000000;,
  436;1.000000;1.000000;1.000000;1.000000;,
  437;1.000000;1.000000;1.000000;1.000000;,
  438;1.000000;1.000000;1.000000;1.000000;,
  439;1.000000;1.000000;1.000000;1.000000;,
  440;1.000000;1.000000;1.000000;1.000000;,
  441;1.000000;1.000000;1.000000;1.000000;,
  442;1.000000;1.000000;1.000000;1.000000;,
  443;1.000000;1.000000;1.000000;1.000000;,
  444;1.000000;1.000000;1.000000;1.000000;,
  445;1.000000;1.000000;1.000000;1.000000;,
  446;1.000000;1.000000;1.000000;1.000000;,
  447;1.000000;1.000000;1.000000;1.000000;,
  448;1.000000;1.000000;1.000000;1.000000;,
  449;1.000000;1.000000;1.000000;1.000000;,
  450;1.000000;1.000000;1.000000;1.000000;,
  451;1.000000;1.000000;1.000000;1.000000;,
  452;1.000000;1.000000;1.000000;1.000000;,
  453;1.000000;1.000000;1.000000;1.000000;,
  454;1.000000;1.000000;1.000000;1.000000;,
  455;1.000000;1.000000;1.000000;1.000000;;
 }
}
