xof 0302txt 0064
template Header {
 <3D82AB43-62DA-11cf-AB39-0020AF71E433>
 WORD major;
 WORD minor;
 DWORD flags;
}

template Vector {
 <3D82AB5E-62DA-11cf-AB39-0020AF71E433>
 FLOAT x;
 FLOAT y;
 FLOAT z;
}

template Coords2d {
 <F6F23F44-7686-11cf-8F52-0040333594A3>
 FLOAT u;
 FLOAT v;
}

template Matrix4x4 {
 <F6F23F45-7686-11cf-8F52-0040333594A3>
 array FLOAT matrix[16];
}

template ColorRGBA {
 <35FF44E0-6C7C-11cf-8F52-0040333594A3>
 FLOAT red;
 FLOAT green;
 FLOAT blue;
 FLOAT alpha;
}

template ColorRGB {
 <D3E16E81-7835-11cf-8F52-0040333594A3>
 FLOAT red;
 FLOAT green;
 FLOAT blue;
}

template IndexedColor {
 <1630B820-7842-11cf-8F52-0040333594A3>
 DWORD index;
 ColorRGBA indexColor;
}

template Boolean {
 <4885AE61-78E8-11cf-8F52-0040333594A3>
 WORD truefalse;
}

template Boolean2d {
 <4885AE63-78E8-11cf-8F52-0040333594A3>
 Boolean u;
 Boolean v;
}

template MaterialWrap {
 <4885AE60-78E8-11cf-8F52-0040333594A3>
 Boolean u;
 Boolean v;
}

template TextureFilename {
 <A42790E1-7810-11cf-8F52-0040333594A3>
 STRING filename;
}

template Material {
 <3D82AB4D-62DA-11cf-AB39-0020AF71E433>
 ColorRGBA faceColor;
 FLOAT power;
 ColorRGB specularColor;
 ColorRGB emissiveColor;
 [...]
}

template MeshFace {
 <3D82AB5F-62DA-11cf-AB39-0020AF71E433>
 DWORD nFaceVertexIndices;
 array DWORD faceVertexIndices[nFaceVertexIndices];
}

template MeshFaceWraps {
 <4885AE62-78E8-11cf-8F52-0040333594A3>
 DWORD nFaceWrapValues;
 Boolean2d faceWrapValues;
}

template MeshTextureCoords {
 <F6F23F40-7686-11cf-8F52-0040333594A3>
 DWORD nTextureCoords;
 array Coords2d textureCoords[nTextureCoords];
}

template MeshMaterialList {
 <F6F23F42-7686-11cf-8F52-0040333594A3>
 DWORD nMaterials;
 DWORD nFaceIndexes;
 array DWORD faceIndexes[nFaceIndexes];
 [Material]
}

template MeshNormals {
 <F6F23F43-7686-11cf-8F52-0040333594A3>
 DWORD nNormals;
 array Vector normals[nNormals];
 DWORD nFaceNormals;
 array MeshFace faceNormals[nFaceNormals];
}

template MeshVertexColors {
 <1630B821-7842-11cf-8F52-0040333594A3>
 DWORD nVertexColors;
 array IndexedColor vertexColors[nVertexColors];
}

template Mesh {
 <3D82AB44-62DA-11cf-AB39-0020AF71E433>
 DWORD nVertices;
 array Vector vertices[nVertices];
 DWORD nFaces;
 array MeshFace faces[nFaces];
 [...]
}

Header{
1;
0;
1;
}

Mesh {
 281;
 12.95016;3.64571;-10.51967;,
 12.95016;5.73145;-10.51967;,
 19.95016;5.73145;-10.51967;,
 19.95016;3.64571;-10.51967;,
 19.95016;3.64571;9.03753;,
 19.95016;5.73145;9.03753;,
 12.95016;5.73145;9.03753;,
 12.95016;3.64571;9.03753;,
 19.95016;1.43751;-10.51967;,
 19.95016;-1.26855;-10.51967;,
 12.95016;-1.26855;-10.51967;,
 12.95016;1.43751;-10.51967;,
 12.95016;1.43751;9.03753;,
 12.95016;-1.26855;9.03753;,
 19.95016;-1.26855;9.03753;,
 19.95016;1.43751;9.03753;,
 19.95016;5.73145;-3.64498;,
 19.95016;5.73145;-10.51967;,
 12.95016;5.73145;-10.51967;,
 12.95016;5.73145;-3.64498;,
 12.95016;5.73145;9.03753;,
 19.95016;5.73145;9.03753;,
 19.95016;-1.26855;-3.64498;,
 19.95016;-1.26855;9.03753;,
 12.95016;-1.26855;9.03753;,
 12.95016;-1.26855;-3.64498;,
 12.95016;-1.26855;-10.51967;,
 19.95016;-1.26855;-10.51967;,
 19.95016;5.73145;-3.64498;,
 19.95016;5.73145;9.03753;,
 19.95016;3.64571;9.03753;,
 19.95016;3.64571;-3.64498;,
 19.95016;3.64571;-10.51967;,
 19.95016;5.73145;-10.51967;,
 12.95016;5.73145;-3.64498;,
 12.95016;5.73145;-10.51967;,
 12.95016;3.64571;-10.51967;,
 12.95016;3.64571;-3.64498;,
 12.95016;3.64571;9.03753;,
 12.95016;5.73145;9.03753;,
 19.95016;-1.26855;-3.64498;,
 19.95016;-1.26855;-10.51967;,
 19.95016;1.43751;-10.51967;,
 19.95016;1.43751;-3.64498;,
 19.95016;1.43751;9.03753;,
 12.95016;-1.26855;-3.64498;,
 12.95016;-1.26855;9.03753;,
 12.95016;1.43751;9.03753;,
 12.95016;1.43751;-3.64498;,
 12.95016;1.43751;-10.51967;,
 12.95016;-1.26855;-10.51967;,
 12.95016;10.02626;9.02018;,
 19.95016;10.02626;9.02018;,
 19.95016;10.02626;1.98518;,
 12.95016;10.02626;1.98518;,
 12.95016;3.02626;1.98518;,
 19.95016;3.02626;1.98518;,
 19.95016;3.02626;9.02018;,
 12.95016;3.02626;9.02018;,
 19.95016;3.64571;1.98518;,
 19.95016;3.02626;1.98518;,
 12.95016;3.02626;1.98518;,
 12.95016;3.64571;1.98518;,
 12.95016;3.64571;1.98518;,
 12.95016;10.02626;1.98518;,
 19.95016;10.02626;1.98518;,
 19.95016;3.64571;1.98518;,
 19.95016;3.64571;9.02018;,
 19.95016;3.02626;1.98518;,
 19.95016;3.64571;1.98518;,
 19.95016;10.02626;1.98518;,
 19.95016;10.02626;9.02018;,
 12.95016;3.64571;9.02018;,
 12.95016;3.02626;9.02018;,
 19.95016;3.02626;9.02018;,
 19.95016;3.64571;9.02018;,
 19.95016;10.02626;9.02018;,
 12.95016;10.02626;9.02018;,
 12.95016;3.64571;1.98518;,
 12.95016;3.02626;1.98518;,
 12.95016;3.02626;9.02018;,
 12.95016;3.64571;9.02018;,
 12.95016;10.02626;9.02018;,
 12.95016;10.02626;1.98518;,
 6.21699;3.64571;9.04272;,
 6.21699;5.73145;9.04272;,
 -0.78301;5.73145;9.04272;,
 -0.78301;3.64571;9.04272;,
 -0.78301;1.43751;9.04270;,
 -0.78301;-1.26855;9.04270;,
 6.21698;-1.26855;9.04271;,
 6.21699;1.43751;9.04272;,
 -0.78301;5.73145;-3.64498;,
 -0.78301;5.73145;9.04272;,
 6.21699;5.73145;9.04272;,
 6.21698;5.73145;-3.64498;,
 6.21698;5.73145;-3.64498;,
 6.21699;5.73145;9.04272;,
 6.21699;3.64571;9.04272;,
 6.21698;3.64571;-3.64498;,
 -0.78301;3.41527;-3.64498;,
 -0.78301;3.64571;9.04272;,
 -0.78301;5.73145;9.04272;,
 -0.78301;5.73145;-3.64498;,
 6.21698;1.43751;-3.64498;,
 6.21699;1.43751;9.04272;,
 6.21698;-1.26855;9.04271;,
 6.21698;-1.26855;-3.64498;,
 -0.78301;1.43751;-3.64498;,
 -0.78301;1.43751;9.04270;,
 -20.02075;3.64571;-3.75674;,
 -20.02075;5.73145;-3.75674;,
 -0.75400;5.73145;-3.75674;,
 -0.75400;3.41527;-3.75674;,
 -0.75400;3.64571;9.04272;,
 -0.75400;5.73145;9.04272;,
 -20.02075;5.73145;9.04272;,
 -20.02075;3.64571;9.04272;,
 -0.75400;1.43751;-3.75674;,
 -0.75400;-1.26855;-3.75674;,
 -20.02075;-1.26855;-3.75674;,
 -20.02075;1.43751;-3.75674;,
 -20.02075;1.43751;9.04272;,
 -20.02075;-1.26855;9.04272;,
 -0.75400;-1.26855;9.04270;,
 -0.75400;1.43751;9.04270;,
 -0.75400;5.73145;-3.64498;,
 -0.75400;5.73145;-3.75674;,
 -20.02075;5.73145;-3.75674;,
 -20.02075;5.73145;-3.64498;,
 -20.02075;5.73145;-3.64498;,
 -20.02075;5.73145;9.04272;,
 -0.75400;5.73145;9.04272;,
 -0.75400;5.73145;-3.64498;,
 -0.75400;-1.26855;-3.64498;,
 -0.75400;-1.26855;9.04270;,
 -20.02075;-1.26855;9.04272;,
 -20.02075;-1.26855;-3.64498;,
 -20.02075;-1.26855;-3.75674;,
 -0.75400;-1.26855;-3.75674;,
 -0.75400;5.73145;-3.64498;,
 -0.75400;5.73145;9.04272;,
 -0.75400;3.64571;9.04272;,
 -0.75400;3.41527;-3.64498;,
 -20.02075;5.73145;-3.64498;,
 -20.02075;5.73145;-3.75674;,
 -20.02075;3.64571;-3.75674;,
 -20.02075;3.64571;-3.64498;,
 -20.02075;3.64571;-3.64498;,
 -20.02075;3.64571;9.04272;,
 -20.02075;5.73145;9.04272;,
 -20.02075;5.73145;-3.64498;,
 -0.75400;1.43751;9.04270;,
 -0.75400;1.43751;-3.64498;,
 -20.02075;-1.26855;-3.64498;,
 -20.02075;-1.26855;9.04272;,
 -20.02075;1.43751;9.04272;,
 -20.02075;1.43751;-3.64498;,
 -20.02075;1.43751;-3.64498;,
 -20.02075;1.43751;-3.75674;,
 -20.02075;-1.26855;-3.75674;,
 -20.02075;-1.26855;-3.64498;,
 -13.03631;3.41527;-3.62687;,
 -13.03631;5.73145;-3.62687;,
 -20.03631;5.73145;-3.62687;,
 -20.03631;3.64571;-3.62687;,
 -20.03631;1.43751;-3.62687;,
 -20.03631;-1.26855;-3.62687;,
 -13.03631;-1.26855;-3.62687;,
 -13.03631;1.43751;-3.62687;,
 -20.03631;5.73145;-9.44352;,
 -20.03631;5.73145;-3.62687;,
 -13.03631;5.73145;-3.62687;,
 -13.03631;5.73145;-9.44352;,
 -13.03631;-1.26855;-9.44352;,
 -13.03631;-1.26855;-3.62687;,
 -20.03631;-1.26855;-3.62687;,
 -20.03631;-1.26855;-9.44352;,
 -20.03631;3.64571;-9.44352;,
 -20.03631;3.64571;-3.62687;,
 -20.03631;5.73145;-3.62687;,
 -20.03631;5.73145;-9.44352;,
 -20.03631;-1.26855;-9.44352;,
 -20.03631;-1.26855;-3.62687;,
 -20.03631;1.43751;-3.62687;,
 -20.03631;1.43751;-9.44352;,
 -13.06532;3.41527;-9.44352;,
 -13.06532;3.41527;-9.33177;,
 -13.06532;5.73145;-9.33177;,
 -13.06532;5.73145;-9.44352;,
 -13.06532;-1.26855;-9.44352;,
 -13.06532;-1.26855;-9.33177;,
 -13.06532;1.43751;-9.33177;,
 -13.06532;1.43751;-9.44352;,
 -10.57320;5.73145;-9.44352;,
 -10.57320;5.73145;-3.62687;,
 -10.57320;3.41527;-3.62687;,
 -10.57320;3.41527;-9.44352;,
 -7.05957;3.41527;-9.44352;,
 -7.05957;3.41527;-3.62687;,
 -7.05957;1.43751;-3.62687;,
 -7.05957;1.43751;-9.44352;,
 -4.35988;1.43751;-9.44352;,
 -4.35988;1.43751;-3.62687;,
 -4.35988;-1.26855;-3.62687;,
 -4.35988;-1.26855;-9.44352;,
 -13.03631;1.43751;-3.62687;,
 -13.03631;-1.26855;-3.62687;,
 -8.51187;1.43751;-3.62687;,
 -8.51187;3.41527;-3.62687;,
 -13.03631;3.41527;-3.62687;,
 -13.03631;1.43751;-3.62687;,
 -10.57320;5.73145;-3.62687;,
 -13.03631;5.73145;-3.62687;,
 -13.03631;3.41527;-3.62687;,
 -10.57320;3.41527;-3.62687;,
 -8.51187;1.43751;-3.62687;,
 -4.35988;1.43751;-3.62687;,
 -4.35988;1.43751;-9.44352;,
 -8.51187;1.43751;-9.44352;,
 -10.57320;3.41527;-3.62687;,
 -8.51187;3.41527;-3.62687;,
 -8.51187;3.41527;-9.44352;,
 -10.57320;3.41527;-9.44352;,
 -13.03631;5.73145;-3.62687;,
 -10.57320;5.73145;-3.62687;,
 -10.57320;5.73145;-9.44352;,
 -13.06532;5.73145;-9.33177;,
 -7.05957;1.43751;-3.62687;,
 -7.05957;3.41527;-3.62687;,
 -7.05957;3.41527;-3.62687;,
 -7.05957;3.41527;-9.44352;,
 -8.51187;3.41527;-3.62687;,
 6.21698;5.73145;-3.64498;,
 6.21698;0.00000;-3.64498;,
 -0.75400;5.73145;-3.75674;,
 -0.75400;0.00000;-3.75674;,
 -0.75400;5.73145;-3.75674;,
 -20.02075;5.73145;-3.75674;,
 6.21698;5.73145;-3.64498;,
 -13.03631;5.73145;-9.44352;,
 -13.03631;-1.26855;-9.44352;,
 -20.03631;-1.26855;-9.44352;,
 -20.03631;5.73145;-9.44352;,
 -13.06532;1.43751;-9.44352;,
 -13.06532;3.41527;-9.44352;,
 -7.05957;3.41527;-9.44352;,
 -7.05957;1.43751;-9.44352;,
 -13.06532;5.73145;-9.44352;,
 -10.57320;5.73145;-9.44352;,
 -10.57320;3.41527;-9.44352;,
 -4.35988;-1.26855;-9.44352;,
 -4.35988;1.43751;-9.44352;,
 -8.51187;1.43751;-9.44352;,
 -20.00784;5.72024;-26.55906;,
 -12.86679;5.72024;-26.55906;,
 -12.86679;-1.27976;-26.55906;,
 -20.00784;-1.27976;-26.55906;,
 -12.86679;5.72024;-26.55906;,
 -12.86679;5.72024;-19.12731;,
 -12.86679;-1.27976;-19.12731;,
 -12.86679;-1.27976;-26.55906;,
 -12.86679;5.72024;-19.12731;,
 -20.00784;5.72024;-19.12731;,
 -20.00784;-1.27976;-19.12731;,
 -12.86679;-1.27976;-19.12731;,
 -20.00784;5.72024;-19.12731;,
 -20.00784;5.72024;-26.55906;,
 -20.00784;-1.27976;-26.55906;,
 -20.00784;-1.27976;-19.12731;,
 -20.00784;5.72024;-19.12731;,
 -12.86679;5.72024;-19.12731;,
 -12.86679;5.72024;-26.55906;,
 -20.00784;5.72024;-26.55906;,
 -20.00784;-1.27976;-26.55906;,
 -12.86679;-1.27976;-26.55906;,
 -20.00784;-1.27976;-19.12731;,
 -29.39289;0.00000;24.06590;,
 28.32924;0.00000;24.06590;,
 28.32924;0.00000;-33.65623;,
 -29.39289;0.00000;-33.65623;;
 
 97;
 4;0,1,2,3;,
 4;4,5,6,7;,
 4;8,9,10,11;,
 4;11,0,3,8;,
 4;12,13,14,15;,
 4;15,4,7,12;,
 4;16,17,18,19;,
 4;19,20,21,16;,
 4;22,23,24,25;,
 4;25,26,27,22;,
 4;28,29,30,31;,
 4;31,32,33,28;,
 4;34,35,36,37;,
 4;37,38,39,34;,
 4;40,41,42,43;,
 4;43,44,23,40;,
 4;31,30,44,43;,
 4;43,42,32,31;,
 4;45,46,47,48;,
 4;48,49,50,45;,
 4;37,36,49,48;,
 4;48,47,38,37;,
 4;51,52,53,54;,
 4;55,56,57,58;,
 4;59,60,61,62;,
 4;63,64,65,66;,
 4;67,57,68,69;,
 4;69,70,71,67;,
 4;72,73,74,75;,
 4;75,76,77,72;,
 4;78,79,80,81;,
 4;81,82,83,78;,
 4;84,85,86,87;,
 4;88,89,90,91;,
 4;91,84,87,88;,
 4;92,93,94,95;,
 4;96,97,98,99;,
 4;100,101,102,103;,
 4;104,105,106,107;,
 4;99,98,105,104;,
 4;108,109,101,100;,
 4;110,111,112,113;,
 4;114,115,116,117;,
 4;118,119,120,121;,
 4;121,110,113,118;,
 4;122,123,124,125;,
 4;125,114,117,122;,
 4;126,127,128,129;,
 4;130,131,132,133;,
 4;134,135,136,137;,
 4;137,138,139,134;,
 4;140,141,142,143;,
 4;144,145,146,147;,
 4;148,149,150,151;,
 4;143,142,152,153;,
 4;154,155,156,157;,
 4;158,159,160,161;,
 4;147,146,159,158;,
 4;157,156,149,148;,
 4;162,163,164,165;,
 4;166,167,168,169;,
 4;169,162,165,166;,
 4;170,171,172,173;,
 4;174,175,176,177;,
 4;178,179,180,181;,
 4;182,183,184,185;,
 4;185,184,179,178;,
 4;186,187,188,189;,
 4;190,191,192,193;,
 4;193,192,187,186;,
 4;194,195,196,197;,
 4;198,199,200,201;,
 4;202,203,204,205;,
 4;206,207,204,203;,
 4;208,209,210,211;,
 4;212,213,214,215;,
 4;216,217,218,219;,
 4;220,221,222,223;,
 4;224,225,226,227;,
 4;209,208,228,229;,
 4;230,231,222,232;,
 3;233,234,235;,
 3;234,236,237;,
 3;238,195,239;,
 4;240,241,242,243;,
 4;244,245,246,247;,
 4;245,248,249,250;,
 3;251,241,252;,
 3;241,244,253;,
 3;253,252,241;,
 4;254,255,256,257;,
 4;258,259,260,261;,
 4;262,263,264,265;,
 4;266,267,268,269;,
 4;270,271,272,273;,
 4;274,275,260,276;,
 4;277,278,279,280;;
 
 MeshMaterialList {
  2;
  97;
  1,
  1,
  1,
  1,
  1,
  1,
  0,
  0,
  0,
  0,
  1,
  1,
  1,
  1,
  1,
  1,
  1,
  1,
  1,
  1,
  1,
  1,
  0,
  0,
  0,
  1,
  0,
  1,
  0,
  1,
  1,
  1,
  1,
  1,
  1,
  0,
  1,
  0,
  1,
  1,
  0,
  1,
  1,
  1,
  1,
  1,
  1,
  0,
  0,
  0,
  0,
  0,
  0,
  1,
  0,
  1,
  0,
  0,
  1,
  0,
  0,
  0,
  0,
  0,
  1,
  1,
  1,
  0,
  0,
  0,
  1,
  1,
  1,
  0,
  0,
  0,
  0,
  0,
  0,
  0,
  0,
  1,
  1,
  0,
  1,
  1,
  1,
  1,
  1,
  1,
  1,
  1,
  1,
  1,
  0,
  0,
  0;;
  Material {
   0.800000;0.800000;0.800000;1.000000;;
   5.000000;
   0.000000;0.000000;0.000000;;
   0.000000;0.000000;0.000000;;
   TextureFilename {
    "Data\\Graphics\\XFileTexture\\ground3.png";
   }
  }
  Material {
   0.800000;0.800000;0.800000;1.000000;;
   5.000000;
   0.000000;0.000000;0.000000;;
   0.000000;0.000000;0.000000;;
   TextureFilename {
    "Data\\Graphics\\XFileTexture\\oahe.png";
   }
  }
 }
 MeshNormals {
  59;
  0.000000;0.000000;-1.000000;,
  0.000000;0.000000;1.000000;,
  0.000000;1.000000;0.000000;,
  0.000000;-1.000000;-0.000000;,
  -1.000000;0.000000;0.000000;,
  1.000000;0.000000;0.000000;,
  0.000000;1.000000;0.000000;,
  0.000000;-1.000000;-0.000000;,
  0.000000;0.000000;-1.000000;,
  1.000000;0.000000;0.000000;,
  0.000000;0.000000;1.000000;,
  -1.000000;0.000000;0.000000;,
  0.000000;0.000000;1.000000;,
  -0.000001;-0.000002;1.000000;,
  -0.000000;-0.000002;1.000000;,
  -0.000001;-0.000003;1.000000;,
  0.000000;1.000000;0.000000;,
  1.000000;-0.000002;-0.000000;,
  -1.000000;0.000000;0.000000;,
  1.000000;0.000000;-0.000001;,
  -1.000000;0.000001;0.000000;,
  1.000000;-0.000001;-0.000001;,
  1.000000;0.000000;-0.000001;,
  -1.000000;0.000000;0.000000;,
  0.000000;0.000000;-1.000000;,
  0.000000;0.000000;-1.000000;,
  0.000000;0.000000;1.000000;,
  0.000001;0.000000;1.000000;,
  0.000000;0.000000;-1.000000;,
  0.000000;-0.000002;1.000000;,
  0.000001;-0.000002;1.000000;,
  0.000000;1.000000;0.000000;,
  0.000000;-1.000000;-0.000000;,
  -1.000000;0.000000;0.000000;,
  1.000000;0.000000;-0.000000;,
  1.000000;0.000000;-0.000000;,
  1.000000;0.000000;-0.000000;,
  0.000000;0.000000;1.000000;,
  0.000000;1.000000;0.000000;,
  0.000000;-1.000000;0.000000;,
  -1.000000;0.000000;-0.000001;,
  -1.000000;0.000000;-0.000029;,
  -1.000000;0.000000;-0.000029;,
  1.000000;0.000000;0.000000;,
  1.000000;0.000000;-0.000001;,
  0.016029;0.000000;-0.999871;,
  0.016029;0.000000;-0.999872;,
  -1.000000;0.000000;-0.000001;,
  -1.000000;0.000000;-0.000001;,
  0.000000;0.000000;-1.000000;,
  -0.000000;0.000000;-1.000000;,
  -0.000001;0.000000;-1.000000;,
  0.000000;0.000000;-1.000000;,
  1.000000;0.000000;0.000000;,
  0.000000;0.000000;1.000000;,
  -1.000000;0.000000;0.000000;,
  0.000000;1.000000;0.000000;,
  0.000000;-1.000000;-0.000000;,
  0.000000;1.000000;0.000000;;
  97;
  4;0,0,0,0;,
  4;1,1,1,1;,
  4;0,0,0,0;,
  4;0,0,0,0;,
  4;1,1,1,1;,
  4;1,1,1,1;,
  4;2,2,2,2;,
  4;2,2,2,2;,
  4;3,3,3,3;,
  4;3,3,3,3;,
  4;5,5,5,5;,
  4;5,5,5,5;,
  4;4,4,4,4;,
  4;4,4,4,4;,
  4;5,5,5,5;,
  4;5,5,5,5;,
  4;5,5,5,5;,
  4;5,5,5,5;,
  4;4,4,4,4;,
  4;4,4,4,4;,
  4;4,4,4,4;,
  4;4,4,4,4;,
  4;6,6,6,6;,
  4;7,7,7,7;,
  4;8,8,8,8;,
  4;8,8,8,8;,
  4;9,9,9,9;,
  4;9,9,9,9;,
  4;10,10,10,10;,
  4;10,10,10,10;,
  4;11,11,11,11;,
  4;11,11,11,11;,
  4;14,12,12,14;,
  4;15,13,13,15;,
  4;15,14,14,15;,
  4;16,16,16,16;,
  4;22,22,19,19;,
  4;18,18,23,23;,
  4;21,21,17,17;,
  4;19,19,21,21;,
  4;20,20,18,18;,
  4;28,24,24,28;,
  4;29,26,26,29;,
  4;28,25,25,28;,
  4;28,28,28,28;,
  4;30,27,27,30;,
  4;30,29,29,30;,
  4;31,31,31,31;,
  4;31,31,31,31;,
  4;32,32,32,32;,
  4;32,32,32,32;,
  4;36,36,34,34;,
  4;33,33,33,33;,
  4;33,33,33,33;,
  4;34,34,35,35;,
  4;33,33,33,33;,
  4;33,33,33,33;,
  4;33,33,33,33;,
  4;33,33,33,33;,
  4;37,37,37,37;,
  4;37,37,37,37;,
  4;37,37,37,37;,
  4;38,38,38,38;,
  4;39,39,39,39;,
  4;40,40,47,47;,
  4;48,48,40,40;,
  4;40,40,40,40;,
  4;41,41,41,41;,
  4;42,42,41,41;,
  4;41,41,41,41;,
  4;43,43,43,43;,
  4;43,43,43,43;,
  4;44,44,44,44;,
  4;37,37,37,37;,
  4;37,37,37,37;,
  4;37,37,37,37;,
  4;38,38,38,38;,
  4;38,38,38,38;,
  4;38,38,38,38;,
  4;37,37,37,37;,
  4;38,38,38,38;,
  3;45,46,45;,
  3;46,45,45;,
  3;38,38,38;,
  4;49,49,49,49;,
  4;50,50,51,51;,
  4;50,49,49,49;,
  3;49,49,49;,
  3;49,50,49;,
  3;49,49,49;,
  4;52,52,52,52;,
  4;53,53,53,53;,
  4;54,54,54,54;,
  4;55,55,55,55;,
  4;56,56,56,56;,
  4;57,57,57,57;,
  4;58,58,58,58;;
 }
 MeshTextureCoords {
  281;
  2.131100;-0.207070;,
  2.131100;-0.431250;,
  2.881080;-0.430650;,
  2.881080;-0.206460;,
  0.000000;0.297960;,
  0.000000;0.000000;,
  1.000000;0.000000;,
  1.000000;0.297960;,
  2.881080;0.030890;,
  2.881080;0.321750;,
  2.131100;0.321140;,
  2.131100;0.030280;,
  1.000000;0.613420;,
  1.000000;1.000000;,
  0.000000;1.000000;,
  0.000000;0.613420;,
  3.011850;-0.110780;,
  3.011850;1.071560;,
  1.807950;1.071560;,
  1.807950;-0.110780;,
  1.807950;-2.291990;,
  3.011850;-2.291990;,
  1.000000;0.351520;,
  1.000000;1.000000;,
  0.000000;1.000000;,
  0.000000;0.351520;,
  0.000000;0.000000;,
  1.000000;0.000000;,
  0.351520;0.000000;,
  1.000000;0.000000;,
  1.000000;0.297960;,
  0.351520;0.297960;,
  0.000000;0.297960;,
  0.000000;0.000000;,
  -0.530400;0.334370;,
  0.208570;0.334370;,
  0.208570;0.558560;,
  -0.530400;0.558560;,
  -1.893650;0.558560;,
  -1.893650;0.334370;,
  0.351520;1.000000;,
  0.000000;1.000000;,
  0.000000;0.613420;,
  0.351520;0.613420;,
  1.000000;0.613420;,
  -0.530400;1.086800;,
  -1.893650;1.086800;,
  -1.893650;0.795920;,
  -0.530400;0.795920;,
  0.208570;0.795920;,
  0.208570;1.086800;,
  1.807950;-2.289000;,
  3.011850;-2.289000;,
  3.011850;-1.079090;,
  1.807950;-1.079090;,
  0.000000;0.000000;,
  1.000000;0.000000;,
  1.000000;1.000000;,
  0.000000;1.000000;,
  1.000000;0.911510;,
  1.000000;1.000000;,
  0.000000;1.000000;,
  0.000000;0.911510;,
  2.239580;-0.220460;,
  2.239580;-0.906280;,
  2.989560;-0.905670;,
  2.989560;-0.219860;,
  1.000000;0.911510;,
  0.000000;1.000000;,
  0.000000;0.911510;,
  0.000000;0.000000;,
  1.000000;0.000000;,
  1.000000;0.911510;,
  1.000000;1.000000;,
  0.000000;1.000000;,
  0.000000;0.911510;,
  0.000000;0.000000;,
  1.000000;0.000000;,
  -1.135590;0.558560;,
  -1.135590;0.625150;,
  -1.891790;0.625150;,
  -1.891790;0.558560;,
  -1.891790;-0.127290;,
  -1.135590;-0.127290;,
  0.000000;0.297960;,
  0.000000;0.000000;,
  1.000000;0.000000;,
  1.000000;0.297960;,
  1.000000;0.613420;,
  1.000000;1.000000;,
  0.000000;1.000000;,
  0.000000;0.613420;,
  -0.553950;-0.110780;,
  -0.553950;-2.292880;,
  0.649950;-2.292880;,
  0.649950;-0.110780;,
  0.314340;0.000000;,
  1.000000;0.000000;,
  1.000000;0.297960;,
  0.314340;0.297960;,
  0.685660;0.297960;,
  0.000000;0.297960;,
  0.000000;0.000000;,
  0.685660;0.000000;,
  0.314340;0.613420;,
  1.000000;0.613420;,
  1.000000;1.000000;,
  0.314340;1.000000;,
  0.685660;0.613420;,
  0.000000;0.613420;,
  -1.342740;-0.217170;,
  -1.342740;-0.441360;,
  0.721500;-0.439690;,
  0.721500;-0.190730;,
  0.000000;0.297960;,
  0.000000;0.000000;,
  1.000000;0.000000;,
  1.000000;0.297960;,
  0.721500;0.021850;,
  0.721500;0.312710;,
  -1.342740;0.311040;,
  -1.342740;0.020180;,
  1.000000;0.613420;,
  1.000000;1.000000;,
  0.000000;1.000000;,
  0.000000;0.613420;,
  1.000000;0.991270;,
  1.000000;1.000000;,
  0.000000;1.000000;,
  0.000000;0.991270;,
  -3.862560;-0.110780;,
  -3.862560;-2.292880;,
  -0.548960;-2.292880;,
  -0.548960;-0.110780;,
  1.000000;0.008730;,
  1.000000;1.000000;,
  0.000000;1.000000;,
  0.000000;0.008730;,
  0.000000;0.000000;,
  1.000000;0.000000;,
  0.008730;0.000000;,
  1.000000;0.000000;,
  1.000000;0.297960;,
  0.008730;0.297960;,
  0.991270;0.000000;,
  1.000000;0.000000;,
  1.000000;0.297960;,
  0.991270;0.297960;,
  -0.530400;0.558560;,
  -1.894210;0.558560;,
  -1.894210;0.334370;,
  -0.530400;0.334370;,
  1.000000;0.613420;,
  0.008730;0.613420;,
  -0.530400;1.086800;,
  -1.894210;1.086800;,
  -1.894210;0.795920;,
  -0.530400;0.795920;,
  0.991270;0.613420;,
  1.000000;0.613420;,
  1.000000;1.000000;,
  0.991270;1.000000;,
  0.000000;0.297960;,
  0.000000;0.000000;,
  1.000000;0.000000;,
  1.000000;0.297960;,
  1.000000;0.613420;,
  1.000000;1.000000;,
  0.000000;1.000000;,
  0.000000;0.613420;,
  -3.865230;0.886480;,
  -3.865230;-0.113900;,
  -2.661340;-0.113900;,
  -2.661340;0.886480;,
  0.000000;0.314340;,
  0.000000;0.000000;,
  1.000000;0.000000;,
  1.000000;0.314340;,
  0.092890;0.558560;,
  -0.532340;0.558560;,
  -0.532340;0.334370;,
  0.092890;0.334370;,
  0.092890;1.086800;,
  -0.532340;1.086800;,
  -0.532340;0.795920;,
  0.092890;0.795920;,
  0.008730;0.297960;,
  0.000000;0.297960;,
  0.000000;0.000000;,
  0.008730;0.000000;,
  0.008730;1.000000;,
  0.000000;1.000000;,
  0.000000;0.613420;,
  0.008730;0.613420;,
  0.685660;0.000000;,
  1.000000;0.000000;,
  1.000000;0.297960;,
  0.685660;0.297960;,
  0.685660;0.297960;,
  1.000000;0.297960;,
  1.000000;0.613420;,
  0.685660;0.613420;,
  0.685660;0.613420;,
  1.000000;0.613420;,
  1.000000;1.000000;,
  0.685660;1.000000;,
  0.000000;0.000000;,
  0.000000;0.000000;,
  0.000000;0.000000;,
  0.000000;0.000000;,
  0.000000;0.000000;,
  0.000000;0.000000;,
  0.000000;0.000000;,
  0.000000;0.000000;,
  0.000000;0.000000;,
  0.000000;0.000000;,
  -1.883200;-0.113900;,
  -1.169120;-0.113900;,
  -1.169120;0.886480;,
  -1.883200;0.886480;,
  -2.237720;-0.113900;,
  -1.883200;-0.113900;,
  -1.883200;0.886480;,
  -2.237720;0.886480;,
  -2.661340;-0.113900;,
  -2.237720;-0.113900;,
  -2.237720;0.886480;,
  -2.666320;0.867260;,
  0.000000;0.000000;,
  0.000000;0.000000;,
  -1.633420;-0.113900;,
  -1.633420;0.886480;,
  -1.883200;-0.113900;,
  1.469340;-0.439200;,
  1.469340;0.176840;,
  0.721500;-0.439690;,
  0.721500;0.176360;,
  0.721500;-0.439690;,
  0.000000;0.000000;,
  0.000000;0.000000;,
  -0.643760;-0.434660;,
  -0.643760;0.317740;,
  -1.393740;0.317130;,
  -1.393740;-0.435270;,
  -0.646870;0.026870;,
  -0.646870;-0.185710;,
  -0.003410;-0.185190;,
  -0.003410;0.027390;,
  -0.646870;-0.434660;,
  -0.379860;-0.434450;,
  -0.379860;-0.185490;,
  0.285830;0.318490;,
  0.285830;0.027630;,
  -0.159010;0.027270;,
  -1.539180;-0.415720;,
  -0.774080;-0.415100;,
  -0.774080;0.337290;,
  -1.539180;0.336670;,
  0.000000;0.000000;,
  1.000000;0.000000;,
  1.000000;1.000000;,
  0.000000;1.000000;,
  0.000000;0.000000;,
  1.000000;0.000000;,
  1.000000;1.000000;,
  0.000000;1.000000;,
  1.133810;0.335570;,
  1.932650;0.335570;,
  1.932650;1.088010;,
  1.133810;1.088010;,
  -3.860340;2.551950;,
  -2.632180;2.551950;,
  -2.632180;3.830100;,
  -3.860340;3.830100;,
  0.000000;0.000000;,
  1.000000;0.000000;,
  0.000000;1.000000;,
  -5.474420;-4.876650;,
  4.452930;-4.876650;,
  4.452930;5.050710;,
  -5.474420;5.050710;;
 }
 MeshVertexColors {
  281;
  0;1.000000;1.000000;1.000000;1.000000;,
  1;1.000000;1.000000;1.000000;1.000000;,
  2;1.000000;1.000000;1.000000;1.000000;,
  3;1.000000;1.000000;1.000000;1.000000;,
  4;1.000000;1.000000;1.000000;1.000000;,
  5;1.000000;1.000000;1.000000;1.000000;,
  6;1.000000;1.000000;1.000000;1.000000;,
  7;1.000000;1.000000;1.000000;1.000000;,
  8;1.000000;1.000000;1.000000;1.000000;,
  9;1.000000;1.000000;1.000000;1.000000;,
  10;1.000000;1.000000;1.000000;1.000000;,
  11;1.000000;1.000000;1.000000;1.000000;,
  12;1.000000;1.000000;1.000000;1.000000;,
  13;1.000000;1.000000;1.000000;1.000000;,
  14;1.000000;1.000000;1.000000;1.000000;,
  15;1.000000;1.000000;1.000000;1.000000;,
  16;1.000000;1.000000;1.000000;1.000000;,
  17;1.000000;1.000000;1.000000;1.000000;,
  18;1.000000;1.000000;1.000000;1.000000;,
  19;1.000000;1.000000;1.000000;1.000000;,
  20;1.000000;1.000000;1.000000;1.000000;,
  21;1.000000;1.000000;1.000000;1.000000;,
  22;1.000000;1.000000;1.000000;1.000000;,
  23;1.000000;1.000000;1.000000;1.000000;,
  24;1.000000;1.000000;1.000000;1.000000;,
  25;1.000000;1.000000;1.000000;1.000000;,
  26;1.000000;1.000000;1.000000;1.000000;,
  27;1.000000;1.000000;1.000000;1.000000;,
  28;1.000000;1.000000;1.000000;1.000000;,
  29;1.000000;1.000000;1.000000;1.000000;,
  30;1.000000;1.000000;1.000000;1.000000;,
  31;1.000000;1.000000;1.000000;1.000000;,
  32;1.000000;1.000000;1.000000;1.000000;,
  33;1.000000;1.000000;1.000000;1.000000;,
  34;1.000000;1.000000;1.000000;1.000000;,
  35;1.000000;1.000000;1.000000;1.000000;,
  36;1.000000;1.000000;1.000000;1.000000;,
  37;1.000000;1.000000;1.000000;1.000000;,
  38;1.000000;1.000000;1.000000;1.000000;,
  39;1.000000;1.000000;1.000000;1.000000;,
  40;1.000000;1.000000;1.000000;1.000000;,
  41;1.000000;1.000000;1.000000;1.000000;,
  42;1.000000;1.000000;1.000000;1.000000;,
  43;1.000000;1.000000;1.000000;1.000000;,
  44;1.000000;1.000000;1.000000;1.000000;,
  45;1.000000;1.000000;1.000000;1.000000;,
  46;1.000000;1.000000;1.000000;1.000000;,
  47;1.000000;1.000000;1.000000;1.000000;,
  48;1.000000;1.000000;1.000000;1.000000;,
  49;1.000000;1.000000;1.000000;1.000000;,
  50;1.000000;1.000000;1.000000;1.000000;,
  51;1.000000;1.000000;1.000000;1.000000;,
  52;1.000000;1.000000;1.000000;1.000000;,
  53;1.000000;1.000000;1.000000;1.000000;,
  54;1.000000;1.000000;1.000000;1.000000;,
  55;1.000000;1.000000;1.000000;1.000000;,
  56;1.000000;1.000000;1.000000;1.000000;,
  57;1.000000;1.000000;1.000000;1.000000;,
  58;1.000000;1.000000;1.000000;1.000000;,
  59;1.000000;1.000000;1.000000;1.000000;,
  60;1.000000;1.000000;1.000000;1.000000;,
  61;1.000000;1.000000;1.000000;1.000000;,
  62;1.000000;1.000000;1.000000;1.000000;,
  63;1.000000;1.000000;1.000000;1.000000;,
  64;1.000000;1.000000;1.000000;1.000000;,
  65;1.000000;1.000000;1.000000;1.000000;,
  66;1.000000;1.000000;1.000000;1.000000;,
  67;1.000000;1.000000;1.000000;1.000000;,
  68;1.000000;1.000000;1.000000;1.000000;,
  69;1.000000;1.000000;1.000000;1.000000;,
  70;1.000000;1.000000;1.000000;1.000000;,
  71;1.000000;1.000000;1.000000;1.000000;,
  72;1.000000;1.000000;1.000000;1.000000;,
  73;1.000000;1.000000;1.000000;1.000000;,
  74;1.000000;1.000000;1.000000;1.000000;,
  75;1.000000;1.000000;1.000000;1.000000;,
  76;1.000000;1.000000;1.000000;1.000000;,
  77;1.000000;1.000000;1.000000;1.000000;,
  78;1.000000;1.000000;1.000000;1.000000;,
  79;1.000000;1.000000;1.000000;1.000000;,
  80;1.000000;1.000000;1.000000;1.000000;,
  81;1.000000;1.000000;1.000000;1.000000;,
  82;1.000000;1.000000;1.000000;1.000000;,
  83;1.000000;1.000000;1.000000;1.000000;,
  84;1.000000;1.000000;1.000000;1.000000;,
  85;1.000000;1.000000;1.000000;1.000000;,
  86;1.000000;1.000000;1.000000;1.000000;,
  87;1.000000;1.000000;1.000000;1.000000;,
  88;1.000000;1.000000;1.000000;1.000000;,
  89;1.000000;1.000000;1.000000;1.000000;,
  90;1.000000;1.000000;1.000000;1.000000;,
  91;1.000000;1.000000;1.000000;1.000000;,
  92;1.000000;1.000000;1.000000;1.000000;,
  93;1.000000;1.000000;1.000000;1.000000;,
  94;1.000000;1.000000;1.000000;1.000000;,
  95;1.000000;1.000000;1.000000;1.000000;,
  96;1.000000;1.000000;1.000000;1.000000;,
  97;1.000000;1.000000;1.000000;1.000000;,
  98;1.000000;1.000000;1.000000;1.000000;,
  99;1.000000;1.000000;1.000000;1.000000;,
  100;1.000000;1.000000;1.000000;1.000000;,
  101;1.000000;1.000000;1.000000;1.000000;,
  102;1.000000;1.000000;1.000000;1.000000;,
  103;1.000000;1.000000;1.000000;1.000000;,
  104;1.000000;1.000000;1.000000;1.000000;,
  105;1.000000;1.000000;1.000000;1.000000;,
  106;1.000000;1.000000;1.000000;1.000000;,
  107;1.000000;1.000000;1.000000;1.000000;,
  108;1.000000;1.000000;1.000000;1.000000;,
  109;1.000000;1.000000;1.000000;1.000000;,
  110;1.000000;1.000000;1.000000;1.000000;,
  111;1.000000;1.000000;1.000000;1.000000;,
  112;1.000000;1.000000;1.000000;1.000000;,
  113;1.000000;1.000000;1.000000;1.000000;,
  114;1.000000;1.000000;1.000000;1.000000;,
  115;1.000000;1.000000;1.000000;1.000000;,
  116;1.000000;1.000000;1.000000;1.000000;,
  117;1.000000;1.000000;1.000000;1.000000;,
  118;1.000000;1.000000;1.000000;1.000000;,
  119;1.000000;1.000000;1.000000;1.000000;,
  120;1.000000;1.000000;1.000000;1.000000;,
  121;1.000000;1.000000;1.000000;1.000000;,
  122;1.000000;1.000000;1.000000;1.000000;,
  123;1.000000;1.000000;1.000000;1.000000;,
  124;1.000000;1.000000;1.000000;1.000000;,
  125;1.000000;1.000000;1.000000;1.000000;,
  126;1.000000;1.000000;1.000000;1.000000;,
  127;1.000000;1.000000;1.000000;1.000000;,
  128;1.000000;1.000000;1.000000;1.000000;,
  129;1.000000;1.000000;1.000000;1.000000;,
  130;1.000000;1.000000;1.000000;1.000000;,
  131;1.000000;1.000000;1.000000;1.000000;,
  132;1.000000;1.000000;1.000000;1.000000;,
  133;1.000000;1.000000;1.000000;1.000000;,
  134;1.000000;1.000000;1.000000;1.000000;,
  135;1.000000;1.000000;1.000000;1.000000;,
  136;1.000000;1.000000;1.000000;1.000000;,
  137;1.000000;1.000000;1.000000;1.000000;,
  138;1.000000;1.000000;1.000000;1.000000;,
  139;1.000000;1.000000;1.000000;1.000000;,
  140;1.000000;1.000000;1.000000;1.000000;,
  141;1.000000;1.000000;1.000000;1.000000;,
  142;1.000000;1.000000;1.000000;1.000000;,
  143;1.000000;1.000000;1.000000;1.000000;,
  144;1.000000;1.000000;1.000000;1.000000;,
  145;1.000000;1.000000;1.000000;1.000000;,
  146;1.000000;1.000000;1.000000;1.000000;,
  147;1.000000;1.000000;1.000000;1.000000;,
  148;1.000000;1.000000;1.000000;1.000000;,
  149;1.000000;1.000000;1.000000;1.000000;,
  150;1.000000;1.000000;1.000000;1.000000;,
  151;1.000000;1.000000;1.000000;1.000000;,
  152;1.000000;1.000000;1.000000;1.000000;,
  153;1.000000;1.000000;1.000000;1.000000;,
  154;1.000000;1.000000;1.000000;1.000000;,
  155;1.000000;1.000000;1.000000;1.000000;,
  156;1.000000;1.000000;1.000000;1.000000;,
  157;1.000000;1.000000;1.000000;1.000000;,
  158;1.000000;1.000000;1.000000;1.000000;,
  159;1.000000;1.000000;1.000000;1.000000;,
  160;1.000000;1.000000;1.000000;1.000000;,
  161;1.000000;1.000000;1.000000;1.000000;,
  162;1.000000;1.000000;1.000000;1.000000;,
  163;1.000000;1.000000;1.000000;1.000000;,
  164;1.000000;1.000000;1.000000;1.000000;,
  165;1.000000;1.000000;1.000000;1.000000;,
  166;1.000000;1.000000;1.000000;1.000000;,
  167;1.000000;1.000000;1.000000;1.000000;,
  168;1.000000;1.000000;1.000000;1.000000;,
  169;1.000000;1.000000;1.000000;1.000000;,
  170;1.000000;1.000000;1.000000;1.000000;,
  171;1.000000;1.000000;1.000000;1.000000;,
  172;1.000000;1.000000;1.000000;1.000000;,
  173;1.000000;1.000000;1.000000;1.000000;,
  174;1.000000;1.000000;1.000000;1.000000;,
  175;1.000000;1.000000;1.000000;1.000000;,
  176;1.000000;1.000000;1.000000;1.000000;,
  177;1.000000;1.000000;1.000000;1.000000;,
  178;1.000000;1.000000;1.000000;1.000000;,
  179;1.000000;1.000000;1.000000;1.000000;,
  180;1.000000;1.000000;1.000000;1.000000;,
  181;1.000000;1.000000;1.000000;1.000000;,
  182;1.000000;1.000000;1.000000;1.000000;,
  183;1.000000;1.000000;1.000000;1.000000;,
  184;1.000000;1.000000;1.000000;1.000000;,
  185;1.000000;1.000000;1.000000;1.000000;,
  186;1.000000;1.000000;1.000000;1.000000;,
  187;1.000000;1.000000;1.000000;1.000000;,
  188;1.000000;1.000000;1.000000;1.000000;,
  189;1.000000;1.000000;1.000000;1.000000;,
  190;1.000000;1.000000;1.000000;1.000000;,
  191;1.000000;1.000000;1.000000;1.000000;,
  192;1.000000;1.000000;1.000000;1.000000;,
  193;1.000000;1.000000;1.000000;1.000000;,
  194;1.000000;1.000000;1.000000;1.000000;,
  195;1.000000;1.000000;1.000000;1.000000;,
  196;1.000000;1.000000;1.000000;1.000000;,
  197;1.000000;1.000000;1.000000;1.000000;,
  198;1.000000;1.000000;1.000000;1.000000;,
  199;1.000000;1.000000;1.000000;1.000000;,
  200;1.000000;1.000000;1.000000;1.000000;,
  201;1.000000;1.000000;1.000000;1.000000;,
  202;1.000000;1.000000;1.000000;1.000000;,
  203;1.000000;1.000000;1.000000;1.000000;,
  204;1.000000;1.000000;1.000000;1.000000;,
  205;1.000000;1.000000;1.000000;1.000000;,
  206;1.000000;1.000000;1.000000;1.000000;,
  207;1.000000;1.000000;1.000000;1.000000;,
  208;1.000000;1.000000;1.000000;1.000000;,
  209;1.000000;1.000000;1.000000;1.000000;,
  210;1.000000;1.000000;1.000000;1.000000;,
  211;1.000000;1.000000;1.000000;1.000000;,
  212;1.000000;1.000000;1.000000;1.000000;,
  213;1.000000;1.000000;1.000000;1.000000;,
  214;1.000000;1.000000;1.000000;1.000000;,
  215;1.000000;1.000000;1.000000;1.000000;,
  216;1.000000;1.000000;1.000000;1.000000;,
  217;1.000000;1.000000;1.000000;1.000000;,
  218;1.000000;1.000000;1.000000;1.000000;,
  219;1.000000;1.000000;1.000000;1.000000;,
  220;1.000000;1.000000;1.000000;1.000000;,
  221;1.000000;1.000000;1.000000;1.000000;,
  222;1.000000;1.000000;1.000000;1.000000;,
  223;1.000000;1.000000;1.000000;1.000000;,
  224;1.000000;1.000000;1.000000;1.000000;,
  225;1.000000;1.000000;1.000000;1.000000;,
  226;1.000000;1.000000;1.000000;1.000000;,
  227;1.000000;1.000000;1.000000;1.000000;,
  228;1.000000;1.000000;1.000000;1.000000;,
  229;1.000000;1.000000;1.000000;1.000000;,
  230;1.000000;1.000000;1.000000;1.000000;,
  231;1.000000;1.000000;1.000000;1.000000;,
  232;1.000000;1.000000;1.000000;1.000000;,
  233;1.000000;1.000000;1.000000;1.000000;,
  234;1.000000;1.000000;1.000000;1.000000;,
  235;1.000000;1.000000;1.000000;1.000000;,
  236;1.000000;1.000000;1.000000;1.000000;,
  237;1.000000;1.000000;1.000000;1.000000;,
  238;1.000000;1.000000;1.000000;1.000000;,
  239;1.000000;1.000000;1.000000;1.000000;,
  240;1.000000;1.000000;1.000000;1.000000;,
  241;1.000000;1.000000;1.000000;1.000000;,
  242;1.000000;1.000000;1.000000;1.000000;,
  243;1.000000;1.000000;1.000000;1.000000;,
  244;1.000000;1.000000;1.000000;1.000000;,
  245;1.000000;1.000000;1.000000;1.000000;,
  246;1.000000;1.000000;1.000000;1.000000;,
  247;1.000000;1.000000;1.000000;1.000000;,
  248;1.000000;1.000000;1.000000;1.000000;,
  249;1.000000;1.000000;1.000000;1.000000;,
  250;1.000000;1.000000;1.000000;1.000000;,
  251;1.000000;1.000000;1.000000;1.000000;,
  252;1.000000;1.000000;1.000000;1.000000;,
  253;1.000000;1.000000;1.000000;1.000000;,
  254;1.000000;1.000000;1.000000;1.000000;,
  255;1.000000;1.000000;1.000000;1.000000;,
  256;1.000000;1.000000;1.000000;1.000000;,
  257;1.000000;1.000000;1.000000;1.000000;,
  258;1.000000;1.000000;1.000000;1.000000;,
  259;1.000000;1.000000;1.000000;1.000000;,
  260;1.000000;1.000000;1.000000;1.000000;,
  261;1.000000;1.000000;1.000000;1.000000;,
  262;1.000000;1.000000;1.000000;1.000000;,
  263;1.000000;1.000000;1.000000;1.000000;,
  264;1.000000;1.000000;1.000000;1.000000;,
  265;1.000000;1.000000;1.000000;1.000000;,
  266;1.000000;1.000000;1.000000;1.000000;,
  267;1.000000;1.000000;1.000000;1.000000;,
  268;1.000000;1.000000;1.000000;1.000000;,
  269;1.000000;1.000000;1.000000;1.000000;,
  270;1.000000;1.000000;1.000000;1.000000;,
  271;1.000000;1.000000;1.000000;1.000000;,
  272;1.000000;1.000000;1.000000;1.000000;,
  273;1.000000;1.000000;1.000000;1.000000;,
  274;1.000000;1.000000;1.000000;1.000000;,
  275;1.000000;1.000000;1.000000;1.000000;,
  276;1.000000;1.000000;1.000000;1.000000;,
  277;1.000000;1.000000;1.000000;1.000000;,
  278;1.000000;1.000000;1.000000;1.000000;,
  279;1.000000;1.000000;1.000000;1.000000;,
  280;1.000000;1.000000;1.000000;1.000000;;
 }
}
