xof 0302txt 0064
template Header {
 <3D82AB43-62DA-11cf-AB39-0020AF71E433>
 WORD major;
 WORD minor;
 DWORD flags;
}

template Vector {
 <3D82AB5E-62DA-11cf-AB39-0020AF71E433>
 FLOAT x;
 FLOAT y;
 FLOAT z;
}

template Coords2d {
 <F6F23F44-7686-11cf-8F52-0040333594A3>
 FLOAT u;
 FLOAT v;
}

template Matrix4x4 {
 <F6F23F45-7686-11cf-8F52-0040333594A3>
 array FLOAT matrix[16];
}

template ColorRGBA {
 <35FF44E0-6C7C-11cf-8F52-0040333594A3>
 FLOAT red;
 FLOAT green;
 FLOAT blue;
 FLOAT alpha;
}

template ColorRGB {
 <D3E16E81-7835-11cf-8F52-0040333594A3>
 FLOAT red;
 FLOAT green;
 FLOAT blue;
}

template IndexedColor {
 <1630B820-7842-11cf-8F52-0040333594A3>
 DWORD index;
 ColorRGBA indexColor;
}

template Boolean {
 <4885AE61-78E8-11cf-8F52-0040333594A3>
 WORD truefalse;
}

template Boolean2d {
 <4885AE63-78E8-11cf-8F52-0040333594A3>
 Boolean u;
 Boolean v;
}

template MaterialWrap {
 <4885AE60-78E8-11cf-8F52-0040333594A3>
 Boolean u;
 Boolean v;
}

template TextureFilename {
 <A42790E1-7810-11cf-8F52-0040333594A3>
 STRING filename;
}

template Material {
 <3D82AB4D-62DA-11cf-AB39-0020AF71E433>
 ColorRGBA faceColor;
 FLOAT power;
 ColorRGB specularColor;
 ColorRGB emissiveColor;
 [...]
}

template MeshFace {
 <3D82AB5F-62DA-11cf-AB39-0020AF71E433>
 DWORD nFaceVertexIndices;
 array DWORD faceVertexIndices[nFaceVertexIndices];
}

template MeshFaceWraps {
 <4885AE62-78E8-11cf-8F52-0040333594A3>
 DWORD nFaceWrapValues;
 Boolean2d faceWrapValues;
}

template MeshTextureCoords {
 <F6F23F40-7686-11cf-8F52-0040333594A3>
 DWORD nTextureCoords;
 array Coords2d textureCoords[nTextureCoords];
}

template MeshMaterialList {
 <F6F23F42-7686-11cf-8F52-0040333594A3>
 DWORD nMaterials;
 DWORD nFaceIndexes;
 array DWORD faceIndexes[nFaceIndexes];
 [Material]
}

template MeshNormals {
 <F6F23F43-7686-11cf-8F52-0040333594A3>
 DWORD nNormals;
 array Vector normals[nNormals];
 DWORD nFaceNormals;
 array MeshFace faceNormals[nFaceNormals];
}

template MeshVertexColors {
 <1630B821-7842-11cf-8F52-0040333594A3>
 DWORD nVertexColors;
 array IndexedColor vertexColors[nVertexColors];
}

template Mesh {
 <3D82AB44-62DA-11cf-AB39-0020AF71E433>
 DWORD nVertices;
 array Vector vertices[nVertices];
 DWORD nFaces;
 array MeshFace faces[nFaces];
 [...]
}

Header{
1;
0;
1;
}

Mesh {
 81;
 5.75608;45.75157;25.88533;,
 0.20364;45.75157;26.76476;,
 5.02397;0.50894;26.00129;,
 -27.57190;45.75157;9.73931;,
 -30.12408;45.75157;4.73038;,
 -27.90842;0.50894;9.07886;,
 -28.14684;45.75157;-18.85833;,
 -25.59465;45.75157;-23.86726;,
 -27.81032;0.50894;-19.51878;,
 30.53136;45.75157;-14.97776;,
 30.53136;0.50894;-14.97776;,
 28.31570;0.50894;-19.32625;,
 27.97918;45.75157;-19.98670;,
 18.94720;45.75157;20.67460;,
 18.94720;0.50894;20.67460;,
 22.39817;0.50894;17.22363;,
 22.92230;45.75157;16.69949;,
 -18.53992;45.75157;-30.92199;,
 -18.53992;0.50894;-30.92199;,
 -21.99089;0.50894;-27.47101;,
 -22.51502;45.75157;-26.94688;,
 22.02683;45.75157;-27.84236;,
 22.24293;0.50894;-27.62626;,
 18.94720;0.50894;-30.92199;,
 18.94720;45.75157;-30.92199;,
 14.59872;0.50894;-33.13765;,
 13.93827;45.75157;-33.47418;,
 26.00193;45.75157;13.61986;,
 28.21760;0.50894;9.27139;,
 30.53136;0.50894;4.73038;,
 30.53136;45.75157;4.73038;,
 -31.68481;45.75157;-5.12369;,
 -30.92135;0.50894;-0.30337;,
 -30.12408;0.50894;4.73038;,
 10.05771;45.75157;-35.45142;,
 5.23739;0.50894;-36.21488;,
 0.20364;0.50894;-37.01215;,
 0.20364;45.75157;-37.01215;,
 26.00193;45.75157;-23.86726;,
 22.55096;0.50894;-27.31823;,
 -14.19144;0.50894;22.89026;,
 -13.53099;45.75157;23.22678;,
 -18.53992;0.50894;20.67460;,
 -18.53992;45.75157;20.67460;,
 -9.65044;0.50894;25.20402;,
 -9.65044;45.75157;25.20402;,
 -4.83011;0.50894;25.96749;,
 -4.09799;45.75157;26.08344;,
 32.09210;0.50894;-5.12369;,
 32.09210;45.75157;-5.12369;,
 31.29483;0.50894;-0.08995;,
 31.41079;45.75157;-0.82206;,
 26.00193;0.50894;-23.86726;,
 14.40619;0.50894;22.98836;,
 15.06664;45.75157;22.65185;,
 10.05771;0.50894;25.20402;,
 10.05771;45.75157;25.20402;,
 26.00193;0.50894;13.61986;,
 0.20364;0.50894;26.76476;,
 31.32864;0.50894;-9.94402;,
 31.21267;45.75157;-10.67613;,
 -22.29892;0.50894;16.91559;,
 -22.29892;45.75157;16.91559;,
 -25.59465;0.50894;13.61986;,
 -25.59465;45.75157;13.61986;,
 -9.65044;0.50894;-35.45142;,
 -9.65044;45.75157;-35.45142;,
 -4.61669;0.50894;-36.24870;,
 -5.34880;45.75157;-36.13273;,
 -13.99892;0.50894;-33.23575;,
 -14.65937;45.75157;-32.89923;,
 -30.12408;0.50894;-14.97776;,
 -30.12408;45.75157;-14.97776;,
 -25.59465;0.50894;-23.86726;,
 -31.68481;0.50894;-5.12369;,
 -30.88754;0.50894;-10.15744;,
 -31.00350;45.75157;-9.42533;,
 0.20364;0.50894;-37.01215;,
 0.20364;45.75157;-37.01215;,
 10.05771;0.50894;-35.45142;,
 -22.14368;0.50894;17.07084;;
 
 71;
 3;0,1,2;,
 3;3,4,5;,
 3;6,7,8;,
 4;9,10,11,12;,
 4;13,14,15,16;,
 4;17,18,19,20;,
 4;21,22,23,24;,
 4;24,23,25,26;,
 4;27,28,29,30;,
 4;31,32,33,4;,
 4;34,35,36,37;,
 3;38,39,21;,
 3;40,41,42;,
 3;41,43,42;,
 3;44,45,40;,
 3;45,41,40;,
 3;46,47,44;,
 3;47,45,44;,
 3;48,49,50;,
 3;49,51,50;,
 3;50,51,29;,
 3;51,30,29;,
 3;52,38,11;,
 3;38,12,11;,
 3;14,13,53;,
 3;13,54,53;,
 3;53,54,55;,
 3;54,56,55;,
 3;28,27,57;,
 3;58,1,46;,
 3;1,47,46;,
 3;55,56,2;,
 3;56,0,2;,
 3;2,1,58;,
 3;10,9,59;,
 3;9,60,59;,
 3;61,62,63;,
 3;62,64,63;,
 3;65,66,67;,
 3;66,68,67;,
 3;18,17,69;,
 3;17,70,69;,
 3;63,64,5;,
 3;64,3,5;,
 3;5,4,33;,
 3;71,72,8;,
 3;72,6,8;,
 3;8,7,73;,
 3;32,31,74;,
 3;74,31,75;,
 3;31,76,75;,
 3;67,68,77;,
 3;68,78,77;,
 3;35,34,79;,
 3;22,21,39;,
 3;39,38,52;,
 3;57,27,15;,
 3;27,16,15;,
 3;59,60,48;,
 3;60,49,48;,
 3;69,70,65;,
 3;70,66,65;,
 3;73,7,19;,
 3;7,20,19;,
 3;75,76,71;,
 3;76,72,71;,
 3;79,34,25;,
 3;34,26,25;,
 3;42,43,80;,
 3;61,80,62;,
 3;80,43,62;;
 
 MeshMaterialList {
  11;
  71;
  3,
  3,
  3,
  3,
  3,
  3,
  3,
  3,
  3,
  3,
  3,
  3,
  3,
  3,
  3,
  3,
  3,
  3,
  3,
  3,
  3,
  3,
  3,
  3,
  3,
  3,
  3,
  3,
  3,
  3,
  3,
  3,
  3,
  3,
  3,
  3,
  3,
  3,
  3,
  3,
  3,
  3,
  3,
  3,
  3,
  3,
  3,
  3,
  3,
  3,
  3,
  3,
  3,
  3,
  3,
  3,
  3,
  3,
  3,
  3,
  3,
  3,
  3,
  3,
  3,
  3,
  3,
  3,
  3,
  3,
  3;;
  Material {
   1.000000;1.000000;1.000000;1.000000;;
   84.000000;
   1.000000;1.000000;1.000000;;
   0.000000;0.000000;0.000000;;
   TextureFilename {
    "C:\\Users\\master\\Desktop\\ProjectHobit\\企業提出フォルダ\\ソ\ース(改良)\\Data\\Graphics\\XFileTexture\\ground3.png";
   }
  }
  Material {
   1.000000;1.000000;1.000000;1.000000;;
   69.000000;
   1.000000;1.000000;1.000000;;
   0.000000;0.000000;0.000000;;
   TextureFilename {
    "C:\\Users\\master\\Desktop\\ProjectHobit\\企業提出フォルダ\\ソ\ース(改良)\\Data\\Graphics\\XFileTexture\\oahe.png";
   }
  }
  Material {
   0.800000;0.800000;0.800000;1.000000;;
   5.000000;
   0.000000;0.000000;0.000000;;
   0.000000;0.000000;0.000000;;
   TextureFilename {
    "C:\\Users\\master\\Desktop\\ProjectHobit\\Data\\Graphics\\XFileTexture\\Wall.png";
   }
  }
  Material {
   0.800000;0.800000;0.800000;0.000000;;
   5.000000;
   0.000000;0.000000;0.000000;;
   0.000000;0.000000;0.000000;;
  }
  Material {
   1.000000;1.000000;1.000000;1.000000;;
   73.000000;
   1.000000;1.000000;1.000000;;
   0.500000;0.500000;0.500000;;
   TextureFilename {
    "C:\\Users\\master\\Desktop\\ProjectHobit\\企業提出フォルダ\\ソ\ース(改良)\\Data\\Graphics\\XFileTexture\\27953512_p11_master1200.jpg";
   }
  }
  Material {
   1.000000;1.000000;1.000000;1.000000;;
   86.000000;
   1.000000;1.000000;1.000000;;
   0.000000;0.000000;0.000000;;
   TextureFilename {
    "C:\\Users\\master\\Desktop\\ProjectHobit\\企業提出フォルダ\\ソ\ース(改良)\\Data\\Graphics\\XFileTexture\\oahe.png";
   }
  }
  Material {
   0.630000;0.630000;0.630000;1.000000;;
   5.000000;
   0.190000;0.190000;0.190000;;
   0.270000;0.270000;0.270000;;
   TextureFilename {
    "Data\\Graphics\\XFileTexture\\leaf.png";
   }
  }
  Material {
   0.520000;0.520000;0.520000;1.000000;;
   7.140000;
   0.310000;0.310000;0.310000;;
   0.200000;0.200000;0.200000;;
   TextureFilename {
    "Data\\Graphics\\XFileTexture\\wood.bmp";
   }
  }
  Material {
   0.800000;0.800000;0.800000;1.000000;;
   5.000000;
   0.000000;0.000000;0.000000;;
   0.000000;0.000000;0.000000;;
   TextureFilename {
    "Data\\Graphics\\XFileTexture\\BarkDecidious0099_1_S.jpg";
   }
  }
  Material {
   0.800000;0.800000;0.800000;1.000000;;
   5.000000;
   0.000000;0.000000;0.000000;;
   0.000000;0.000000;0.000000;;
   TextureFilename {
    "Data\\Graphics\\XFileTexture\\Branches0002_S.png";
   }
  }
  Material {
   1.000000;0.878000;0.255000;1.000000;;
   15.080000;
   1.000000;1.000000;1.000000;;
   0.910000;0.798980;0.232050;;
   TextureFilename {
    "C:\\Users\\master\\Desktop\\ProjectHobit\\Hobit(製作中)\\Data\\Graphics\\XFileTexture\\GorldApple.png";
   }
  }
 }
 MeshNormals {
  77;
  -0.453991;-0.000000;0.891006;,
  -0.629621;0.000000;0.776903;,
  -0.156435;0.000000;0.987688;,
  -0.358728;-0.000000;0.933442;,
  0.998609;-0.000000;0.052722;,
  0.987688;-0.000000;0.156435;,
  0.951056;-0.000000;0.309018;,
  0.544316;-0.000000;0.838880;,
  0.966026;0.000000;-0.258446;,
  0.809016;0.000000;-0.587786;,
  0.891006;0.000000;-0.453991;,
  0.156435;0.000000;0.987688;,
  0.258446;0.000000;0.966026;,
  0.707107;-0.000000;0.707107;,
  0.453991;-0.000000;0.891006;,
  0.809017;-0.000000;0.587786;,
  0.000000;0.000000;1.000000;,
  0.987688;0.000000;-0.156435;,
  -0.838880;-0.000000;0.544316;,
  -0.891006;-0.000000;0.453991;,
  -0.544316;0.000000;-0.838880;,
  -0.933442;-0.000000;-0.358728;,
  -0.891006;-0.000000;-0.453991;,
  -0.258447;0.000000;-0.966025;,
  -0.156433;0.000000;-0.987689;,
  -0.453992;0.000000;-0.891006;,
  -0.933442;-0.000000;0.358728;,
  -0.707107;0.000000;-0.707107;,
  -0.809017;0.000000;-0.587786;,
  -1.000000;-0.000000;-0.000000;,
  -0.987688;-0.000000;-0.156434;,
  0.587786;0.000000;-0.809017;,
  0.000000;-0.000000;-1.000000;,
  0.707108;0.000000;-0.707105;,
  0.453991;-0.000000;-0.891006;,
  0.309017;-0.000000;-0.951056;,
  0.707109;0.000000;-0.707104;,
  -0.707110;0.000000;0.707104;,
  -0.707108;0.000000;0.707105;,
  -0.707109;0.000000;0.707105;,
  -0.453990;-0.000000;0.891007;,
  -0.544316;-0.000000;0.838881;,
  -0.156436;0.000000;0.987688;,
  -0.258447;0.000000;0.966026;,
  0.998609;0.000000;-0.052721;,
  0.987688;-0.000000;0.156435;,
  0.966026;-0.000000;0.258447;,
  0.587786;-0.000000;0.809017;,
  0.951056;0.000000;-0.309017;,
  0.809017;0.000000;-0.587786;,
  0.891006;0.000000;-0.453991;,
  0.707108;0.000000;-0.707105;,
  0.156435;0.000000;0.987688;,
  0.358728;-0.000000;0.933442;,
  0.707107;-0.000000;0.707107;,
  0.453991;-0.000000;0.891006;,
  0.891006;-0.000000;0.453992;,
  0.809017;0.000000;0.587786;,
  -0.000000;0.000000;1.000000;,
  0.987688;0.000000;-0.156435;,
  -0.776903;0.000000;0.629620;,
  -0.891006;-0.000000;0.453991;,
  -0.587786;0.000000;-0.809016;,
  -0.966026;-0.000000;-0.258446;,
  -0.891006;-0.000000;-0.453991;,
  -0.358730;0.000000;-0.933441;,
  -0.156434;0.000000;-0.987688;,
  -0.453991;0.000000;-0.891006;,
  -0.951056;0.000000;0.309017;,
  -0.707107;0.000000;-0.707107;,
  -0.809017;0.000000;-0.587786;,
  -0.987688;0.000000;0.156434;,
  -1.000000;0.000000;-0.000000;,
  -0.052721;0.000000;-0.998609;,
  0.453992;-0.000000;-0.891006;,
  0.309017;0.000000;-0.951056;,
  0.156434;-0.000000;-0.987689;;
  71;
  3;11,16,52;,
  3;19,26,61;,
  3;22,28,64;,
  4;8,48,50,10;,
  4;7,47,54,13;,
  4;20,62,69,27;,
  4;33,36,31,31;,
  4;31,31,74,34;,
  4;15,56,46,6;,
  4;29,71,68,26;,
  4;35,76,73,32;,
  3;9,51,33;,
  3;40,0,41;,
  3;0,1,41;,
  3;43,3,40;,
  3;3,0,40;,
  3;42,2,43;,
  3;2,3,43;,
  3;44,4,45;,
  3;4,5,45;,
  3;45,5,46;,
  3;5,6,46;,
  3;49,9,50;,
  3;9,10,50;,
  3;47,7,55;,
  3;7,14,55;,
  3;55,14,53;,
  3;14,12,53;,
  3;56,15,57;,
  3;58,16,42;,
  3;16,2,42;,
  3;53,12,52;,
  3;12,11,52;,
  3;52,16,58;,
  3;48,8,59;,
  3;8,17,59;,
  3;37,38,60;,
  3;38,18,60;,
  3;65,23,66;,
  3;23,24,66;,
  3;62,20,67;,
  3;20,25,67;,
  3;60,18,61;,
  3;18,19,61;,
  3;61,26,68;,
  3;63,21,64;,
  3;21,22,64;,
  3;64,28,70;,
  3;71,29,72;,
  3;72,29,30;,
  3;29,30,30;,
  3;66,24,73;,
  3;24,32,73;,
  3;76,35,75;,
  3;36,33,51;,
  3;51,9,49;,
  3;57,15,54;,
  3;15,13,54;,
  3;59,17,44;,
  3;17,4,44;,
  3;67,25,65;,
  3;25,23,65;,
  3;70,28,69;,
  3;28,27,69;,
  3;30,30,63;,
  3;30,21,63;,
  3;75,35,74;,
  3;35,34,74;,
  3;41,1,39;,
  3;37,39,38;,
  3;39,1,38;;
 }
 MeshTextureCoords {
  81;
  0.471830;0.436530;,
  0.500000;0.436530;,
  0.475540;0.510830;,
  0.671830;0.436530;,
  0.700000;0.436530;,
  0.675540;0.510830;,
  0.821830;0.436530;,
  0.850000;0.436530;,
  0.825540;0.510830;,
  0.200000;0.436530;,
  0.200000;0.510830;,
  0.175540;0.510830;,
  0.171830;0.436530;,
  0.400000;0.436530;,
  0.400000;0.510830;,
  0.375540;0.510830;,
  0.371830;0.436530;,
  0.900000;0.436530;,
  0.900000;0.510830;,
  0.875540;0.510830;,
  0.871830;0.436530;,
  0.121830;0.436530;,
  0.123360;0.510830;,
  0.100000;0.510830;,
  0.100000;0.436530;,
  0.075540;0.510830;,
  0.071830;0.436530;,
  0.350000;0.436530;,
  0.325540;0.510830;,
  0.300000;0.510830;,
  0.300000;0.436530;,
  0.750000;0.436530;,
  0.725540;0.510830;,
  0.700000;0.510830;,
  0.050000;0.436530;,
  0.025540;0.510830;,
  0.000000;0.510830;,
  0.000000;0.436530;,
  0.150000;0.436530;,
  0.125540;0.510830;,
  0.575540;0.510830;,
  0.571830;0.436530;,
  0.600000;0.510830;,
  0.600000;0.436530;,
  0.550000;0.510830;,
  0.550000;0.436530;,
  0.525540;0.510830;,
  0.521830;0.436530;,
  0.250000;0.510830;,
  0.250000;0.436530;,
  0.275540;0.510830;,
  0.271830;0.436530;,
  0.150000;0.510830;,
  0.425540;0.510830;,
  0.421830;0.436530;,
  0.450000;0.510830;,
  0.450000;0.436530;,
  0.350000;0.510830;,
  0.500000;0.510830;,
  0.225540;0.510830;,
  0.221830;0.436530;,
  0.626640;0.510830;,
  0.626640;0.436530;,
  0.650000;0.510830;,
  0.650000;0.436530;,
  0.950000;0.510830;,
  0.950000;0.436530;,
  0.975540;0.510830;,
  0.971830;0.436530;,
  0.925540;0.510830;,
  0.921830;0.436530;,
  0.800000;0.510830;,
  0.800000;0.436530;,
  0.850000;0.510830;,
  0.750000;0.510830;,
  0.775540;0.510830;,
  0.771830;0.436530;,
  1.000000;0.510830;,
  1.000000;0.436530;,
  0.050000;0.510830;,
  0.625540;0.510830;;
 }
 MeshVertexColors {
  81;
  0;1.000000;1.000000;1.000000;1.000000;,
  1;1.000000;1.000000;1.000000;1.000000;,
  2;1.000000;1.000000;1.000000;1.000000;,
  3;1.000000;1.000000;1.000000;1.000000;,
  4;1.000000;1.000000;1.000000;1.000000;,
  5;1.000000;1.000000;1.000000;1.000000;,
  6;1.000000;1.000000;1.000000;1.000000;,
  7;1.000000;1.000000;1.000000;1.000000;,
  8;1.000000;1.000000;1.000000;1.000000;,
  9;1.000000;1.000000;1.000000;1.000000;,
  10;1.000000;1.000000;1.000000;1.000000;,
  11;1.000000;1.000000;1.000000;1.000000;,
  12;1.000000;1.000000;1.000000;1.000000;,
  13;1.000000;1.000000;1.000000;1.000000;,
  14;1.000000;1.000000;1.000000;1.000000;,
  15;1.000000;1.000000;1.000000;1.000000;,
  16;1.000000;1.000000;1.000000;1.000000;,
  17;1.000000;1.000000;1.000000;1.000000;,
  18;1.000000;1.000000;1.000000;1.000000;,
  19;1.000000;1.000000;1.000000;1.000000;,
  20;1.000000;1.000000;1.000000;1.000000;,
  21;1.000000;1.000000;1.000000;1.000000;,
  22;1.000000;1.000000;1.000000;1.000000;,
  23;1.000000;1.000000;1.000000;1.000000;,
  24;1.000000;1.000000;1.000000;1.000000;,
  25;1.000000;1.000000;1.000000;1.000000;,
  26;1.000000;1.000000;1.000000;1.000000;,
  27;1.000000;1.000000;1.000000;1.000000;,
  28;1.000000;1.000000;1.000000;1.000000;,
  29;1.000000;1.000000;1.000000;1.000000;,
  30;1.000000;1.000000;1.000000;1.000000;,
  31;1.000000;1.000000;1.000000;1.000000;,
  32;1.000000;1.000000;1.000000;1.000000;,
  33;1.000000;1.000000;1.000000;1.000000;,
  34;1.000000;1.000000;1.000000;1.000000;,
  35;1.000000;1.000000;1.000000;1.000000;,
  36;1.000000;1.000000;1.000000;1.000000;,
  37;1.000000;1.000000;1.000000;1.000000;,
  38;1.000000;1.000000;1.000000;1.000000;,
  39;1.000000;1.000000;1.000000;1.000000;,
  40;1.000000;1.000000;1.000000;1.000000;,
  41;1.000000;1.000000;1.000000;1.000000;,
  42;1.000000;1.000000;1.000000;1.000000;,
  43;1.000000;1.000000;1.000000;1.000000;,
  44;1.000000;1.000000;1.000000;1.000000;,
  45;1.000000;1.000000;1.000000;1.000000;,
  46;1.000000;1.000000;1.000000;1.000000;,
  47;1.000000;1.000000;1.000000;1.000000;,
  48;1.000000;1.000000;1.000000;1.000000;,
  49;1.000000;1.000000;1.000000;1.000000;,
  50;1.000000;1.000000;1.000000;1.000000;,
  51;1.000000;1.000000;1.000000;1.000000;,
  52;1.000000;1.000000;1.000000;1.000000;,
  53;1.000000;1.000000;1.000000;1.000000;,
  54;1.000000;1.000000;1.000000;1.000000;,
  55;1.000000;1.000000;1.000000;1.000000;,
  56;1.000000;1.000000;1.000000;1.000000;,
  57;1.000000;1.000000;1.000000;1.000000;,
  58;1.000000;1.000000;1.000000;1.000000;,
  59;1.000000;1.000000;1.000000;1.000000;,
  60;1.000000;1.000000;1.000000;1.000000;,
  61;1.000000;1.000000;1.000000;1.000000;,
  62;1.000000;1.000000;1.000000;1.000000;,
  63;1.000000;1.000000;1.000000;1.000000;,
  64;1.000000;1.000000;1.000000;1.000000;,
  65;1.000000;1.000000;1.000000;1.000000;,
  66;1.000000;1.000000;1.000000;1.000000;,
  67;1.000000;1.000000;1.000000;1.000000;,
  68;1.000000;1.000000;1.000000;1.000000;,
  69;1.000000;1.000000;1.000000;1.000000;,
  70;1.000000;1.000000;1.000000;1.000000;,
  71;1.000000;1.000000;1.000000;1.000000;,
  72;1.000000;1.000000;1.000000;1.000000;,
  73;1.000000;1.000000;1.000000;1.000000;,
  74;1.000000;1.000000;1.000000;1.000000;,
  75;1.000000;1.000000;1.000000;1.000000;,
  76;1.000000;1.000000;1.000000;1.000000;,
  77;1.000000;1.000000;1.000000;1.000000;,
  78;1.000000;1.000000;1.000000;1.000000;,
  79;1.000000;1.000000;1.000000;1.000000;,
  80;1.000000;1.000000;1.000000;1.000000;;
 }
}
