xof 0302txt 0064
template Header {
 <3D82AB43-62DA-11cf-AB39-0020AF71E433>
 WORD major;
 WORD minor;
 DWORD flags;
}

template Vector {
 <3D82AB5E-62DA-11cf-AB39-0020AF71E433>
 FLOAT x;
 FLOAT y;
 FLOAT z;
}

template Coords2d {
 <F6F23F44-7686-11cf-8F52-0040333594A3>
 FLOAT u;
 FLOAT v;
}

template Matrix4x4 {
 <F6F23F45-7686-11cf-8F52-0040333594A3>
 array FLOAT matrix[16];
}

template ColorRGBA {
 <35FF44E0-6C7C-11cf-8F52-0040333594A3>
 FLOAT red;
 FLOAT green;
 FLOAT blue;
 FLOAT alpha;
}

template ColorRGB {
 <D3E16E81-7835-11cf-8F52-0040333594A3>
 FLOAT red;
 FLOAT green;
 FLOAT blue;
}

template IndexedColor {
 <1630B820-7842-11cf-8F52-0040333594A3>
 DWORD index;
 ColorRGBA indexColor;
}

template Boolean {
 <4885AE61-78E8-11cf-8F52-0040333594A3>
 WORD truefalse;
}

template Boolean2d {
 <4885AE63-78E8-11cf-8F52-0040333594A3>
 Boolean u;
 Boolean v;
}

template MaterialWrap {
 <4885AE60-78E8-11cf-8F52-0040333594A3>
 Boolean u;
 Boolean v;
}

template TextureFilename {
 <A42790E1-7810-11cf-8F52-0040333594A3>
 STRING filename;
}

template Material {
 <3D82AB4D-62DA-11cf-AB39-0020AF71E433>
 ColorRGBA faceColor;
 FLOAT power;
 ColorRGB specularColor;
 ColorRGB emissiveColor;
 [...]
}

template MeshFace {
 <3D82AB5F-62DA-11cf-AB39-0020AF71E433>
 DWORD nFaceVertexIndices;
 array DWORD faceVertexIndices[nFaceVertexIndices];
}

template MeshFaceWraps {
 <4885AE62-78E8-11cf-8F52-0040333594A3>
 DWORD nFaceWrapValues;
 Boolean2d faceWrapValues;
}

template MeshTextureCoords {
 <F6F23F40-7686-11cf-8F52-0040333594A3>
 DWORD nTextureCoords;
 array Coords2d textureCoords[nTextureCoords];
}

template MeshMaterialList {
 <F6F23F42-7686-11cf-8F52-0040333594A3>
 DWORD nMaterials;
 DWORD nFaceIndexes;
 array DWORD faceIndexes[nFaceIndexes];
 [Material]
}

template MeshNormals {
 <F6F23F43-7686-11cf-8F52-0040333594A3>
 DWORD nNormals;
 array Vector normals[nNormals];
 DWORD nFaceNormals;
 array MeshFace faceNormals[nFaceNormals];
}

template MeshVertexColors {
 <1630B821-7842-11cf-8F52-0040333594A3>
 DWORD nVertexColors;
 array IndexedColor vertexColors[nVertexColors];
}

template Mesh {
 <3D82AB44-62DA-11cf-AB39-0020AF71E433>
 DWORD nVertices;
 array Vector vertices[nVertices];
 DWORD nFaces;
 array MeshFace faces[nFaces];
 [...]
}

Header{
1;
0;
1;
}

Mesh {
 408;
 -0.00211;0.42770;0.52298;,
 0.00340;0.41634;-0.52022;,
 0.00340;0.41842;0.52292;,
 -0.00441;0.43161;0.52300;,
 -0.00448;0.42972;-0.52186;,
 0.00890;0.42770;0.52298;,
 0.01114;0.43161;0.52300;,
 0.01120;0.42972;-0.52186;,
 0.00013;0.43161;0.52300;,
 -0.51905;0.42770;-0.00490;,
 0.52415;0.41634;0.00060;,
 -0.51899;0.41842;0.00061;,
 -0.51907;0.43161;-0.00720;,
 0.52579;0.42972;-0.00727;,
 -0.51905;0.42770;0.00611;,
 -0.51907;0.43161;0.00835;,
 0.52579;0.42972;0.00841;,
 -0.51907;0.43161;-0.00266;,
 0.04789;0.42770;0.52298;,
 0.05339;0.41634;-0.52022;,
 0.05340;0.41842;0.52292;,
 0.04559;0.43161;0.52300;,
 0.04552;0.42972;-0.52186;,
 0.05890;0.42770;0.52298;,
 0.06114;0.43161;0.52300;,
 0.06120;0.42972;-0.52186;,
 0.05013;0.43161;0.52300;,
 0.09789;0.42770;0.52298;,
 0.10340;0.41634;-0.52022;,
 0.10340;0.41842;0.52292;,
 0.09559;0.43161;0.52300;,
 0.09552;0.42972;-0.52186;,
 0.10890;0.42770;0.52298;,
 0.11114;0.43161;0.52300;,
 0.11120;0.42972;-0.52186;,
 0.10013;0.43161;0.52300;,
 0.14789;0.42770;0.52298;,
 0.15340;0.41634;-0.52022;,
 0.15340;0.41842;0.52292;,
 0.14559;0.43161;0.52300;,
 0.14552;0.42972;-0.52186;,
 0.15890;0.42770;0.52298;,
 0.16114;0.43161;0.52300;,
 0.16120;0.42972;-0.52186;,
 0.15013;0.43161;0.52300;,
 0.19789;0.42770;0.52298;,
 0.20339;0.41634;-0.52022;,
 0.20340;0.41842;0.52292;,
 0.19559;0.43161;0.52300;,
 0.19552;0.42972;-0.52186;,
 0.20890;0.42770;0.52298;,
 0.21114;0.43161;0.52300;,
 0.21120;0.42972;-0.52186;,
 0.20013;0.43161;0.52300;,
 0.24789;0.42770;0.52298;,
 0.25339;0.41634;-0.52022;,
 0.25340;0.41842;0.52292;,
 0.24559;0.43161;0.52300;,
 0.24552;0.42972;-0.52186;,
 0.25890;0.42770;0.52298;,
 0.26114;0.43161;0.52300;,
 0.26120;0.42972;-0.52186;,
 0.25013;0.43161;0.52300;,
 0.29789;0.42770;0.50255;,
 0.30339;0.41634;-0.49985;,
 0.30340;0.41842;0.50249;,
 0.29559;0.43161;0.50257;,
 0.29552;0.42972;-0.50142;,
 0.30890;0.42770;0.50255;,
 0.31114;0.43161;0.50257;,
 0.31120;0.42972;-0.50142;,
 0.30013;0.43161;0.50257;,
 0.34789;0.42770;0.46405;,
 0.35339;0.41634;-0.46146;,
 0.35340;0.41842;0.46400;,
 0.34559;0.43161;0.46406;,
 0.34552;0.42972;-0.46292;,
 0.35890;0.42770;0.46405;,
 0.36114;0.43161;0.46406;,
 0.36120;0.42972;-0.46292;,
 0.35013;0.43161;0.46406;,
 0.39789;0.42770;0.37458;,
 0.40339;0.41634;-0.37228;,
 0.40340;0.41842;0.37454;,
 0.39559;0.43161;0.37460;,
 0.39552;0.42972;-0.37345;,
 0.40890;0.42770;0.37458;,
 0.41114;0.43161;0.37460;,
 0.41120;0.42972;-0.37345;,
 0.40013;0.43161;0.37460;,
 0.44789;0.42770;0.41796;,
 0.45339;0.41634;-0.41552;,
 0.45340;0.41842;0.41791;,
 0.44559;0.43161;0.41797;,
 0.44552;0.42972;-0.41683;,
 0.45890;0.42770;0.41796;,
 0.46114;0.43161;0.41797;,
 0.46120;0.42972;-0.41683;,
 0.45013;0.43161;0.41797;,
 -0.05340;0.41842;0.52292;,
 -0.05339;0.41634;-0.52022;,
 -0.04789;0.42770;0.52298;,
 -0.04552;0.42972;-0.52186;,
 -0.04559;0.43161;0.52300;,
 -0.05890;0.42770;0.52298;,
 -0.06120;0.42972;-0.52186;,
 -0.06114;0.43161;0.52300;,
 -0.05013;0.43161;0.52300;,
 -0.10340;0.41842;0.52292;,
 -0.10340;0.41634;-0.52022;,
 -0.09789;0.42770;0.52298;,
 -0.09552;0.42972;-0.52186;,
 -0.09559;0.43161;0.52300;,
 -0.10890;0.42770;0.52298;,
 -0.11120;0.42972;-0.52186;,
 -0.11114;0.43161;0.52300;,
 -0.10013;0.43161;0.52300;,
 -0.15340;0.41842;0.52292;,
 -0.15340;0.41634;-0.52022;,
 -0.14789;0.42770;0.52298;,
 -0.14552;0.42972;-0.52186;,
 -0.14559;0.43161;0.52300;,
 -0.15890;0.42770;0.52298;,
 -0.16120;0.42972;-0.52186;,
 -0.16114;0.43161;0.52300;,
 -0.15013;0.43161;0.52300;,
 -0.20340;0.41842;0.52292;,
 -0.20339;0.41634;-0.52022;,
 -0.19789;0.42770;0.52298;,
 -0.19552;0.42972;-0.52186;,
 -0.19559;0.43161;0.52300;,
 -0.20890;0.42770;0.52298;,
 -0.21120;0.42972;-0.52186;,
 -0.21114;0.43161;0.52300;,
 -0.20013;0.43161;0.52300;,
 -0.25340;0.41842;0.52292;,
 -0.25339;0.41634;-0.52022;,
 -0.24789;0.42770;0.52298;,
 -0.24552;0.42972;-0.52186;,
 -0.24559;0.43161;0.52300;,
 -0.25890;0.42770;0.52298;,
 -0.26120;0.42972;-0.52186;,
 -0.26114;0.43161;0.52300;,
 -0.25013;0.43161;0.52300;,
 -0.30340;0.41842;0.50249;,
 -0.30339;0.41634;-0.49985;,
 -0.29789;0.42770;0.50255;,
 -0.29552;0.42972;-0.50142;,
 -0.29559;0.43161;0.50257;,
 -0.30890;0.42770;0.50255;,
 -0.31120;0.42972;-0.50142;,
 -0.31114;0.43161;0.50257;,
 -0.30013;0.43161;0.50257;,
 -0.35340;0.41842;0.46400;,
 -0.35339;0.41634;-0.46146;,
 -0.34789;0.42770;0.46405;,
 -0.34552;0.42972;-0.46292;,
 -0.34559;0.43161;0.46406;,
 -0.35890;0.42770;0.46405;,
 -0.36120;0.42972;-0.46292;,
 -0.36114;0.43161;0.46406;,
 -0.35013;0.43161;0.46406;,
 -0.40340;0.41842;0.37454;,
 -0.40339;0.41634;-0.37228;,
 -0.39789;0.42770;0.37458;,
 -0.39552;0.42972;-0.37345;,
 -0.39559;0.43161;0.37460;,
 -0.40890;0.42770;0.37458;,
 -0.41120;0.42972;-0.37345;,
 -0.41114;0.43161;0.37460;,
 -0.40013;0.43161;0.37460;,
 -0.45340;0.41842;0.41791;,
 -0.45339;0.41634;-0.41552;,
 -0.44789;0.42770;0.41796;,
 -0.44552;0.42972;-0.41683;,
 -0.44559;0.43161;0.41797;,
 -0.45890;0.42770;0.41796;,
 -0.46120;0.42972;-0.41683;,
 -0.46114;0.43161;0.41797;,
 -0.45013;0.43161;0.41797;,
 -0.41611;0.42770;-0.45490;,
 0.42153;0.41634;-0.44940;,
 -0.41606;0.41842;-0.44939;,
 -0.41613;0.43161;-0.45720;,
 0.42285;0.42972;-0.45727;,
 -0.41611;0.42770;-0.44389;,
 -0.41613;0.43161;-0.44165;,
 0.42285;0.42972;-0.44159;,
 -0.41613;0.43161;-0.45266;,
 -0.51905;0.42770;-0.05490;,
 0.52415;0.41634;-0.04940;,
 -0.51899;0.41842;-0.04939;,
 -0.51907;0.43161;-0.05720;,
 0.52579;0.42972;-0.05727;,
 -0.51905;0.42770;-0.04389;,
 -0.51907;0.43161;-0.04165;,
 0.52579;0.42972;-0.04159;,
 -0.51907;0.43161;-0.05266;,
 -0.51905;0.42770;-0.10490;,
 0.52415;0.41634;-0.09940;,
 -0.51899;0.41842;-0.09939;,
 -0.51907;0.43161;-0.10720;,
 0.52579;0.42972;-0.10727;,
 -0.51905;0.42770;-0.09389;,
 -0.51907;0.43161;-0.09165;,
 0.52579;0.42972;-0.09159;,
 -0.51907;0.43161;-0.10266;,
 -0.51905;0.42770;-0.15490;,
 0.52415;0.41634;-0.14940;,
 -0.51899;0.41842;-0.14939;,
 -0.51907;0.43161;-0.15720;,
 0.52579;0.42972;-0.15727;,
 -0.51905;0.42770;-0.14389;,
 -0.51907;0.43161;-0.14165;,
 0.52579;0.42972;-0.14159;,
 -0.51907;0.43161;-0.15266;,
 -0.51905;0.42770;-0.20490;,
 0.52415;0.41634;-0.19940;,
 -0.51899;0.41842;-0.19939;,
 -0.51907;0.43161;-0.20720;,
 0.52579;0.42972;-0.20727;,
 -0.51905;0.42770;-0.19389;,
 -0.51907;0.43161;-0.19165;,
 0.52579;0.42972;-0.19159;,
 -0.51907;0.43161;-0.20266;,
 -0.51905;0.42770;-0.25490;,
 0.52415;0.41634;-0.24940;,
 -0.51899;0.41842;-0.24939;,
 -0.51907;0.43161;-0.25720;,
 0.52579;0.42972;-0.25727;,
 -0.51905;0.42770;-0.24389;,
 -0.51907;0.43161;-0.24165;,
 0.52579;0.42972;-0.24159;,
 -0.51907;0.43161;-0.25266;,
 -0.41611;0.42770;-0.30490;,
 0.42153;0.41634;-0.29940;,
 -0.41606;0.41842;-0.29939;,
 -0.41613;0.43161;-0.30720;,
 0.42285;0.42972;-0.30727;,
 -0.41611;0.42770;-0.29389;,
 -0.41613;0.43161;-0.29165;,
 0.42285;0.42972;-0.29159;,
 -0.41613;0.43161;-0.30266;,
 -0.41611;0.42770;-0.35490;,
 0.42153;0.41634;-0.34940;,
 -0.41606;0.41842;-0.34939;,
 -0.41613;0.43161;-0.35720;,
 0.42285;0.42972;-0.35727;,
 -0.41611;0.42770;-0.34389;,
 -0.41613;0.43161;-0.34165;,
 0.42285;0.42972;-0.34159;,
 -0.41613;0.43161;-0.35266;,
 -0.41611;0.42770;-0.40490;,
 0.42153;0.41634;-0.39940;,
 -0.41606;0.41842;-0.39939;,
 -0.41613;0.43161;-0.40720;,
 0.42285;0.42972;-0.40727;,
 -0.41611;0.42770;-0.39389;,
 -0.41613;0.43161;-0.39165;,
 0.42285;0.42972;-0.39159;,
 -0.41613;0.43161;-0.40266;,
 -0.41606;0.41842;0.44939;,
 0.42153;0.41634;0.44940;,
 -0.41611;0.42770;0.45490;,
 0.42285;0.42972;0.45727;,
 -0.41613;0.43161;0.45720;,
 -0.41611;0.42770;0.44389;,
 0.42285;0.42972;0.44159;,
 -0.41613;0.43161;0.44165;,
 -0.41613;0.43161;0.45266;,
 -0.51899;0.41842;0.04939;,
 0.52415;0.41634;0.04940;,
 -0.51905;0.42770;0.05490;,
 0.52579;0.42972;0.05727;,
 -0.51907;0.43161;0.05720;,
 -0.51905;0.42770;0.04389;,
 0.52579;0.42972;0.04159;,
 -0.51907;0.43161;0.04165;,
 -0.51907;0.43161;0.05266;,
 -0.51899;0.41842;0.09939;,
 0.52415;0.41634;0.09940;,
 -0.51905;0.42770;0.10490;,
 0.52579;0.42972;0.10727;,
 -0.51907;0.43161;0.10720;,
 -0.51905;0.42770;0.09389;,
 0.52579;0.42972;0.09159;,
 -0.51907;0.43161;0.09165;,
 -0.51907;0.43161;0.10266;,
 -0.51899;0.41842;0.14939;,
 0.52415;0.41634;0.14940;,
 -0.51905;0.42770;0.15490;,
 0.52579;0.42972;0.15727;,
 -0.51907;0.43161;0.15720;,
 -0.51905;0.42770;0.14389;,
 0.52579;0.42972;0.14159;,
 -0.51907;0.43161;0.14165;,
 -0.51907;0.43161;0.15266;,
 -0.51899;0.41842;0.19939;,
 0.52415;0.41634;0.19940;,
 -0.51905;0.42770;0.20490;,
 0.52579;0.42972;0.20727;,
 -0.51907;0.43161;0.20720;,
 -0.51905;0.42770;0.19389;,
 0.52579;0.42972;0.19159;,
 -0.51907;0.43161;0.19165;,
 -0.51907;0.43161;0.20266;,
 -0.51899;0.41842;0.24939;,
 0.52415;0.41634;0.24940;,
 -0.51905;0.42770;0.25490;,
 0.52579;0.42972;0.25727;,
 -0.51907;0.43161;0.25720;,
 -0.51905;0.42770;0.24389;,
 0.52579;0.42972;0.24159;,
 -0.51907;0.43161;0.24165;,
 -0.51907;0.43161;0.25266;,
 -0.41606;0.41842;0.29939;,
 0.42153;0.41634;0.29940;,
 -0.41611;0.42770;0.30490;,
 0.42285;0.42972;0.30727;,
 -0.41613;0.43161;0.30720;,
 -0.41611;0.42770;0.29389;,
 0.42285;0.42972;0.29159;,
 -0.41613;0.43161;0.29165;,
 -0.41613;0.43161;0.30266;,
 -0.41606;0.41842;0.34939;,
 0.42153;0.41634;0.34940;,
 -0.41611;0.42770;0.35490;,
 0.42285;0.42972;0.35727;,
 -0.41613;0.43161;0.35720;,
 -0.41611;0.42770;0.34389;,
 0.42285;0.42972;0.34159;,
 -0.41613;0.43161;0.34165;,
 -0.41613;0.43161;0.35266;,
 -0.41606;0.41842;0.39939;,
 0.42153;0.41634;0.39940;,
 -0.41611;0.42770;0.40490;,
 0.42285;0.42972;0.40727;,
 -0.41613;0.43161;0.40720;,
 -0.41611;0.42770;0.39389;,
 0.42285;0.42972;0.39159;,
 -0.41613;0.43161;0.39165;,
 -0.41613;0.43161;0.40266;,
 0.00000;0.43914;-0.64257;,
 0.45436;0.43914;-0.45436;,
 1.06066;-0.43914;-1.06066;,
 0.00000;-0.43914;-1.50000;,
 0.36349;0.43914;-0.36349;,
 0.00000;0.43914;-0.51406;,
 0.00000;-0.43914;-1.20000;,
 0.84853;-0.43914;-0.84853;,
 0.64257;0.43914;0.00000;,
 1.50000;-0.43914;0.00000;,
 0.51406;0.43914;0.00000;,
 1.20000;-0.43914;0.00000;,
 0.45436;0.43914;0.45436;,
 1.06066;-0.43914;1.06066;,
 0.36349;0.43914;0.36349;,
 0.84853;-0.43914;0.84853;,
 0.00000;0.43914;0.64257;,
 -0.00000;-0.43914;1.50000;,
 0.00000;0.43914;0.51406;,
 -0.00000;-0.43914;1.20000;,
 -0.45436;0.43914;0.45436;,
 -1.06066;-0.43914;1.06066;,
 -0.36349;0.43914;0.36349;,
 -0.84853;-0.43914;0.84853;,
 -0.64257;0.43914;0.00000;,
 -1.50000;-0.43914;0.00000;,
 -0.51406;0.43914;0.00000;,
 -1.20000;-0.43914;0.00000;,
 -0.45436;0.43914;-0.45436;,
 -1.06066;-0.43914;-1.06066;,
 -0.36349;0.43914;-0.36349;,
 -0.84853;-0.43914;-0.84853;,
 0.00000;0.43914;-0.64257;,
 0.00000;-0.43914;-1.50000;,
 0.00000;0.43914;-0.51406;,
 0.00000;-0.43914;-1.20000;,
 0.36349;0.43914;-0.36349;,
 0.45436;0.43914;-0.45436;,
 0.00000;-0.43914;-1.50000;,
 1.06066;-0.43914;-1.06066;,
 0.84853;-0.43914;-0.84853;,
 0.00000;-0.43914;-1.20000;,
 0.51406;0.43914;0.00000;,
 0.64257;0.43914;0.00000;,
 1.50000;-0.43914;0.00000;,
 1.20000;-0.43914;0.00000;,
 0.36349;0.43914;0.36349;,
 0.45436;0.43914;0.45436;,
 1.06066;-0.43914;1.06066;,
 0.84853;-0.43914;0.84853;,
 0.00000;0.43914;0.51406;,
 0.00000;0.43914;0.64257;,
 -0.00000;-0.43914;1.50000;,
 -0.00000;-0.43914;1.20000;,
 -0.36349;0.43914;0.36349;,
 -0.45436;0.43914;0.45436;,
 -1.06066;-0.43914;1.06066;,
 -0.84853;-0.43914;0.84853;,
 -0.51406;0.43914;0.00000;,
 -0.64257;0.43914;0.00000;,
 -1.50000;-0.43914;0.00000;,
 -1.20000;-0.43914;0.00000;,
 -0.36349;0.43914;-0.36349;,
 -0.45436;0.43914;-0.45436;,
 -1.06066;-0.43914;-1.06066;,
 -0.84853;-0.43914;-0.84853;;
 
 272;
 3;0,1,2;,
 4;0,3,4,1;,
 3;2,1,5;,
 4;6,5,1,7;,
 3;6,7,8;,
 4;3,8,7,4;,
 3;9,10,11;,
 4;9,12,13,10;,
 3;11,10,14;,
 4;15,14,10,16;,
 3;15,16,17;,
 4;12,17,16,13;,
 3;18,19,20;,
 4;18,21,22,19;,
 3;20,19,23;,
 4;24,23,19,25;,
 3;24,25,26;,
 4;21,26,25,22;,
 3;27,28,29;,
 4;27,30,31,28;,
 3;29,28,32;,
 4;33,32,28,34;,
 3;33,34,35;,
 4;30,35,34,31;,
 3;36,37,38;,
 4;36,39,40,37;,
 3;38,37,41;,
 4;42,41,37,43;,
 3;42,43,44;,
 4;39,44,43,40;,
 3;45,46,47;,
 4;45,48,49,46;,
 3;47,46,50;,
 4;51,50,46,52;,
 3;51,52,53;,
 4;48,53,52,49;,
 3;54,55,56;,
 4;54,57,58,55;,
 3;56,55,59;,
 4;60,59,55,61;,
 3;60,61,62;,
 4;57,62,61,58;,
 3;63,64,65;,
 4;63,66,67,64;,
 3;65,64,68;,
 4;69,68,64,70;,
 3;69,70,71;,
 4;66,71,70,67;,
 3;72,73,74;,
 4;72,75,76,73;,
 3;74,73,77;,
 4;78,77,73,79;,
 3;78,79,80;,
 4;75,80,79,76;,
 3;81,82,83;,
 4;81,84,85,82;,
 3;83,82,86;,
 4;87,86,82,88;,
 3;87,88,89;,
 4;84,89,88,85;,
 3;90,91,92;,
 4;90,93,94,91;,
 3;92,91,95;,
 4;96,95,91,97;,
 3;96,97,98;,
 4;93,98,97,94;,
 3;99,100,101;,
 4;100,102,103,101;,
 3;104,100,99;,
 4;105,100,104,106;,
 3;107,105,106;,
 4;102,105,107,103;,
 3;108,109,110;,
 4;109,111,112,110;,
 3;113,109,108;,
 4;114,109,113,115;,
 3;116,114,115;,
 4;111,114,116,112;,
 3;117,118,119;,
 4;118,120,121,119;,
 3;122,118,117;,
 4;123,118,122,124;,
 3;125,123,124;,
 4;120,123,125,121;,
 3;126,127,128;,
 4;127,129,130,128;,
 3;131,127,126;,
 4;132,127,131,133;,
 3;134,132,133;,
 4;129,132,134,130;,
 3;135,136,137;,
 4;136,138,139,137;,
 3;140,136,135;,
 4;141,136,140,142;,
 3;143,141,142;,
 4;138,141,143,139;,
 3;144,145,146;,
 4;145,147,148,146;,
 3;149,145,144;,
 4;150,145,149,151;,
 3;152,150,151;,
 4;147,150,152,148;,
 3;153,154,155;,
 4;154,156,157,155;,
 3;158,154,153;,
 4;159,154,158,160;,
 3;161,159,160;,
 4;156,159,161,157;,
 3;162,163,164;,
 4;163,165,166,164;,
 3;167,163,162;,
 4;168,163,167,169;,
 3;170,168,169;,
 4;165,168,170,166;,
 3;171,172,173;,
 4;172,174,175,173;,
 3;176,172,171;,
 4;177,172,176,178;,
 3;179,177,178;,
 4;174,177,179,175;,
 3;180,181,182;,
 4;180,183,184,181;,
 3;182,181,185;,
 4;186,185,181,187;,
 3;186,187,188;,
 4;183,188,187,184;,
 3;189,190,191;,
 4;189,192,193,190;,
 3;191,190,194;,
 4;195,194,190,196;,
 3;195,196,197;,
 4;192,197,196,193;,
 3;198,199,200;,
 4;198,201,202,199;,
 3;200,199,203;,
 4;204,203,199,205;,
 3;204,205,206;,
 4;201,206,205,202;,
 3;207,208,209;,
 4;207,210,211,208;,
 3;209,208,212;,
 4;213,212,208,214;,
 3;213,214,215;,
 4;210,215,214,211;,
 3;216,217,218;,
 4;216,219,220,217;,
 3;218,217,221;,
 4;222,221,217,223;,
 3;222,223,224;,
 4;219,224,223,220;,
 3;225,226,227;,
 4;225,228,229,226;,
 3;227,226,230;,
 4;231,230,226,232;,
 3;231,232,233;,
 4;228,233,232,229;,
 3;234,235,236;,
 4;234,237,238,235;,
 3;236,235,239;,
 4;240,239,235,241;,
 3;240,241,242;,
 4;237,242,241,238;,
 3;243,244,245;,
 4;243,246,247,244;,
 3;245,244,248;,
 4;249,248,244,250;,
 3;249,250,251;,
 4;246,251,250,247;,
 3;252,253,254;,
 4;252,255,256,253;,
 3;254,253,257;,
 4;258,257,253,259;,
 3;258,259,260;,
 4;255,260,259,256;,
 3;261,262,263;,
 4;262,264,265,263;,
 3;266,262,261;,
 4;267,262,266,268;,
 3;269,267,268;,
 4;264,267,269,265;,
 3;270,271,272;,
 4;271,273,274,272;,
 3;275,271,270;,
 4;276,271,275,277;,
 3;278,276,277;,
 4;273,276,278,274;,
 3;279,280,281;,
 4;280,282,283,281;,
 3;284,280,279;,
 4;285,280,284,286;,
 3;287,285,286;,
 4;282,285,287,283;,
 3;288,289,290;,
 4;289,291,292,290;,
 3;293,289,288;,
 4;294,289,293,295;,
 3;296,294,295;,
 4;291,294,296,292;,
 3;297,298,299;,
 4;298,300,301,299;,
 3;302,298,297;,
 4;303,298,302,304;,
 3;305,303,304;,
 4;300,303,305,301;,
 3;306,307,308;,
 4;307,309,310,308;,
 3;311,307,306;,
 4;312,307,311,313;,
 3;314,312,313;,
 4;309,312,314,310;,
 3;315,316,317;,
 4;316,318,319,317;,
 3;320,316,315;,
 4;321,316,320,322;,
 3;323,321,322;,
 4;318,321,323,319;,
 3;324,325,326;,
 4;325,327,328,326;,
 3;329,325,324;,
 4;330,325,329,331;,
 3;332,330,331;,
 4;327,330,332,328;,
 3;333,334,335;,
 4;334,336,337,335;,
 3;338,334,333;,
 4;339,334,338,340;,
 3;341,339,340;,
 4;336,339,341,337;,
 4;342,343,344,345;,
 4;346,347,348,349;,
 4;343,350,351,344;,
 4;352,346,349,353;,
 4;350,354,355,351;,
 4;356,352,353,357;,
 4;354,358,359,355;,
 4;360,356,357,361;,
 4;358,362,363,359;,
 4;364,360,361,365;,
 4;362,366,367,363;,
 4;368,364,365,369;,
 4;366,370,371,367;,
 4;372,368,369,373;,
 4;370,374,375,371;,
 4;376,372,373,377;,
 4;342,347,378,379;,
 4;380,381,382,383;,
 4;379,378,384,385;,
 4;381,386,387,382;,
 4;385,384,388,389;,
 4;386,390,391,387;,
 4;389,388,392,393;,
 4;390,394,395,391;,
 4;393,392,396,397;,
 4;394,398,399,395;,
 4;397,396,400,401;,
 4;398,402,403,399;,
 4;401,400,404,405;,
 4;402,406,407,403;,
 4;405,404,347,342;,
 4;406,380,383,407;,
 4;382,403,407,383;,
 4;377,373,369,349;,
 4;353,365,361,357;,
 4;391,395,399,387;,
 4;353,349,369,365;,
 4;399,403,382,387;,
 4;384,378,347,404;,
 4;372,347,346,352;,
 4;368,356,360,364;,
 4;396,392,388,400;,
 4;372,352,356,368;,
 4;400,388,384,404;;
 
 MeshMaterialList {
  3;
  272;
  0,
  0,
  0,
  0,
  0,
  0,
  0,
  0,
  0,
  0,
  0,
  0,
  0,
  0,
  0,
  0,
  0,
  0,
  0,
  0,
  0,
  0,
  0,
  0,
  0,
  0,
  0,
  0,
  0,
  0,
  0,
  0,
  0,
  0,
  0,
  0,
  0,
  0,
  0,
  0,
  0,
  0,
  0,
  0,
  0,
  0,
  0,
  0,
  0,
  0,
  0,
  0,
  0,
  0,
  0,
  0,
  0,
  0,
  0,
  0,
  0,
  0,
  0,
  0,
  0,
  0,
  0,
  0,
  0,
  0,
  0,
  0,
  0,
  0,
  0,
  0,
  0,
  0,
  0,
  0,
  0,
  0,
  0,
  0,
  0,
  0,
  0,
  0,
  0,
  0,
  0,
  0,
  0,
  0,
  0,
  0,
  0,
  0,
  0,
  0,
  0,
  0,
  0,
  0,
  0,
  0,
  0,
  0,
  0,
  0,
  0,
  0,
  0,
  0,
  0,
  0,
  0,
  0,
  0,
  0,
  0,
  0,
  0,
  0,
  0,
  0,
  0,
  0,
  0,
  0,
  0,
  0,
  0,
  0,
  0,
  0,
  0,
  0,
  0,
  0,
  0,
  0,
  0,
  0,
  0,
  0,
  0,
  0,
  0,
  0,
  0,
  0,
  0,
  0,
  0,
  0,
  0,
  0,
  0,
  0,
  0,
  0,
  0,
  0,
  0,
  0,
  0,
  0,
  0,
  0,
  0,
  0,
  0,
  0,
  0,
  0,
  0,
  0,
  0,
  0,
  0,
  0,
  0,
  0,
  0,
  0,
  0,
  0,
  0,
  0,
  0,
  0,
  0,
  0,
  0,
  0,
  0,
  0,
  0,
  0,
  0,
  0,
  0,
  0,
  0,
  0,
  0,
  0,
  0,
  0,
  0,
  0,
  0,
  0,
  0,
  0,
  0,
  0,
  0,
  0,
  0,
  0,
  0,
  0,
  0,
  0,
  0,
  0,
  2,
  2,
  2,
  2,
  2,
  2,
  2,
  2,
  2,
  2,
  2,
  2,
  2,
  2,
  2,
  2,
  2,
  2,
  2,
  2,
  2,
  2,
  2,
  2,
  2,
  2,
  2,
  2,
  2,
  2,
  2,
  2,
  2,
  2,
  2,
  2,
  2,
  2,
  1,
  1,
  1,
  1,
  1,
  1;;
  Material {
   0.103684;0.103684;0.103684;1.000000;;
   5.000000;
   0.000000;0.000000;0.000000;;
   0.000000;0.000000;0.000000;;
  }
  Material {
   0.800000;0.800000;0.800000;0.010000;;
   5.000000;
   0.000000;0.000000;0.000000;;
   0.000000;0.000000;0.000000;;
  }
  Material {
   1.000000;1.000000;1.000000;1.000000;;
   0.000000;
   0.000000;0.000000;0.000000;;
   0.000000;0.000000;0.000000;;
  }
 }
 MeshNormals {
  216;
  -0.860820;-0.508909;0.000997;,
  -0.861543;-0.507684;0.000975;,
  0.865527;-0.500861;0.000941;,
  -0.860095;-0.510133;0.001019;,
  0.862824;-0.505504;0.000978;,
  0.000000;0.999998;-0.001807;,
  0.860095;-0.510133;0.001016;,
  0.000000;0.999998;-0.001807;,
  0.000000;0.999998;-0.001807;,
  -0.000998;-0.508909;-0.860820;,
  -0.000975;-0.507684;-0.861543;,
  -0.000901;-0.500859;0.865528;,
  -0.001020;-0.510133;-0.860095;,
  -0.000958;-0.505503;0.862824;,
  0.001807;0.999998;0.000000;,
  -0.001015;-0.510133;0.860095;,
  0.001807;0.999998;0.000000;,
  0.001807;0.999998;0.000000;,
  -0.860820;-0.508909;0.000997;,
  -0.861543;-0.507684;0.000975;,
  0.865527;-0.500861;0.000941;,
  -0.860095;-0.510133;0.001019;,
  0.862824;-0.505504;0.000978;,
  0.000000;0.999998;-0.001807;,
  -0.860820;-0.508909;0.000997;,
  -0.861543;-0.507684;0.000975;,
  0.865528;-0.500860;0.000902;,
  -0.860095;-0.510133;0.001019;,
  0.862824;-0.505504;0.000959;,
  0.865527;-0.500861;0.000941;,
  0.862824;-0.505504;0.000978;,
  -0.860820;-0.508909;0.001000;,
  -0.861542;-0.507685;0.000982;,
  0.865528;-0.500860;0.000941;,
  -0.860095;-0.510133;0.001019;,
  0.862824;-0.505504;0.000978;,
  -0.860820;-0.508909;0.001041;,
  -0.861542;-0.507685;0.001022;,
  0.865528;-0.500860;0.000979;,
  -0.860095;-0.510133;0.001060;,
  0.862824;-0.505504;0.001018;,
  0.000000;0.999998;-0.001880;,
  -0.860819;-0.508909;0.001127;,
  -0.861542;-0.507685;0.001106;,
  0.865527;-0.500862;0.001016;,
  -0.860095;-0.510133;0.001148;,
  0.862823;-0.505504;0.001081;,
  0.000000;0.999998;-0.002037;,
  -0.860819;-0.508909;0.001392;,
  -0.861542;-0.507684;0.001361;,
  0.865525;-0.500863;0.001314;,
  -0.860095;-0.510133;0.001423;,
  0.862823;-0.505505;0.001366;,
  0.000000;0.999997;-0.002524;,
  -0.860819;-0.508909;0.001248;,
  -0.861542;-0.507684;0.001220;,
  0.865527;-0.500862;0.001129;,
  -0.860095;-0.510133;0.001275;,
  0.862823;-0.505504;0.001200;,
  0.000000;0.999997;-0.002262;,
  0.860820;-0.508909;0.000997;,
  0.861543;-0.507684;0.000975;,
  -0.865527;-0.500861;0.000941;,
  0.860095;-0.510133;0.001019;,
  -0.862824;-0.505504;0.000978;,
  0.860820;-0.508909;0.000997;,
  0.861543;-0.507684;0.000975;,
  -0.865528;-0.500860;0.000902;,
  0.860095;-0.510133;0.001019;,
  -0.862824;-0.505504;0.000959;,
  -0.865527;-0.500861;0.000941;,
  -0.862824;-0.505504;0.000978;,
  0.860820;-0.508909;0.001000;,
  0.861542;-0.507685;0.000982;,
  -0.865528;-0.500860;0.000941;,
  0.860095;-0.510133;0.001019;,
  -0.862824;-0.505504;0.000978;,
  0.860820;-0.508909;0.001041;,
  0.861542;-0.507685;0.001022;,
  -0.865528;-0.500860;0.000979;,
  0.860095;-0.510133;0.001060;,
  -0.862824;-0.505504;0.001018;,
  0.860819;-0.508909;0.001127;,
  0.861542;-0.507685;0.001106;,
  -0.865527;-0.500862;0.001016;,
  0.860095;-0.510133;0.001148;,
  -0.862823;-0.505504;0.001081;,
  0.860819;-0.508909;0.001392;,
  0.861542;-0.507684;0.001361;,
  -0.865525;-0.500863;0.001314;,
  0.860095;-0.510133;0.001423;,
  -0.862823;-0.505505;0.001366;,
  0.860819;-0.508909;0.001248;,
  0.861542;-0.507684;0.001220;,
  -0.865527;-0.500862;0.001129;,
  0.860095;-0.510133;0.001275;,
  -0.862823;-0.505504;0.001200;,
  0.860095;-0.510133;0.001016;,
  0.000000;0.999998;-0.001807;,
  0.000000;0.999998;-0.001807;,
  0.860095;-0.510133;0.001016;,
  0.000000;0.999998;-0.001807;,
  0.860095;-0.510133;0.001057;,
  0.000000;0.999998;-0.001880;,
  0.860095;-0.510133;0.001145;,
  0.000000;0.999998;-0.002037;,
  0.000000;0.999998;-0.002037;,
  0.860095;-0.510132;0.001419;,
  0.000000;0.999997;-0.002524;,
  0.860095;-0.510133;0.001271;,
  0.000000;0.999997;-0.002262;,
  0.000000;0.999997;-0.002262;,
  -0.860095;-0.510133;0.001016;,
  -0.860095;-0.510133;0.001016;,
  -0.860095;-0.510133;0.001057;,
  -0.860095;-0.510133;0.001145;,
  -0.860095;-0.510132;0.001419;,
  -0.860095;-0.510133;0.001271;,
  -0.001242;-0.508909;-0.860820;,
  -0.001215;-0.507683;-0.861543;,
  -0.001170;-0.500861;0.865527;,
  -0.001270;-0.510133;-0.860095;,
  -0.001217;-0.505504;0.862823;,
  0.002250;0.999997;0.000000;,
  -0.000998;-0.508909;-0.860820;,
  -0.000975;-0.507684;-0.861543;,
  -0.000940;-0.500861;0.865527;,
  -0.001020;-0.510133;-0.860095;,
  -0.000977;-0.505504;0.862823;,
  0.001807;0.999998;0.000000;,
  -0.000998;-0.508909;-0.860820;,
  -0.000975;-0.507684;-0.861543;,
  -0.001020;-0.510134;-0.860095;,
  -0.000977;-0.505504;0.862824;,
  -0.001001;-0.508909;-0.860820;,
  -0.000982;-0.507685;-0.861542;,
  -0.000940;-0.500862;0.865527;,
  -0.001020;-0.510133;-0.860095;,
  -0.000977;-0.505505;0.862823;,
  -0.001242;-0.508909;-0.860819;,
  -0.001215;-0.507684;-0.861542;,
  -0.001170;-0.500862;0.865526;,
  -0.001270;-0.510133;-0.860095;,
  -0.001217;-0.505504;0.862823;,
  -0.001242;-0.508909;0.860820;,
  -0.001215;-0.507683;0.861543;,
  -0.001170;-0.500861;-0.865527;,
  -0.001270;-0.510133;0.860095;,
  -0.001217;-0.505504;-0.862823;,
  -0.000998;-0.508909;0.860820;,
  -0.000975;-0.507684;0.861543;,
  -0.000940;-0.500861;-0.865527;,
  -0.001020;-0.510133;0.860095;,
  -0.000977;-0.505504;-0.862823;,
  -0.000998;-0.508909;0.860820;,
  -0.000975;-0.507684;0.861543;,
  -0.001020;-0.510134;0.860095;,
  -0.000977;-0.505504;-0.862824;,
  -0.001001;-0.508909;0.860820;,
  -0.000982;-0.507685;0.861542;,
  -0.000940;-0.500862;-0.865527;,
  -0.001020;-0.510133;0.860095;,
  -0.000977;-0.505505;-0.862823;,
  -0.001242;-0.508909;0.860819;,
  -0.001215;-0.507684;0.861542;,
  -0.001170;-0.500862;-0.865526;,
  -0.001270;-0.510133;0.860095;,
  -0.001217;-0.505504;-0.862823;,
  -0.001264;-0.510133;0.860095;,
  -0.001015;-0.510133;0.860095;,
  0.001807;0.999998;0.000000;,
  0.001807;0.999998;0.000000;,
  -0.001015;-0.510133;0.860095;,
  0.001807;0.999998;0.000000;,
  -0.001015;-0.510133;0.860095;,
  -0.001264;-0.510133;0.860095;,
  0.002250;0.999997;0.000000;,
  -0.001264;-0.510133;-0.860095;,
  -0.001015;-0.510133;-0.860095;,
  -0.001015;-0.510133;-0.860095;,
  -0.001015;-0.510133;-0.860095;,
  -0.001264;-0.510133;-0.860095;,
  0.000000;0.924971;-0.380037;,
  0.268727;0.924971;-0.268727;,
  0.380037;0.924971;0.000000;,
  0.268727;0.924971;0.268727;,
  0.000000;0.924971;0.380037;,
  -0.268727;0.924971;0.268727;,
  -0.380037;0.924971;0.000000;,
  -0.268727;0.924971;-0.268727;,
  0.000000;0.698566;-0.715546;,
  0.505967;0.698565;-0.505967;,
  0.715546;0.698566;0.000000;,
  0.505967;0.698565;0.505967;,
  0.000000;0.698566;0.715546;,
  -0.505967;0.698565;0.505967;,
  -0.715546;0.698566;0.000000;,
  -0.505967;0.698565;-0.505967;,
  0.000000;-0.822918;0.568160;,
  -0.401750;-0.822918;0.401750;,
  -0.427317;-0.904102;0.000000;,
  -0.302159;-0.904102;-0.302159;,
  0.000000;-0.822918;-0.568160;,
  0.401750;-0.822918;-0.401750;,
  0.427317;-0.904102;-0.000000;,
  0.302159;-0.904102;0.302159;,
  0.000000;-0.941095;0.338141;,
  -0.196829;-0.960477;0.196829;,
  -0.278358;-0.960477;0.000000;,
  -0.239102;-0.941095;-0.239102;,
  0.000000;-0.941095;-0.338141;,
  0.196829;-0.960477;-0.196829;,
  0.278358;-0.960477;-0.000000;,
  0.239102;-0.941095;0.239102;,
  0.000000;1.000000;0.000000;,
  0.000000;-1.000000;-0.000000;;
  272;
  3;0,0,3;,
  4;0,1,1,0;,
  3;6,4,4;,
  4;2,4,4,2;,
  3;7,5,5;,
  4;8,5,5,8;,
  3;9,9,12;,
  4;9,10,10,9;,
  3;15,13,13;,
  4;11,13,13,11;,
  3;16,14,14;,
  4;17,14,14,17;,
  3;18,18,21;,
  4;18,19,19,18;,
  3;97,22,22;,
  4;20,22,22,20;,
  3;98,23,23;,
  4;99,23,23,99;,
  3;24,24,27;,
  4;24,25,25,24;,
  3;100,28,28;,
  4;26,28,28,26;,
  3;101,23,23;,
  4;99,23,23,99;,
  3;24,24,27;,
  4;24,25,25,24;,
  3;100,30,30;,
  4;29,30,30,29;,
  3;99,23,23;,
  4;99,23,23,99;,
  3;31,31,34;,
  4;31,32,32,31;,
  3;97,35,35;,
  4;33,35,35,33;,
  3;99,23,23;,
  4;99,23,23,99;,
  3;31,31,34;,
  4;31,32,32,31;,
  3;97,35,35;,
  4;33,35,35,33;,
  3;99,23,23;,
  4;99,23,23,99;,
  3;36,36,39;,
  4;36,37,37,36;,
  3;102,40,40;,
  4;38,40,40,38;,
  3;103,41,41;,
  4;103,41,41,103;,
  3;42,42,45;,
  4;42,43,43,42;,
  3;104,46,46;,
  4;44,46,46,44;,
  3;105,47,47;,
  4;106,47,47,106;,
  3;48,48,51;,
  4;48,49,49,48;,
  3;107,52,52;,
  4;50,52,52,50;,
  3;53,53,53;,
  4;108,53,53,108;,
  3;54,54,57;,
  4;54,55,55,54;,
  3;109,58,58;,
  4;56,58,58,56;,
  3;110,59,59;,
  4;111,59,59,111;,
  3;63,60,60;,
  4;60,61,61,60;,
  3;64,64,112;,
  4;62,64,64,62;,
  3;23,23,98;,
  4;99,23,23,99;,
  3;68,65,65;,
  4;65,66,66,65;,
  3;69,69,113;,
  4;67,69,69,67;,
  3;23,23,101;,
  4;99,23,23,99;,
  3;68,65,65;,
  4;65,66,66,65;,
  3;71,71,113;,
  4;70,71,71,70;,
  3;23,23,99;,
  4;99,23,23,99;,
  3;75,72,72;,
  4;72,73,73,72;,
  3;76,76,112;,
  4;74,76,76,74;,
  3;23,23,99;,
  4;99,23,23,99;,
  3;75,72,72;,
  4;72,73,73,72;,
  3;76,76,112;,
  4;74,76,76,74;,
  3;23,23,99;,
  4;99,23,23,99;,
  3;80,77,77;,
  4;77,78,78,77;,
  3;81,81,114;,
  4;79,81,81,79;,
  3;41,41,103;,
  4;103,41,41,103;,
  3;85,82,82;,
  4;82,83,83,82;,
  3;86,86,115;,
  4;84,86,86,84;,
  3;47,47,105;,
  4;106,47,47,106;,
  3;90,87,87;,
  4;87,88,88,87;,
  3;91,91,116;,
  4;89,91,91,89;,
  3;53,53,53;,
  4;108,53,53,108;,
  3;95,92,92;,
  4;92,93,93,92;,
  3;96,96,117;,
  4;94,96,96,94;,
  3;59,59,110;,
  4;111,59,59,111;,
  3;118,118,121;,
  4;118,119,119,118;,
  3;168,122,122;,
  4;120,122,122,120;,
  3;123,123,123;,
  4;123,123,123,123;,
  3;124,124,127;,
  4;124,125,125,124;,
  3;169,128,128;,
  4;126,128,128,126;,
  3;170,129,129;,
  4;171,129,129,171;,
  3;130,130,132;,
  4;130,131,131,130;,
  3;172,133,133;,
  4;126,133,133,126;,
  3;173,129,129;,
  4;171,129,129,171;,
  3;130,130,132;,
  4;130,131,131,130;,
  3;172,133,133;,
  4;126,133,133,126;,
  3;173,129,129;,
  4;171,129,129,171;,
  3;134,134,137;,
  4;134,135,135,134;,
  3;174,138,138;,
  4;136,138,138,136;,
  3;171,129,129;,
  4;171,129,129,171;,
  3;134,134,137;,
  4;134,135,135,134;,
  3;174,138,138;,
  4;136,138,138,136;,
  3;171,129,129;,
  4;171,129,129,171;,
  3;139,139,142;,
  4;139,140,140,139;,
  3;175,143,143;,
  4;141,143,143,141;,
  3;123,123,123;,
  4;176,123,123,176;,
  3;118,118,121;,
  4;118,119,119,118;,
  3;168,122,122;,
  4;120,122,122,120;,
  3;123,123,123;,
  4;123,123,123,123;,
  3;118,118,121;,
  4;118,119,119,118;,
  3;168,122,122;,
  4;120,122,122,120;,
  3;123,123,123;,
  4;123,123,123,123;,
  3;147,144,144;,
  4;144,145,145,144;,
  3;148,148,177;,
  4;146,148,148,146;,
  3;123,123,123;,
  4;123,123,123,123;,
  3;152,149,149;,
  4;149,150,150,149;,
  3;153,153,178;,
  4;151,153,153,151;,
  3;129,129,170;,
  4;171,129,129,171;,
  3;156,154,154;,
  4;154,155,155,154;,
  3;157,157,179;,
  4;151,157,157,151;,
  3;129,129,173;,
  4;171,129,129,171;,
  3;156,154,154;,
  4;154,155,155,154;,
  3;157,157,179;,
  4;151,157,157,151;,
  3;129,129,173;,
  4;171,129,129,171;,
  3;161,158,158;,
  4;158,159,159,158;,
  3;162,162,180;,
  4;160,162,162,160;,
  3;129,129,171;,
  4;171,129,129,171;,
  3;161,158,158;,
  4;158,159,159,158;,
  3;162,162,180;,
  4;160,162,162,160;,
  3;129,129,171;,
  4;171,129,129,171;,
  3;166,163,163;,
  4;163,164,164,163;,
  3;167,167,181;,
  4;165,167,167,165;,
  3;123,123,123;,
  4;176,123,123,176;,
  3;147,144,144;,
  4;144,145,145,144;,
  3;148,148,177;,
  4;146,148,148,146;,
  3;123,123,123;,
  4;123,123,123,123;,
  3;147,144,144;,
  4;144,145,145,144;,
  3;148,148,177;,
  4;146,148,148,146;,
  3;123,123,123;,
  4;123,123,123,123;,
  4;182,183,191,190;,
  4;199,198,206,207;,
  4;183,184,192,191;,
  4;200,199,207,208;,
  4;184,185,193,192;,
  4;201,200,208,209;,
  4;185,186,194,193;,
  4;202,201,209,210;,
  4;186,187,195,194;,
  4;203,202,210,211;,
  4;187,188,196,195;,
  4;204,203,211,212;,
  4;188,189,197,196;,
  4;205,204,212,213;,
  4;189,182,190,197;,
  4;198,205,213,206;,
  4;182,214,214,183;,
  4;215,215,207,206;,
  4;183,214,214,184;,
  4;215,215,208,207;,
  4;184,214,214,185;,
  4;215,215,209,208;,
  4;185,214,214,186;,
  4;215,215,210,209;,
  4;186,214,214,187;,
  4;215,215,211,210;,
  4;187,214,214,188;,
  4;215,215,212,211;,
  4;188,214,214,189;,
  4;215,215,213,212;,
  4;189,214,214,182;,
  4;215,215,206,213;,
  4;207,212,213,206;,
  4;214,214,214,214;,
  4;214,214,214,214;,
  4;209,210,211,208;,
  4;214,214,214,214;,
  4;211,212,207,208;,
  4;214,214,214,214;,
  4;205,198,199,200;,
  4;204,201,202,203;,
  4;214,214,214,214;,
  4;205,200,201,204;,
  4;214,214,214,214;;
 }
 MeshTextureCoords {
  408;
  -4.014810;-2.766870;,
  -3.461270;-3.073620;,
  -3.793560;-3.299450;,
  -4.104880;-2.549900;,
  -3.771930;-2.323610;,
  -4.014810;-2.766860;,
  -4.104880;-2.549890;,
  -3.771930;-2.323610;,
  -4.104880;-2.549900;,
  -4.014810;-2.766870;,
  -3.461270;-3.073620;,
  -3.793560;-3.299450;,
  -4.104880;-2.549900;,
  -3.771930;-2.323610;,
  -4.014810;-2.766860;,
  -4.104880;-2.549890;,
  -3.771930;-2.323610;,
  -4.104880;-2.549900;,
  -4.014810;-2.766870;,
  -3.461270;-3.073620;,
  -3.793560;-3.299450;,
  -4.104880;-2.549900;,
  -3.771930;-2.323610;,
  -4.014810;-2.766860;,
  -4.104880;-2.549890;,
  -3.771930;-2.323610;,
  -4.104880;-2.549900;,
  -4.014810;-2.766870;,
  -3.461270;-3.073620;,
  -3.793560;-3.299450;,
  -4.104880;-2.549900;,
  -3.771930;-2.323610;,
  -4.014810;-2.766860;,
  -4.104880;-2.549890;,
  -3.771930;-2.323610;,
  -4.104880;-2.549900;,
  -4.014810;-2.766870;,
  -3.461270;-3.073620;,
  -3.793560;-3.299450;,
  -4.104880;-2.549900;,
  -3.771930;-2.323610;,
  -4.014810;-2.766860;,
  -4.104880;-2.549890;,
  -3.771930;-2.323610;,
  -4.104880;-2.549900;,
  -4.014810;-2.766870;,
  -3.461270;-3.073620;,
  -3.793560;-3.299450;,
  -4.104880;-2.549900;,
  -3.771930;-2.323610;,
  -4.014810;-2.766860;,
  -4.104880;-2.549890;,
  -3.771930;-2.323610;,
  -4.104880;-2.549900;,
  -4.014810;-2.766870;,
  -3.461270;-3.073620;,
  -3.793560;-3.299450;,
  -4.104880;-2.549900;,
  -3.771930;-2.323610;,
  -4.014810;-2.766860;,
  -4.104880;-2.549890;,
  -3.771930;-2.323610;,
  -4.104880;-2.549900;,
  -4.014810;-2.766870;,
  -3.461270;-3.073620;,
  -3.793560;-3.299450;,
  -4.104880;-2.549900;,
  -3.771930;-2.323610;,
  -4.014810;-2.766860;,
  -4.104880;-2.549890;,
  -3.771930;-2.323610;,
  -4.104880;-2.549900;,
  -4.014810;-2.766870;,
  -3.461270;-3.073620;,
  -3.793560;-3.299450;,
  -4.104880;-2.549900;,
  -3.771930;-2.323610;,
  -4.014810;-2.766860;,
  -4.104880;-2.549890;,
  -3.771930;-2.323610;,
  -4.104880;-2.549900;,
  -4.014810;-2.766870;,
  -3.461270;-3.073620;,
  -3.793560;-3.299450;,
  -4.104880;-2.549900;,
  -3.771930;-2.323610;,
  -4.014810;-2.766860;,
  -4.104880;-2.549890;,
  -3.771930;-2.323610;,
  -4.104880;-2.549900;,
  -4.014810;-2.766870;,
  -3.461270;-3.073620;,
  -3.793560;-3.299450;,
  -4.104880;-2.549900;,
  -3.771930;-2.323610;,
  -4.014810;-2.766860;,
  -4.104880;-2.549890;,
  -3.771930;-2.323610;,
  -4.104880;-2.549900;,
  -3.793560;-3.299450;,
  -3.461270;-3.073620;,
  -4.014810;-2.766870;,
  -3.771930;-2.323610;,
  -4.104880;-2.549900;,
  -4.014810;-2.766860;,
  -3.771930;-2.323610;,
  -4.104880;-2.549890;,
  -4.104880;-2.549900;,
  -3.793560;-3.299450;,
  -3.461270;-3.073620;,
  -4.014810;-2.766870;,
  -3.771930;-2.323610;,
  -4.104880;-2.549900;,
  -4.014810;-2.766860;,
  -3.771930;-2.323610;,
  -4.104880;-2.549890;,
  -4.104880;-2.549900;,
  -3.793560;-3.299450;,
  -3.461270;-3.073620;,
  -4.014810;-2.766870;,
  -3.771930;-2.323610;,
  -4.104880;-2.549900;,
  -4.014810;-2.766860;,
  -3.771930;-2.323610;,
  -4.104880;-2.549890;,
  -4.104880;-2.549900;,
  -3.793560;-3.299450;,
  -3.461270;-3.073620;,
  -4.014810;-2.766870;,
  -3.771930;-2.323610;,
  -4.104880;-2.549900;,
  -4.014810;-2.766860;,
  -3.771930;-2.323610;,
  -4.104880;-2.549890;,
  -4.104880;-2.549900;,
  -3.793560;-3.299450;,
  -3.461270;-3.073620;,
  -4.014810;-2.766870;,
  -3.771930;-2.323610;,
  -4.104880;-2.549900;,
  -4.014810;-2.766860;,
  -3.771930;-2.323610;,
  -4.104880;-2.549890;,
  -4.104880;-2.549900;,
  -3.793560;-3.299450;,
  -3.461270;-3.073620;,
  -4.014810;-2.766870;,
  -3.771930;-2.323610;,
  -4.104880;-2.549900;,
  -4.014810;-2.766860;,
  -3.771930;-2.323610;,
  -4.104880;-2.549890;,
  -4.104880;-2.549900;,
  -3.793560;-3.299450;,
  -3.461270;-3.073620;,
  -4.014810;-2.766870;,
  -3.771930;-2.323610;,
  -4.104880;-2.549900;,
  -4.014810;-2.766860;,
  -3.771930;-2.323610;,
  -4.104880;-2.549890;,
  -4.104880;-2.549900;,
  -3.793560;-3.299450;,
  -3.461270;-3.073620;,
  -4.014810;-2.766870;,
  -3.771930;-2.323610;,
  -4.104880;-2.549900;,
  -4.014810;-2.766860;,
  -3.771930;-2.323610;,
  -4.104880;-2.549890;,
  -4.104880;-2.549900;,
  -3.793560;-3.299450;,
  -3.461270;-3.073620;,
  -4.014810;-2.766870;,
  -3.771930;-2.323610;,
  -4.104880;-2.549900;,
  -4.014810;-2.766860;,
  -3.771930;-2.323610;,
  -4.104880;-2.549890;,
  -4.104880;-2.549900;,
  -4.014810;-2.766870;,
  -3.461270;-3.073620;,
  -3.793560;-3.299450;,
  -4.104880;-2.549900;,
  -3.771930;-2.323610;,
  -4.014810;-2.766860;,
  -4.104880;-2.549890;,
  -3.771930;-2.323610;,
  -4.104880;-2.549900;,
  -4.014810;-2.766870;,
  -3.461270;-3.073620;,
  -3.793560;-3.299450;,
  -4.104880;-2.549900;,
  -3.771930;-2.323610;,
  -4.014810;-2.766860;,
  -4.104880;-2.549890;,
  -3.771930;-2.323610;,
  -4.104880;-2.549900;,
  -4.014810;-2.766870;,
  -3.461270;-3.073620;,
  -3.793560;-3.299450;,
  -4.104880;-2.549900;,
  -3.771930;-2.323610;,
  -4.014810;-2.766860;,
  -4.104880;-2.549890;,
  -3.771930;-2.323610;,
  -4.104880;-2.549900;,
  -4.014810;-2.766870;,
  -3.461270;-3.073620;,
  -3.793560;-3.299450;,
  -4.104880;-2.549900;,
  -3.771930;-2.323610;,
  -4.014810;-2.766860;,
  -4.104880;-2.549890;,
  -3.771930;-2.323610;,
  -4.104880;-2.549900;,
  -4.014810;-2.766870;,
  -3.461270;-3.073620;,
  -3.793560;-3.299450;,
  -4.104880;-2.549900;,
  -3.771930;-2.323610;,
  -4.014810;-2.766860;,
  -4.104880;-2.549890;,
  -3.771930;-2.323610;,
  -4.104880;-2.549900;,
  -4.014810;-2.766870;,
  -3.461270;-3.073620;,
  -3.793560;-3.299450;,
  -4.104880;-2.549900;,
  -3.771930;-2.323610;,
  -4.014810;-2.766860;,
  -4.104880;-2.549890;,
  -3.771930;-2.323610;,
  -4.104880;-2.549900;,
  -4.014810;-2.766870;,
  -3.461270;-3.073620;,
  -3.793560;-3.299450;,
  -4.104880;-2.549900;,
  -3.771930;-2.323610;,
  -4.014810;-2.766860;,
  -4.104880;-2.549890;,
  -3.771930;-2.323610;,
  -4.104880;-2.549900;,
  -4.014810;-2.766870;,
  -3.461270;-3.073620;,
  -3.793560;-3.299450;,
  -4.104880;-2.549900;,
  -3.771930;-2.323610;,
  -4.014810;-2.766860;,
  -4.104880;-2.549890;,
  -3.771930;-2.323610;,
  -4.104880;-2.549900;,
  -4.014810;-2.766870;,
  -3.461270;-3.073620;,
  -3.793560;-3.299450;,
  -4.104880;-2.549900;,
  -3.771930;-2.323610;,
  -4.014810;-2.766860;,
  -4.104880;-2.549890;,
  -3.771930;-2.323610;,
  -4.104880;-2.549900;,
  -3.793560;-3.299450;,
  -3.461270;-3.073620;,
  -4.014810;-2.766870;,
  -3.771930;-2.323610;,
  -4.104880;-2.549900;,
  -4.014810;-2.766860;,
  -3.771930;-2.323610;,
  -4.104880;-2.549890;,
  -4.104880;-2.549900;,
  -3.793560;-3.299450;,
  -3.461270;-3.073620;,
  -4.014810;-2.766870;,
  -3.771930;-2.323610;,
  -4.104880;-2.549900;,
  -4.014810;-2.766860;,
  -3.771930;-2.323610;,
  -4.104880;-2.549890;,
  -4.104880;-2.549900;,
  -3.793560;-3.299450;,
  -3.461270;-3.073620;,
  -4.014810;-2.766870;,
  -3.771930;-2.323610;,
  -4.104880;-2.549900;,
  -4.014810;-2.766860;,
  -3.771930;-2.323610;,
  -4.104880;-2.549890;,
  -4.104880;-2.549900;,
  -3.793560;-3.299450;,
  -3.461270;-3.073620;,
  -4.014810;-2.766870;,
  -3.771930;-2.323610;,
  -4.104880;-2.549900;,
  -4.014810;-2.766860;,
  -3.771930;-2.323610;,
  -4.104880;-2.549890;,
  -4.104880;-2.549900;,
  -3.793560;-3.299450;,
  -3.461270;-3.073620;,
  -4.014810;-2.766870;,
  -3.771930;-2.323610;,
  -4.104880;-2.549900;,
  -4.014810;-2.766860;,
  -3.771930;-2.323610;,
  -4.104880;-2.549890;,
  -4.104880;-2.549900;,
  -3.793560;-3.299450;,
  -3.461270;-3.073620;,
  -4.014810;-2.766870;,
  -3.771930;-2.323610;,
  -4.104880;-2.549900;,
  -4.014810;-2.766860;,
  -3.771930;-2.323610;,
  -4.104880;-2.549890;,
  -4.104880;-2.549900;,
  -3.793560;-3.299450;,
  -3.461270;-3.073620;,
  -4.014810;-2.766870;,
  -3.771930;-2.323610;,
  -4.104880;-2.549900;,
  -4.014810;-2.766860;,
  -3.771930;-2.323610;,
  -4.104880;-2.549890;,
  -4.104880;-2.549900;,
  -3.793560;-3.299450;,
  -3.461270;-3.073620;,
  -4.014810;-2.766870;,
  -3.771930;-2.323610;,
  -4.104880;-2.549900;,
  -4.014810;-2.766860;,
  -3.771930;-2.323610;,
  -4.104880;-2.549890;,
  -4.104880;-2.549900;,
  -3.793560;-3.299450;,
  -3.461270;-3.073620;,
  -4.014810;-2.766870;,
  -3.771930;-2.323610;,
  -4.104880;-2.549900;,
  -4.014810;-2.766860;,
  -3.771930;-2.323610;,
  -4.104880;-2.549890;,
  -4.104880;-2.549900;,
  0.000000;0.000000;,
  0.125000;0.000000;,
  0.125000;1.000000;,
  0.000000;1.000000;,
  0.125000;0.000000;,
  0.000000;0.000000;,
  0.000000;1.000000;,
  0.125000;1.000000;,
  0.250000;0.000000;,
  0.250000;1.000000;,
  0.250000;0.000000;,
  0.250000;1.000000;,
  0.375000;0.000000;,
  0.375000;1.000000;,
  0.375000;0.000000;,
  0.375000;1.000000;,
  0.500000;0.000000;,
  0.500000;1.000000;,
  0.500000;0.000000;,
  0.500000;1.000000;,
  0.625000;0.000000;,
  0.625000;1.000000;,
  0.625000;0.000000;,
  0.625000;1.000000;,
  0.750000;0.000000;,
  0.750000;1.000000;,
  0.750000;0.000000;,
  0.750000;1.000000;,
  0.875000;0.000000;,
  0.875000;1.000000;,
  0.875000;0.000000;,
  0.875000;1.000000;,
  1.000000;0.000000;,
  1.000000;1.000000;,
  1.000000;0.000000;,
  1.000000;1.000000;,
  0.000000;0.000000;,
  0.000000;0.000000;,
  0.000000;0.000000;,
  0.000000;0.000000;,
  0.000000;0.000000;,
  0.000000;0.000000;,
  0.000000;0.000000;,
  0.000000;0.000000;,
  0.000000;0.000000;,
  0.000000;0.000000;,
  0.000000;0.000000;,
  0.000000;0.000000;,
  0.000000;0.000000;,
  0.000000;0.000000;,
  0.000000;0.000000;,
  0.000000;0.000000;,
  0.000000;0.000000;,
  0.000000;0.000000;,
  0.000000;0.000000;,
  0.000000;0.000000;,
  0.000000;0.000000;,
  0.000000;0.000000;,
  0.000000;0.000000;,
  0.000000;0.000000;,
  0.000000;0.000000;,
  0.000000;0.000000;,
  0.000000;0.000000;,
  0.000000;0.000000;,
  0.000000;0.000000;,
  0.000000;0.000000;;
 }
 MeshVertexColors {
  408;
  0;1.000000;1.000000;1.000000;1.000000;,
  1;1.000000;1.000000;1.000000;1.000000;,
  2;1.000000;1.000000;1.000000;1.000000;,
  3;1.000000;1.000000;1.000000;1.000000;,
  4;1.000000;1.000000;1.000000;1.000000;,
  5;1.000000;1.000000;1.000000;1.000000;,
  6;1.000000;1.000000;1.000000;1.000000;,
  7;1.000000;1.000000;1.000000;1.000000;,
  8;1.000000;1.000000;1.000000;1.000000;,
  9;1.000000;1.000000;1.000000;1.000000;,
  10;1.000000;1.000000;1.000000;1.000000;,
  11;1.000000;1.000000;1.000000;1.000000;,
  12;1.000000;1.000000;1.000000;1.000000;,
  13;1.000000;1.000000;1.000000;1.000000;,
  14;1.000000;1.000000;1.000000;1.000000;,
  15;1.000000;1.000000;1.000000;1.000000;,
  16;1.000000;1.000000;1.000000;1.000000;,
  17;1.000000;1.000000;1.000000;1.000000;,
  18;1.000000;1.000000;1.000000;1.000000;,
  19;1.000000;1.000000;1.000000;1.000000;,
  20;1.000000;1.000000;1.000000;1.000000;,
  21;1.000000;1.000000;1.000000;1.000000;,
  22;1.000000;1.000000;1.000000;1.000000;,
  23;1.000000;1.000000;1.000000;1.000000;,
  24;1.000000;1.000000;1.000000;1.000000;,
  25;1.000000;1.000000;1.000000;1.000000;,
  26;1.000000;1.000000;1.000000;1.000000;,
  27;1.000000;1.000000;1.000000;1.000000;,
  28;1.000000;1.000000;1.000000;1.000000;,
  29;1.000000;1.000000;1.000000;1.000000;,
  30;1.000000;1.000000;1.000000;1.000000;,
  31;1.000000;1.000000;1.000000;1.000000;,
  32;1.000000;1.000000;1.000000;1.000000;,
  33;1.000000;1.000000;1.000000;1.000000;,
  34;1.000000;1.000000;1.000000;1.000000;,
  35;1.000000;1.000000;1.000000;1.000000;,
  36;1.000000;1.000000;1.000000;1.000000;,
  37;1.000000;1.000000;1.000000;1.000000;,
  38;1.000000;1.000000;1.000000;1.000000;,
  39;1.000000;1.000000;1.000000;1.000000;,
  40;1.000000;1.000000;1.000000;1.000000;,
  41;1.000000;1.000000;1.000000;1.000000;,
  42;1.000000;1.000000;1.000000;1.000000;,
  43;1.000000;1.000000;1.000000;1.000000;,
  44;1.000000;1.000000;1.000000;1.000000;,
  45;1.000000;1.000000;1.000000;1.000000;,
  46;1.000000;1.000000;1.000000;1.000000;,
  47;1.000000;1.000000;1.000000;1.000000;,
  48;1.000000;1.000000;1.000000;1.000000;,
  49;1.000000;1.000000;1.000000;1.000000;,
  50;1.000000;1.000000;1.000000;1.000000;,
  51;1.000000;1.000000;1.000000;1.000000;,
  52;1.000000;1.000000;1.000000;1.000000;,
  53;1.000000;1.000000;1.000000;1.000000;,
  54;1.000000;1.000000;1.000000;1.000000;,
  55;1.000000;1.000000;1.000000;1.000000;,
  56;1.000000;1.000000;1.000000;1.000000;,
  57;1.000000;1.000000;1.000000;1.000000;,
  58;1.000000;1.000000;1.000000;1.000000;,
  59;1.000000;1.000000;1.000000;1.000000;,
  60;1.000000;1.000000;1.000000;1.000000;,
  61;1.000000;1.000000;1.000000;1.000000;,
  62;1.000000;1.000000;1.000000;1.000000;,
  63;1.000000;1.000000;1.000000;1.000000;,
  64;1.000000;1.000000;1.000000;1.000000;,
  65;1.000000;1.000000;1.000000;1.000000;,
  66;1.000000;1.000000;1.000000;1.000000;,
  67;1.000000;1.000000;1.000000;1.000000;,
  68;1.000000;1.000000;1.000000;1.000000;,
  69;1.000000;1.000000;1.000000;1.000000;,
  70;1.000000;1.000000;1.000000;1.000000;,
  71;1.000000;1.000000;1.000000;1.000000;,
  72;1.000000;1.000000;1.000000;1.000000;,
  73;1.000000;1.000000;1.000000;1.000000;,
  74;1.000000;1.000000;1.000000;1.000000;,
  75;1.000000;1.000000;1.000000;1.000000;,
  76;1.000000;1.000000;1.000000;1.000000;,
  77;1.000000;1.000000;1.000000;1.000000;,
  78;1.000000;1.000000;1.000000;1.000000;,
  79;1.000000;1.000000;1.000000;1.000000;,
  80;1.000000;1.000000;1.000000;1.000000;,
  81;1.000000;1.000000;1.000000;1.000000;,
  82;1.000000;1.000000;1.000000;1.000000;,
  83;1.000000;1.000000;1.000000;1.000000;,
  84;1.000000;1.000000;1.000000;1.000000;,
  85;1.000000;1.000000;1.000000;1.000000;,
  86;1.000000;1.000000;1.000000;1.000000;,
  87;1.000000;1.000000;1.000000;1.000000;,
  88;1.000000;1.000000;1.000000;1.000000;,
  89;1.000000;1.000000;1.000000;1.000000;,
  90;1.000000;1.000000;1.000000;1.000000;,
  91;1.000000;1.000000;1.000000;1.000000;,
  92;1.000000;1.000000;1.000000;1.000000;,
  93;1.000000;1.000000;1.000000;1.000000;,
  94;1.000000;1.000000;1.000000;1.000000;,
  95;1.000000;1.000000;1.000000;1.000000;,
  96;1.000000;1.000000;1.000000;1.000000;,
  97;1.000000;1.000000;1.000000;1.000000;,
  98;1.000000;1.000000;1.000000;1.000000;,
  99;1.000000;1.000000;1.000000;1.000000;,
  100;1.000000;1.000000;1.000000;1.000000;,
  101;1.000000;1.000000;1.000000;1.000000;,
  102;1.000000;1.000000;1.000000;1.000000;,
  103;1.000000;1.000000;1.000000;1.000000;,
  104;1.000000;1.000000;1.000000;1.000000;,
  105;1.000000;1.000000;1.000000;1.000000;,
  106;1.000000;1.000000;1.000000;1.000000;,
  107;1.000000;1.000000;1.000000;1.000000;,
  108;1.000000;1.000000;1.000000;1.000000;,
  109;1.000000;1.000000;1.000000;1.000000;,
  110;1.000000;1.000000;1.000000;1.000000;,
  111;1.000000;1.000000;1.000000;1.000000;,
  112;1.000000;1.000000;1.000000;1.000000;,
  113;1.000000;1.000000;1.000000;1.000000;,
  114;1.000000;1.000000;1.000000;1.000000;,
  115;1.000000;1.000000;1.000000;1.000000;,
  116;1.000000;1.000000;1.000000;1.000000;,
  117;1.000000;1.000000;1.000000;1.000000;,
  118;1.000000;1.000000;1.000000;1.000000;,
  119;1.000000;1.000000;1.000000;1.000000;,
  120;1.000000;1.000000;1.000000;1.000000;,
  121;1.000000;1.000000;1.000000;1.000000;,
  122;1.000000;1.000000;1.000000;1.000000;,
  123;1.000000;1.000000;1.000000;1.000000;,
  124;1.000000;1.000000;1.000000;1.000000;,
  125;1.000000;1.000000;1.000000;1.000000;,
  126;1.000000;1.000000;1.000000;1.000000;,
  127;1.000000;1.000000;1.000000;1.000000;,
  128;1.000000;1.000000;1.000000;1.000000;,
  129;1.000000;1.000000;1.000000;1.000000;,
  130;1.000000;1.000000;1.000000;1.000000;,
  131;1.000000;1.000000;1.000000;1.000000;,
  132;1.000000;1.000000;1.000000;1.000000;,
  133;1.000000;1.000000;1.000000;1.000000;,
  134;1.000000;1.000000;1.000000;1.000000;,
  135;1.000000;1.000000;1.000000;1.000000;,
  136;1.000000;1.000000;1.000000;1.000000;,
  137;1.000000;1.000000;1.000000;1.000000;,
  138;1.000000;1.000000;1.000000;1.000000;,
  139;1.000000;1.000000;1.000000;1.000000;,
  140;1.000000;1.000000;1.000000;1.000000;,
  141;1.000000;1.000000;1.000000;1.000000;,
  142;1.000000;1.000000;1.000000;1.000000;,
  143;1.000000;1.000000;1.000000;1.000000;,
  144;1.000000;1.000000;1.000000;1.000000;,
  145;1.000000;1.000000;1.000000;1.000000;,
  146;1.000000;1.000000;1.000000;1.000000;,
  147;1.000000;1.000000;1.000000;1.000000;,
  148;1.000000;1.000000;1.000000;1.000000;,
  149;1.000000;1.000000;1.000000;1.000000;,
  150;1.000000;1.000000;1.000000;1.000000;,
  151;1.000000;1.000000;1.000000;1.000000;,
  152;1.000000;1.000000;1.000000;1.000000;,
  153;1.000000;1.000000;1.000000;1.000000;,
  154;1.000000;1.000000;1.000000;1.000000;,
  155;1.000000;1.000000;1.000000;1.000000;,
  156;1.000000;1.000000;1.000000;1.000000;,
  157;1.000000;1.000000;1.000000;1.000000;,
  158;1.000000;1.000000;1.000000;1.000000;,
  159;1.000000;1.000000;1.000000;1.000000;,
  160;1.000000;1.000000;1.000000;1.000000;,
  161;1.000000;1.000000;1.000000;1.000000;,
  162;1.000000;1.000000;1.000000;1.000000;,
  163;1.000000;1.000000;1.000000;1.000000;,
  164;1.000000;1.000000;1.000000;1.000000;,
  165;1.000000;1.000000;1.000000;1.000000;,
  166;1.000000;1.000000;1.000000;1.000000;,
  167;1.000000;1.000000;1.000000;1.000000;,
  168;1.000000;1.000000;1.000000;1.000000;,
  169;1.000000;1.000000;1.000000;1.000000;,
  170;1.000000;1.000000;1.000000;1.000000;,
  171;1.000000;1.000000;1.000000;1.000000;,
  172;1.000000;1.000000;1.000000;1.000000;,
  173;1.000000;1.000000;1.000000;1.000000;,
  174;1.000000;1.000000;1.000000;1.000000;,
  175;1.000000;1.000000;1.000000;1.000000;,
  176;1.000000;1.000000;1.000000;1.000000;,
  177;1.000000;1.000000;1.000000;1.000000;,
  178;1.000000;1.000000;1.000000;1.000000;,
  179;1.000000;1.000000;1.000000;1.000000;,
  180;1.000000;1.000000;1.000000;1.000000;,
  181;1.000000;1.000000;1.000000;1.000000;,
  182;1.000000;1.000000;1.000000;1.000000;,
  183;1.000000;1.000000;1.000000;1.000000;,
  184;1.000000;1.000000;1.000000;1.000000;,
  185;1.000000;1.000000;1.000000;1.000000;,
  186;1.000000;1.000000;1.000000;1.000000;,
  187;1.000000;1.000000;1.000000;1.000000;,
  188;1.000000;1.000000;1.000000;1.000000;,
  189;1.000000;1.000000;1.000000;1.000000;,
  190;1.000000;1.000000;1.000000;1.000000;,
  191;1.000000;1.000000;1.000000;1.000000;,
  192;1.000000;1.000000;1.000000;1.000000;,
  193;1.000000;1.000000;1.000000;1.000000;,
  194;1.000000;1.000000;1.000000;1.000000;,
  195;1.000000;1.000000;1.000000;1.000000;,
  196;1.000000;1.000000;1.000000;1.000000;,
  197;1.000000;1.000000;1.000000;1.000000;,
  198;1.000000;1.000000;1.000000;1.000000;,
  199;1.000000;1.000000;1.000000;1.000000;,
  200;1.000000;1.000000;1.000000;1.000000;,
  201;1.000000;1.000000;1.000000;1.000000;,
  202;1.000000;1.000000;1.000000;1.000000;,
  203;1.000000;1.000000;1.000000;1.000000;,
  204;1.000000;1.000000;1.000000;1.000000;,
  205;1.000000;1.000000;1.000000;1.000000;,
  206;1.000000;1.000000;1.000000;1.000000;,
  207;1.000000;1.000000;1.000000;1.000000;,
  208;1.000000;1.000000;1.000000;1.000000;,
  209;1.000000;1.000000;1.000000;1.000000;,
  210;1.000000;1.000000;1.000000;1.000000;,
  211;1.000000;1.000000;1.000000;1.000000;,
  212;1.000000;1.000000;1.000000;1.000000;,
  213;1.000000;1.000000;1.000000;1.000000;,
  214;1.000000;1.000000;1.000000;1.000000;,
  215;1.000000;1.000000;1.000000;1.000000;,
  216;1.000000;1.000000;1.000000;1.000000;,
  217;1.000000;1.000000;1.000000;1.000000;,
  218;1.000000;1.000000;1.000000;1.000000;,
  219;1.000000;1.000000;1.000000;1.000000;,
  220;1.000000;1.000000;1.000000;1.000000;,
  221;1.000000;1.000000;1.000000;1.000000;,
  222;1.000000;1.000000;1.000000;1.000000;,
  223;1.000000;1.000000;1.000000;1.000000;,
  224;1.000000;1.000000;1.000000;1.000000;,
  225;1.000000;1.000000;1.000000;1.000000;,
  226;1.000000;1.000000;1.000000;1.000000;,
  227;1.000000;1.000000;1.000000;1.000000;,
  228;1.000000;1.000000;1.000000;1.000000;,
  229;1.000000;1.000000;1.000000;1.000000;,
  230;1.000000;1.000000;1.000000;1.000000;,
  231;1.000000;1.000000;1.000000;1.000000;,
  232;1.000000;1.000000;1.000000;1.000000;,
  233;1.000000;1.000000;1.000000;1.000000;,
  234;1.000000;1.000000;1.000000;1.000000;,
  235;1.000000;1.000000;1.000000;1.000000;,
  236;1.000000;1.000000;1.000000;1.000000;,
  237;1.000000;1.000000;1.000000;1.000000;,
  238;1.000000;1.000000;1.000000;1.000000;,
  239;1.000000;1.000000;1.000000;1.000000;,
  240;1.000000;1.000000;1.000000;1.000000;,
  241;1.000000;1.000000;1.000000;1.000000;,
  242;1.000000;1.000000;1.000000;1.000000;,
  243;1.000000;1.000000;1.000000;1.000000;,
  244;1.000000;1.000000;1.000000;1.000000;,
  245;1.000000;1.000000;1.000000;1.000000;,
  246;1.000000;1.000000;1.000000;1.000000;,
  247;1.000000;1.000000;1.000000;1.000000;,
  248;1.000000;1.000000;1.000000;1.000000;,
  249;1.000000;1.000000;1.000000;1.000000;,
  250;1.000000;1.000000;1.000000;1.000000;,
  251;1.000000;1.000000;1.000000;1.000000;,
  252;1.000000;1.000000;1.000000;1.000000;,
  253;1.000000;1.000000;1.000000;1.000000;,
  254;1.000000;1.000000;1.000000;1.000000;,
  255;1.000000;1.000000;1.000000;1.000000;,
  256;1.000000;1.000000;1.000000;1.000000;,
  257;1.000000;1.000000;1.000000;1.000000;,
  258;1.000000;1.000000;1.000000;1.000000;,
  259;1.000000;1.000000;1.000000;1.000000;,
  260;1.000000;1.000000;1.000000;1.000000;,
  261;1.000000;1.000000;1.000000;1.000000;,
  262;1.000000;1.000000;1.000000;1.000000;,
  263;1.000000;1.000000;1.000000;1.000000;,
  264;1.000000;1.000000;1.000000;1.000000;,
  265;1.000000;1.000000;1.000000;1.000000;,
  266;1.000000;1.000000;1.000000;1.000000;,
  267;1.000000;1.000000;1.000000;1.000000;,
  268;1.000000;1.000000;1.000000;1.000000;,
  269;1.000000;1.000000;1.000000;1.000000;,
  270;1.000000;1.000000;1.000000;1.000000;,
  271;1.000000;1.000000;1.000000;1.000000;,
  272;1.000000;1.000000;1.000000;1.000000;,
  273;1.000000;1.000000;1.000000;1.000000;,
  274;1.000000;1.000000;1.000000;1.000000;,
  275;1.000000;1.000000;1.000000;1.000000;,
  276;1.000000;1.000000;1.000000;1.000000;,
  277;1.000000;1.000000;1.000000;1.000000;,
  278;1.000000;1.000000;1.000000;1.000000;,
  279;1.000000;1.000000;1.000000;1.000000;,
  280;1.000000;1.000000;1.000000;1.000000;,
  281;1.000000;1.000000;1.000000;1.000000;,
  282;1.000000;1.000000;1.000000;1.000000;,
  283;1.000000;1.000000;1.000000;1.000000;,
  284;1.000000;1.000000;1.000000;1.000000;,
  285;1.000000;1.000000;1.000000;1.000000;,
  286;1.000000;1.000000;1.000000;1.000000;,
  287;1.000000;1.000000;1.000000;1.000000;,
  288;1.000000;1.000000;1.000000;1.000000;,
  289;1.000000;1.000000;1.000000;1.000000;,
  290;1.000000;1.000000;1.000000;1.000000;,
  291;1.000000;1.000000;1.000000;1.000000;,
  292;1.000000;1.000000;1.000000;1.000000;,
  293;1.000000;1.000000;1.000000;1.000000;,
  294;1.000000;1.000000;1.000000;1.000000;,
  295;1.000000;1.000000;1.000000;1.000000;,
  296;1.000000;1.000000;1.000000;1.000000;,
  297;1.000000;1.000000;1.000000;1.000000;,
  298;1.000000;1.000000;1.000000;1.000000;,
  299;1.000000;1.000000;1.000000;1.000000;,
  300;1.000000;1.000000;1.000000;1.000000;,
  301;1.000000;1.000000;1.000000;1.000000;,
  302;1.000000;1.000000;1.000000;1.000000;,
  303;1.000000;1.000000;1.000000;1.000000;,
  304;1.000000;1.000000;1.000000;1.000000;,
  305;1.000000;1.000000;1.000000;1.000000;,
  306;1.000000;1.000000;1.000000;1.000000;,
  307;1.000000;1.000000;1.000000;1.000000;,
  308;1.000000;1.000000;1.000000;1.000000;,
  309;1.000000;1.000000;1.000000;1.000000;,
  310;1.000000;1.000000;1.000000;1.000000;,
  311;1.000000;1.000000;1.000000;1.000000;,
  312;1.000000;1.000000;1.000000;1.000000;,
  313;1.000000;1.000000;1.000000;1.000000;,
  314;1.000000;1.000000;1.000000;1.000000;,
  315;1.000000;1.000000;1.000000;1.000000;,
  316;1.000000;1.000000;1.000000;1.000000;,
  317;1.000000;1.000000;1.000000;1.000000;,
  318;1.000000;1.000000;1.000000;1.000000;,
  319;1.000000;1.000000;1.000000;1.000000;,
  320;1.000000;1.000000;1.000000;1.000000;,
  321;1.000000;1.000000;1.000000;1.000000;,
  322;1.000000;1.000000;1.000000;1.000000;,
  323;1.000000;1.000000;1.000000;1.000000;,
  324;1.000000;1.000000;1.000000;1.000000;,
  325;1.000000;1.000000;1.000000;1.000000;,
  326;1.000000;1.000000;1.000000;1.000000;,
  327;1.000000;1.000000;1.000000;1.000000;,
  328;1.000000;1.000000;1.000000;1.000000;,
  329;1.000000;1.000000;1.000000;1.000000;,
  330;1.000000;1.000000;1.000000;1.000000;,
  331;1.000000;1.000000;1.000000;1.000000;,
  332;1.000000;1.000000;1.000000;1.000000;,
  333;1.000000;1.000000;1.000000;1.000000;,
  334;1.000000;1.000000;1.000000;1.000000;,
  335;1.000000;1.000000;1.000000;1.000000;,
  336;1.000000;1.000000;1.000000;1.000000;,
  337;1.000000;1.000000;1.000000;1.000000;,
  338;1.000000;1.000000;1.000000;1.000000;,
  339;1.000000;1.000000;1.000000;1.000000;,
  340;1.000000;1.000000;1.000000;1.000000;,
  341;1.000000;1.000000;1.000000;1.000000;,
  342;1.000000;1.000000;1.000000;1.000000;,
  343;1.000000;1.000000;1.000000;1.000000;,
  344;1.000000;1.000000;1.000000;1.000000;,
  345;1.000000;1.000000;1.000000;1.000000;,
  346;1.000000;1.000000;1.000000;1.000000;,
  347;1.000000;1.000000;1.000000;1.000000;,
  348;1.000000;1.000000;1.000000;1.000000;,
  349;1.000000;1.000000;1.000000;1.000000;,
  350;1.000000;1.000000;1.000000;1.000000;,
  351;1.000000;1.000000;1.000000;1.000000;,
  352;1.000000;1.000000;1.000000;1.000000;,
  353;1.000000;1.000000;1.000000;1.000000;,
  354;1.000000;1.000000;1.000000;1.000000;,
  355;1.000000;1.000000;1.000000;1.000000;,
  356;1.000000;1.000000;1.000000;1.000000;,
  357;1.000000;1.000000;1.000000;1.000000;,
  358;1.000000;1.000000;1.000000;1.000000;,
  359;1.000000;1.000000;1.000000;1.000000;,
  360;1.000000;1.000000;1.000000;1.000000;,
  361;1.000000;1.000000;1.000000;1.000000;,
  362;1.000000;1.000000;1.000000;1.000000;,
  363;1.000000;1.000000;1.000000;1.000000;,
  364;1.000000;1.000000;1.000000;1.000000;,
  365;1.000000;1.000000;1.000000;1.000000;,
  366;1.000000;1.000000;1.000000;1.000000;,
  367;1.000000;1.000000;1.000000;1.000000;,
  368;1.000000;1.000000;1.000000;1.000000;,
  369;1.000000;1.000000;1.000000;1.000000;,
  370;1.000000;1.000000;1.000000;1.000000;,
  371;1.000000;1.000000;1.000000;1.000000;,
  372;1.000000;1.000000;1.000000;1.000000;,
  373;1.000000;1.000000;1.000000;1.000000;,
  374;1.000000;1.000000;1.000000;1.000000;,
  375;1.000000;1.000000;1.000000;1.000000;,
  376;1.000000;1.000000;1.000000;1.000000;,
  377;1.000000;1.000000;1.000000;1.000000;,
  378;1.000000;1.000000;1.000000;1.000000;,
  379;1.000000;1.000000;1.000000;1.000000;,
  380;1.000000;1.000000;1.000000;1.000000;,
  381;1.000000;1.000000;1.000000;1.000000;,
  382;1.000000;1.000000;1.000000;1.000000;,
  383;1.000000;1.000000;1.000000;1.000000;,
  384;1.000000;1.000000;1.000000;1.000000;,
  385;1.000000;1.000000;1.000000;1.000000;,
  386;1.000000;1.000000;1.000000;1.000000;,
  387;1.000000;1.000000;1.000000;1.000000;,
  388;1.000000;1.000000;1.000000;1.000000;,
  389;1.000000;1.000000;1.000000;1.000000;,
  390;1.000000;1.000000;1.000000;1.000000;,
  391;1.000000;1.000000;1.000000;1.000000;,
  392;1.000000;1.000000;1.000000;1.000000;,
  393;1.000000;1.000000;1.000000;1.000000;,
  394;1.000000;1.000000;1.000000;1.000000;,
  395;1.000000;1.000000;1.000000;1.000000;,
  396;1.000000;1.000000;1.000000;1.000000;,
  397;1.000000;1.000000;1.000000;1.000000;,
  398;1.000000;1.000000;1.000000;1.000000;,
  399;1.000000;1.000000;1.000000;1.000000;,
  400;1.000000;1.000000;1.000000;1.000000;,
  401;1.000000;1.000000;1.000000;1.000000;,
  402;1.000000;1.000000;1.000000;1.000000;,
  403;1.000000;1.000000;1.000000;1.000000;,
  404;1.000000;1.000000;1.000000;1.000000;,
  405;1.000000;1.000000;1.000000;1.000000;,
  406;1.000000;1.000000;1.000000;1.000000;,
  407;1.000000;1.000000;1.000000;1.000000;;
 }
}
