xof 0302txt 0064
template Header {
 <3D82AB43-62DA-11cf-AB39-0020AF71E433>
 WORD major;
 WORD minor;
 DWORD flags;
}

template Vector {
 <3D82AB5E-62DA-11cf-AB39-0020AF71E433>
 FLOAT x;
 FLOAT y;
 FLOAT z;
}

template Coords2d {
 <F6F23F44-7686-11cf-8F52-0040333594A3>
 FLOAT u;
 FLOAT v;
}

template Matrix4x4 {
 <F6F23F45-7686-11cf-8F52-0040333594A3>
 array FLOAT matrix[16];
}

template ColorRGBA {
 <35FF44E0-6C7C-11cf-8F52-0040333594A3>
 FLOAT red;
 FLOAT green;
 FLOAT blue;
 FLOAT alpha;
}

template ColorRGB {
 <D3E16E81-7835-11cf-8F52-0040333594A3>
 FLOAT red;
 FLOAT green;
 FLOAT blue;
}

template IndexedColor {
 <1630B820-7842-11cf-8F52-0040333594A3>
 DWORD index;
 ColorRGBA indexColor;
}

template Boolean {
 <4885AE61-78E8-11cf-8F52-0040333594A3>
 WORD truefalse;
}

template Boolean2d {
 <4885AE63-78E8-11cf-8F52-0040333594A3>
 Boolean u;
 Boolean v;
}

template MaterialWrap {
 <4885AE60-78E8-11cf-8F52-0040333594A3>
 Boolean u;
 Boolean v;
}

template TextureFilename {
 <A42790E1-7810-11cf-8F52-0040333594A3>
 STRING filename;
}

template Material {
 <3D82AB4D-62DA-11cf-AB39-0020AF71E433>
 ColorRGBA faceColor;
 FLOAT power;
 ColorRGB specularColor;
 ColorRGB emissiveColor;
 [...]
}

template MeshFace {
 <3D82AB5F-62DA-11cf-AB39-0020AF71E433>
 DWORD nFaceVertexIndices;
 array DWORD faceVertexIndices[nFaceVertexIndices];
}

template MeshFaceWraps {
 <4885AE62-78E8-11cf-8F52-0040333594A3>
 DWORD nFaceWrapValues;
 Boolean2d faceWrapValues;
}

template MeshTextureCoords {
 <F6F23F40-7686-11cf-8F52-0040333594A3>
 DWORD nTextureCoords;
 array Coords2d textureCoords[nTextureCoords];
}

template MeshMaterialList {
 <F6F23F42-7686-11cf-8F52-0040333594A3>
 DWORD nMaterials;
 DWORD nFaceIndexes;
 array DWORD faceIndexes[nFaceIndexes];
 [Material]
}

template MeshNormals {
 <F6F23F43-7686-11cf-8F52-0040333594A3>
 DWORD nNormals;
 array Vector normals[nNormals];
 DWORD nFaceNormals;
 array MeshFace faceNormals[nFaceNormals];
}

template MeshVertexColors {
 <1630B821-7842-11cf-8F52-0040333594A3>
 DWORD nVertexColors;
 array IndexedColor vertexColors[nVertexColors];
}

template Mesh {
 <3D82AB44-62DA-11cf-AB39-0020AF71E433>
 DWORD nVertices;
 array Vector vertices[nVertices];
 DWORD nFaces;
 array MeshFace faces[nFaces];
 [...]
}

Header{
1;
0;
1;
}

Mesh {
 435;
 -0.09158;-0.23255;0.07829;,
 -0.11282;-0.23143;0.03705;,
 -0.06778;-0.25037;0.03623;,
 -0.10336;-0.23943;-0.01872;,
 -0.03949;-0.25069;-0.00157;,
 -0.10310;-0.23155;-0.05792;,
 -0.06341;-0.23870;-0.07724;,
 -0.04450;-0.22156;-0.12229;,
 0.00978;-0.24717;-0.08123;,
 0.00572;-0.23193;-0.11742;,
 0.06632;-0.22175;-0.11307;,
 0.03086;-0.25251;-0.04465;,
 0.06692;-0.24440;-0.06026;,
 0.10130;-0.22166;-0.08370;,
 0.05263;-0.25210;-0.00878;,
 0.10227;-0.23743;-0.01686;,
 0.09923;-0.23794;0.03726;,
 0.06034;-0.24951;0.05168;,
 0.09189;-0.23291;0.07832;,
 0.04913;-0.24264;0.09526;,
 -0.00441;-0.25298;0.05694;,
 0.00075;-0.24233;0.10767;,
 -0.03981;-0.23942;0.09818;,
 -0.10049;-0.20218;0.12068;,
 -0.12878;-0.20212;0.09157;,
 -0.14697;-0.20178;0.05483;,
 -0.15626;-0.20170;0.00161;,
 -0.14630;-0.20181;-0.05114;,
 -0.11766;-0.20145;-0.09690;,
 -0.08786;-0.20122;-0.12492;,
 -0.05970;-0.17802;-0.16537;,
 0.01006;-0.20759;-0.14824;,
 0.05794;-0.19068;-0.15663;,
 0.05794;-0.19068;-0.15663;,
 0.10831;-0.19068;-0.12767;,
 0.06632;-0.22175;-0.11307;,
 0.10831;-0.19068;-0.12767;,
 0.13849;-0.19069;-0.09568;,
 0.14725;-0.20165;-0.05240;,
 0.15553;-0.20166;0.00077;,
 0.14950;-0.20171;0.04105;,
 0.13469;-0.20206;0.07916;,
 0.07921;-0.20814;0.13841;,
 0.11155;-0.20387;0.11282;,
 0.02855;-0.21011;0.15693;,
 -0.01196;-0.20658;0.15607;,
 -0.05208;-0.20293;0.14505;,
 -0.12752;-0.15211;0.15256;,
 -0.16342;-0.15204;0.11593;,
 -0.18633;-0.15188;0.06923;,
 -0.19788;-0.15176;0.00131;,
 -0.18434;-0.15174;-0.06477;,
 -0.14696;-0.15179;-0.12105;,
 -0.10978;-0.15179;-0.15724;,
 -0.06925;-0.13813;-0.19198;,
 0.00022;-0.15176;-0.19688;,
 0.06796;-0.15176;-0.18489;,
 0.12749;-0.15178;-0.15055;,
 0.16303;-0.15178;-0.11286;,
 0.18623;-0.15178;-0.06661;,
 0.19590;-0.15178;0.00036;,
 0.18701;-0.15178;0.05091;,
 0.16924;-0.15183;0.09938;,
 0.09156;-0.15458;0.17759;,
 0.14066;-0.15248;0.14173;,
 0.12313;-0.12489;0.17672;,
 0.03523;-0.15451;0.19553;,
 -0.03204;-0.15242;0.18972;,
 -0.08241;-0.15204;0.17615;,
 -0.16127;-0.09457;0.16261;,
 -0.18658;-0.09441;0.13225;,
 -0.20597;-0.09419;0.09764;,
 -0.22534;-0.09393;0.02115;,
 -0.21898;-0.09402;0.06021;,
 -0.22490;-0.09390;-0.01835;,
 -0.21752;-0.09391;-0.05685;,
 -0.20278;-0.09393;-0.09257;,
 -0.18884;-0.06297;-0.13060;,
 -0.17713;-0.10913;-0.12160;,
 -0.15177;-0.10918;-0.15061;,
 -0.16248;-0.06299;-0.16181;,
 -0.13240;-0.06300;-0.18944;,
 -0.12334;-0.10922;-0.17672;,
 -0.09443;-0.09405;-0.20315;,
 -0.05853;-0.09403;-0.21766;,
 -0.01983;-0.09397;-0.22429;,
 0.01972;-0.09393;-0.22383;,
 0.05856;-0.09391;-0.21677;,
 0.09553;-0.09391;-0.20329;,
 0.12958;-0.09391;-0.18363;,
 0.15971;-0.09391;-0.15835;,
 0.18497;-0.09391;-0.12823;,
 0.20470;-0.09391;-0.09418;,
 0.21856;-0.09393;-0.05726;,
 0.22596;-0.09399;-0.01880;,
 0.22401;-0.09403;0.01965;,
 0.21460;-0.09399;0.05781;,
 0.20169;-0.09393;0.09537;,
 0.18429;-0.09394;0.13030;,
 0.15966;-0.09419;0.16064;,
 0.13399;-0.06325;0.19221;,
 0.09553;-0.09503;0.20561;,
 0.05862;-0.09475;0.21895;,
 0.00120;-0.09415;0.22261;,
 -0.05626;-0.09421;0.21214;,
 -0.09456;-0.09441;0.20172;,
 -0.13039;-0.09456;0.18639;,
 -0.16926;-0.03142;0.17009;,
 -0.19650;-0.03122;0.13874;,
 -0.21740;-0.03096;0.10274;,
 -0.23134;-0.03077;0.06344;,
 -0.23827;-0.03066;0.02221;,
 -0.23778;-0.03064;-0.01953;,
 -0.22972;-0.03067;-0.06026;,
 -0.21412;-0.03071;-0.09813;,
 -0.19293;-0.01427;-0.13287;,
 -0.16611;-0.01420;-0.16480;,
 -0.13541;-0.01419;-0.19342;,
 -0.06224;-0.03074;-0.23011;,
 -0.10050;-0.03070;-0.21544;,
 -0.02117;-0.03076;-0.23652;,
 0.02064;-0.03079;-0.23568;,
 0.06156;-0.03080;-0.22810;,
 0.10047;-0.03080;-0.21389;,
 0.13628;-0.03080;-0.19320;,
 0.16797;-0.03080;-0.16662;,
 0.19459;-0.03080;-0.13494;,
 0.21570;-0.03082;-0.09913;,
 0.23125;-0.03088;-0.06030;,
 0.23947;-0.03096;-0.01980;,
 0.23729;-0.03098;0.02069;,
 0.22688;-0.03093;0.06084;,
 0.21278;-0.03084;0.10036;,
 0.19405;-0.03080;0.13705;,
 0.16795;-0.03080;0.16891;,
 0.13614;0.00215;0.19535;,
 0.10046;-0.03085;0.21621;,
 0.06161;-0.03080;0.23032;,
 -0.01897;-0.03082;0.23267;,
 0.02122;-0.03076;0.23639;,
 -0.05908;-0.03102;0.22319;,
 -0.09901;-0.03126;0.21167;,
 -0.13652;-0.03143;0.19509;,
 -0.16270;0.03457;0.16216;,
 -0.19053;0.03478;0.13315;,
 -0.21248;0.03511;0.09951;,
 -0.22800;0.03547;0.06124;,
 -0.23672;0.03581;0.02037;,
 -0.23936;0.01940;-0.02058;,
 -0.23091;0.06838;-0.02108;,
 -0.22344;0.06856;-0.05950;,
 -0.23106;0.01943;-0.06087;,
 -0.21439;0.01937;-0.09768;,
 -0.20773;0.06849;-0.09486;,
 -0.19165;0.03605;-0.13073;,
 -0.16532;0.03606;-0.16177;,
 -0.13454;0.03600;-0.18937;,
 -0.06197;0.01904;-0.22877;,
 -0.09957;0.03573;-0.21124;,
 -0.05925;0.06721;-0.21728;,
 -0.02108;0.01887;-0.23512;,
 -0.01995;0.06684;-0.22311;,
 0.01952;0.06664;-0.22237;,
 0.02049;0.01875;-0.23422;,
 0.06117;0.01870;-0.22666;,
 0.09983;0.01869;-0.21253;,
 0.05813;0.06656;-0.21526;,
 0.09486;0.06654;-0.20187;,
 0.13542;0.01869;-0.19196;,
 0.12867;0.06654;-0.18233;,
 0.15859;0.06654;-0.15724;,
 0.16691;0.01869;-0.16556;,
 0.19342;0.01869;-0.13407;,
 0.18373;0.06654;-0.12732;,
 0.20372;0.06652;-0.09352;,
 0.21486;0.01864;-0.09851;,
 0.23095;0.01855;-0.05994;,
 0.23871;0.01849;-0.01969;,
 0.21829;0.06647;-0.05687;,
 0.22335;0.06646;0.00043;,
 0.23500;0.01854;0.02058;,
 0.22050;0.03489;0.05961;,
 0.21079;0.01868;0.09972;,
 0.19974;0.06654;0.09470;,
 0.18289;0.06656;0.12939;,
 0.19271;0.01870;0.13619;,
 0.16688;0.01871;0.16786;,
 0.15852;0.06661;0.15958;,
 0.12865;0.06674;0.18482;,
 0.09980;0.01886;0.21498;,
 0.09478;0.06697;0.20457;,
 0.05808;0.06725;0.21803;,
 0.06119;0.01898;0.22906;,
 0.02083;0.03553;0.23175;,
 -0.01812;0.03554;0.22745;,
 -0.05629;0.03528;0.21643;,
 -0.09416;0.03491;0.20315;,
 -0.13028;0.03462;0.18600;,
 -0.15935;0.09634;0.13263;,
 -0.20088;0.09736;0.07223;,
 -0.21782;0.09842;0.01744;,
 -0.20047;0.12728;-0.03592;,
 -0.18401;0.12708;-0.08457;,
 -0.16798;0.09884;-0.13714;,
 -0.10989;0.09823;-0.18479;,
 -0.05180;0.12486;-0.18999;,
 -0.00002;0.12422;-0.19496;,
 0.06714;0.12401;-0.18280;,
 0.12601;0.12399;-0.14879;,
 0.16116;0.12400;-0.11155;,
 0.18437;0.12425;-0.06584;,
 0.19400;0.12447;0.00031;,
 0.19977;0.09633;0.05431;,
 0.16718;0.12402;0.09824;,
 0.12591;0.12422;0.15128;,
 0.06702;0.12485;0.18573;,
 0.00159;0.09759;0.20905;,
 -0.05027;0.09732;0.19588;,
 -0.10056;0.09661;0.17480;,
 -0.11151;0.14901;0.13284;,
 -0.15429;0.15009;0.08835;,
 -0.18042;0.15176;0.02974;,
 -0.17240;0.16358;-0.03110;,
 -0.14919;0.16313;-0.08473;,
 -0.14831;0.14017;-0.12208;,
 -0.10210;0.17153;-0.11999;,
 -0.09437;0.14512;-0.15884;,
 -0.02916;0.16074;-0.16384;,
 0.02917;0.15999;-0.16336;,
 0.08369;0.15997;-0.14351;,
 0.11943;0.16802;-0.09891;,
 0.14696;0.16873;-0.05213;,
 0.16622;0.16100;0.00044;,
 0.16749;0.14878;0.04566;,
 0.14280;0.15978;0.08400;,
 0.10018;0.16866;0.12053;,
 0.05721;0.16081;0.15854;,
 0.00138;0.14985;0.17521;,
 -0.05719;0.14942;0.16013;,
 -0.11151;0.14901;0.13284;,
 -0.11274;0.18605;0.07152;,
 -0.15429;0.15009;0.08835;,
 -0.14846;0.18085;0.02428;,
 -0.18042;0.15176;0.02974;,
 -0.11274;0.18605;0.07152;,
 -0.10929;0.19372;0.01879;,
 -0.14846;0.18085;0.02428;,
 -0.13632;0.18497;-0.02435;,
 -0.18042;0.15176;0.02974;,
 -0.13632;0.18497;-0.02435;,
 -0.17240;0.16358;-0.03110;,
 -0.13632;0.18497;-0.02435;,
 -0.14919;0.16313;-0.08473;,
 -0.17240;0.16358;-0.03110;,
 -0.13632;0.18497;-0.02435;,
 -0.14919;0.16313;-0.08473;,
 -0.13632;0.18497;-0.02435;,
 -0.11824;0.18555;-0.06695;,
 -0.10210;0.17153;-0.11999;,
 -0.14919;0.16313;-0.08473;,
 -0.11824;0.18555;-0.06695;,
 -0.11824;0.18555;-0.06695;,
 -0.06978;0.19410;-0.08196;,
 -0.10210;0.17153;-0.11999;,
 -0.04988;0.17913;-0.13565;,
 -0.01842;0.19179;-0.10326;,
 -0.04988;0.17913;-0.13565;,
 0.00007;0.17721;-0.14357;,
 0.00007;0.17721;-0.14357;,
 0.06084;0.18244;-0.11557;,
 0.06084;0.18244;-0.11557;,
 0.09146;0.19020;-0.05160;,
 0.11943;0.16802;-0.09891;,
 0.14696;0.16873;-0.05213;,
 0.13003;0.18257;0.01803;,
 0.13003;0.18257;0.01803;,
 0.16749;0.14878;0.04566;,
 0.11410;0.18169;0.06703;,
 0.14280;0.15978;0.08400;,
 0.10018;0.16866;0.12053;,
 0.06894;0.19145;0.08319;,
 0.05721;0.16081;0.15854;,
 0.10018;0.16866;0.12053;,
 0.04535;0.18361;0.12568;,
 0.04535;0.18361;0.12568;,
 0.00138;0.14985;0.17521;,
 -0.01652;0.18249;0.13011;,
 -0.05719;0.14942;0.16013;,
 -0.06546;0.18249;0.11450;,
 -0.07017;0.19581;0.05422;,
 -0.05767;0.18813;0.00764;,
 -0.08359;0.19419;-0.02832;,
 -0.01950;0.19013;-0.05777;,
 0.04324;0.19340;-0.08229;,
 0.01949;0.18630;-0.04988;,
 0.05261;0.18766;-0.02296;,
 0.08364;0.19286;0.02193;,
 0.03107;0.18312;0.03539;,
 0.02794;0.19420;0.07758;,
 -0.01601;0.19302;0.09260;,
 -0.01652;0.18249;0.13011;,
 -0.01814;0.18213;0.04521;,
 -0.06546;0.18249;0.11450;,
 -0.01814;0.18213;0.04521;,
 -0.00920;0.16030;-0.00367;,
 -0.05767;0.18813;0.00764;,
 -0.00920;0.16030;-0.00367;,
 -0.01950;0.19013;-0.05777;,
 -0.05767;0.18813;0.00764;,
 -0.00920;0.16030;-0.00367;,
 0.01949;0.18630;-0.04988;,
 -0.01950;0.19013;-0.05777;,
 -0.00920;0.16030;-0.00367;,
 0.05261;0.18766;-0.02296;,
 0.01949;0.18630;-0.04988;,
 -0.00920;0.16030;-0.00367;,
 0.03107;0.18312;0.03539;,
 0.05261;0.18766;-0.02296;,
 -0.00986;-0.25060;-0.03498;,
 0.01457;-0.24116;0.00571;,
 -0.01814;0.18213;0.04521;,
 0.03107;0.18312;0.03539;,
 -0.00920;0.16030;-0.00367;,
 -0.02119;0.17649;0.00383;,
 -0.01801;0.17683;0.01005;,
 -0.02733;0.19081;0.00992;,
 -0.03388;0.20416;0.01365;,
 -0.03467;0.20501;0.00911;,
 -0.02713;0.19226;0.00375;,
 -0.03348;0.20653;0.00591;,
 -0.01882;0.17805;-0.00093;,
 -0.02261;0.19482;0.00136;,
 -0.02881;0.20927;0.00468;,
 -0.01356;0.18003;-0.00073;,
 -0.01863;0.19617;0.00338;,
 -0.02480;0.21052;0.00762;,
 -0.01004;0.18086;0.00300;,
 -0.01649;0.19601;0.00853;,
 -0.02367;0.20942;0.01338;,
 -0.01014;0.18026;0.00704;,
 -0.01827;0.19425;0.01271;,
 -0.01349;0.17850;0.01049;,
 -0.02690;0.20677;0.01711;,
 -0.02253;0.19217;0.01358;,
 -0.03082;0.20484;0.01673;,
 -0.03814;0.21572;0.01922;,
 -0.04089;0.21559;0.01478;,
 -0.04432;0.22402;0.02129;,
 -0.04632;0.22468;0.01572;,
 -0.04078;0.21682;0.01095;,
 -0.04502;0.22645;0.01239;,
 -0.03803;0.21930;0.00780;,
 -0.04074;0.22931;0.01057;,
 -0.03292;0.22170;0.00898;,
 -0.03692;0.23039;0.01237;,
 -0.03034;0.22214;0.01217;,
 -0.03499;0.23062;0.01588;,
 -0.02966;0.22124;0.01639;,
 -0.03560;0.22888;0.02134;,
 -0.03266;0.21843;0.02019;,
 -0.03931;0.22611;0.02362;,
 -0.05052;0.23022;0.01824;,
 -0.04950;0.22961;0.02203;,
 -0.05365;0.23419;0.01966;,
 -0.05249;0.23348;0.02391;,
 -0.04850;0.23276;0.01380;,
 -0.05272;0.23582;0.01618;,
 -0.05032;0.23790;0.01371;,
 -0.04465;0.23514;0.01241;,
 -0.04690;0.23965;0.01321;,
 -0.04092;0.23557;0.01341;,
 -0.04241;0.24056;0.01252;,
 -0.03807;0.23626;0.01747;,
 -0.03902;0.24014;0.01591;,
 -0.03982;0.24103;0.02155;,
 -0.03915;0.23486;0.02374;,
 -0.04095;0.23961;0.02520;,
 -0.04362;0.23734;0.02763;,
 -0.04297;0.23201;0.02606;,
 -0.04785;0.23488;0.02779;,
 -0.04645;0.23028;0.02531;,
 -0.05461;0.23800;0.02812;,
 -0.05600;0.23697;0.02234;,
 -0.05796;0.23937;0.02495;,
 -0.05780;0.24119;0.01919;,
 -0.05470;0.23964;0.01620;,
 -0.05366;0.24484;0.01469;,
 -0.05029;0.24255;0.01367;,
 -0.04705;0.24777;0.01531;,
 -0.04116;0.24462;0.02254;,
 -0.04248;0.24334;0.02644;,
 -0.04389;0.24859;0.02577;,
 -0.04502;0.24706;0.02949;,
 -0.04521;0.24093;0.02917;,
 -0.04779;0.24302;0.03127;,
 -0.04971;0.23821;0.02957;,
 -0.05166;0.24338;0.03197;,
 -0.06058;0.24325;0.02759;,
 -0.06025;0.24352;0.02126;,
 -0.05927;0.24706;0.01749;,
 -0.05374;0.24968;0.01563;,
 -0.05693;0.25108;0.01844;,
 -0.04968;0.25082;0.01811;,
 -0.04186;0.24769;0.01946;,
 -0.04681;0.25196;0.02261;,
 -0.04664;0.25455;0.02571;,
 -0.04685;0.25355;0.02957;,
 -0.04913;0.25043;0.03248;,
 -0.04763;0.24667;0.03222;,
 -0.05459;0.24776;0.03277;,
 -0.05700;0.24361;0.03151;,
 -0.06001;0.24890;0.02266;,
 -0.05319;0.25275;0.01919;,
 -0.05951;0.24817;0.02816;,
 -0.01475;0.16135;0.00522;,
 -0.00892;0.14651;0.00570;,
 -0.01521;0.16148;0.00046;,
 -0.01030;0.14622;-0.00068;,
 -0.01233;0.16258;-0.00286;,
 -0.00464;0.14757;-0.00438;,
 -0.00689;0.16428;-0.00278;,
 0.00053;0.14878;-0.00014;,
 -0.00420;0.16492;0.00060;,
 -0.00477;0.16442;0.00587;,
 -0.00043;0.14852;0.00545;,
 -0.00393;0.14768;0.00753;,
 -0.01023;0.16255;0.00860;,
 -0.05605;0.25069;0.02472;,
 -0.05257;0.25105;0.03094;,
 -0.05194;0.25339;0.02686;,
 -0.05544;0.24979;0.02882;,
 -0.05094;0.25304;0.02298;,
 -0.03879;0.24414;0.01784;,
 -0.04553;0.24449;0.01297;,
 -0.04088;0.24571;0.01286;;
 
 747;
 3;0,1,2;,
 3;2,3,4;,
 3;2,1,3;,
 3;5,6,3;,
 3;6,4,3;,
 3;7,8,6;,
 3;7,9,8;,
 3;9,10,8;,
 3;11,8,12;,
 3;10,12,8;,
 3;10,13,12;,
 3;14,11,12;,
 3;13,15,12;,
 3;14,12,15;,
 3;14,15,16;,
 3;14,16,17;,
 3;18,17,16;,
 3;19,17,18;,
 3;20,17,19;,
 3;20,19,21;,
 3;20,21,22;,
 3;20,22,2;,
 3;0,2,22;,
 3;0,23,24;,
 3;1,0,24;,
 3;1,24,25;,
 3;1,25,26;,
 3;1,26,3;,
 3;27,3,26;,
 3;3,27,5;,
 3;28,5,27;,
 3;5,28,6;,
 3;6,28,29;,
 3;7,6,29;,
 3;29,30,7;,
 3;7,31,9;,
 3;7,30,31;,
 3;10,9,31;,
 3;32,10,31;,
 3;33,34,35;,
 3;36,13,10;,
 3;36,37,13;,
 3;38,13,37;,
 3;15,13,38;,
 3;39,15,38;,
 3;40,16,15;,
 3;40,15,39;,
 3;16,40,41;,
 3;18,16,41;,
 3;42,19,18;,
 3;42,18,43;,
 3;18,41,43;,
 3;44,19,42;,
 3;21,44,45;,
 3;21,19,44;,
 3;22,21,45;,
 3;22,45,46;,
 3;0,22,23;,
 3;22,46,23;,
 3;23,47,48;,
 3;23,48,24;,
 3;49,25,24;,
 3;49,24,48;,
 3;26,25,49;,
 3;26,49,50;,
 3;51,27,26;,
 3;51,26,50;,
 3;52,28,27;,
 3;52,27,51;,
 3;29,28,52;,
 3;29,52,53;,
 3;30,29,53;,
 3;53,54,30;,
 3;31,30,55;,
 3;54,55,30;,
 3;32,31,55;,
 3;32,55,56;,
 3;32,56,57;,
 3;32,57,36;,
 3;36,57,58;,
 3;36,58,37;,
 3;38,37,58;,
 3;38,58,59;,
 3;60,39,38;,
 3;60,38,59;,
 3;61,40,39;,
 3;61,39,60;,
 3;41,40,61;,
 3;41,61,62;,
 3;63,42,43;,
 3;63,43,64;,
 3;41,62,64;,
 3;41,64,43;,
 3;65,63,64;,
 3;66,44,42;,
 3;66,42,63;,
 3;67,45,44;,
 3;67,44,66;,
 3;46,45,67;,
 3;46,67,68;,
 3;23,46,68;,
 3;23,68,47;,
 3;47,69,70;,
 3;47,70,48;,
 3;71,49,48;,
 3;71,48,70;,
 3;72,50,49;,
 3;72,49,73;,
 3;49,71,73;,
 3;50,72,74;,
 3;75,51,50;,
 3;75,50,74;,
 3;51,75,76;,
 3;77,78,76;,
 3;78,52,51;,
 3;78,51,76;,
 3;52,78,79;,
 3;77,80,79;,
 3;77,79,78;,
 3;80,81,82;,
 3;80,82,79;,
 3;53,52,79;,
 3;53,79,82;,
 3;54,83,84;,
 3;54,53,82;,
 3;54,82,83;,
 3;81,83,82;,
 3;54,84,85;,
 3;54,85,55;,
 3;86,55,85;,
 3;56,87,88;,
 3;55,86,87;,
 3;55,87,56;,
 3;56,88,89;,
 3;56,89,57;,
 3;57,89,90;,
 3;57,90,91;,
 3;57,91,58;,
 3;59,58,91;,
 3;59,91,92;,
 3;60,59,93;,
 3;60,93,94;,
 3;59,92,93;,
 3;60,94,95;,
 3;96,61,60;,
 3;96,60,95;,
 3;62,61,96;,
 3;62,96,97;,
 3;62,97,98;,
 3;65,64,99;,
 3;62,98,99;,
 3;62,99,64;,
 3;100,65,99;,
 3;65,101,63;,
 3;65,100,101;,
 3;66,63,101;,
 3;66,101,102;,
 3;103,67,66;,
 3;66,102,103;,
 3;67,103,104;,
 3;68,67,104;,
 3;68,104,105;,
 3;47,106,69;,
 3;68,105,106;,
 3;68,106,47;,
 3;70,69,107;,
 3;70,107,108;,
 3;71,70,108;,
 3;71,108,109;,
 3;72,73,110;,
 3;72,110,111;,
 3;71,109,110;,
 3;71,110,73;,
 3;72,111,112;,
 3;72,112,74;,
 3;113,75,74;,
 3;113,74,112;,
 3;75,113,114;,
 3;75,114,76;,
 3;115,77,114;,
 3;77,76,114;,
 3;115,116,80;,
 3;115,80,77;,
 3;117,81,80;,
 3;117,80,116;,
 3;118,84,83;,
 3;118,83,119;,
 3;83,81,119;,
 3;117,119,81;,
 3;84,118,120;,
 3;84,120,85;,
 3;121,86,85;,
 3;121,85,120;,
 3;88,87,122;,
 3;88,122,123;,
 3;86,121,122;,
 3;86,122,87;,
 3;88,123,124;,
 3;88,124,89;,
 3;90,89,124;,
 3;90,124,125;,
 3;90,125,126;,
 3;90,126,91;,
 3;92,91,126;,
 3;92,126,127;,
 3;94,93,128;,
 3;94,128,129;,
 3;93,92,127;,
 3;93,127,128;,
 3;94,129,130;,
 3;94,130,95;,
 3;131,96,95;,
 3;131,95,130;,
 3;96,131,132;,
 3;96,132,97;,
 3;98,97,132;,
 3;98,132,133;,
 3;100,99,134;,
 3;98,133,134;,
 3;98,134,99;,
 3;135,100,134;,
 3;100,136,101;,
 3;135,136,100;,
 3;102,101,136;,
 3;102,136,137;,
 3;138,103,139;,
 3;103,102,137;,
 3;103,137,139;,
 3;103,138,140;,
 3;103,140,104;,
 3;105,104,140;,
 3;105,140,141;,
 3;69,106,142;,
 3;69,142,107;,
 3;106,105,141;,
 3;106,141,142;,
 3;108,107,143;,
 3;108,143,144;,
 3;109,108,144;,
 3;109,144,145;,
 3;111,110,146;,
 3;111,146,147;,
 3;110,109,145;,
 3;110,145,146;,
 3;112,111,147;,
 3;112,147,148;,
 3;147,149,148;,
 3;149,150,151;,
 3;149,151,148;,
 3;113,112,148;,
 3;113,148,151;,
 3;113,151,152;,
 3;113,152,114;,
 3;150,153,152;,
 3;150,152,151;,
 3;154,152,153;,
 3;115,114,152;,
 3;115,152,154;,
 3;115,154,155;,
 3;115,155,116;,
 3;156,117,116;,
 3;156,116,155;,
 3;157,118,119;,
 3;157,119,158;,
 3;117,156,158;,
 3;117,158,119;,
 3;159,157,158;,
 3;118,157,160;,
 3;118,160,120;,
 3;157,159,161;,
 3;157,161,160;,
 3;162,163,160;,
 3;162,160,161;,
 3;121,120,160;,
 3;121,160,163;,
 3;123,122,164;,
 3;123,164,165;,
 3;122,121,163;,
 3;122,163,164;,
 3;162,166,164;,
 3;162,164,163;,
 3;167,165,164;,
 3;167,164,166;,
 3;123,165,168;,
 3;123,168,124;,
 3;167,169,168;,
 3;167,168,165;,
 3;170,171,168;,
 3;170,168,169;,
 3;125,124,168;,
 3;125,168,171;,
 3;125,171,172;,
 3;125,172,126;,
 3;170,173,172;,
 3;170,172,171;,
 3;174,175,172;,
 3;174,172,173;,
 3;127,126,172;,
 3;127,172,175;,
 3;129,128,176;,
 3;129,176,177;,
 3;127,175,176;,
 3;127,176,128;,
 3;175,174,178;,
 3;175,178,176;,
 3;179,177,176;,
 3;179,176,178;,
 3;130,129,177;,
 3;130,177,180;,
 3;179,180,177;,
 3;179,181,180;,
 3;131,130,180;,
 3;131,180,181;,
 3;132,131,181;,
 3;132,181,182;,
 3;181,183,182;,
 3;184,185,182;,
 3;184,182,183;,
 3;133,132,182;,
 3;133,182,185;,
 3;135,134,186;,
 3;133,185,186;,
 3;133,186,134;,
 3;184,187,186;,
 3;184,186,185;,
 3;188,135,186;,
 3;188,186,187;,
 3;135,189,136;,
 3;188,190,189;,
 3;188,189,135;,
 3;190,191,192;,
 3;190,192,189;,
 3;137,136,189;,
 3;137,189,192;,
 3;138,139,193;,
 3;138,193,194;,
 3;139,137,192;,
 3;139,192,193;,
 3;191,193,192;,
 3;138,194,195;,
 3;138,195,140;,
 3;196,141,140;,
 3;196,140,195;,
 3;107,142,197;,
 3;107,197,143;,
 3;141,196,197;,
 3;141,197,142;,
 3;143,198,144;,
 3;199,145,144;,
 3;199,144,198;,
 3;147,146,199;,
 3;147,199,200;,
 3;146,145,199;,
 3;149,147,200;,
 3;200,201,149;,
 3;201,150,149;,
 3;201,202,153;,
 3;201,153,150;,
 3;202,203,153;,
 3;154,153,203;,
 3;154,203,155;,
 3;204,156,155;,
 3;204,155,203;,
 3;159,158,204;,
 3;156,204,158;,
 3;204,205,159;,
 3;205,206,161;,
 3;205,161,159;,
 3;206,162,161;,
 3;162,206,207;,
 3;162,207,166;,
 3;207,167,166;,
 3;207,208,169;,
 3;207,169,167;,
 3;208,170,169;,
 3;208,209,173;,
 3;208,173,170;,
 3;210,174,173;,
 3;210,173,209;,
 3;174,210,178;,
 3;210,211,179;,
 3;210,179,178;,
 3;211,212,179;,
 3;181,179,212;,
 3;181,212,183;,
 3;212,213,183;,
 3;213,184,183;,
 3;184,213,214;,
 3;184,214,187;,
 3;214,188,187;,
 3;214,215,190;,
 3;214,190,188;,
 3;215,191,190;,
 3;194,193,216;,
 3;193,191,216;,
 3;215,216,191;,
 3;195,194,216;,
 3;195,216,217;,
 3;218,196,195;,
 3;218,195,217;,
 3;198,143,197;,
 3;198,197,218;,
 3;196,218,197;,
 3;198,219,220;,
 3;199,198,220;,
 3;200,199,221;,
 3;199,220,221;,
 3;200,221,201;,
 3;221,222,201;,
 3;222,223,202;,
 3;222,202,201;,
 3;223,224,202;,
 3;203,202,224;,
 3;223,225,224;,
 3;225,226,224;,
 3;204,203,224;,
 3;204,224,226;,
 3;205,204,226;,
 3;226,227,205;,
 3;227,206,205;,
 3;228,206,227;,
 3;228,207,206;,
 3;229,207,228;,
 3;229,208,207;,
 3;230,208,229;,
 3;208,230,209;,
 3;230,231,210;,
 3;230,210,209;,
 3;231,232,211;,
 3;231,211,210;,
 3;232,233,211;,
 3;212,211,233;,
 3;212,233,213;,
 3;233,234,213;,
 3;234,235,214;,
 3;234,214,213;,
 3;235,236,215;,
 3;235,215,214;,
 3;216,215,237;,
 3;236,237,215;,
 3;217,216,237;,
 3;217,237,238;,
 3;218,217,238;,
 3;219,198,218;,
 3;218,238,219;,
 3;239,240,241;,
 3;241,240,242;,
 3;241,242,243;,
 3;244,245,246;,
 3;243,242,247;,
 3;248,249,250;,
 3;246,245,251;,
 3;252,253,254;,
 3;255,256,257;,
 3;258,259,260;,
 3;261,262,263;,
 3;227,226,264;,
 3;226,225,264;,
 3;262,265,266;,
 3;262,266,263;,
 3;227,264,267;,
 3;266,265,268;,
 3;267,228,227;,
 3;229,228,269;,
 3;228,267,269;,
 3;268,265,270;,
 3;271,272,270;,
 3;230,229,269;,
 3;271,273,272;,
 3;232,231,274;,
 3;271,275,273;,
 3;233,232,274;,
 3;276,275,277;,
 3;276,277,278;,
 3;278,277,279;,
 3;277,280,279;,
 3;281,282,283;,
 3;279,280,284;,
 3;285,281,283;,
 3;285,283,286;,
 3;287,285,286;,
 3;288,287,286;,
 3;240,239,288;,
 3;287,288,239;,
 3;244,289,245;,
 3;289,290,245;,
 3;245,291,251;,
 3;245,290,291;,
 3;261,251,291;,
 3;262,261,291;,
 3;291,292,262;,
 3;292,265,262;,
 3;265,293,270;,
 3;265,292,294;,
 3;265,294,293;,
 3;294,271,293;,
 3;271,270,293;,
 3;294,295,271;,
 3;296,275,271;,
 3;296,271,295;,
 3;275,296,277;,
 3;280,277,296;,
 3;296,297,280;,
 3;298,280,297;,
 3;280,298,284;,
 3;284,298,299;,
 3;284,299,300;,
 3;298,301,299;,
 3;299,302,300;,
 3;289,244,302;,
 3;302,299,289;,
 3;299,301,289;,
 3;303,304,305;,
 3;289,301,290;,
 3;306,307,308;,
 3;291,290,292;,
 3;309,310,311;,
 3;312,313,314;,
 3;296,295,297;,
 3;315,316,317;,
 3;301,298,297;,
 3;4,6,318;,
 3;6,8,318;,
 3;318,8,11;,
 3;11,319,318;,
 3;319,11,14;,
 3;14,17,319;,
 3;17,20,319;,
 3;4,319,20;,
 3;2,4,20;,
 3;320,321,322;,
 3;318,319,4;,
 3;323,324,325;,
 3;326,327,325;,
 3;323,325,328;,
 3;327,328,325;,
 3;327,329,328;,
 3;323,328,330;,
 3;331,330,328;,
 3;329,332,328;,
 3;332,331,328;,
 3;330,331,333;,
 3;333,331,334;,
 3;332,334,331;,
 3;334,332,335;,
 3;336,333,334;,
 3;336,334,337;,
 3;335,338,337;,
 3;335,337,334;,
 3;339,336,337;,
 3;340,339,337;,
 3;338,340,337;,
 3;341,339,340;,
 3;338,342,340;,
 3;341,340,343;,
 3;342,343,340;,
 3;324,341,343;,
 3;342,344,343;,
 3;324,343,325;,
 3;344,326,325;,
 3;344,325,343;,
 3;326,345,346;,
 3;347,346,345;,
 3;346,327,326;,
 3;348,346,347;,
 3;349,327,346;,
 3;348,349,346;,
 3;349,329,327;,
 3;349,348,350;,
 3;329,349,351;,
 3;349,350,351;,
 3;329,351,332;,
 3;352,351,350;,
 3;353,332,351;,
 3;352,353,351;,
 3;354,353,352;,
 3;332,353,335;,
 3;335,353,355;,
 3;354,356,355;,
 3;354,355,353;,
 3;338,355,357;,
 3;335,355,338;,
 3;356,357,355;,
 3;356,358,357;,
 3;342,338,359;,
 3;338,357,359;,
 3;358,359,357;,
 3;358,360,359;,
 3;344,342,359;,
 3;344,359,345;,
 3;360,345,359;,
 3;360,347,345;,
 3;326,344,345;,
 3;361,348,347;,
 3;361,347,362;,
 3;363,361,362;,
 3;363,362,364;,
 3;348,361,365;,
 3;348,365,350;,
 3;361,363,366;,
 3;361,366,365;,
 3;367,365,366;,
 3;368,352,350;,
 3;368,350,365;,
 3;367,368,365;,
 3;368,367,369;,
 3;370,354,352;,
 3;352,368,370;,
 3;368,369,371;,
 3;368,371,370;,
 3;372,354,370;,
 3;373,372,370;,
 3;373,370,371;,
 3;356,354,372;,
 3;373,374,372;,
 3;358,356,375;,
 3;356,372,375;,
 3;374,375,372;,
 3;374,376,375;,
 3;376,377,375;,
 3;360,358,375;,
 3;360,375,378;,
 3;377,378,375;,
 3;377,379,378;,
 3;347,360,378;,
 3;347,378,380;,
 3;379,380,378;,
 3;347,380,362;,
 3;379,364,380;,
 3;364,362,380;,
 3;364,381,382;,
 3;383,382,381;,
 3;382,363,364;,
 3;382,383,384;,
 3;363,382,385;,
 3;363,385,366;,
 3;382,384,385;,
 3;385,367,366;,
 3;386,385,384;,
 3;367,385,387;,
 3;385,386,387;,
 3;367,387,369;,
 3;388,387,386;,
 3;376,374,389;,
 3;376,389,390;,
 3;391,390,389;,
 3;391,392,390;,
 3;377,376,393;,
 3;376,390,393;,
 3;392,393,390;,
 3;392,394,393;,
 3;379,377,393;,
 3;379,393,395;,
 3;394,396,395;,
 3;394,395,393;,
 3;379,395,381;,
 3;396,381,395;,
 3;364,379,381;,
 3;383,381,397;,
 3;398,383,397;,
 3;383,398,384;,
 3;384,398,399;,
 3;386,384,399;,
 3;400,386,399;,
 3;401,400,399;,
 3;400,388,386;,
 3;388,400,402;,
 3;403,402,404;,
 3;403,388,402;,
 3;404,391,403;,
 3;405,391,404;,
 3;405,406,391;,
 3;391,406,392;,
 3;407,392,406;,
 3;392,407,408;,
 3;396,394,408;,
 3;394,392,408;,
 3;409,396,408;,
 3;409,408,407;,
 3;409,410,396;,
 3;381,410,397;,
 3;381,396,410;,
 3;397,411,398;,
 3;399,398,411;,
 3;412,400,401;,
 3;400,412,402;,
 3;397,410,413;,
 3;324,323,414;,
 3;415,414,416;,
 3;415,416,417;,
 3;414,323,416;,
 3;417,416,418;,
 3;416,323,330;,
 3;416,330,418;,
 3;417,418,419;,
 3;418,330,333;,
 3;333,420,418;,
 3;419,418,420;,
 3;421,419,420;,
 3;421,420,422;,
 3;333,422,420;,
 3;333,336,422;,
 3;421,422,423;,
 3;336,339,423;,
 3;336,423,422;,
 3;424,421,423;,
 3;339,341,423;,
 3;425,424,423;,
 3;425,423,426;,
 3;341,426,423;,
 3;341,324,426;,
 3;415,425,426;,
 3;324,414,426;,
 3;414,415,426;,
 3;401,411,427;,
 3;428,429,430;,
 3;427,430,429;,
 3;409,407,428;,
 3;412,401,427;,
 3;412,427,431;,
 3;431,427,429;,
 3;406,428,407;,
 3;406,429,428;,
 3;401,399,411;,
 3;411,413,427;,
 3;413,430,427;,
 3;430,413,409;,
 3;430,409,428;,
 3;397,413,411;,
 3;413,410,409;,
 3;429,406,405;,
 3;404,431,405;,
 3;431,429,405;,
 3;402,431,404;,
 3;431,402,412;,
 3;374,373,432;,
 3;371,369,387;,
 3;433,387,388;,
 3;433,371,387;,
 3;403,391,389;,
 3;389,374,432;,
 3;403,389,432;,
 3;388,403,434;,
 3;403,432,434;,
 3;433,388,434;,
 3;371,433,434;,
 4;432,373,371,434;;
 
 MeshMaterialList {
  1;
  747;
  0,
  0,
  0,
  0,
  0,
  0,
  0,
  0,
  0,
  0,
  0,
  0,
  0,
  0,
  0,
  0,
  0,
  0,
  0,
  0,
  0,
  0,
  0,
  0,
  0,
  0,
  0,
  0,
  0,
  0,
  0,
  0,
  0,
  0,
  0,
  0,
  0,
  0,
  0,
  0,
  0,
  0,
  0,
  0,
  0,
  0,
  0,
  0,
  0,
  0,
  0,
  0,
  0,
  0,
  0,
  0,
  0,
  0,
  0,
  0,
  0,
  0,
  0,
  0,
  0,
  0,
  0,
  0,
  0,
  0,
  0,
  0,
  0,
  0,
  0,
  0,
  0,
  0,
  0,
  0,
  0,
  0,
  0,
  0,
  0,
  0,
  0,
  0,
  0,
  0,
  0,
  0,
  0,
  0,
  0,
  0,
  0,
  0,
  0,
  0,
  0,
  0,
  0,
  0,
  0,
  0,
  0,
  0,
  0,
  0,
  0,
  0,
  0,
  0,
  0,
  0,
  0,
  0,
  0,
  0,
  0,
  0,
  0,
  0,
  0,
  0,
  0,
  0,
  0,
  0,
  0,
  0,
  0,
  0,
  0,
  0,
  0,
  0,
  0,
  0,
  0,
  0,
  0,
  0,
  0,
  0,
  0,
  0,
  0,
  0,
  0,
  0,
  0,
  0,
  0,
  0,
  0,
  0,
  0,
  0,
  0,
  0,
  0,
  0,
  0,
  0,
  0,
  0,
  0,
  0,
  0,
  0,
  0,
  0,
  0,
  0,
  0,
  0,
  0,
  0,
  0,
  0,
  0,
  0,
  0,
  0,
  0,
  0,
  0,
  0,
  0,
  0,
  0,
  0,
  0,
  0,
  0,
  0,
  0,
  0,
  0,
  0,
  0,
  0,
  0,
  0,
  0,
  0,
  0,
  0,
  0,
  0,
  0,
  0,
  0,
  0,
  0,
  0,
  0,
  0,
  0,
  0,
  0,
  0,
  0,
  0,
  0,
  0,
  0,
  0,
  0,
  0,
  0,
  0,
  0,
  0,
  0,
  0,
  0,
  0,
  0,
  0,
  0,
  0,
  0,
  0,
  0,
  0,
  0,
  0,
  0,
  0,
  0,
  0,
  0,
  0,
  0,
  0,
  0,
  0,
  0,
  0,
  0,
  0,
  0,
  0,
  0,
  0,
  0,
  0,
  0,
  0,
  0,
  0,
  0,
  0,
  0,
  0,
  0,
  0,
  0,
  0,
  0,
  0,
  0,
  0,
  0,
  0,
  0,
  0,
  0,
  0,
  0,
  0,
  0,
  0,
  0,
  0,
  0,
  0,
  0,
  0,
  0,
  0,
  0,
  0,
  0,
  0,
  0,
  0,
  0,
  0,
  0,
  0,
  0,
  0,
  0,
  0,
  0,
  0,
  0,
  0,
  0,
  0,
  0,
  0,
  0,
  0,
  0,
  0,
  0,
  0,
  0,
  0,
  0,
  0,
  0,
  0,
  0,
  0,
  0,
  0,
  0,
  0,
  0,
  0,
  0,
  0,
  0,
  0,
  0,
  0,
  0,
  0,
  0,
  0,
  0,
  0,
  0,
  0,
  0,
  0,
  0,
  0,
  0,
  0,
  0,
  0,
  0,
  0,
  0,
  0,
  0,
  0,
  0,
  0,
  0,
  0,
  0,
  0,
  0,
  0,
  0,
  0,
  0,
  0,
  0,
  0,
  0,
  0,
  0,
  0,
  0,
  0,
  0,
  0,
  0,
  0,
  0,
  0,
  0,
  0,
  0,
  0,
  0,
  0,
  0,
  0,
  0,
  0,
  0,
  0,
  0,
  0,
  0,
  0,
  0,
  0,
  0,
  0,
  0,
  0,
  0,
  0,
  0,
  0,
  0,
  0,
  0,
  0,
  0,
  0,
  0,
  0,
  0,
  0,
  0,
  0,
  0,
  0,
  0,
  0,
  0,
  0,
  0,
  0,
  0,
  0,
  0,
  0,
  0,
  0,
  0,
  0,
  0,
  0,
  0,
  0,
  0,
  0,
  0,
  0,
  0,
  0,
  0,
  0,
  0,
  0,
  0,
  0,
  0,
  0,
  0,
  0,
  0,
  0,
  0,
  0,
  0,
  0,
  0,
  0,
  0,
  0,
  0,
  0,
  0,
  0,
  0,
  0,
  0,
  0,
  0,
  0,
  0,
  0,
  0,
  0,
  0,
  0,
  0,
  0,
  0,
  0,
  0,
  0,
  0,
  0,
  0,
  0,
  0,
  0,
  0,
  0,
  0,
  0,
  0,
  0,
  0,
  0,
  0,
  0,
  0,
  0,
  0,
  0,
  0,
  0,
  0,
  0,
  0,
  0,
  0,
  0,
  0,
  0,
  0,
  0,
  0,
  0,
  0,
  0,
  0,
  0,
  0,
  0,
  0,
  0,
  0,
  0,
  0,
  0,
  0,
  0,
  0,
  0,
  0,
  0,
  0,
  0,
  0,
  0,
  0,
  0,
  0,
  0,
  0,
  0,
  0,
  0,
  0,
  0,
  0,
  0,
  0,
  0,
  0,
  0,
  0,
  0,
  0,
  0,
  0,
  0,
  0,
  0,
  0,
  0,
  0,
  0,
  0,
  0,
  0,
  0,
  0,
  0,
  0,
  0,
  0,
  0,
  0,
  0,
  0,
  0,
  0,
  0,
  0,
  0,
  0,
  0,
  0,
  0,
  0,
  0,
  0,
  0,
  0,
  0,
  0,
  0,
  0,
  0,
  0,
  0,
  0,
  0,
  0,
  0,
  0,
  0,
  0,
  0,
  0,
  0,
  0,
  0,
  0,
  0,
  0,
  0,
  0,
  0,
  0,
  0,
  0,
  0,
  0,
  0,
  0,
  0,
  0,
  0,
  0,
  0,
  0,
  0,
  0,
  0,
  0,
  0,
  0,
  0,
  0,
  0,
  0,
  0,
  0,
  0,
  0,
  0,
  0,
  0,
  0,
  0,
  0,
  0,
  0,
  0,
  0,
  0,
  0,
  0,
  0,
  0,
  0,
  0,
  0,
  0,
  0,
  0,
  0,
  0,
  0,
  0,
  0,
  0,
  0,
  0,
  0,
  0,
  0,
  0,
  0,
  0,
  0,
  0,
  0,
  0,
  0,
  0,
  0,
  0,
  0,
  0,
  0,
  0,
  0,
  0,
  0,
  0,
  0,
  0,
  0,
  0,
  0,
  0,
  0,
  0,
  0,
  0,
  0,
  0,
  0,
  0,
  0,
  0,
  0,
  0,
  0,
  0,
  0,
  0,
  0,
  0,
  0,
  0,
  0;;
  Material {
   1.000000;1.000000;1.000000;1.000000;;
   15.080000;
   0.530000;0.530000;0.530000;;
   0.330000;0.330000;0.330000;;
   TextureFilename {
    "Data\\Graphics\\XFileTexture\\AppleText.png";
   }
  }
 }
 MeshNormals {
  384;
  -0.392126;-0.855380;0.338470;,
  -0.515895;-0.843379;0.150214;,
  0.462821;-0.883890;-0.067345;,
  0.444762;-0.889456;0.105138;,
  0.430326;-0.851762;0.298866;,
  0.188243;-0.920114;0.343447;,
  -0.661483;-0.719382;0.211968;,
  -0.702619;-0.711557;-0.003659;,
  -0.650998;-0.706326;-0.278040;,
  -0.518140;-0.720337;-0.461135;,
  -0.434989;-0.705561;-0.559436;,
  0.666562;-0.713826;-0.214820;,
  0.699397;-0.714308;0.024660;,
  0.650342;-0.745723;0.144752;,
  0.360378;-0.718986;0.594295;,
  0.069923;-0.719613;0.690846;,
  -0.168323;-0.721476;0.671669;,
  -0.778338;-0.543168;-0.314895;,
  -0.513312;-0.549175;-0.659483;,
  0.017369;-0.544919;-0.838309;,
  0.319436;-0.506391;-0.800955;,
  0.541878;-0.515206;-0.664026;,
  0.844830;-0.535027;0.003047;,
  0.799592;-0.561468;0.213087;,
  0.144577;-0.501074;0.853242;,
  -0.310953;-0.526135;0.791511;,
  -0.866293;-0.304324;0.396135;,
  -0.946388;-0.312164;0.083086;,
  -0.903378;-0.330026;-0.273843;,
  -0.237868;-0.298068;-0.924432;,
  0.108570;-0.290866;-0.950584;,
  0.407048;-0.270304;-0.872495;,
  0.680555;-0.270043;-0.681118;,
  0.856998;-0.290799;-0.425429;,
  0.951468;-0.300264;-0.067457;,
  0.899258;-0.346306;0.267222;,
  0.807326;-0.276708;0.521208;,
  0.220743;-0.277916;0.934899;,
  -0.061375;-0.286424;0.956135;,
  -0.303963;-0.281605;0.910113;,
  -0.894743;-0.018689;0.446190;,
  -0.992834;-0.059380;0.103707;,
  -0.955130;-0.098707;-0.279254;,
  -0.798495;-0.020543;-0.601651;,
  -0.610931;-0.014864;-0.791544;,
  -0.258876;-0.089021;-0.961800;,
  0.072964;-0.079208;-0.994184;,
  0.422951;-0.040705;-0.905238;,
  0.706086;-0.040893;-0.706945;,
  0.899651;-0.071400;-0.430731;,
  0.992348;-0.076788;-0.096688;,
  0.955892;-0.060031;0.287517;,
  0.837544;-0.039058;0.544973;,
  0.231938;-0.089629;0.968592;,
  -0.172268;-0.011894;0.984978;,
  -0.365040;-0.008611;0.930952;,
  -0.882802;0.187297;0.430790;,
  -0.978515;0.165103;0.123486;,
  -0.799288;0.138927;-0.584669;,
  -0.610064;0.155387;-0.776967;,
  0.939137;0.209334;0.272399;,
  -0.190339;0.207754;0.959484;,
  -0.352210;0.224955;0.908484;,
  -0.893908;0.429028;0.129861;,
  0.867024;0.440921;0.232075;,
  -0.084527;0.419418;0.903849;,
  -0.625875;0.651700;0.428448;,
  -0.732100;0.666804;0.139286;,
  -0.090260;0.714190;-0.694107;,
  0.132447;0.735367;-0.664600;,
  0.344476;0.733379;-0.586082;,
  0.677252;0.735404;0.022618;,
  0.702254;0.682160;0.203708;,
  -0.270989;0.651616;0.708492;,
  -0.339350;0.891931;0.298833;,
  0.413899;0.908615;0.055731;,
  -0.204985;0.889412;0.408567;,
  -0.041097;0.999153;-0.002302;,
  0.145285;0.974180;0.172815;,
  0.001397;0.997827;-0.065881;,
  -0.014306;-0.999250;0.035970;,
  -0.218321;-0.970404;0.103206;,
  -0.395292;-0.914416;-0.087111;,
  -0.454374;-0.837336;-0.303996;,
  -0.244213;-0.923833;-0.294777;,
  0.025908;-0.861375;-0.507309;,
  -0.045797;-0.907484;0.417584;,
  -0.212438;-0.883564;0.417355;,
  -0.589350;-0.719263;0.367869;,
  0.017832;-0.738276;-0.674263;,
  0.260305;-0.671524;-0.693755;,
  0.256717;-0.830496;-0.494341;,
  0.453089;-0.822860;-0.342944;,
  0.467985;-0.686350;-0.556699;,
  0.594666;-0.693027;-0.407536;,
  0.645900;-0.697366;0.310636;,
  0.543916;-0.683027;0.487472;,
  -0.271858;-0.686728;0.674165;,
  -0.414546;-0.708591;0.571008;,
  -0.679209;-0.551371;0.484423;,
  -0.796304;-0.554888;0.240828;,
  -0.851283;-0.523213;-0.039564;,
  -0.633317;-0.564423;-0.529468;,
  -0.311535;-0.497012;-0.809892;,
  0.686997;-0.555306;-0.468689;,
  0.805349;-0.513133;-0.296828;,
  0.770391;-0.497241;0.399062;,
  0.626685;-0.543510;0.558446;,
  0.418439;-0.535372;0.733679;,
  -0.161341;-0.514386;0.842245;,
  -0.536466;-0.527234;0.658960;,
  -0.754506;-0.322261;0.571724;,
  -0.646185;-0.293175;0.704623;,
  -0.915661;-0.328874;0.231099;,
  -0.947020;-0.300313;-0.113863;,
  -0.736222;-0.413988;-0.535342;,
  -0.839881;-0.320213;-0.438250;,
  -0.561283;-0.399630;-0.724746;,
  -0.427493;-0.304102;-0.851335;,
  -0.071687;-0.325702;-0.942751;,
  0.230344;-0.344586;-0.910056;,
  0.525993;-0.343341;-0.778106;,
  0.765106;-0.356624;-0.536127;,
  0.907335;-0.334652;-0.254464;,
  0.936558;-0.312252;0.159243;,
  0.874521;-0.317390;0.366711;,
  0.691236;-0.330522;0.642610;,
  0.537402;-0.392193;0.746582;,
  0.386072;-0.325847;0.863002;,
  -0.215664;-0.330291;0.918911;,
  -0.456440;-0.315869;0.831799;,
  -0.809861;-0.027989;0.585954;,
  -0.684759;-0.008700;0.728717;,
  -0.960046;-0.085103;0.266586;,
  -0.992497;-0.107883;-0.057544;,
  -0.785749;-0.219985;-0.578104;,
  -0.886228;-0.114705;-0.448823;,
  -0.585411;-0.212226;-0.782467;,
  -0.713894;-0.002908;-0.700248;,
  -0.448856;-0.062637;-0.891406;,
  -0.087006;-0.105708;-0.990584;,
  0.250280;-0.092227;-0.963771;,
  0.570059;-0.111829;-0.813958;,
  0.811833;-0.113242;-0.572803;,
  0.956560;-0.120302;-0.265558;,
  0.988339;-0.086315;0.125444;,
  0.924570;-0.083173;0.371823;,
  0.710799;-0.091541;0.697414;,
  0.565934;-0.178630;0.804866;,
  0.418658;-0.090766;0.903597;,
  0.041613;-0.055311;0.997602;,
  -0.255204;-0.055691;0.965282;,
  -0.529723;-0.034924;0.847451;,
  -0.779610;0.242363;0.577468;,
  -0.660894;0.234779;0.712810;,
  -0.949420;0.168075;0.265241;,
  -0.954965;0.083512;-0.284724;,
  -0.703451;0.158074;-0.692943;,
  -0.444592;0.169923;-0.879468;,
  -0.256266;0.140847;-0.956290;,
  0.118156;0.114824;-0.986334;,
  0.247288;0.346701;-0.904791;,
  0.419488;0.135323;-0.897618;,
  0.699902;0.135295;-0.701308;,
  0.888503;0.160151;-0.430016;,
  0.904983;0.345508;-0.248255;,
  0.988990;0.145532;-0.026820;,
  0.832725;0.137856;0.536251;,
  0.670770;0.347140;0.655409;,
  0.573606;0.056131;0.817206;,
  0.238307;0.137332;0.961431;,
  -0.001796;0.188398;0.982091;,
  -0.290161;0.240341;0.926306;,
  -0.505334;0.252903;0.825032;,
  -0.628109;0.433456;0.646216;,
  -0.826404;0.415725;0.379774;,
  -0.910831;0.271015;-0.311347;,
  -0.709172;0.362976;-0.604419;,
  -0.480072;0.402338;-0.779522;,
  -0.250603;0.335425;-0.908124;,
  0.105869;0.336046;-0.935877;,
  0.294266;0.521647;-0.800807;,
  0.401988;0.311139;-0.861161;,
  0.671366;0.311248;-0.672602;,
  0.839826;0.330937;-0.430318;,
  0.786876;0.339709;0.515193;,
  0.562632;0.540891;0.625206;,
  0.551377;0.295960;0.779994;,
  0.195580;0.347058;0.917224;,
  -0.276286;0.446540;0.851040;,
  -0.412393;0.421475;0.807645;,
  -0.845183;0.511136;-0.156222;,
  -0.661179;0.737933;-0.135265;,
  -0.564970;0.613132;-0.552158;,
  -0.541550;0.774579;-0.326726;,
  -0.336511;0.663734;-0.667995;,
  -0.182310;0.530669;-0.827740;,
  0.032275;0.541736;-0.839929;,
  0.552705;0.538160;-0.636318;,
  0.786945;0.548002;-0.283568;,
  0.756175;0.527806;0.386808;,
  0.594727;0.724397;0.348639;,
  0.277495;0.554053;0.784871;,
  0.218163;0.741521;0.634470;,
  -0.054558;0.676770;0.734170;,
  -0.450199;0.649283;0.612987;,
  -0.414658;0.906175;-0.083100;,
  -0.312055;0.928917;-0.199337;,
  -0.357999;0.822543;-0.441882;,
  0.032071;0.874705;-0.483593;,
  0.188641;0.913377;-0.360773;,
  0.483238;0.785339;-0.386942;,
  0.578866;0.794554;-0.183298;,
  0.396508;0.898515;0.188289;,
  0.097212;0.918901;0.382322;,
  -0.084388;0.874705;0.477252;,
  -0.107708;0.980837;-0.162353;,
  0.156332;0.984220;-0.082895;,
  0.035624;0.999225;0.016713;,
  0.258167;0.966072;-0.007369;,
  -0.148305;0.973314;-0.175117;,
  0.101605;0.959901;-0.261278;,
  -0.032109;-0.999481;0.002458;,
  0.020744;0.997865;0.061925;,
  0.094699;-0.995443;0.011202;,
  0.003585;-0.999947;-0.009656;,
  -0.018060;-0.997941;-0.061545;,
  0.133987;-0.988149;0.074897;,
  0.002810;-0.956799;-0.290738;,
  0.256087;-0.939024;-0.229461;,
  -0.198607;-0.821932;-0.533838;,
  -0.262060;-0.653375;-0.710229;,
  -0.661043;-0.401794;-0.633706;,
  -0.703170;-0.192729;-0.684403;,
  -0.993185;0.048764;-0.105854;,
  -0.886844;0.065293;-0.457433;,
  -0.053676;0.121049;-0.991194;,
  0.272229;0.150575;-0.950378;,
  0.568340;0.135297;-0.811593;,
  0.807228;0.135067;-0.574578;,
  0.956427;0.136211;-0.258252;,
  0.968746;0.156305;0.192614;,
  0.909413;0.142245;0.390811;,
  0.711794;0.144946;0.687270;,
  0.425289;0.125109;0.896369;,
  -0.956406;0.278801;-0.086933;,
  -0.846156;0.303209;-0.438273;,
  -0.076832;0.345743;-0.935178;,
  0.520019;0.371781;-0.768999;,
  0.754180;0.382738;-0.533595;,
  0.927993;0.371806;0.024270;,
  0.873734;0.343063;0.344813;,
  0.399971;0.345894;0.848752;,
  -0.751868;0.544155;-0.372276;,
  0.673242;0.565102;-0.476869;,
  0.830730;0.556650;0.005375;,
  -0.504413;0.853533;0.130570;,
  -0.153272;0.868205;-0.471941;,
  0.394393;0.791492;0.466900;,
  -0.128446;0.991569;0.017075;,
  0.015411;0.989128;-0.146250;,
  0.035781;0.998589;-0.039239;,
  0.132321;0.985166;0.109266;,
  -0.006801;0.996051;0.088525;,
  0.019781;0.999621;0.019147;,
  -0.068438;0.976624;0.203767;,
  -0.215749;0.975477;0.043561;,
  0.010317;-0.998002;0.062341;,
  -0.486696;-0.339010;0.805108;,
  -0.528720;-0.088136;-0.844208;,
  0.883424;0.393501;-0.254398;,
  -0.754501;-0.518081;0.402891;,
  -0.881559;-0.432349;-0.189545;,
  -0.622308;-0.155878;-0.767095;,
  0.359403;-0.056889;0.931447;,
  -0.275263;-0.385928;0.880506;,
  -0.856005;-0.464592;-0.226735;,
  -0.002394;0.301912;-0.953333;,
  0.561139;0.527634;-0.637750;,
  0.750416;0.230771;0.619371;,
  -0.813380;-0.560436;-0.155964;,
  -0.386456;-0.095389;-0.917362;,
  0.946884;0.167879;0.274275;,
  0.811214;0.128836;0.570380;,
  0.486110;-0.148117;0.861254;,
  -0.369482;0.016620;-0.929089;,
  -0.909497;-0.278309;0.308803;,
  -0.748578;0.102684;-0.655048;,
  -0.096142;0.949765;-0.297831;,
  0.299306;0.818821;-0.489845;,
  0.852866;0.292528;0.432489;,
  -0.482378;-0.250731;0.839312;,
  -0.863950;-0.311401;0.395753;,
  0.030511;0.028394;-0.999131;,
  -0.169292;0.272727;-0.947080;,
  -0.925193;-0.378252;-0.030715;,
  0.346892;0.274328;-0.896889;,
  0.858789;0.265107;0.438406;,
  0.349280;-0.028014;0.936599;,
  -0.785822;-0.481205;0.388491;,
  0.041242;0.249894;-0.967395;,
  -0.062712;0.178644;-0.981913;,
  0.596597;0.420591;-0.683502;,
  0.730581;0.493806;-0.471601;,
  0.861744;0.346637;0.370459;,
  0.627843;0.118301;0.769297;,
  -0.079195;-0.263394;0.961432;,
  -0.834702;-0.531478;0.144232;,
  -0.818584;-0.326459;-0.472594;,
  -0.616604;-0.115278;-0.778787;,
  0.368875;0.443939;-0.816608;,
  0.859058;0.510998;-0.030006;,
  0.865799;0.376974;0.329064;,
  0.209476;-0.230241;0.950320;,
  -0.398602;-0.480096;0.781424;,
  -0.536830;-0.616033;0.576470;,
  -0.680295;-0.664364;0.309546;,
  -0.790190;-0.576532;-0.207871;,
  -0.697434;-0.381292;-0.606797;,
  -0.137230;0.061767;-0.988612;,
  -0.161221;0.036941;-0.986227;,
  0.915551;0.357512;-0.184262;,
  -0.037533;-0.476119;0.878580;,
  -0.606372;-0.674459;0.421210;,
  -0.764660;-0.643231;0.039365;,
  -0.778833;-0.625119;-0.051428;,
  -0.755980;-0.432530;-0.491337;,
  0.876760;0.321546;0.357632;,
  0.835113;0.162544;0.525514;,
  0.404245;-0.276823;0.871754;,
  -0.444228;-0.654936;0.611326;,
  -0.932817;-0.285486;-0.219887;,
  -0.123448;0.549834;-0.826101;,
  0.500014;0.781290;-0.373593;,
  -0.014139;-0.347563;0.937550;,
  0.727218;0.602316;-0.329195;,
  0.237151;0.390195;0.889667;,
  -0.807994;-0.346854;0.476275;,
  -0.913871;-0.304180;-0.268913;,
  -0.354919;-0.041566;-0.933973;,
  0.433529;0.214738;-0.875180;,
  0.865989;0.339846;-0.366835;,
  0.810609;0.215968;0.544308;,
  -0.099781;-0.142221;0.984793;,
  -0.825564;-0.257004;-0.502388;,
  0.913175;0.261450;-0.312658;,
  0.794030;0.201374;0.573555;,
  0.217847;0.009839;0.975933;,
  -0.387001;0.735699;0.555857;,
  -0.315117;0.291282;0.903247;,
  -0.527081;0.786120;-0.322802;,
  -0.407997;0.898100;0.164180;,
  -0.922825;0.381269;-0.055028;,
  -0.464653;0.876825;0.123597;,
  -0.526710;0.768330;0.363656;,
  -0.062265;0.960313;-0.271886;,
  0.641854;0.761081;-0.093696;,
  0.411482;0.571877;-0.709675;,
  0.939036;0.038352;-0.341674;,
  0.208015;0.020028;-0.977920;,
  -0.745308;-0.220629;-0.629157;,
  0.907467;0.416935;0.051654;,
  -0.351052;0.084398;-0.932545;,
  0.796912;0.522849;-0.302590;,
  0.412673;-0.058127;0.909023;,
  -0.608430;-0.257605;-0.750634;,
  0.523853;0.246085;-0.815487;,
  0.803272;0.143578;0.578047;,
  0.217971;-0.336502;0.916109;,
  -0.282717;-0.575603;0.767302;,
  -0.683102;-0.293005;-0.668969;,
  -0.250456;0.084842;-0.964403;,
  0.524365;-0.171328;0.834079;,
  0.061227;-0.447563;0.892154;,
  0.890995;0.411897;0.190968;,
  0.766124;0.091209;0.636188;,
  0.364354;-0.090406;0.926862;,
  -0.688496;0.564297;0.455568;,
  0.043642;0.623633;-0.780498;,
  0.956587;0.284437;0.063542;,
  -0.297591;-0.193242;0.934932;,
  -0.459512;0.879982;0.120333;,
  -0.199126;0.866309;0.458102;,
  -0.202834;0.978113;0.046414;;
  747;
  3;0,1,81;,
  3;81,82,226;,
  3;81,1,82;,
  3;83,84,82;,
  3;84,226,82;,
  3;230,228,84;,
  3;230,85,228;,
  3;85,91,228;,
  3;225,228,229;,
  3;91,229,228;,
  3;91,92,229;,
  3;224,225,229;,
  3;92,2,229;,
  3;224,229,2;,
  3;224,2,3;,
  3;224,3,227;,
  3;4,227,3;,
  3;5,227,4;,
  3;267,227,5;,
  3;267,5,86;,
  3;267,86,87;,
  3;267,87,81;,
  3;0,81,87;,
  3;0,98,88;,
  3;1,0,88;,
  3;1,88,6;,
  3;1,6,7;,
  3;1,7,82;,
  3;8,82,7;,
  3;82,8,83;,
  3;9,83,8;,
  3;83,9,84;,
  3;84,9,10;,
  3;230,84,10;,
  3;10,231,230;,
  3;230,89,85;,
  3;230,231,89;,
  3;91,85,89;,
  3;90,91,89;,
  3;90,93,91;,
  3;93,92,91;,
  3;93,94,92;,
  3;11,92,94;,
  3;2,92,11;,
  3;12,2,11;,
  3;13,3,2;,
  3;13,2,12;,
  3;3,13,95;,
  3;4,3,95;,
  3;14,5,4;,
  3;14,4,96;,
  3;4,95,96;,
  3;15,5,14;,
  3;86,15,16;,
  3;86,5,15;,
  3;87,86,16;,
  3;87,16,97;,
  3;0,87,98;,
  3;87,97,98;,
  3;98,110,99;,
  3;98,99,88;,
  3;100,6,88;,
  3;100,88,99;,
  3;7,6,100;,
  3;7,100,101;,
  3;17,8,7;,
  3;17,7,101;,
  3;102,9,8;,
  3;102,8,17;,
  3;10,9,102;,
  3;10,102,18;,
  3;231,10,18;,
  3;18,103,231;,
  3;89,231,19;,
  3;103,19,231;,
  3;90,89,19;,
  3;90,19,20;,
  3;90,20,21;,
  3;90,21,93;,
  3;93,21,104;,
  3;93,104,94;,
  3;11,94,104;,
  3;11,104,105;,
  3;22,12,11;,
  3;22,11,105;,
  3;23,13,12;,
  3;23,12,22;,
  3;95,13,23;,
  3;95,23,106;,
  3;108,14,96;,
  3;108,96,107;,
  3;95,106,107;,
  3;95,107,96;,
  3;127,108,107;,
  3;24,15,14;,
  3;24,14,108;,
  3;109,16,15;,
  3;109,15,24;,
  3;97,16,109;,
  3;97,109,25;,
  3;98,97,25;,
  3;98,25,110;,
  3;110,112,111;,
  3;110,111,99;,
  3;26,100,99;,
  3;26,99,111;,
  3;27,101,100;,
  3;27,100,113;,
  3;100,26,113;,
  3;101,27,114;,
  3;28,17,101;,
  3;28,101,114;,
  3;17,28,116;,
  3;135,115,116;,
  3;115,102,17;,
  3;115,17,116;,
  3;102,115,232;,
  3;135,233,232;,
  3;135,232,115;,
  3;233,137,117;,
  3;233,117,232;,
  3;18,102,232;,
  3;18,232,117;,
  3;103,118,29;,
  3;103,18,117;,
  3;103,117,118;,
  3;137,118,117;,
  3;103,29,119;,
  3;103,119,19;,
  3;30,19,119;,
  3;20,120,31;,
  3;19,30,120;,
  3;19,120,20;,
  3;20,31,121;,
  3;20,121,21;,
  3;21,121,32;,
  3;21,32,122;,
  3;21,122,104;,
  3;105,104,122;,
  3;105,122,33;,
  3;22,105,123;,
  3;22,123,34;,
  3;105,33,123;,
  3;22,34,124;,
  3;35,23,22;,
  3;35,22,124;,
  3;106,23,35;,
  3;106,35,125;,
  3;106,125,36;,
  3;127,107,126;,
  3;106,36,126;,
  3;106,126,107;,
  3;148,127,126;,
  3;127,128,108;,
  3;127,148,128;,
  3;24,108,128;,
  3;24,128,37;,
  3;38,109,24;,
  3;24,37,38;,
  3;109,38,129;,
  3;25,109,129;,
  3;25,129,39;,
  3;110,130,112;,
  3;25,39,130;,
  3;25,130,110;,
  3;111,112,132;,
  3;111,132,131;,
  3;26,111,131;,
  3;26,131,40;,
  3;27,113,133;,
  3;27,133,41;,
  3;26,40,133;,
  3;26,133,113;,
  3;27,41,134;,
  3;27,134,114;,
  3;42,28,114;,
  3;42,114,134;,
  3;28,42,136;,
  3;28,136,116;,
  3;43,135,136;,
  3;135,116,136;,
  3;43,138,233;,
  3;43,233,135;,
  3;44,137,233;,
  3;44,233,138;,
  3;45,29,118;,
  3;45,118,139;,
  3;118,137,139;,
  3;44,139,137;,
  3;29,45,140;,
  3;29,140,119;,
  3;46,30,119;,
  3;46,119,140;,
  3;31,120,141;,
  3;31,141,47;,
  3;30,46,141;,
  3;30,141,120;,
  3;31,47,142;,
  3;31,142,121;,
  3;32,121,142;,
  3;32,142,48;,
  3;32,48,143;,
  3;32,143,122;,
  3;33,122,143;,
  3;33,143,49;,
  3;34,123,144;,
  3;34,144,50;,
  3;123,33,49;,
  3;123,49,144;,
  3;34,50,145;,
  3;34,145,124;,
  3;51,35,124;,
  3;51,124,145;,
  3;35,51,146;,
  3;35,146,125;,
  3;36,125,146;,
  3;36,146,52;,
  3;148,126,147;,
  3;36,52,147;,
  3;36,147,126;,
  3;169,148,147;,
  3;148,149,128;,
  3;169,149,148;,
  3;37,128,149;,
  3;37,149,53;,
  3;54,38,150;,
  3;38,37,53;,
  3;38,53,150;,
  3;38,54,151;,
  3;38,151,129;,
  3;39,129,151;,
  3;39,151,55;,
  3;112,130,152;,
  3;112,152,132;,
  3;130,39,55;,
  3;130,55,152;,
  3;131,132,154;,
  3;131,154,153;,
  3;40,131,153;,
  3;40,153,56;,
  3;41,133,155;,
  3;41,155,57;,
  3;133,40,56;,
  3;133,56,155;,
  3;134,41,57;,
  3;134,57,234;,
  3;57,245,234;,
  3;245,176,156;,
  3;245,156,234;,
  3;42,134,234;,
  3;42,234,156;,
  3;42,156,235;,
  3;42,235,136;,
  3;176,246,235;,
  3;176,235,156;,
  3;58,235,246;,
  3;43,136,235;,
  3;43,235,58;,
  3;43,58,157;,
  3;43,157,138;,
  3;59,44,138;,
  3;59,138,157;,
  3;159,45,139;,
  3;159,139,158;,
  3;44,59,158;,
  3;44,158,139;,
  3;179,159,158;,
  3;45,159,236;,
  3;45,236,140;,
  3;159,179,247;,
  3;159,247,236;,
  3;180,160,236;,
  3;180,236,247;,
  3;46,140,236;,
  3;46,236,160;,
  3;47,141,237;,
  3;47,237,162;,
  3;141,46,160;,
  3;141,160,237;,
  3;180,161,237;,
  3;180,237,160;,
  3;182,162,237;,
  3;182,237,161;,
  3;47,162,238;,
  3;47,238,142;,
  3;182,248,238;,
  3;182,238,162;,
  3;183,163,238;,
  3;183,238,248;,
  3;48,142,238;,
  3;48,238,163;,
  3;48,163,239;,
  3;48,239,143;,
  3;183,249,239;,
  3;183,239,163;,
  3;184,164,239;,
  3;184,239,249;,
  3;49,143,239;,
  3;49,239,164;,
  3;50,144,240;,
  3;50,240,166;,
  3;49,164,240;,
  3;49,240,144;,
  3;164,184,165;,
  3;164,165,240;,
  3;250,166,240;,
  3;250,240,165;,
  3;145,50,166;,
  3;145,166,241;,
  3;250,241,166;,
  3;250,60,241;,
  3;51,145,241;,
  3;51,241,60;,
  3;146,51,60;,
  3;146,60,242;,
  3;60,251,242;,
  3;185,167,242;,
  3;185,242,251;,
  3;52,146,242;,
  3;52,242,167;,
  3;169,147,243;,
  3;52,167,243;,
  3;52,243,147;,
  3;185,168,243;,
  3;185,243,167;,
  3;187,169,243;,
  3;187,243,168;,
  3;169,244,149;,
  3;187,252,244;,
  3;187,244,169;,
  3;252,188,170;,
  3;252,170,244;,
  3;53,149,244;,
  3;53,244,170;,
  3;54,150,171;,
  3;54,171,61;,
  3;150,53,170;,
  3;150,170,171;,
  3;188,171,170;,
  3;54,61,172;,
  3;54,172,151;,
  3;62,55,151;,
  3;62,151,172;,
  3;132,152,173;,
  3;132,173,154;,
  3;55,62,173;,
  3;55,173,152;,
  3;154,174,153;,
  3;175,56,153;,
  3;175,153,174;,
  3;57,155,175;,
  3;57,175,63;,
  3;155,56,175;,
  3;245,57,63;,
  3;63,191,245;,
  3;191,176,245;,
  3;191,253,246;,
  3;191,246,176;,
  3;253,177,246;,
  3;58,246,177;,
  3;58,177,157;,
  3;178,59,157;,
  3;178,157,177;,
  3;179,158,178;,
  3;59,178,158;,
  3;178,196,179;,
  3;196,197,247;,
  3;196,247,179;,
  3;197,180,247;,
  3;180,197,181;,
  3;180,181,161;,
  3;181,182,161;,
  3;181,198,248;,
  3;181,248,182;,
  3;198,183,248;,
  3;198,254,249;,
  3;198,249,183;,
  3;199,184,249;,
  3;199,249,254;,
  3;184,199,165;,
  3;199,255,250;,
  3;199,250,165;,
  3;255,64,250;,
  3;60,250,64;,
  3;60,64,251;,
  3;64,200,251;,
  3;200,185,251;,
  3;185,200,186;,
  3;185,186,168;,
  3;186,187,168;,
  3;186,202,252;,
  3;186,252,187;,
  3;202,188,252;,
  3;61,171,65;,
  3;171,188,65;,
  3;202,65,188;,
  3;172,61,65;,
  3;172,65,189;,
  3;190,62,172;,
  3;190,172,189;,
  3;174,154,173;,
  3;174,173,190;,
  3;62,190,173;,
  3;174,205,66;,
  3;175,174,66;,
  3;63,175,67;,
  3;175,66,67;,
  3;63,67,191;,
  3;67,192,191;,
  3;192,194,253;,
  3;192,253,191;,
  3;194,193,253;,
  3;177,253,193;,
  3;194,208,193;,
  3;208,195,193;,
  3;178,177,193;,
  3;178,193,195;,
  3;196,178,195;,
  3;195,68,196;,
  3;68,197,196;,
  3;69,197,68;,
  3;69,181,197;,
  3;70,181,69;,
  3;70,198,181;,
  3;211,198,70;,
  3;198,211,254;,
  3;211,212,199;,
  3;211,199,254;,
  3;212,71,255;,
  3;212,255,199;,
  3;71,72,255;,
  3;64,255,72;,
  3;64,72,200;,
  3;72,201,200;,
  3;201,258,186;,
  3;201,186,200;,
  3;258,203,202;,
  3;258,202,186;,
  3;65,202,204;,
  3;203,204,202;,
  3;189,65,204;,
  3;189,204,73;,
  3;190,189,73;,
  3;205,174,190;,
  3;190,73,205;,
  3;205,74,66;,
  3;66,74,256;,
  3;66,256,67;,
  3;74,259,256;,
  3;67,256,206;,
  3;67,206,192;,
  3;256,259,206;,
  3;194,192,206;,
  3;194,206,207;,
  3;208,194,207;,
  3;207,216,208;,
  3;68,195,257;,
  3;195,208,257;,
  3;216,260,257;,
  3;216,257,208;,
  3;68,257,209;,
  3;257,260,209;,
  3;209,69,68;,
  3;70,69,210;,
  3;69,209,210;,
  3;209,260,210;,
  3;217,211,210;,
  3;211,70,210;,
  3;217,212,211;,
  3;71,212,75;,
  3;217,75,212;,
  3;72,71,75;,
  3;72,75,213;,
  3;72,213,201;,
  3;201,213,258;,
  3;213,262,258;,
  3;203,258,214;,
  3;258,262,214;,
  3;204,203,214;,
  3;204,214,215;,
  3;73,204,215;,
  3;76,73,215;,
  3;74,205,76;,
  3;73,76,205;,
  3;74,264,259;,
  3;264,219,259;,
  3;259,77,206;,
  3;259,219,77;,
  3;207,206,77;,
  3;216,207,77;,
  3;77,78,216;,
  3;78,260,216;,
  3;260,261,210;,
  3;260,78,265;,
  3;260,265,261;,
  3;265,217,261;,
  3;217,210,261;,
  3;265,266,217;,
  3;218,75,217;,
  3;218,217,266;,
  3;75,218,213;,
  3;262,213,218;,
  3;218,220,262;,
  3;79,262,220;,
  3;262,79,214;,
  3;214,79,263;,
  3;214,263,215;,
  3;79,221,263;,
  3;263,76,215;,
  3;264,74,76;,
  3;76,263,264;,
  3;263,221,264;,
  3;221,223,219;,
  3;264,221,219;,
  3;223,78,219;,
  3;77,219,78;,
  3;223,265,78;,
  3;223,266,265;,
  3;218,266,220;,
  3;223,220,266;,
  3;221,79,220;,
  3;226,84,222;,
  3;84,228,222;,
  3;222,228,225;,
  3;225,80,222;,
  3;80,225,224;,
  3;224,227,80;,
  3;227,267,80;,
  3;226,80,267;,
  3;81,226,267;,
  3;221,220,223;,
  3;222,80,226;,
  3;295,268,299;,
  3;271,272,299;,
  3;295,299,360;,
  3;272,360,299;,
  3;272,273,360;,
  3;295,360,269;,
  3;301,269,360;,
  3;273,300,360;,
  3;300,301,360;,
  3;269,301,296;,
  3;296,301,302;,
  3;300,302,301;,
  3;302,300,303;,
  3;270,296,302;,
  3;270,302,361;,
  3;303,304,361;,
  3;303,361,302;,
  3;297,270,361;,
  3;305,297,361;,
  3;304,305,361;,
  3;298,297,305;,
  3;304,274,305;,
  3;298,305,306;,
  3;274,306,305;,
  3;268,298,306;,
  3;274,275,306;,
  3;268,306,299;,
  3;275,271,299;,
  3;275,299,306;,
  3;271,314,307;,
  3;315,307,314;,
  3;307,272,271;,
  3;276,307,315;,
  3;308,272,307;,
  3;276,308,307;,
  3;308,273,272;,
  3;308,276,309;,
  3;273,308,362;,
  3;308,309,362;,
  3;273,362,300;,
  3;277,362,309;,
  3;310,300,362;,
  3;277,310,362;,
  3;278,310,277;,
  3;300,310,303;,
  3;303,310,363;,
  3;278,311,363;,
  3;278,363,310;,
  3;304,363,312;,
  3;303,363,304;,
  3;311,312,363;,
  3;311,279,312;,
  3;274,304,364;,
  3;304,312,364;,
  3;279,364,312;,
  3;279,313,364;,
  3;275,274,364;,
  3;275,364,314;,
  3;313,314,364;,
  3;313,315,314;,
  3;271,275,314;,
  3;317,276,315;,
  3;317,315,316;,
  3;280,317,316;,
  3;280,316,323;,
  3;276,317,365;,
  3;276,365,309;,
  3;317,280,318;,
  3;317,318,365;,
  3;281,365,318;,
  3;319,277,309;,
  3;319,309,365;,
  3;281,319,365;,
  3;319,281,320;,
  3;366,278,277;,
  3;277,319,366;,
  3;319,320,359;,
  3;319,359,366;,
  3;321,278,366;,
  3;358,321,366;,
  3;358,366,359;,
  3;311,278,321;,
  3;358,282,321;,
  3;279,311,367;,
  3;311,321,367;,
  3;282,367,321;,
  3;282,283,367;,
  3;283,284,367;,
  3;313,279,367;,
  3;313,367,368;,
  3;284,368,367;,
  3;284,322,368;,
  3;315,313,368;,
  3;315,368,369;,
  3;322,369,368;,
  3;315,369,316;,
  3;322,323,369;,
  3;323,316,369;,
  3;323,330,325;,
  3;324,325,330;,
  3;325,280,323;,
  3;325,324,326;,
  3;280,325,370;,
  3;280,370,318;,
  3;325,326,370;,
  3;370,281,318;,
  3;285,370,326;,
  3;281,370,371;,
  3;370,285,371;,
  3;281,371,320;,
  3;378,371,285;,
  3;283,282,327;,
  3;283,327,328;,
  3;374,328,327;,
  3;374,375,328;,
  3;284,283,372;,
  3;283,328,372;,
  3;375,372,328;,
  3;375,329,372;,
  3;322,284,372;,
  3;322,372,373;,
  3;329,334,373;,
  3;329,373,372;,
  3;322,373,330;,
  3;334,330,373;,
  3;323,322,330;,
  3;324,330,286;,
  3;331,324,286;,
  3;324,331,326;,
  3;326,331,287;,
  3;285,326,287;,
  3;332,285,287;,
  3;350,332,287;,
  3;332,378,285;,
  3;378,332,289;,
  3;356,289,333;,
  3;356,378,289;,
  3;333,374,356;,
  3;335,374,333;,
  3;335,290,374;,
  3;374,290,375;,
  3;336,375,290;,
  3;375,336,376;,
  3;334,329,376;,
  3;329,375,376;,
  3;349,334,376;,
  3;349,376,336;,
  3;349,291,334;,
  3;330,291,286;,
  3;330,334,291;,
  3;286,352,331;,
  3;287,331,352;,
  3;288,332,350;,
  3;332,288,289;,
  3;286,291,377;,
  3;268,295,337;,
  3;292,337,338;,
  3;292,338,344;,
  3;337,295,338;,
  3;344,338,339;,
  3;338,295,269;,
  3;338,269,339;,
  3;344,339,293;,
  3;339,269,296;,
  3;296,340,339;,
  3;293,339,340;,
  3;345,293,340;,
  3;345,340,341;,
  3;296,341,340;,
  3;296,270,341;,
  3;345,341,342;,
  3;270,297,342;,
  3;270,342,341;,
  3;346,345,342;,
  3;297,298,342;,
  3;347,346,342;,
  3;347,342,343;,
  3;298,343,342;,
  3;298,268,343;,
  3;380,347,343;,
  3;268,337,343;,
  3;337,292,343;,
  3;350,381,353;,
  3;348,351,354;,
  3;353,354,351;,
  3;349,336,348;,
  3;288,350,353;,
  3;288,353,355;,
  3;355,353,351;,
  3;382,348,336;,
  3;382,351,348;,
  3;350,287,352;,
  3;352,377,353;,
  3;377,354,353;,
  3;354,377,349;,
  3;354,349,348;,
  3;286,377,352;,
  3;377,291,349;,
  3;351,382,383;,
  3;333,355,335;,
  3;355,351,383;,
  3;289,355,333;,
  3;355,289,288;,
  3;282,358,379;,
  3;359,320,371;,
  3;294,371,378;,
  3;294,359,371;,
  3;356,374,327;,
  3;327,282,379;,
  3;356,327,379;,
  3;378,356,357;,
  3;356,379,357;,
  3;294,378,357;,
  3;359,294,357;,
  4;379,358,359,357;;
 }
 MeshTextureCoords {
  435;
  0.550100;0.420910;,
  0.548080;0.420820;,
  0.549940;0.421730;,
  0.546950;0.421140;,
  0.550090;0.421680;,
  0.545880;0.420700;,
  0.547010;0.421010;,
  0.546570;0.420080;,
  0.549970;0.421360;,
  0.548800;0.420560;,
  0.551460;0.420010;,
  0.551850;0.421660;,
  0.552930;0.421210;,
  0.553730;0.420010;,
  0.553750;0.421670;,
  0.555600;0.420880;,
  0.556960;0.420980;,
  0.555730;0.421600;,
  0.557780;0.420780;,
  0.556450;0.421320;,
  0.553160;0.421840;,
  0.554770;0.421360;,
  0.552810;0.421240;,
  0.550890;0.419450;,
  0.548910;0.419430;,
  0.547140;0.419390;,
  0.545290;0.419330;,
  0.544260;0.419260;,
  0.544200;0.419160;,
  0.544680;0.419090;,
  0.544750;0.417860;,
  0.548140;0.419300;,
  0.549920;0.418410;,
  0.535920;0.413420;,
  0.558830;0.413380;,
  0.548120;0.426050;,
  0.552820;0.418400;,
  0.554960;0.418420;,
  0.556510;0.419010;,
  0.558320;0.419070;,
  0.559170;0.419130;,
  0.559590;0.419210;,
  0.558900;0.419630;,
  0.559550;0.419360;,
  0.557280;0.419790;,
  0.555560;0.419640;,
  0.553580;0.419480;,
  0.550630;0.417010;,
  0.548130;0.416990;,
  0.545890;0.416940;,
  0.543540;0.416860;,
  0.542290;0.416770;,
  0.542320;0.416670;,
  0.542880;0.416600;,
  0.543620;0.415840;,
  0.546400;0.416460;,
  0.549560;0.416420;,
  0.552990;0.416420;,
  0.555510;0.416430;,
  0.557750;0.416470;,
  0.559990;0.416550;,
  0.561010;0.416610;,
  0.561600;0.416690;,
  0.560490;0.416990;,
  0.561560;0.416800;,
  0.561780;0.415470;,
  0.558620;0.417050;,
  0.555650;0.416990;,
  0.553170;0.416990;,
  0.549490;0.414170;,
  0.547600;0.414140;,
  0.545840;0.414100;,
  0.542930;0.414010;,
  0.544270;0.414060;,
  0.541870;0.413960;,
  0.541120;0.413910;,
  0.540760;0.413860;,
  0.540300;0.412250;,
  0.541040;0.414560;,
  0.541300;0.414510;,
  0.540550;0.412190;,
  0.541050;0.412140;,
  0.541780;0.414460;,
  0.542260;0.413640;,
  0.543370;0.413590;,
  0.544800;0.413550;,
  0.546470;0.413520;,
  0.548290;0.413500;,
  0.550210;0.413480;,
  0.552170;0.413480;,
  0.554130;0.413480;,
  0.556010;0.413500;,
  0.557770;0.413530;,
  0.559360;0.413560;,
  0.560730;0.413610;,
  0.561700;0.413660;,
  0.562350;0.413710;,
  0.562840;0.413760;,
  0.563070;0.413820;,
  0.562870;0.413890;,
  0.562660;0.412400;,
  0.561420;0.414040;,
  0.560240;0.414070;,
  0.557940;0.414090;,
  0.555250;0.414130;,
  0.553360;0.414150;,
  0.551440;0.414170;,
  0.549360;0.411020;,
  0.547370;0.411000;,
  0.545500;0.410960;,
  0.543840;0.410910;,
  0.542420;0.410860;,
  0.541300;0.410810;,
  0.540520;0.410750;,
  0.540130;0.410700;,
  0.540070;0.409820;,
  0.540310;0.409750;,
  0.540810;0.409690;,
  0.542870;0.410420;,
  0.541670;0.410460;,
  0.544410;0.410380;,
  0.546190;0.410340;,
  0.548110;0.410320;,
  0.550130;0.410310;,
  0.552190;0.410300;,
  0.554250;0.410310;,
  0.556230;0.410330;,
  0.558100;0.410360;,
  0.559810;0.410390;,
  0.561270;0.410440;,
  0.562290;0.410490;,
  0.562950;0.410550;,
  0.563440;0.410600;,
  0.563670;0.410660;,
  0.563450;0.410720;,
  0.562840;0.409130;,
  0.561920;0.410840;,
  0.560680;0.410880;,
  0.557370;0.410950;,
  0.559160;0.410920;,
  0.555430;0.410980;,
  0.553450;0.411010;,
  0.551420;0.411030;,
  0.549420;0.407710;,
  0.547460;0.407690;,
  0.545620;0.407640;,
  0.543920;0.407590;,
  0.542440;0.407530;,
  0.541200;0.408310;,
  0.541540;0.405850;,
  0.540800;0.405790;,
  0.540450;0.408250;,
  0.540130;0.408190;,
  0.540490;0.405730;,
  0.540180;0.407300;,
  0.540430;0.407240;,
  0.540960;0.407180;,
  0.542920;0.407930;,
  0.541820;0.407140;,
  0.543350;0.405530;,
  0.544450;0.407890;,
  0.544830;0.405510;,
  0.546500;0.405490;,
  0.546220;0.407870;,
  0.548130;0.407850;,
  0.550140;0.407840;,
  0.548320;0.405470;,
  0.550220;0.405460;,
  0.552190;0.407830;,
  0.552170;0.405450;,
  0.554110;0.405460;,
  0.554230;0.407840;,
  0.556200;0.407860;,
  0.555980;0.405480;,
  0.557750;0.405510;,
  0.558080;0.407880;,
  0.559810;0.407920;,
  0.561240;0.407970;,
  0.559360;0.405540;,
  0.561150;0.405610;,
  0.562190;0.408020;,
  0.562650;0.407260;,
  0.563340;0.408130;,
  0.562740;0.405740;,
  0.562990;0.405790;,
  0.563590;0.408190;,
  0.563370;0.408240;,
  0.562800;0.405850;,
  0.562240;0.405890;,
  0.561860;0.408350;,
  0.561360;0.405930;,
  0.560200;0.405970;,
  0.560630;0.408390;,
  0.559010;0.407600;,
  0.557260;0.407620;,
  0.555360;0.407650;,
  0.553420;0.407690;,
  0.551430;0.407710;,
  0.548750;0.404580;,
  0.545360;0.404490;,
  0.543150;0.404380;,
  0.542410;0.402860;,
  0.541760;0.402800;,
  0.540990;0.404130;,
  0.542120;0.404060;,
  0.544410;0.402670;,
  0.546440;0.402660;,
  0.549580;0.402630;,
  0.552980;0.402620;,
  0.555470;0.402640;,
  0.557700;0.402670;,
  0.559910;0.402730;,
  0.561640;0.404200;,
  0.561480;0.402890;,
  0.561200;0.402980;,
  0.559680;0.403040;,
  0.557590;0.404480;,
  0.555050;0.404520;,
  0.552370;0.404570;,
  0.550760;0.401910;,
  0.547750;0.401830;,
  0.545050;0.401700;,
  0.543720;0.401030;,
  0.543220;0.400970;,
  0.542230;0.402070;,
  0.544220;0.400470;,
  0.543480;0.401730;,
  0.546070;0.400890;,
  0.548530;0.400880;,
  0.551350;0.400870;,
  0.554070;0.400490;,
  0.556510;0.400490;,
  0.558750;0.400920;,
  0.560050;0.401590;,
  0.560070;0.401110;,
  0.559280;0.400740;,
  0.558530;0.401210;,
  0.556650;0.401830;,
  0.553780;0.401880;,
  0.504130;0.418410;,
  0.508710;0.423600;,
  0.501690;0.424430;,
  0.507460;0.429540;,
  0.502640;0.430850;,
  0.563020;0.407680;,
  0.562830;0.410730;,
  0.564940;0.410410;,
  0.512900;0.433190;,
  0.529500;0.418910;,
  0.539760;0.421250;,
  0.535320;0.423770;,
  0.564290;0.413230;,
  0.556100;0.421370;,
  0.548750;0.417800;,
  0.553190;0.415280;,
  0.536850;0.430160;,
  0.541550;0.411400;,
  0.548140;0.424630;,
  0.545070;0.424690;,
  0.527900;0.413740;,
  0.539190;0.408220;,
  0.563310;0.415700;,
  0.560700;0.416570;,
  0.562440;0.418770;,
  0.545980;0.400020;,
  0.557930;0.417800;,
  0.559630;0.419680;,
  0.547850;0.400070;,
  0.556930;0.420130;,
  0.551160;0.399790;,
  0.553650;0.418510;,
  0.552000;0.414810;,
  0.550490;0.417550;,
  0.549010;0.414840;,
  0.557720;0.399900;,
  0.549920;0.410780;,
  0.547900;0.409180;,
  0.550780;0.407940;,
  0.549230;0.406950;,
  0.551530;0.404840;,
  0.553220;0.407000;,
  0.525340;0.407730;,
  0.534200;0.408890;,
  0.526260;0.411040;,
  0.554490;0.404540;,
  0.516370;0.409110;,
  0.517410;0.413720;,
  0.509490;0.413330;,
  0.511880;0.417510;,
  0.560720;0.408680;,
  0.560050;0.411380;,
  0.561440;0.413460;,
  0.557990;0.415170;,
  0.554600;0.416580;,
  0.555880;0.414710;,
  0.554100;0.413150;,
  0.552420;0.410550;,
  0.555260;0.409770;,
  0.555430;0.407330;,
  0.557800;0.406460;,
  0.557830;0.404280;,
  0.557910;0.409200;,
  0.560470;0.405190;,
  0.070520;0.562860;,
  0.062210;0.516820;,
  0.107240;0.527470;,
  0.059480;0.511490;,
  0.078480;0.469090;,
  0.110300;0.525610;,
  0.063500;0.511300;,
  0.097820;0.484030;,
  0.103960;0.520500;,
  0.060400;0.519560;,
  0.110640;0.543190;,
  0.083720;0.576160;,
  0.062070;0.511590;,
  0.086980;0.483260;,
  0.100300;0.525590;,
  0.550410;0.421610;,
  0.552550;0.421170;,
  0.056980;0.477430;,
  0.092610;0.485940;,
  0.063460;0.519770;,
  0.602610;0.852210;,
  0.605350;0.852170;,
  0.606600;0.848480;,
  0.609440;0.844990;,
  0.607230;0.844750;,
  0.603410;0.848090;,
  0.605420;0.844360;,
  0.599830;0.851820;,
  0.601540;0.847470;,
  0.604130;0.843690;,
  0.599190;0.851360;,
  0.602020;0.847170;,
  0.605060;0.843420;,
  0.600600;0.851200;,
  0.604350;0.847240;,
  0.607860;0.843730;,
  0.602680;0.851360;,
  0.606750;0.847690;,
  0.604930;0.851790;,
  0.610230;0.844390;,
  0.607800;0.848190;,
  0.610590;0.844850;,
  0.612910;0.841980;,
  0.611020;0.841980;,
  0.614840;0.839790;,
  0.612270;0.839580;,
  0.609040;0.841650;,
  0.610380;0.839130;,
  0.607030;0.841030;,
  0.608840;0.838430;,
  0.606910;0.840460;,
  0.609220;0.838200;,
  0.608180;0.840390;,
  0.610740;0.838160;,
  0.610250;0.840640;,
  0.613630;0.838620;,
  0.612630;0.841340;,
  0.615330;0.839310;,
  0.614160;0.838120;,
  0.615960;0.838300;,
  0.615330;0.837070;,
  0.617340;0.837280;,
  0.611600;0.837470;,
  0.613410;0.836650;,
  0.611810;0.836130;,
  0.610330;0.836890;,
  0.611070;0.835710;,
  0.610320;0.836830;,
  0.610080;0.835520;,
  0.612000;0.836690;,
  0.611330;0.835670;,
  0.614340;0.835450;,
  0.615370;0.837050;,
  0.616370;0.835820;,
  0.618000;0.836380;,
  0.617100;0.837760;,
  0.618680;0.836970;,
  0.617210;0.838160;,
  0.619810;0.836100;,
  0.617040;0.836340;,
  0.618660;0.835710;,
  0.615680;0.835230;,
  0.613710;0.835650;,
  0.612780;0.834310;,
  0.611780;0.834940;,
  0.612160;0.833630;,
  0.615040;0.834520;,
  0.617220;0.834850;,
  0.617080;0.833470;,
  0.619150;0.833870;,
  0.619010;0.835450;,
  0.620450;0.834890;,
  0.619860;0.836100;,
  0.621360;0.834760;,
  0.620380;0.834690;,
  0.617090;0.834610;,
  0.615020;0.833690;,
  0.613280;0.833070;,
  0.615170;0.832680;,
  0.613970;0.832820;,
  0.613560;0.833710;,
  0.615870;0.832570;,
  0.617440;0.831910;,
  0.619450;0.832180;,
  0.621270;0.832970;,
  0.620920;0.833950;,
  0.622190;0.833600;,
  0.621890;0.834640;,
  0.617770;0.833230;,
  0.615020;0.832290;,
  0.620530;0.833430;,
  0.602410;0.856180;,
  0.601830;0.860060;,
  0.600030;0.856130;,
  0.598750;0.860110;,
  0.597920;0.855870;,
  0.596050;0.859800;,
  0.597190;0.855480;,
  0.597490;0.859560;,
  0.598540;0.855350;,
  0.601330;0.855490;,
  0.600490;0.859630;,
  0.602060;0.859820;,
  0.603500;0.855930;,
  0.618270;0.832810;,
  0.620970;0.832770;,
  0.618780;0.832160;,
  0.620290;0.833060;,
  0.616650;0.832250;,
  0.612290;0.834650;,
  0.610750;0.834480;,
  0.610030;0.834210;;
 }
 MeshVertexColors {
  435;
  0;1.000000;1.000000;1.000000;1.000000;,
  1;1.000000;1.000000;1.000000;1.000000;,
  2;1.000000;1.000000;1.000000;1.000000;,
  3;1.000000;1.000000;1.000000;1.000000;,
  4;1.000000;1.000000;1.000000;1.000000;,
  5;1.000000;1.000000;1.000000;1.000000;,
  6;1.000000;1.000000;1.000000;1.000000;,
  7;1.000000;1.000000;1.000000;1.000000;,
  8;1.000000;1.000000;1.000000;1.000000;,
  9;1.000000;1.000000;1.000000;1.000000;,
  10;1.000000;1.000000;1.000000;1.000000;,
  11;1.000000;1.000000;1.000000;1.000000;,
  12;1.000000;1.000000;1.000000;1.000000;,
  13;1.000000;1.000000;1.000000;1.000000;,
  14;1.000000;1.000000;1.000000;1.000000;,
  15;1.000000;1.000000;1.000000;1.000000;,
  16;1.000000;1.000000;1.000000;1.000000;,
  17;1.000000;1.000000;1.000000;1.000000;,
  18;1.000000;1.000000;1.000000;1.000000;,
  19;1.000000;1.000000;1.000000;1.000000;,
  20;1.000000;1.000000;1.000000;1.000000;,
  21;1.000000;1.000000;1.000000;1.000000;,
  22;1.000000;1.000000;1.000000;1.000000;,
  23;1.000000;1.000000;1.000000;1.000000;,
  24;1.000000;1.000000;1.000000;1.000000;,
  25;1.000000;1.000000;1.000000;1.000000;,
  26;1.000000;1.000000;1.000000;1.000000;,
  27;1.000000;1.000000;1.000000;1.000000;,
  28;1.000000;1.000000;1.000000;1.000000;,
  29;1.000000;1.000000;1.000000;1.000000;,
  30;1.000000;1.000000;1.000000;1.000000;,
  31;1.000000;1.000000;1.000000;1.000000;,
  32;1.000000;1.000000;1.000000;1.000000;,
  33;1.000000;1.000000;1.000000;1.000000;,
  34;1.000000;1.000000;1.000000;1.000000;,
  35;1.000000;1.000000;1.000000;1.000000;,
  36;1.000000;1.000000;1.000000;1.000000;,
  37;1.000000;1.000000;1.000000;1.000000;,
  38;1.000000;1.000000;1.000000;1.000000;,
  39;1.000000;1.000000;1.000000;1.000000;,
  40;1.000000;1.000000;1.000000;1.000000;,
  41;1.000000;1.000000;1.000000;1.000000;,
  42;1.000000;1.000000;1.000000;1.000000;,
  43;1.000000;1.000000;1.000000;1.000000;,
  44;1.000000;1.000000;1.000000;1.000000;,
  45;1.000000;1.000000;1.000000;1.000000;,
  46;1.000000;1.000000;1.000000;1.000000;,
  47;1.000000;1.000000;1.000000;1.000000;,
  48;1.000000;1.000000;1.000000;1.000000;,
  49;1.000000;1.000000;1.000000;1.000000;,
  50;1.000000;1.000000;1.000000;1.000000;,
  51;1.000000;1.000000;1.000000;1.000000;,
  52;1.000000;1.000000;1.000000;1.000000;,
  53;1.000000;1.000000;1.000000;1.000000;,
  54;1.000000;1.000000;1.000000;1.000000;,
  55;1.000000;1.000000;1.000000;1.000000;,
  56;1.000000;1.000000;1.000000;1.000000;,
  57;1.000000;1.000000;1.000000;1.000000;,
  58;1.000000;1.000000;1.000000;1.000000;,
  59;1.000000;1.000000;1.000000;1.000000;,
  60;1.000000;1.000000;1.000000;1.000000;,
  61;1.000000;1.000000;1.000000;1.000000;,
  62;1.000000;1.000000;1.000000;1.000000;,
  63;1.000000;1.000000;1.000000;1.000000;,
  64;1.000000;1.000000;1.000000;1.000000;,
  65;1.000000;1.000000;1.000000;1.000000;,
  66;1.000000;1.000000;1.000000;1.000000;,
  67;1.000000;1.000000;1.000000;1.000000;,
  68;1.000000;1.000000;1.000000;1.000000;,
  69;1.000000;1.000000;1.000000;1.000000;,
  70;1.000000;1.000000;1.000000;1.000000;,
  71;1.000000;1.000000;1.000000;1.000000;,
  72;1.000000;1.000000;1.000000;1.000000;,
  73;1.000000;1.000000;1.000000;1.000000;,
  74;1.000000;1.000000;1.000000;1.000000;,
  75;1.000000;1.000000;1.000000;1.000000;,
  76;1.000000;1.000000;1.000000;1.000000;,
  77;1.000000;1.000000;1.000000;1.000000;,
  78;1.000000;1.000000;1.000000;1.000000;,
  79;1.000000;1.000000;1.000000;1.000000;,
  80;1.000000;1.000000;1.000000;1.000000;,
  81;1.000000;1.000000;1.000000;1.000000;,
  82;1.000000;1.000000;1.000000;1.000000;,
  83;1.000000;1.000000;1.000000;1.000000;,
  84;1.000000;1.000000;1.000000;1.000000;,
  85;1.000000;1.000000;1.000000;1.000000;,
  86;1.000000;1.000000;1.000000;1.000000;,
  87;1.000000;1.000000;1.000000;1.000000;,
  88;1.000000;1.000000;1.000000;1.000000;,
  89;1.000000;1.000000;1.000000;1.000000;,
  90;1.000000;1.000000;1.000000;1.000000;,
  91;1.000000;1.000000;1.000000;1.000000;,
  92;1.000000;1.000000;1.000000;1.000000;,
  93;1.000000;1.000000;1.000000;1.000000;,
  94;1.000000;1.000000;1.000000;1.000000;,
  95;1.000000;1.000000;1.000000;1.000000;,
  96;1.000000;1.000000;1.000000;1.000000;,
  97;1.000000;1.000000;1.000000;1.000000;,
  98;1.000000;1.000000;1.000000;1.000000;,
  99;1.000000;1.000000;1.000000;1.000000;,
  100;1.000000;1.000000;1.000000;1.000000;,
  101;1.000000;1.000000;1.000000;1.000000;,
  102;1.000000;1.000000;1.000000;1.000000;,
  103;1.000000;1.000000;1.000000;1.000000;,
  104;1.000000;1.000000;1.000000;1.000000;,
  105;1.000000;1.000000;1.000000;1.000000;,
  106;1.000000;1.000000;1.000000;1.000000;,
  107;1.000000;1.000000;1.000000;1.000000;,
  108;1.000000;1.000000;1.000000;1.000000;,
  109;1.000000;1.000000;1.000000;1.000000;,
  110;1.000000;1.000000;1.000000;1.000000;,
  111;1.000000;1.000000;1.000000;1.000000;,
  112;1.000000;1.000000;1.000000;1.000000;,
  113;1.000000;1.000000;1.000000;1.000000;,
  114;1.000000;1.000000;1.000000;1.000000;,
  115;1.000000;1.000000;1.000000;1.000000;,
  116;1.000000;1.000000;1.000000;1.000000;,
  117;1.000000;1.000000;1.000000;1.000000;,
  118;1.000000;1.000000;1.000000;1.000000;,
  119;1.000000;1.000000;1.000000;1.000000;,
  120;1.000000;1.000000;1.000000;1.000000;,
  121;1.000000;1.000000;1.000000;1.000000;,
  122;1.000000;1.000000;1.000000;1.000000;,
  123;1.000000;1.000000;1.000000;1.000000;,
  124;1.000000;1.000000;1.000000;1.000000;,
  125;1.000000;1.000000;1.000000;1.000000;,
  126;1.000000;1.000000;1.000000;1.000000;,
  127;1.000000;1.000000;1.000000;1.000000;,
  128;1.000000;1.000000;1.000000;1.000000;,
  129;1.000000;1.000000;1.000000;1.000000;,
  130;1.000000;1.000000;1.000000;1.000000;,
  131;1.000000;1.000000;1.000000;1.000000;,
  132;1.000000;1.000000;1.000000;1.000000;,
  133;1.000000;1.000000;1.000000;1.000000;,
  134;1.000000;1.000000;1.000000;1.000000;,
  135;1.000000;1.000000;1.000000;1.000000;,
  136;1.000000;1.000000;1.000000;1.000000;,
  137;1.000000;1.000000;1.000000;1.000000;,
  138;1.000000;1.000000;1.000000;1.000000;,
  139;1.000000;1.000000;1.000000;1.000000;,
  140;1.000000;1.000000;1.000000;1.000000;,
  141;1.000000;1.000000;1.000000;1.000000;,
  142;1.000000;1.000000;1.000000;1.000000;,
  143;1.000000;1.000000;1.000000;1.000000;,
  144;1.000000;1.000000;1.000000;1.000000;,
  145;1.000000;1.000000;1.000000;1.000000;,
  146;1.000000;1.000000;1.000000;1.000000;,
  147;1.000000;1.000000;1.000000;1.000000;,
  148;1.000000;1.000000;1.000000;1.000000;,
  149;1.000000;1.000000;1.000000;1.000000;,
  150;1.000000;1.000000;1.000000;1.000000;,
  151;1.000000;1.000000;1.000000;1.000000;,
  152;1.000000;1.000000;1.000000;1.000000;,
  153;1.000000;1.000000;1.000000;1.000000;,
  154;1.000000;1.000000;1.000000;1.000000;,
  155;1.000000;1.000000;1.000000;1.000000;,
  156;1.000000;1.000000;1.000000;1.000000;,
  157;1.000000;1.000000;1.000000;1.000000;,
  158;1.000000;1.000000;1.000000;1.000000;,
  159;1.000000;1.000000;1.000000;1.000000;,
  160;1.000000;1.000000;1.000000;1.000000;,
  161;1.000000;1.000000;1.000000;1.000000;,
  162;1.000000;1.000000;1.000000;1.000000;,
  163;1.000000;1.000000;1.000000;1.000000;,
  164;1.000000;1.000000;1.000000;1.000000;,
  165;1.000000;1.000000;1.000000;1.000000;,
  166;1.000000;1.000000;1.000000;1.000000;,
  167;1.000000;1.000000;1.000000;1.000000;,
  168;1.000000;1.000000;1.000000;1.000000;,
  169;1.000000;1.000000;1.000000;1.000000;,
  170;1.000000;1.000000;1.000000;1.000000;,
  171;1.000000;1.000000;1.000000;1.000000;,
  172;1.000000;1.000000;1.000000;1.000000;,
  173;1.000000;1.000000;1.000000;1.000000;,
  174;1.000000;1.000000;1.000000;1.000000;,
  175;1.000000;1.000000;1.000000;1.000000;,
  176;1.000000;1.000000;1.000000;1.000000;,
  177;1.000000;1.000000;1.000000;1.000000;,
  178;1.000000;1.000000;1.000000;1.000000;,
  179;1.000000;1.000000;1.000000;1.000000;,
  180;1.000000;1.000000;1.000000;1.000000;,
  181;1.000000;1.000000;1.000000;1.000000;,
  182;1.000000;1.000000;1.000000;1.000000;,
  183;1.000000;1.000000;1.000000;1.000000;,
  184;1.000000;1.000000;1.000000;1.000000;,
  185;1.000000;1.000000;1.000000;1.000000;,
  186;1.000000;1.000000;1.000000;1.000000;,
  187;1.000000;1.000000;1.000000;1.000000;,
  188;1.000000;1.000000;1.000000;1.000000;,
  189;1.000000;1.000000;1.000000;1.000000;,
  190;1.000000;1.000000;1.000000;1.000000;,
  191;1.000000;1.000000;1.000000;1.000000;,
  192;1.000000;1.000000;1.000000;1.000000;,
  193;1.000000;1.000000;1.000000;1.000000;,
  194;1.000000;1.000000;1.000000;1.000000;,
  195;1.000000;1.000000;1.000000;1.000000;,
  196;1.000000;1.000000;1.000000;1.000000;,
  197;1.000000;1.000000;1.000000;1.000000;,
  198;1.000000;1.000000;1.000000;1.000000;,
  199;1.000000;1.000000;1.000000;1.000000;,
  200;1.000000;1.000000;1.000000;1.000000;,
  201;1.000000;1.000000;1.000000;1.000000;,
  202;1.000000;1.000000;1.000000;1.000000;,
  203;1.000000;1.000000;1.000000;1.000000;,
  204;1.000000;1.000000;1.000000;1.000000;,
  205;1.000000;1.000000;1.000000;1.000000;,
  206;1.000000;1.000000;1.000000;1.000000;,
  207;1.000000;1.000000;1.000000;1.000000;,
  208;1.000000;1.000000;1.000000;1.000000;,
  209;1.000000;1.000000;1.000000;1.000000;,
  210;1.000000;1.000000;1.000000;1.000000;,
  211;1.000000;1.000000;1.000000;1.000000;,
  212;1.000000;1.000000;1.000000;1.000000;,
  213;1.000000;1.000000;1.000000;1.000000;,
  214;1.000000;1.000000;1.000000;1.000000;,
  215;1.000000;1.000000;1.000000;1.000000;,
  216;1.000000;1.000000;1.000000;1.000000;,
  217;1.000000;1.000000;1.000000;1.000000;,
  218;1.000000;1.000000;1.000000;1.000000;,
  219;1.000000;1.000000;1.000000;1.000000;,
  220;1.000000;1.000000;1.000000;1.000000;,
  221;1.000000;1.000000;1.000000;1.000000;,
  222;1.000000;1.000000;1.000000;1.000000;,
  223;1.000000;1.000000;1.000000;1.000000;,
  224;1.000000;1.000000;1.000000;1.000000;,
  225;1.000000;1.000000;1.000000;1.000000;,
  226;1.000000;1.000000;1.000000;1.000000;,
  227;1.000000;1.000000;1.000000;1.000000;,
  228;1.000000;1.000000;1.000000;1.000000;,
  229;1.000000;1.000000;1.000000;1.000000;,
  230;1.000000;1.000000;1.000000;1.000000;,
  231;1.000000;1.000000;1.000000;1.000000;,
  232;1.000000;1.000000;1.000000;1.000000;,
  233;1.000000;1.000000;1.000000;1.000000;,
  234;1.000000;1.000000;1.000000;1.000000;,
  235;1.000000;1.000000;1.000000;1.000000;,
  236;1.000000;1.000000;1.000000;1.000000;,
  237;1.000000;1.000000;1.000000;1.000000;,
  238;1.000000;1.000000;1.000000;1.000000;,
  239;1.000000;1.000000;1.000000;1.000000;,
  240;1.000000;1.000000;1.000000;1.000000;,
  241;1.000000;1.000000;1.000000;1.000000;,
  242;1.000000;1.000000;1.000000;1.000000;,
  243;1.000000;1.000000;1.000000;1.000000;,
  244;1.000000;1.000000;1.000000;1.000000;,
  245;1.000000;1.000000;1.000000;1.000000;,
  246;1.000000;1.000000;1.000000;1.000000;,
  247;1.000000;1.000000;1.000000;1.000000;,
  248;1.000000;1.000000;1.000000;1.000000;,
  249;1.000000;1.000000;1.000000;1.000000;,
  250;1.000000;1.000000;1.000000;1.000000;,
  251;1.000000;1.000000;1.000000;1.000000;,
  252;1.000000;1.000000;1.000000;1.000000;,
  253;1.000000;1.000000;1.000000;1.000000;,
  254;1.000000;1.000000;1.000000;1.000000;,
  255;1.000000;1.000000;1.000000;1.000000;,
  256;1.000000;1.000000;1.000000;1.000000;,
  257;1.000000;1.000000;1.000000;1.000000;,
  258;1.000000;1.000000;1.000000;1.000000;,
  259;1.000000;1.000000;1.000000;1.000000;,
  260;1.000000;1.000000;1.000000;1.000000;,
  261;1.000000;1.000000;1.000000;1.000000;,
  262;1.000000;1.000000;1.000000;1.000000;,
  263;1.000000;1.000000;1.000000;1.000000;,
  264;1.000000;1.000000;1.000000;1.000000;,
  265;1.000000;1.000000;1.000000;1.000000;,
  266;1.000000;1.000000;1.000000;1.000000;,
  267;1.000000;1.000000;1.000000;1.000000;,
  268;1.000000;1.000000;1.000000;1.000000;,
  269;1.000000;1.000000;1.000000;1.000000;,
  270;1.000000;1.000000;1.000000;1.000000;,
  271;1.000000;1.000000;1.000000;1.000000;,
  272;1.000000;1.000000;1.000000;1.000000;,
  273;1.000000;1.000000;1.000000;1.000000;,
  274;1.000000;1.000000;1.000000;1.000000;,
  275;1.000000;1.000000;1.000000;1.000000;,
  276;1.000000;1.000000;1.000000;1.000000;,
  277;1.000000;1.000000;1.000000;1.000000;,
  278;1.000000;1.000000;1.000000;1.000000;,
  279;1.000000;1.000000;1.000000;1.000000;,
  280;1.000000;1.000000;1.000000;1.000000;,
  281;1.000000;1.000000;1.000000;1.000000;,
  282;1.000000;1.000000;1.000000;1.000000;,
  283;1.000000;1.000000;1.000000;1.000000;,
  284;1.000000;1.000000;1.000000;1.000000;,
  285;1.000000;1.000000;1.000000;1.000000;,
  286;1.000000;1.000000;1.000000;1.000000;,
  287;1.000000;1.000000;1.000000;1.000000;,
  288;1.000000;1.000000;1.000000;1.000000;,
  289;1.000000;1.000000;1.000000;1.000000;,
  290;1.000000;1.000000;1.000000;1.000000;,
  291;1.000000;1.000000;1.000000;1.000000;,
  292;1.000000;1.000000;1.000000;1.000000;,
  293;1.000000;1.000000;1.000000;1.000000;,
  294;1.000000;1.000000;1.000000;1.000000;,
  295;1.000000;1.000000;1.000000;1.000000;,
  296;1.000000;1.000000;1.000000;1.000000;,
  297;1.000000;1.000000;1.000000;1.000000;,
  298;1.000000;1.000000;1.000000;1.000000;,
  299;1.000000;1.000000;1.000000;1.000000;,
  300;1.000000;1.000000;1.000000;1.000000;,
  301;1.000000;1.000000;1.000000;1.000000;,
  302;1.000000;1.000000;1.000000;1.000000;,
  303;1.000000;1.000000;1.000000;1.000000;,
  304;1.000000;1.000000;1.000000;1.000000;,
  305;1.000000;1.000000;1.000000;1.000000;,
  306;1.000000;1.000000;1.000000;1.000000;,
  307;1.000000;1.000000;1.000000;1.000000;,
  308;1.000000;1.000000;1.000000;1.000000;,
  309;1.000000;1.000000;1.000000;1.000000;,
  310;1.000000;1.000000;1.000000;1.000000;,
  311;1.000000;1.000000;1.000000;1.000000;,
  312;1.000000;1.000000;1.000000;1.000000;,
  313;1.000000;1.000000;1.000000;1.000000;,
  314;1.000000;1.000000;1.000000;1.000000;,
  315;1.000000;1.000000;1.000000;1.000000;,
  316;1.000000;1.000000;1.000000;1.000000;,
  317;1.000000;1.000000;1.000000;1.000000;,
  318;1.000000;1.000000;1.000000;1.000000;,
  319;1.000000;1.000000;1.000000;1.000000;,
  320;1.000000;1.000000;1.000000;1.000000;,
  321;1.000000;1.000000;1.000000;1.000000;,
  322;1.000000;1.000000;1.000000;1.000000;,
  323;1.000000;1.000000;1.000000;1.000000;,
  324;1.000000;1.000000;1.000000;1.000000;,
  325;1.000000;1.000000;1.000000;1.000000;,
  326;1.000000;1.000000;1.000000;1.000000;,
  327;1.000000;1.000000;1.000000;1.000000;,
  328;1.000000;1.000000;1.000000;1.000000;,
  329;1.000000;1.000000;1.000000;1.000000;,
  330;1.000000;1.000000;1.000000;1.000000;,
  331;1.000000;1.000000;1.000000;1.000000;,
  332;1.000000;1.000000;1.000000;1.000000;,
  333;1.000000;1.000000;1.000000;1.000000;,
  334;1.000000;1.000000;1.000000;1.000000;,
  335;1.000000;1.000000;1.000000;1.000000;,
  336;1.000000;1.000000;1.000000;1.000000;,
  337;1.000000;1.000000;1.000000;1.000000;,
  338;1.000000;1.000000;1.000000;1.000000;,
  339;1.000000;1.000000;1.000000;1.000000;,
  340;1.000000;1.000000;1.000000;1.000000;,
  341;1.000000;1.000000;1.000000;1.000000;,
  342;1.000000;1.000000;1.000000;1.000000;,
  343;1.000000;1.000000;1.000000;1.000000;,
  344;1.000000;1.000000;1.000000;1.000000;,
  345;1.000000;1.000000;1.000000;1.000000;,
  346;1.000000;1.000000;1.000000;1.000000;,
  347;1.000000;1.000000;1.000000;1.000000;,
  348;1.000000;1.000000;1.000000;1.000000;,
  349;1.000000;1.000000;1.000000;1.000000;,
  350;1.000000;1.000000;1.000000;1.000000;,
  351;1.000000;1.000000;1.000000;1.000000;,
  352;1.000000;1.000000;1.000000;1.000000;,
  353;1.000000;1.000000;1.000000;1.000000;,
  354;1.000000;1.000000;1.000000;1.000000;,
  355;1.000000;1.000000;1.000000;1.000000;,
  356;1.000000;1.000000;1.000000;1.000000;,
  357;1.000000;1.000000;1.000000;1.000000;,
  358;1.000000;1.000000;1.000000;1.000000;,
  359;1.000000;1.000000;1.000000;1.000000;,
  360;1.000000;1.000000;1.000000;1.000000;,
  361;1.000000;1.000000;1.000000;1.000000;,
  362;1.000000;1.000000;1.000000;1.000000;,
  363;1.000000;1.000000;1.000000;1.000000;,
  364;1.000000;1.000000;1.000000;1.000000;,
  365;1.000000;1.000000;1.000000;1.000000;,
  366;1.000000;1.000000;1.000000;1.000000;,
  367;1.000000;1.000000;1.000000;1.000000;,
  368;1.000000;1.000000;1.000000;1.000000;,
  369;1.000000;1.000000;1.000000;1.000000;,
  370;1.000000;1.000000;1.000000;1.000000;,
  371;1.000000;1.000000;1.000000;1.000000;,
  372;1.000000;1.000000;1.000000;1.000000;,
  373;1.000000;1.000000;1.000000;1.000000;,
  374;1.000000;1.000000;1.000000;1.000000;,
  375;1.000000;1.000000;1.000000;1.000000;,
  376;1.000000;1.000000;1.000000;1.000000;,
  377;1.000000;1.000000;1.000000;1.000000;,
  378;1.000000;1.000000;1.000000;1.000000;,
  379;1.000000;1.000000;1.000000;1.000000;,
  380;1.000000;1.000000;1.000000;1.000000;,
  381;1.000000;1.000000;1.000000;1.000000;,
  382;1.000000;1.000000;1.000000;1.000000;,
  383;1.000000;1.000000;1.000000;1.000000;,
  384;1.000000;1.000000;1.000000;1.000000;,
  385;1.000000;1.000000;1.000000;1.000000;,
  386;1.000000;1.000000;1.000000;1.000000;,
  387;1.000000;1.000000;1.000000;1.000000;,
  388;1.000000;1.000000;1.000000;1.000000;,
  389;1.000000;1.000000;1.000000;1.000000;,
  390;1.000000;1.000000;1.000000;1.000000;,
  391;1.000000;1.000000;1.000000;1.000000;,
  392;1.000000;1.000000;1.000000;1.000000;,
  393;1.000000;1.000000;1.000000;1.000000;,
  394;1.000000;1.000000;1.000000;1.000000;,
  395;1.000000;1.000000;1.000000;1.000000;,
  396;1.000000;1.000000;1.000000;1.000000;,
  397;1.000000;1.000000;1.000000;1.000000;,
  398;1.000000;1.000000;1.000000;1.000000;,
  399;1.000000;1.000000;1.000000;1.000000;,
  400;1.000000;1.000000;1.000000;1.000000;,
  401;1.000000;1.000000;1.000000;1.000000;,
  402;1.000000;1.000000;1.000000;1.000000;,
  403;1.000000;1.000000;1.000000;1.000000;,
  404;1.000000;1.000000;1.000000;1.000000;,
  405;1.000000;1.000000;1.000000;1.000000;,
  406;1.000000;1.000000;1.000000;1.000000;,
  407;1.000000;1.000000;1.000000;1.000000;,
  408;1.000000;1.000000;1.000000;1.000000;,
  409;1.000000;1.000000;1.000000;1.000000;,
  410;1.000000;1.000000;1.000000;1.000000;,
  411;1.000000;1.000000;1.000000;1.000000;,
  412;1.000000;1.000000;1.000000;1.000000;,
  413;1.000000;1.000000;1.000000;1.000000;,
  414;1.000000;1.000000;1.000000;1.000000;,
  415;1.000000;1.000000;1.000000;1.000000;,
  416;1.000000;1.000000;1.000000;1.000000;,
  417;1.000000;1.000000;1.000000;1.000000;,
  418;1.000000;1.000000;1.000000;1.000000;,
  419;1.000000;1.000000;1.000000;1.000000;,
  420;1.000000;1.000000;1.000000;1.000000;,
  421;1.000000;1.000000;1.000000;1.000000;,
  422;1.000000;1.000000;1.000000;1.000000;,
  423;1.000000;1.000000;1.000000;1.000000;,
  424;1.000000;1.000000;1.000000;1.000000;,
  425;1.000000;1.000000;1.000000;1.000000;,
  426;1.000000;1.000000;1.000000;1.000000;,
  427;1.000000;1.000000;1.000000;1.000000;,
  428;1.000000;1.000000;1.000000;1.000000;,
  429;1.000000;1.000000;1.000000;1.000000;,
  430;1.000000;1.000000;1.000000;1.000000;,
  431;1.000000;1.000000;1.000000;1.000000;,
  432;1.000000;1.000000;1.000000;1.000000;,
  433;1.000000;1.000000;1.000000;1.000000;,
  434;1.000000;1.000000;1.000000;1.000000;;
 }
}
