xof 0302txt 0064
template Header {
 <3D82AB43-62DA-11cf-AB39-0020AF71E433>
 WORD major;
 WORD minor;
 DWORD flags;
}

template Vector {
 <3D82AB5E-62DA-11cf-AB39-0020AF71E433>
 FLOAT x;
 FLOAT y;
 FLOAT z;
}

template Coords2d {
 <F6F23F44-7686-11cf-8F52-0040333594A3>
 FLOAT u;
 FLOAT v;
}

template Matrix4x4 {
 <F6F23F45-7686-11cf-8F52-0040333594A3>
 array FLOAT matrix[16];
}

template ColorRGBA {
 <35FF44E0-6C7C-11cf-8F52-0040333594A3>
 FLOAT red;
 FLOAT green;
 FLOAT blue;
 FLOAT alpha;
}

template ColorRGB {
 <D3E16E81-7835-11cf-8F52-0040333594A3>
 FLOAT red;
 FLOAT green;
 FLOAT blue;
}

template IndexedColor {
 <1630B820-7842-11cf-8F52-0040333594A3>
 DWORD index;
 ColorRGBA indexColor;
}

template Boolean {
 <4885AE61-78E8-11cf-8F52-0040333594A3>
 WORD truefalse;
}

template Boolean2d {
 <4885AE63-78E8-11cf-8F52-0040333594A3>
 Boolean u;
 Boolean v;
}

template MaterialWrap {
 <4885AE60-78E8-11cf-8F52-0040333594A3>
 Boolean u;
 Boolean v;
}

template TextureFilename {
 <A42790E1-7810-11cf-8F52-0040333594A3>
 STRING filename;
}

template Material {
 <3D82AB4D-62DA-11cf-AB39-0020AF71E433>
 ColorRGBA faceColor;
 FLOAT power;
 ColorRGB specularColor;
 ColorRGB emissiveColor;
 [...]
}

template MeshFace {
 <3D82AB5F-62DA-11cf-AB39-0020AF71E433>
 DWORD nFaceVertexIndices;
 array DWORD faceVertexIndices[nFaceVertexIndices];
}

template MeshFaceWraps {
 <4885AE62-78E8-11cf-8F52-0040333594A3>
 DWORD nFaceWrapValues;
 Boolean2d faceWrapValues;
}

template MeshTextureCoords {
 <F6F23F40-7686-11cf-8F52-0040333594A3>
 DWORD nTextureCoords;
 array Coords2d textureCoords[nTextureCoords];
}

template MeshMaterialList {
 <F6F23F42-7686-11cf-8F52-0040333594A3>
 DWORD nMaterials;
 DWORD nFaceIndexes;
 array DWORD faceIndexes[nFaceIndexes];
 [Material]
}

template MeshNormals {
 <F6F23F43-7686-11cf-8F52-0040333594A3>
 DWORD nNormals;
 array Vector normals[nNormals];
 DWORD nFaceNormals;
 array MeshFace faceNormals[nFaceNormals];
}

template MeshVertexColors {
 <1630B821-7842-11cf-8F52-0040333594A3>
 DWORD nVertexColors;
 array IndexedColor vertexColors[nVertexColors];
}

template Mesh {
 <3D82AB44-62DA-11cf-AB39-0020AF71E433>
 DWORD nVertices;
 array Vector vertices[nVertices];
 DWORD nFaces;
 array MeshFace faces[nFaces];
 [...]
}

Header{
1;
0;
1;
}

Mesh {
 90;
 -0.00136;0.61983;-0.24388;,
 0.02634;0.63145;-0.22387;,
 0.04426;0.25739;-0.01138;,
 0.00035;0.25421;-0.03611;,
 0.04943;0.63595;-0.20365;,
 0.04750;0.26176;0.03400;,
 0.04148;0.64781;-0.16574;,
 0.02950;0.26613;0.06612;,
 0.00530;0.65662;-0.15798;,
 0.00056;0.26087;0.07953;,
 -0.03861;0.64781;-0.16574;,
 -0.03903;0.26613;0.06256;,
 -0.05263;0.63334;-0.20017;,
 -0.06580;0.26176;0.03400;,
 -0.02834;0.61940;-0.21429;,
 -0.04534;0.25508;-0.01749;,
 -0.00136;0.61983;-0.24388;,
 0.00035;0.25421;-0.03611;,
 0.06047;-0.70197;-0.03052;,
 0.03000;-0.69242;0.00272;,
 0.00229;-0.70060;0.00613;,
 -0.03564;-0.69088;0.00204;,
 0.03406;-0.70117;-0.05431;,
 -0.05450;-0.70197;-0.03052;,
 -0.03767;-0.70342;-0.05891;,
 -0.00952;-0.69075;-0.06241;,
 0.05455;-0.01212;-0.04739;,
 -0.00639;-0.01212;-0.07715;,
 0.07447;-0.01212;0.01388;,
 0.04131;-0.01212;0.07061;,
 0.00164;-0.01212;0.08620;,
 -0.05266;-0.01212;0.06676;,
 -0.08443;-0.01212;0.01388;,
 -0.05822;-0.01212;-0.05659;,
 -0.00639;-0.01212;-0.07715;,
 -0.00952;-0.69075;-0.06241;,
 -0.00136;0.61983;-0.24388;,
 0.02634;0.63145;-0.22387;,
 0.04426;0.25739;-0.01138;,
 0.00035;0.25421;-0.03611;,
 0.04943;0.63595;-0.20365;,
 0.04750;0.26176;0.03400;,
 0.04148;0.64781;-0.16574;,
 0.02950;0.26613;0.06612;,
 0.00530;0.65662;-0.15798;,
 0.00056;0.26087;0.07953;,
 -0.03861;0.64781;-0.16574;,
 -0.03903;0.26613;0.06256;,
 -0.05263;0.63334;-0.20017;,
 -0.06580;0.26176;0.03400;,
 -0.02834;0.61940;-0.21429;,
 -0.04534;0.25508;-0.01749;,
 -0.00136;0.61983;-0.24388;,
 0.00035;0.25421;-0.03611;,
 0.06127;0.72616;0.11291;,
 0.08897;0.72004;0.13522;,
 0.04426;0.29144;0.00000;,
 0.00035;0.30685;-0.01960;,
 0.11206;0.70877;0.15260;,
 0.04750;0.26214;0.03493;,
 0.10411;0.69004;0.18763;,
 0.02950;0.24229;0.06056;,
 0.06793;0.69068;0.19936;,
 0.00056;0.22904;0.06620;,
 0.02402;0.69004;0.18763;,
 -0.03903;0.24483;0.05806;,
 0.01000;0.70445;0.15318;,
 -0.06580;0.26214;0.03493;,
 0.03429;0.70476;0.13334;,
 -0.04534;0.29418;-0.00593;,
 0.06127;0.72616;0.11291;,
 0.00035;0.30685;-0.01960;,
 0.06127;0.72616;0.11291;,
 0.08897;0.72004;0.13522;,
 0.04426;0.29144;0.00000;,
 0.00035;0.30685;-0.01960;,
 0.11206;0.70877;0.15260;,
 0.04750;0.26214;0.03493;,
 0.10411;0.69004;0.18763;,
 0.02950;0.24229;0.06056;,
 0.06793;0.69068;0.19936;,
 0.00056;0.22904;0.06620;,
 0.02402;0.69004;0.18763;,
 -0.03903;0.24483;0.05806;,
 0.01000;0.70445;0.15318;,
 -0.06580;0.26214;0.03493;,
 0.03429;0.70476;0.13334;,
 -0.04534;0.29418;-0.00593;,
 0.06127;0.72616;0.11291;,
 0.00035;0.30685;-0.01960;;
 
 67;
 4;0,1,2,3;,
 4;1,4,5,2;,
 4;4,6,7,5;,
 4;6,8,9,7;,
 4;8,10,11,9;,
 4;10,12,13,11;,
 4;12,14,15,13;,
 4;14,16,17,15;,
 4;1,0,14,12;,
 3;12,10,8;,
 4;4,1,12,8;,
 3;4,8,6;,
 4;18,19,20,21;,
 4;22,18,21,23;,
 4;23,24,25,22;,
 4;26,22,25,27;,
 4;26,27,3,2;,
 4;28,18,22,26;,
 4;28,26,2,5;,
 4;29,19,18,28;,
 4;29,28,5,7;,
 4;30,20,19,29;,
 4;30,29,7,9;,
 4;31,21,20,30;,
 4;31,30,9,11;,
 4;32,23,21,31;,
 4;32,31,11,13;,
 4;33,24,23,32;,
 4;33,32,13,15;,
 4;34,35,24,33;,
 4;34,33,15,17;,
 4;36,37,38,39;,
 4;37,40,41,38;,
 4;40,42,43,41;,
 4;42,44,45,43;,
 4;44,46,47,45;,
 4;46,48,49,47;,
 4;48,50,51,49;,
 4;50,52,53,51;,
 4;37,36,50,48;,
 3;48,46,44;,
 4;40,37,48,44;,
 3;40,44,42;,
 4;54,55,56,57;,
 4;55,58,59,56;,
 4;58,60,61,59;,
 4;60,62,63,61;,
 4;62,64,65,63;,
 4;64,66,67,65;,
 4;66,68,69,67;,
 4;68,70,71,69;,
 4;55,54,68,66;,
 3;66,64,62;,
 4;58,55,66,62;,
 3;58,62,60;,
 4;72,73,74,75;,
 4;73,76,77,74;,
 4;76,78,79,77;,
 4;78,80,81,79;,
 4;80,82,83,81;,
 4;82,84,85,83;,
 4;84,86,87,85;,
 4;86,88,89,87;,
 4;73,72,86,84;,
 3;84,82,80;,
 4;76,73,84,80;,
 3;76,80,78;;
 
 MeshMaterialList {
  2;
  67;
  0,
  0,
  0,
  0,
  0,
  0,
  0,
  0,
  0,
  0,
  0,
  0,
  0,
  0,
  0,
  0,
  0,
  0,
  0,
  0,
  0,
  0,
  0,
  0,
  0,
  0,
  0,
  0,
  0,
  0,
  0,
  0,
  0,
  0,
  0,
  0,
  0,
  0,
  0,
  0,
  0,
  0,
  0,
  0,
  0,
  0,
  0,
  0,
  0,
  0,
  0,
  0,
  0,
  0,
  0,
  0,
  0,
  0,
  0,
  0,
  0,
  0,
  0,
  0,
  0,
  0,
  0;;
  Material {
   0.800000;0.800000;0.800000;1.000000;;
   5.000000;
   0.000000;0.000000;0.000000;;
   0.000000;0.000000;0.000000;;
   TextureFilename {
    "Data\\Graphics\\XFileTexture\\BarkDecidious0099_1_S.jpg";
   }
  }
  Material {
   1.000000;1.000000;1.000000;1.000000;;
   0.000000;
   0.000000;0.000000;0.000000;;
   0.000000;0.000000;0.000000;;
  }
 }
 MeshNormals {
  81;
  0.557712;-0.400333;-0.727112;,
  0.749183;-0.317555;-0.581278;,
  0.998764;-0.020151;-0.045439;,
  0.681264;0.370591;0.631301;,
  0.014155;0.513627;0.857897;,
  -0.590578;0.423931;0.686659;,
  -0.838180;0.296031;0.458061;,
  -0.671207;-0.347049;-0.655010;,
  0.248162;-0.045476;-0.967651;,
  0.790333;-0.107758;-0.603127;,
  0.997912;0.027378;0.058504;,
  0.683239;0.203886;0.701152;,
  0.014851;0.285373;0.958302;,
  -0.610366;0.229817;0.758049;,
  -0.953121;0.157064;0.258633;,
  -0.708372;-0.118723;-0.695783;,
  0.171599;-0.979804;-0.102651;,
  0.084860;-0.995725;0.036485;,
  0.024498;-0.988654;0.148199;,
  0.053140;-0.991163;0.121540;,
  0.041778;0.070697;-0.996623;,
  0.708262;0.056585;-0.703679;,
  0.994769;0.019793;0.100216;,
  0.615155;-0.025008;0.788009;,
  0.013539;-0.041801;0.999034;,
  -0.598581;-0.030893;0.800466;,
  -0.959684;0.020906;0.280302;,
  -0.672910;0.058856;-0.737379;,
  -0.793269;-0.277115;-0.542155;,
  -0.527313;-0.405695;-0.746560;,
  -0.135648;0.865720;-0.481796;,
  -0.270962;0.761672;-0.588587;,
  -0.133100;0.890510;-0.435060;,
  -0.127022;0.931831;-0.339937;,
  0.018063;0.946802;-0.321309;,
  0.090808;0.946609;-0.309331;,
  0.175579;0.949452;-0.260218;,
  0.610840;-0.007824;-0.791716;,
  0.034405;-0.009445;-0.999363;,
  0.838612;-0.006123;-0.544695;,
  0.560632;-0.089328;0.823233;,
  0.799509;-0.062061;0.597440;,
  0.012462;-0.110275;0.993823;,
  -0.590055;-0.095835;0.801655;,
  -0.997475;-0.051966;0.048401;,
  -0.634976;-0.016896;-0.772347;,
  -0.902313;-0.021125;-0.430563;,
  0.557712;-0.400333;-0.727112;,
  0.749183;-0.317555;-0.581278;,
  0.998764;-0.020151;-0.045439;,
  0.681264;0.370591;0.631301;,
  0.014155;0.513627;0.857897;,
  -0.590578;0.423931;0.686659;,
  -0.838180;0.296031;0.458061;,
  -0.671207;-0.347049;-0.655010;,
  -0.793269;-0.277115;-0.542155;,
  -0.527313;-0.405695;-0.746560;,
  -0.135648;0.865720;-0.481796;,
  -0.270962;0.761672;-0.588587;,
  -0.133100;0.890510;-0.435060;,
  -0.127022;0.931831;-0.339937;,
  0.018063;0.946802;-0.321309;,
  0.090808;0.946609;-0.309331;,
  0.175579;0.949452;-0.260218;,
  0.552821;0.189143;-0.811550;,
  0.732355;0.117140;-0.670772;,
  0.987759;-0.099918;-0.119782;,
  0.692994;-0.294706;0.657957;,
  0.018977;-0.280950;0.959535;,
  -0.580363;-0.140329;0.802176;,
  -0.822383;-0.030126;0.568137;,
  -0.682259;0.329875;-0.652461;,
  -0.794256;0.309825;-0.522653;,
  -0.549934;0.340097;-0.762828;,
  -0.135641;0.950437;0.279769;,
  -0.270958;0.953676;0.130704;,
  -0.133104;0.934474;0.330215;,
  -0.127048;0.895582;0.426370;,
  0.018063;0.892798;0.450095;,
  0.090821;0.884121;0.458347;,
  0.175593;0.851083;0.494798;;
  67;
  4;0,1,9,8;,
  4;1,2,10,9;,
  4;2,3,11,10;,
  4;3,4,12,11;,
  4;4,5,13,12;,
  4;5,6,14,13;,
  4;28,7,15,28;,
  4;7,29,29,15;,
  4;30,31,31,32;,
  3;32,33,34;,
  4;35,30,32,34;,
  3;35,34,36;,
  4;18,19,19,18;,
  4;17,18,18,17;,
  4;17,16,16,17;,
  4;21,37,38,20;,
  4;21,20,8,9;,
  4;22,39,37,21;,
  4;22,21,9,10;,
  4;23,40,41,22;,
  4;23,22,10,11;,
  4;24,42,40,23;,
  4;24,23,11,12;,
  4;25,43,42,24;,
  4;25,24,12,13;,
  4;26,44,43,25;,
  4;26,25,13,14;,
  4;27,45,44,46;,
  4;27,26,14,15;,
  4;20,38,45,27;,
  4;20,27,15,8;,
  4;47,48,48,47;,
  4;48,49,49,48;,
  4;49,50,50,49;,
  4;50,51,51,50;,
  4;51,52,52,51;,
  4;52,53,53,52;,
  4;55,54,54,55;,
  4;54,56,56,54;,
  4;57,58,58,59;,
  3;59,60,61;,
  4;62,57,59,61;,
  3;62,61,63;,
  4;64,65,65,64;,
  4;65,66,66,65;,
  4;66,67,67,66;,
  4;67,68,68,67;,
  4;68,69,69,68;,
  4;69,70,70,69;,
  4;72,71,71,72;,
  4;71,73,73,71;,
  4;74,75,75,76;,
  3;76,77,78;,
  4;79,74,76,78;,
  3;79,78,80;,
  4;64,65,65,64;,
  4;65,66,66,65;,
  4;66,67,67,66;,
  4;67,68,68,67;,
  4;68,69,69,68;,
  4;69,70,70,69;,
  4;72,71,71,72;,
  4;71,73,73,71;,
  4;74,75,75,76;,
  3;76,77,78;,
  4;79,74,76,78;,
  3;79,78,80;;
 }
 MeshTextureCoords {
  90;
  0.500000;0.000000;,
  0.500000;0.125000;,
  0.625000;0.125000;,
  0.625000;0.000000;,
  0.500000;0.250000;,
  0.625000;0.250000;,
  0.500000;0.375000;,
  0.625000;0.375000;,
  0.500000;0.500000;,
  0.625000;0.500000;,
  0.500000;0.625000;,
  0.625000;0.625000;,
  0.500000;0.750000;,
  0.625000;0.750000;,
  0.500000;0.875000;,
  0.625000;0.875000;,
  0.500000;1.000000;,
  0.625000;1.000000;,
  0.750000;0.250000;,
  0.750000;0.375000;,
  0.750000;0.500000;,
  0.750000;0.625000;,
  0.750000;0.125000;,
  0.750000;0.750000;,
  0.750000;0.875000;,
  0.750000;0.000000;,
  0.667680;0.125000;,
  0.668170;0.000000;,
  0.667960;0.250000;,
  0.668990;0.375000;,
  0.667990;0.500000;,
  0.669100;0.625000;,
  0.667960;0.750000;,
  0.667340;0.875000;,
  0.668170;1.000000;,
  0.750000;1.000000;,
  0.500000;0.000000;,
  0.500000;0.125000;,
  0.625000;0.125000;,
  0.625000;0.000000;,
  0.500000;0.250000;,
  0.625000;0.250000;,
  0.500000;0.375000;,
  0.625000;0.375000;,
  0.500000;0.500000;,
  0.625000;0.500000;,
  0.500000;0.625000;,
  0.625000;0.625000;,
  0.500000;0.750000;,
  0.625000;0.750000;,
  0.500000;0.875000;,
  0.625000;0.875000;,
  0.500000;1.000000;,
  0.625000;1.000000;,
  0.500000;0.000000;,
  0.500000;0.125000;,
  0.625000;0.125000;,
  0.625000;0.000000;,
  0.500000;0.250000;,
  0.625000;0.250000;,
  0.500000;0.375000;,
  0.625000;0.375000;,
  0.500000;0.500000;,
  0.625000;0.500000;,
  0.500000;0.625000;,
  0.625000;0.625000;,
  0.500000;0.750000;,
  0.625000;0.750000;,
  0.500000;0.875000;,
  0.625000;0.875000;,
  0.500000;1.000000;,
  0.625000;1.000000;,
  0.500000;0.000000;,
  0.500000;0.125000;,
  0.625000;0.125000;,
  0.625000;0.000000;,
  0.500000;0.250000;,
  0.625000;0.250000;,
  0.500000;0.375000;,
  0.625000;0.375000;,
  0.500000;0.500000;,
  0.625000;0.500000;,
  0.500000;0.625000;,
  0.625000;0.625000;,
  0.500000;0.750000;,
  0.625000;0.750000;,
  0.500000;0.875000;,
  0.625000;0.875000;,
  0.500000;1.000000;,
  0.625000;1.000000;;
 }
 MeshVertexColors {
  90;
  0;1.000000;1.000000;1.000000;1.000000;,
  1;1.000000;1.000000;1.000000;1.000000;,
  2;1.000000;1.000000;1.000000;1.000000;,
  3;1.000000;1.000000;1.000000;1.000000;,
  4;1.000000;1.000000;1.000000;1.000000;,
  5;1.000000;1.000000;1.000000;1.000000;,
  6;1.000000;1.000000;1.000000;1.000000;,
  7;1.000000;1.000000;1.000000;1.000000;,
  8;1.000000;1.000000;1.000000;1.000000;,
  9;1.000000;1.000000;1.000000;1.000000;,
  10;1.000000;1.000000;1.000000;1.000000;,
  11;1.000000;1.000000;1.000000;1.000000;,
  12;1.000000;1.000000;1.000000;1.000000;,
  13;1.000000;1.000000;1.000000;1.000000;,
  14;1.000000;1.000000;1.000000;1.000000;,
  15;1.000000;1.000000;1.000000;1.000000;,
  16;1.000000;1.000000;1.000000;1.000000;,
  17;1.000000;1.000000;1.000000;1.000000;,
  18;1.000000;1.000000;1.000000;1.000000;,
  19;1.000000;1.000000;1.000000;1.000000;,
  20;1.000000;1.000000;1.000000;1.000000;,
  21;1.000000;1.000000;1.000000;1.000000;,
  22;1.000000;1.000000;1.000000;1.000000;,
  23;1.000000;1.000000;1.000000;1.000000;,
  24;1.000000;1.000000;1.000000;1.000000;,
  25;1.000000;1.000000;1.000000;1.000000;,
  26;1.000000;1.000000;1.000000;1.000000;,
  27;1.000000;1.000000;1.000000;1.000000;,
  28;1.000000;1.000000;1.000000;1.000000;,
  29;1.000000;1.000000;1.000000;1.000000;,
  30;1.000000;1.000000;1.000000;1.000000;,
  31;1.000000;1.000000;1.000000;1.000000;,
  32;1.000000;1.000000;1.000000;1.000000;,
  33;1.000000;1.000000;1.000000;1.000000;,
  34;1.000000;1.000000;1.000000;1.000000;,
  35;1.000000;1.000000;1.000000;1.000000;,
  36;1.000000;1.000000;1.000000;1.000000;,
  37;1.000000;1.000000;1.000000;1.000000;,
  38;1.000000;1.000000;1.000000;1.000000;,
  39;1.000000;1.000000;1.000000;1.000000;,
  40;1.000000;1.000000;1.000000;1.000000;,
  41;1.000000;1.000000;1.000000;1.000000;,
  42;1.000000;1.000000;1.000000;1.000000;,
  43;1.000000;1.000000;1.000000;1.000000;,
  44;1.000000;1.000000;1.000000;1.000000;,
  45;1.000000;1.000000;1.000000;1.000000;,
  46;1.000000;1.000000;1.000000;1.000000;,
  47;1.000000;1.000000;1.000000;1.000000;,
  48;1.000000;1.000000;1.000000;1.000000;,
  49;1.000000;1.000000;1.000000;1.000000;,
  50;1.000000;1.000000;1.000000;1.000000;,
  51;1.000000;1.000000;1.000000;1.000000;,
  52;1.000000;1.000000;1.000000;1.000000;,
  53;1.000000;1.000000;1.000000;1.000000;,
  54;1.000000;1.000000;1.000000;1.000000;,
  55;1.000000;1.000000;1.000000;1.000000;,
  56;1.000000;1.000000;1.000000;1.000000;,
  57;1.000000;1.000000;1.000000;1.000000;,
  58;1.000000;1.000000;1.000000;1.000000;,
  59;1.000000;1.000000;1.000000;1.000000;,
  60;1.000000;1.000000;1.000000;1.000000;,
  61;1.000000;1.000000;1.000000;1.000000;,
  62;1.000000;1.000000;1.000000;1.000000;,
  63;1.000000;1.000000;1.000000;1.000000;,
  64;1.000000;1.000000;1.000000;1.000000;,
  65;1.000000;1.000000;1.000000;1.000000;,
  66;1.000000;1.000000;1.000000;1.000000;,
  67;1.000000;1.000000;1.000000;1.000000;,
  68;1.000000;1.000000;1.000000;1.000000;,
  69;1.000000;1.000000;1.000000;1.000000;,
  70;1.000000;1.000000;1.000000;1.000000;,
  71;1.000000;1.000000;1.000000;1.000000;,
  72;1.000000;1.000000;1.000000;1.000000;,
  73;1.000000;1.000000;1.000000;1.000000;,
  74;1.000000;1.000000;1.000000;1.000000;,
  75;1.000000;1.000000;1.000000;1.000000;,
  76;1.000000;1.000000;1.000000;1.000000;,
  77;1.000000;1.000000;1.000000;1.000000;,
  78;1.000000;1.000000;1.000000;1.000000;,
  79;1.000000;1.000000;1.000000;1.000000;,
  80;1.000000;1.000000;1.000000;1.000000;,
  81;1.000000;1.000000;1.000000;1.000000;,
  82;1.000000;1.000000;1.000000;1.000000;,
  83;1.000000;1.000000;1.000000;1.000000;,
  84;1.000000;1.000000;1.000000;1.000000;,
  85;1.000000;1.000000;1.000000;1.000000;,
  86;1.000000;1.000000;1.000000;1.000000;,
  87;1.000000;1.000000;1.000000;1.000000;,
  88;1.000000;1.000000;1.000000;1.000000;,
  89;1.000000;1.000000;1.000000;1.000000;;
 }
}
