xof 0302txt 0064
template Header {
 <3D82AB43-62DA-11cf-AB39-0020AF71E433>
 WORD major;
 WORD minor;
 DWORD flags;
}

template Vector {
 <3D82AB5E-62DA-11cf-AB39-0020AF71E433>
 FLOAT x;
 FLOAT y;
 FLOAT z;
}

template Coords2d {
 <F6F23F44-7686-11cf-8F52-0040333594A3>
 FLOAT u;
 FLOAT v;
}

template Matrix4x4 {
 <F6F23F45-7686-11cf-8F52-0040333594A3>
 array FLOAT matrix[16];
}

template ColorRGBA {
 <35FF44E0-6C7C-11cf-8F52-0040333594A3>
 FLOAT red;
 FLOAT green;
 FLOAT blue;
 FLOAT alpha;
}

template ColorRGB {
 <D3E16E81-7835-11cf-8F52-0040333594A3>
 FLOAT red;
 FLOAT green;
 FLOAT blue;
}

template IndexedColor {
 <1630B820-7842-11cf-8F52-0040333594A3>
 DWORD index;
 ColorRGBA indexColor;
}

template Boolean {
 <4885AE61-78E8-11cf-8F52-0040333594A3>
 WORD truefalse;
}

template Boolean2d {
 <4885AE63-78E8-11cf-8F52-0040333594A3>
 Boolean u;
 Boolean v;
}

template MaterialWrap {
 <4885AE60-78E8-11cf-8F52-0040333594A3>
 Boolean u;
 Boolean v;
}

template TextureFilename {
 <A42790E1-7810-11cf-8F52-0040333594A3>
 STRING filename;
}

template Material {
 <3D82AB4D-62DA-11cf-AB39-0020AF71E433>
 ColorRGBA faceColor;
 FLOAT power;
 ColorRGB specularColor;
 ColorRGB emissiveColor;
 [...]
}

template MeshFace {
 <3D82AB5F-62DA-11cf-AB39-0020AF71E433>
 DWORD nFaceVertexIndices;
 array DWORD faceVertexIndices[nFaceVertexIndices];
}

template MeshFaceWraps {
 <4885AE62-78E8-11cf-8F52-0040333594A3>
 DWORD nFaceWrapValues;
 Boolean2d faceWrapValues;
}

template MeshTextureCoords {
 <F6F23F40-7686-11cf-8F52-0040333594A3>
 DWORD nTextureCoords;
 array Coords2d textureCoords[nTextureCoords];
}

template MeshMaterialList {
 <F6F23F42-7686-11cf-8F52-0040333594A3>
 DWORD nMaterials;
 DWORD nFaceIndexes;
 array DWORD faceIndexes[nFaceIndexes];
 [Material]
}

template MeshNormals {
 <F6F23F43-7686-11cf-8F52-0040333594A3>
 DWORD nNormals;
 array Vector normals[nNormals];
 DWORD nFaceNormals;
 array MeshFace faceNormals[nFaceNormals];
}

template MeshVertexColors {
 <1630B821-7842-11cf-8F52-0040333594A3>
 DWORD nVertexColors;
 array IndexedColor vertexColors[nVertexColors];
}

template Mesh {
 <3D82AB44-62DA-11cf-AB39-0020AF71E433>
 DWORD nVertices;
 array Vector vertices[nVertices];
 DWORD nFaces;
 array MeshFace faces[nFaces];
 [...]
}

Header{
1;
0;
1;
}

Mesh {
 60;
 0.38860;0.39607;0.16122;,
 0.38860;0.39607;-0.16131;,
 0.38860;0.40841;-0.14699;,
 0.38860;0.40841;0.14690;,
 0.38860;0.36091;-0.17346;,
 0.38860;0.36091;0.17337;,
 0.38860;0.30828;0.18148;,
 0.38860;0.30828;-0.18157;,
 0.38860;0.24621;-0.18442;,
 0.38860;0.24621;0.18433;,
 0.38860;0.21684;0.18433;,
 0.38860;0.21684;-0.18442;,
 0.01249;-0.39835;0.18433;,
 0.01249;-0.39835;-0.18442;,
 -0.38866;0.39607;0.16122;,
 -0.38866;0.40841;0.14690;,
 -0.38866;0.40841;-0.14699;,
 -0.38866;0.39607;-0.16131;,
 -0.38866;0.36091;-0.17346;,
 -0.38866;0.36091;0.17337;,
 -0.38866;0.30828;-0.18157;,
 -0.38866;0.30828;0.18148;,
 -0.38866;0.27727;-0.18300;,
 -0.38866;0.27727;0.18291;,
 -0.37022;0.24621;-0.18442;,
 -0.37022;0.24621;0.18433;,
 -0.38866;0.40841;0.14690;,
 0.38860;0.40841;0.14690;,
 0.38860;0.40841;-0.14699;,
 -0.38866;0.40841;-0.14699;,
 -0.38866;0.40841;-0.14699;,
 0.38860;0.40841;-0.14699;,
 0.38860;0.39607;-0.16131;,
 -0.38866;0.39607;-0.16131;,
 0.38860;0.36091;-0.17346;,
 -0.38866;0.36091;-0.17346;,
 0.38860;0.30828;-0.18157;,
 -0.38866;0.30828;-0.18157;,
 -0.38866;0.39607;0.16122;,
 0.38860;0.39607;0.16122;,
 0.38860;0.40841;0.14690;,
 -0.38866;0.36091;0.17337;,
 0.38860;0.36091;0.17337;,
 -0.38866;0.30828;0.18148;,
 0.38860;0.30828;0.18148;,
 -0.37022;0.24621;-0.18442;,
 -0.38866;0.27727;-0.18300;,
 0.38860;0.24621;-0.18442;,
 -0.38866;0.27727;0.18291;,
 -0.37022;0.24621;0.18433;,
 0.38860;0.24621;0.18433;,
 -0.36980;0.24550;-0.18442;,
 0.38860;0.21684;-0.18442;,
 0.01249;-0.39835;-0.18442;,
 -0.37022;0.24621;-0.18442;,
 0.38860;0.24621;-0.18442;,
 0.01249;-0.39835;0.18433;,
 0.38860;0.21684;0.18433;,
 0.38860;0.24621;0.18433;,
 -0.37022;0.24621;0.18433;;
 
 26;
 4;0,1,2,3;,
 4;4,1,0,5;,
 4;5,6,7,4;,
 4;8,7,6,9;,
 4;9,10,11,8;,
 4;10,12,13,11;,
 4;14,15,16,17;,
 4;18,19,14,17;,
 4;19,18,20,21;,
 4;20,22,23,21;,
 4;22,24,25,23;,
 4;24,13,12,25;,
 4;26,27,28,29;,
 4;30,31,32,33;,
 4;33,32,34,35;,
 4;35,34,36,37;,
 4;38,39,40,26;,
 4;41,42,39,38;,
 4;43,44,42,41;,
 4;45,46,37,36;,
 3;45,36,47;,
 4;48,49,50,44;,
 3;48,44,43;,
 3;51,52,53;,
 4;51,54,55,52;,
 4;56,57,58,59;;
 
 MeshMaterialList {
  1;
  26;
  0,
  0,
  0,
  0,
  0,
  0,
  0,
  0,
  0,
  0,
  0,
  0,
  0,
  0,
  0,
  0,
  0,
  0,
  0,
  0,
  0,
  0,
  0,
  0,
  0,
  0;;
  Material {
   0.800000;0.800000;0.800000;1.000000;;
   5.000000;
   0.000000;0.000000;0.000000;;
   0.000000;0.000000;0.000000;;
   TextureFilename {
    "Data\\Graphics\\XFileTexture\\hibi.png";
   }
  }
 }
 MeshNormals {
  24;
  1.000000;0.000000;0.000000;,
  0.962596;-0.270941;-0.000000;,
  0.853182;-0.521613;-0.000000;,
  -1.000000;0.000000;0.000000;,
  -0.964328;-0.264709;0.000000;,
  -0.859856;-0.510536;0.000000;,
  0.000000;0.937401;0.348251;,
  0.000000;0.937401;-0.348251;,
  0.000000;0.022931;-0.999737;,
  0.000000;0.022928;0.999737;,
  0.000000;0.561313;-0.827604;,
  0.000000;0.240394;-0.970675;,
  0.000000;0.099264;-0.995061;,
  0.000000;0.081468;-0.996676;,
  0.000000;0.561313;0.827604;,
  0.000000;0.240395;0.970675;,
  0.000000;0.099269;0.995061;,
  0.000000;0.081470;0.996676;,
  0.000000;0.000000;-1.000000;,
  0.000000;0.000000;1.000000;,
  0.000000;0.030574;-0.999533;,
  0.000000;0.045850;-0.998948;,
  0.000000;0.045852;0.998948;,
  -0.859854;-0.510540;0.000000;;
  26;
  4;0,0,0,0;,
  4;0,0,0,0;,
  4;0,0,0,0;,
  4;0,0,0,0;,
  4;0,1,1,0;,
  4;1,2,2,1;,
  4;3,3,3,3;,
  4;3,3,3,3;,
  4;3,3,3,3;,
  4;3,4,4,3;,
  4;4,5,5,4;,
  4;5,23,23,5;,
  4;6,6,7,7;,
  4;7,7,10,10;,
  4;10,10,11,11;,
  4;11,11,13,12;,
  4;14,14,6,6;,
  4;15,15,14,14;,
  4;16,17,15,15;,
  4;20,21,12,13;,
  3;20,13,8;,
  4;22,9,9,17;,
  3;22,17,16;,
  3;18,18,18;,
  4;18,20,8,18;,
  4;19,19,9,9;;
 }
 MeshTextureCoords {
  60;
  0.000000;0.000000;,
  0.000000;0.000000;,
  0.000000;0.000000;,
  0.000000;0.000000;,
  0.000000;0.000000;,
  0.000000;0.000000;,
  0.000000;0.000000;,
  0.000000;0.000000;,
  0.000000;0.000000;,
  0.000000;0.000000;,
  0.000000;0.000000;,
  0.000000;0.000000;,
  0.000000;0.000000;,
  0.000000;0.000000;,
  0.000000;0.000000;,
  0.000000;0.000000;,
  0.000000;0.000000;,
  0.000000;0.000000;,
  0.000000;0.000000;,
  0.000000;0.000000;,
  0.000000;0.000000;,
  0.000000;0.000000;,
  0.000000;0.000000;,
  0.000000;0.000000;,
  0.000000;0.000000;,
  0.000000;0.000000;,
  0.000000;0.000000;,
  1.000000;0.000000;,
  1.000000;1.000000;,
  0.000000;1.000000;,
  0.000000;0.000000;,
  0.000000;0.000000;,
  0.000000;0.000000;,
  0.000000;0.000000;,
  0.000000;0.000000;,
  0.000000;0.000000;,
  0.000000;0.000000;,
  0.000000;0.000000;,
  0.000000;0.000000;,
  0.000000;0.000000;,
  0.000000;0.000000;,
  0.000000;0.000000;,
  0.000000;0.000000;,
  0.000000;0.000000;,
  0.000000;0.000000;,
  0.000000;0.000000;,
  0.000000;0.000000;,
  0.000000;0.000000;,
  0.000000;0.000000;,
  0.000000;0.000000;,
  0.000000;0.000000;,
  0.024270;0.000560;,
  1.000000;0.023070;,
  0.516110;0.506130;,
  0.023720;0.000000;,
  1.000000;0.000000;,
  0.516110;0.493870;,
  1.000000;0.976930;,
  1.000000;1.000000;,
  0.023720;1.000000;;
 }
 MeshVertexColors {
  60;
  0;1.000000;1.000000;1.000000;1.000000;,
  1;1.000000;1.000000;1.000000;1.000000;,
  2;1.000000;1.000000;1.000000;1.000000;,
  3;1.000000;1.000000;1.000000;1.000000;,
  4;1.000000;1.000000;1.000000;1.000000;,
  5;1.000000;1.000000;1.000000;1.000000;,
  6;1.000000;1.000000;1.000000;1.000000;,
  7;1.000000;1.000000;1.000000;1.000000;,
  8;1.000000;1.000000;1.000000;1.000000;,
  9;1.000000;1.000000;1.000000;1.000000;,
  10;1.000000;1.000000;1.000000;1.000000;,
  11;1.000000;1.000000;1.000000;1.000000;,
  12;1.000000;1.000000;1.000000;1.000000;,
  13;1.000000;1.000000;1.000000;1.000000;,
  14;1.000000;1.000000;1.000000;1.000000;,
  15;1.000000;1.000000;1.000000;1.000000;,
  16;1.000000;1.000000;1.000000;1.000000;,
  17;1.000000;1.000000;1.000000;1.000000;,
  18;1.000000;1.000000;1.000000;1.000000;,
  19;1.000000;1.000000;1.000000;1.000000;,
  20;1.000000;1.000000;1.000000;1.000000;,
  21;1.000000;1.000000;1.000000;1.000000;,
  22;1.000000;1.000000;1.000000;1.000000;,
  23;1.000000;1.000000;1.000000;1.000000;,
  24;1.000000;1.000000;1.000000;1.000000;,
  25;1.000000;1.000000;1.000000;1.000000;,
  26;1.000000;1.000000;1.000000;1.000000;,
  27;1.000000;1.000000;1.000000;1.000000;,
  28;1.000000;1.000000;1.000000;1.000000;,
  29;1.000000;1.000000;1.000000;1.000000;,
  30;1.000000;1.000000;1.000000;1.000000;,
  31;1.000000;1.000000;1.000000;1.000000;,
  32;1.000000;1.000000;1.000000;1.000000;,
  33;1.000000;1.000000;1.000000;1.000000;,
  34;1.000000;1.000000;1.000000;1.000000;,
  35;1.000000;1.000000;1.000000;1.000000;,
  36;1.000000;1.000000;1.000000;1.000000;,
  37;1.000000;1.000000;1.000000;1.000000;,
  38;1.000000;1.000000;1.000000;1.000000;,
  39;1.000000;1.000000;1.000000;1.000000;,
  40;1.000000;1.000000;1.000000;1.000000;,
  41;1.000000;1.000000;1.000000;1.000000;,
  42;1.000000;1.000000;1.000000;1.000000;,
  43;1.000000;1.000000;1.000000;1.000000;,
  44;1.000000;1.000000;1.000000;1.000000;,
  45;1.000000;1.000000;1.000000;1.000000;,
  46;1.000000;1.000000;1.000000;1.000000;,
  47;1.000000;1.000000;1.000000;1.000000;,
  48;1.000000;1.000000;1.000000;1.000000;,
  49;1.000000;1.000000;1.000000;1.000000;,
  50;1.000000;1.000000;1.000000;1.000000;,
  51;1.000000;1.000000;1.000000;1.000000;,
  52;1.000000;1.000000;1.000000;1.000000;,
  53;1.000000;1.000000;1.000000;1.000000;,
  54;1.000000;1.000000;1.000000;1.000000;,
  55;1.000000;1.000000;1.000000;1.000000;,
  56;1.000000;1.000000;1.000000;1.000000;,
  57;1.000000;1.000000;1.000000;1.000000;,
  58;1.000000;1.000000;1.000000;1.000000;,
  59;1.000000;1.000000;1.000000;1.000000;;
 }
}
