xof 0302txt 0064
template Header {
 <3D82AB43-62DA-11cf-AB39-0020AF71E433>
 WORD major;
 WORD minor;
 DWORD flags;
}

template Vector {
 <3D82AB5E-62DA-11cf-AB39-0020AF71E433>
 FLOAT x;
 FLOAT y;
 FLOAT z;
}

template Coords2d {
 <F6F23F44-7686-11cf-8F52-0040333594A3>
 FLOAT u;
 FLOAT v;
}

template Matrix4x4 {
 <F6F23F45-7686-11cf-8F52-0040333594A3>
 array FLOAT matrix[16];
}

template ColorRGBA {
 <35FF44E0-6C7C-11cf-8F52-0040333594A3>
 FLOAT red;
 FLOAT green;
 FLOAT blue;
 FLOAT alpha;
}

template ColorRGB {
 <D3E16E81-7835-11cf-8F52-0040333594A3>
 FLOAT red;
 FLOAT green;
 FLOAT blue;
}

template IndexedColor {
 <1630B820-7842-11cf-8F52-0040333594A3>
 DWORD index;
 ColorRGBA indexColor;
}

template Boolean {
 <4885AE61-78E8-11cf-8F52-0040333594A3>
 WORD truefalse;
}

template Boolean2d {
 <4885AE63-78E8-11cf-8F52-0040333594A3>
 Boolean u;
 Boolean v;
}

template MaterialWrap {
 <4885AE60-78E8-11cf-8F52-0040333594A3>
 Boolean u;
 Boolean v;
}

template TextureFilename {
 <A42790E1-7810-11cf-8F52-0040333594A3>
 STRING filename;
}

template Material {
 <3D82AB4D-62DA-11cf-AB39-0020AF71E433>
 ColorRGBA faceColor;
 FLOAT power;
 ColorRGB specularColor;
 ColorRGB emissiveColor;
 [...]
}

template MeshFace {
 <3D82AB5F-62DA-11cf-AB39-0020AF71E433>
 DWORD nFaceVertexIndices;
 array DWORD faceVertexIndices[nFaceVertexIndices];
}

template MeshFaceWraps {
 <4885AE62-78E8-11cf-8F52-0040333594A3>
 DWORD nFaceWrapValues;
 Boolean2d faceWrapValues;
}

template MeshTextureCoords {
 <F6F23F40-7686-11cf-8F52-0040333594A3>
 DWORD nTextureCoords;
 array Coords2d textureCoords[nTextureCoords];
}

template MeshMaterialList {
 <F6F23F42-7686-11cf-8F52-0040333594A3>
 DWORD nMaterials;
 DWORD nFaceIndexes;
 array DWORD faceIndexes[nFaceIndexes];
 [Material]
}

template MeshNormals {
 <F6F23F43-7686-11cf-8F52-0040333594A3>
 DWORD nNormals;
 array Vector normals[nNormals];
 DWORD nFaceNormals;
 array MeshFace faceNormals[nFaceNormals];
}

template MeshVertexColors {
 <1630B821-7842-11cf-8F52-0040333594A3>
 DWORD nVertexColors;
 array IndexedColor vertexColors[nVertexColors];
}

template Mesh {
 <3D82AB44-62DA-11cf-AB39-0020AF71E433>
 DWORD nVertices;
 array Vector vertices[nVertices];
 DWORD nFaces;
 array MeshFace faces[nFaces];
 [...]
}

Header{
1;
0;
1;
}

Mesh {
 463;
 0.00000;1.00000;0.00000;,
 0.04834;0.98769;-0.14878;,
 0.00000;0.98769;-0.15643;,
 0.00000;1.00000;0.00000;,
 0.09195;0.98769;-0.12656;,
 0.00000;1.00000;0.00000;,
 0.12656;0.98769;-0.09195;,
 0.00000;1.00000;0.00000;,
 0.14878;0.98769;-0.04834;,
 0.00000;1.00000;0.00000;,
 0.15643;0.98769;0.00000;,
 0.00000;1.00000;0.00000;,
 0.14878;0.98769;0.04834;,
 0.00000;1.00000;0.00000;,
 0.12656;0.98769;0.09195;,
 0.00000;1.00000;0.00000;,
 0.09195;0.98769;0.12656;,
 0.00000;1.00000;0.00000;,
 0.04834;0.98769;0.14878;,
 0.00000;1.00000;0.00000;,
 0.00000;0.98769;0.15643;,
 0.00000;1.00000;0.00000;,
 -0.04834;0.98769;0.14878;,
 0.00000;1.00000;0.00000;,
 -0.09195;0.98769;0.12656;,
 0.00000;1.00000;0.00000;,
 -0.12656;0.98769;0.09195;,
 0.00000;1.00000;0.00000;,
 -0.14878;0.98769;0.04834;,
 0.00000;1.00000;0.00000;,
 -0.15643;0.98769;0.00000;,
 0.00000;1.00000;0.00000;,
 -0.14878;0.98769;-0.04834;,
 0.00000;1.00000;0.00000;,
 -0.12656;0.98769;-0.09195;,
 -0.14878;0.98769;-0.04834;,
 0.00000;1.00000;0.00000;,
 -0.09195;0.98769;-0.12656;,
 0.00000;1.00000;0.00000;,
 -0.04834;0.98769;-0.14878;,
 -0.09195;0.98769;-0.12656;,
 0.00000;1.00000;0.00000;,
 0.00000;0.98769;-0.15643;,
 0.09549;0.95106;-0.29389;,
 0.00000;0.95106;-0.30902;,
 0.18164;0.95106;-0.25000;,
 0.25000;0.95106;-0.18164;,
 0.29389;0.95106;-0.09549;,
 0.30902;0.95106;0.00000;,
 0.29389;0.95106;0.09549;,
 0.25000;0.95106;0.18164;,
 0.18164;0.95106;0.25000;,
 0.09549;0.95106;0.29389;,
 0.00000;0.95106;0.30902;,
 -0.09549;0.95106;0.29389;,
 -0.18164;0.95106;0.25000;,
 -0.25000;0.95106;0.18164;,
 -0.29389;0.95106;0.09549;,
 -0.30902;0.95106;0.00000;,
 -0.29389;0.95106;-0.09549;,
 -0.12656;0.98769;-0.09195;,
 -0.25000;0.95106;-0.18164;,
 -0.18164;0.95106;-0.25000;,
 -0.09549;0.95106;-0.29389;,
 0.00000;0.95106;-0.30902;,
 0.14029;0.89101;-0.43177;,
 0.00000;0.89101;-0.45399;,
 0.26685;0.89101;-0.36729;,
 0.36729;0.89101;-0.26685;,
 0.43177;0.89101;-0.14029;,
 0.45399;0.89101;0.00000;,
 0.43177;0.89101;0.14029;,
 0.36729;0.89101;0.26685;,
 0.26685;0.89101;0.36729;,
 0.14029;0.89101;0.43177;,
 0.00000;0.89101;0.45399;,
 -0.14029;0.89101;0.43177;,
 -0.26685;0.89101;0.36729;,
 -0.36729;0.89101;0.26685;,
 -0.43177;0.89101;0.14029;,
 -0.45399;0.89101;0.00000;,
 -0.43177;0.89101;-0.14029;,
 -0.36729;0.89101;-0.26685;,
 -0.26685;0.89101;-0.36729;,
 -0.14029;0.89101;-0.43177;,
 0.00000;0.89101;-0.45399;,
 0.18164;0.80902;-0.55902;,
 0.00000;0.80902;-0.58779;,
 0.34549;0.80902;-0.47553;,
 0.47553;0.80902;-0.34549;,
 0.55902;0.80902;-0.18164;,
 0.58779;0.80902;0.00000;,
 0.55902;0.80902;0.18164;,
 0.47553;0.80902;0.34549;,
 0.34549;0.80902;0.47553;,
 0.18164;0.80902;0.55902;,
 0.00000;0.80902;0.58779;,
 -0.18164;0.80902;0.55902;,
 -0.34549;0.80902;0.47553;,
 -0.47553;0.80902;0.34549;,
 -0.55902;0.80902;0.18164;,
 -0.58779;0.80902;0.00000;,
 -0.55902;0.80902;-0.18164;,
 -0.47553;0.80902;-0.34549;,
 -0.34549;0.80902;-0.47553;,
 -0.18164;0.80902;-0.55902;,
 0.00000;0.80902;-0.58779;,
 0.21851;0.70711;-0.67250;,
 0.00000;0.70711;-0.70711;,
 0.41563;0.70711;-0.57206;,
 0.57206;0.70711;-0.41563;,
 0.67250;0.70711;-0.21851;,
 0.70711;0.70711;0.00000;,
 0.67250;0.70711;0.21851;,
 0.57206;0.70711;0.41563;,
 0.41563;0.70711;0.57206;,
 0.21851;0.70711;0.67250;,
 0.00000;0.70711;0.70711;,
 -0.21851;0.70711;0.67250;,
 -0.41563;0.70711;0.57206;,
 -0.57206;0.70711;0.41563;,
 -0.67250;0.70711;0.21851;,
 -0.70711;0.70711;0.00000;,
 -0.67250;0.70711;-0.21851;,
 -0.57206;0.70711;-0.41563;,
 -0.41563;0.70711;-0.57206;,
 -0.21851;0.70711;-0.67250;,
 0.00000;0.70711;-0.70711;,
 0.25000;0.58779;-0.76942;,
 0.00000;0.58779;-0.80902;,
 0.47553;0.58779;-0.65451;,
 0.65451;0.58779;-0.47553;,
 0.76942;0.58779;-0.25000;,
 0.80902;0.58779;0.00000;,
 0.76942;0.58779;0.25000;,
 0.65451;0.58779;0.47553;,
 0.47553;0.58779;0.65451;,
 0.25000;0.58779;0.76942;,
 0.00000;0.58779;0.80902;,
 -0.25000;0.58779;0.76942;,
 -0.47553;0.58779;0.65451;,
 -0.65451;0.58779;0.47553;,
 -0.76942;0.58779;0.25000;,
 -0.80902;0.58779;0.00000;,
 -0.76942;0.58779;-0.25000;,
 -0.65451;0.58779;-0.47553;,
 -0.47553;0.58779;-0.65451;,
 -0.25000;0.58779;-0.76942;,
 0.00000;0.58779;-0.80902;,
 0.27534;0.45399;-0.84740;,
 0.00000;0.45399;-0.89101;,
 0.52372;0.45399;-0.72084;,
 0.72084;0.45399;-0.52372;,
 0.84740;0.45399;-0.27534;,
 0.89101;0.45399;0.00000;,
 0.84740;0.45399;0.27534;,
 0.72084;0.45399;0.52372;,
 0.52372;0.45399;0.72084;,
 0.27534;0.45399;0.84740;,
 0.00000;0.45399;0.89101;,
 -0.27534;0.45399;0.84740;,
 -0.52372;0.45399;0.72084;,
 -0.72084;0.45399;0.52372;,
 -0.84740;0.45399;0.27534;,
 -0.89101;0.45399;0.00000;,
 -0.84740;0.45399;-0.27534;,
 -0.72084;0.45399;-0.52372;,
 -0.52372;0.45399;-0.72084;,
 -0.27534;0.45399;-0.84740;,
 0.00000;0.45399;-0.89101;,
 0.29389;0.30902;-0.90451;,
 0.00000;0.30902;-0.95106;,
 0.55902;0.30902;-0.76942;,
 0.76942;0.30902;-0.55902;,
 0.90451;0.30902;-0.29389;,
 0.95106;0.30902;0.00000;,
 0.90451;0.30902;0.29389;,
 0.76942;0.30902;0.55902;,
 0.55902;0.30902;0.76942;,
 0.29389;0.30902;0.90451;,
 0.00000;0.30902;0.95106;,
 -0.29389;0.30902;0.90451;,
 -0.55902;0.30902;0.76942;,
 -0.76942;0.30902;0.55902;,
 -0.90451;0.30902;0.29389;,
 -0.95106;0.30902;0.00000;,
 -0.90451;0.30902;-0.29389;,
 -0.76942;0.30902;-0.55902;,
 -0.55902;0.30902;-0.76942;,
 -0.29389;0.30902;-0.90451;,
 0.00000;0.30902;-0.95106;,
 0.30521;0.15643;-0.93935;,
 0.00000;0.15643;-0.98769;,
 0.58055;0.15643;-0.79906;,
 0.79906;0.15643;-0.58055;,
 0.93935;0.15643;-0.30521;,
 0.98769;0.15643;0.00000;,
 0.93935;0.15643;0.30521;,
 0.79906;0.15643;0.58055;,
 0.58055;0.15643;0.79906;,
 0.30521;0.15643;0.93935;,
 0.00000;0.15643;0.98769;,
 -0.30521;0.15643;0.93935;,
 -0.58055;0.15643;0.79906;,
 -0.79906;0.15643;0.58055;,
 -0.93935;0.15643;0.30521;,
 -0.98769;0.15643;0.00000;,
 -0.93935;0.15643;-0.30521;,
 -0.79906;0.15643;-0.58055;,
 -0.58055;0.15643;-0.79906;,
 -0.30521;0.15643;-0.93935;,
 0.00000;0.15643;-0.98769;,
 0.30902;0.00000;-0.95106;,
 0.00000;0.00000;-1.00000;,
 0.30521;0.15643;-0.93935;,
 0.58055;0.15643;-0.79906;,
 0.58779;0.00000;-0.80902;,
 0.30902;0.00000;-0.95106;,
 0.80902;0.00000;-0.58779;,
 0.58779;0.00000;-0.80902;,
 0.95106;0.00000;-0.30902;,
 1.00000;0.00000;0.00000;,
 0.95106;0.00000;0.30902;,
 0.80902;0.00000;0.58779;,
 0.58779;0.00000;0.80902;,
 0.30902;0.00000;0.95106;,
 0.00000;0.00000;1.00000;,
 -0.30902;0.00000;0.95106;,
 -0.58779;0.00000;0.80902;,
 -0.80902;0.00000;0.58779;,
 -0.95106;0.00000;0.30902;,
 -1.00000;0.00000;0.00000;,
 -0.95106;0.00000;-0.30902;,
 -0.80902;0.00000;-0.58779;,
 -0.58779;0.00000;-0.80902;,
 -0.30902;0.00000;-0.95106;,
 0.00000;0.00000;-1.00000;,
 0.00000;0.00000;-1.00000;,
 0.30521;-0.15643;-0.93935;,
 0.00000;-0.15643;-0.98769;,
 0.58055;-0.15643;-0.79906;,
 0.79906;-0.15643;-0.58055;,
 0.58055;-0.15643;-0.79906;,
 0.93935;-0.15643;-0.30521;,
 0.98769;-0.15643;-0.00000;,
 0.93935;-0.15643;0.30521;,
 0.79906;-0.15643;0.58055;,
 0.58055;-0.15643;0.79906;,
 0.30521;-0.15643;0.93935;,
 0.00000;-0.15643;0.98769;,
 -0.30521;-0.15643;0.93935;,
 -0.58055;-0.15643;0.79906;,
 -0.79906;-0.15643;0.58055;,
 -0.93935;-0.15643;0.30521;,
 -0.98769;-0.15643;0.00000;,
 -0.93935;-0.15643;-0.30521;,
 -0.79906;-0.15643;-0.58055;,
 -0.58055;-0.15643;-0.79906;,
 -0.30521;-0.15643;-0.93935;,
 -0.30902;0.00000;-0.95106;,
 0.00000;0.00000;-1.00000;,
 0.00000;-0.15643;-0.98769;,
 -0.30521;-0.15643;-0.93935;,
 0.29389;-0.30902;-0.90451;,
 0.00000;-0.30902;-0.95106;,
 0.30521;-0.15643;-0.93935;,
 0.55902;-0.30902;-0.76942;,
 0.29389;-0.30902;-0.90451;,
 0.76942;-0.30902;-0.55902;,
 0.90451;-0.30902;-0.29389;,
 0.95106;-0.30902;-0.00000;,
 0.90451;-0.30902;0.29389;,
 0.76942;-0.30902;0.55902;,
 0.55902;-0.30902;0.76942;,
 0.29389;-0.30902;0.90451;,
 0.00000;-0.30902;0.95106;,
 -0.29389;-0.30902;0.90451;,
 -0.55902;-0.30902;0.76942;,
 -0.76942;-0.30902;0.55902;,
 -0.90451;-0.30902;0.29389;,
 -0.95106;-0.30902;0.00000;,
 -0.90451;-0.30902;-0.29389;,
 -0.76942;-0.30902;-0.55902;,
 -0.55902;-0.30902;-0.76942;,
 -0.58055;-0.15643;-0.79906;,
 -0.29389;-0.30902;-0.90451;,
 -0.55902;-0.30902;-0.76942;,
 0.00000;-0.30902;-0.95106;,
 0.00000;-0.30902;-0.95106;,
 0.27534;-0.45399;-0.84740;,
 0.00000;-0.45399;-0.89101;,
 0.52372;-0.45399;-0.72084;,
 0.72084;-0.45399;-0.52372;,
 0.84740;-0.45399;-0.27534;,
 0.89101;-0.45399;-0.00000;,
 0.84740;-0.45399;0.27534;,
 0.72084;-0.45399;0.52372;,
 0.52372;-0.45399;0.72084;,
 0.27534;-0.45399;0.84740;,
 0.00000;-0.45399;0.89101;,
 -0.27534;-0.45399;0.84740;,
 -0.52372;-0.45399;0.72084;,
 -0.72084;-0.45399;0.52372;,
 -0.84740;-0.45399;0.27534;,
 -0.89101;-0.45399;0.00000;,
 -0.84740;-0.45399;-0.27534;,
 -0.72084;-0.45399;-0.52372;,
 -0.76942;-0.30902;-0.55902;,
 -0.52372;-0.45399;-0.72084;,
 -0.72084;-0.45399;-0.52372;,
 -0.27534;-0.45399;-0.84740;,
 0.00000;-0.45399;-0.89101;,
 0.25000;-0.58779;-0.76942;,
 0.00000;-0.58779;-0.80902;,
 0.47553;-0.58779;-0.65451;,
 0.65451;-0.58779;-0.47553;,
 0.76942;-0.58779;-0.25000;,
 0.80902;-0.58779;-0.00000;,
 0.76942;-0.58779;0.25000;,
 0.65451;-0.58779;0.47553;,
 0.47553;-0.58779;0.65451;,
 0.25000;-0.58779;0.76942;,
 0.00000;-0.58779;0.80902;,
 -0.25000;-0.58779;0.76942;,
 -0.47553;-0.58779;0.65451;,
 -0.65451;-0.58779;0.47553;,
 -0.76942;-0.58779;0.25000;,
 -0.80902;-0.58779;0.00000;,
 -0.76942;-0.58779;-0.25000;,
 -0.65451;-0.58779;-0.47553;,
 -0.52372;-0.45399;-0.72084;,
 -0.47553;-0.58779;-0.65451;,
 -0.25000;-0.58779;-0.76942;,
 -0.47553;-0.58779;-0.65451;,
 -0.27534;-0.45399;-0.84740;,
 0.00000;-0.45399;-0.89101;,
 0.00000;-0.58779;-0.80902;,
 -0.25000;-0.58779;-0.76942;,
 0.21851;-0.70711;-0.67250;,
 0.00000;-0.70711;-0.70711;,
 0.41563;-0.70711;-0.57206;,
 0.57206;-0.70711;-0.41563;,
 0.67250;-0.70711;-0.21851;,
 0.70711;-0.70711;-0.00000;,
 0.67250;-0.70711;0.21851;,
 0.57206;-0.70711;0.41563;,
 0.41563;-0.70711;0.57206;,
 0.21851;-0.70711;0.67250;,
 0.00000;-0.70711;0.70711;,
 -0.21851;-0.70711;0.67250;,
 -0.41563;-0.70711;0.57206;,
 -0.57206;-0.70711;0.41563;,
 -0.67250;-0.70711;0.21851;,
 -0.70711;-0.70711;0.00000;,
 -0.67250;-0.70711;-0.21851;,
 -0.57206;-0.70711;-0.41563;,
 -0.41563;-0.70711;-0.57206;,
 -0.21851;-0.70711;-0.67250;,
 0.00000;-0.70711;-0.70711;,
 0.18164;-0.80902;-0.55902;,
 0.00000;-0.80902;-0.58779;,
 0.34549;-0.80902;-0.47553;,
 0.47553;-0.80902;-0.34549;,
 0.55902;-0.80902;-0.18164;,
 0.58779;-0.80902;-0.00000;,
 0.55902;-0.80902;0.18164;,
 0.47553;-0.80902;0.34549;,
 0.34549;-0.80902;0.47553;,
 0.18164;-0.80902;0.55902;,
 0.00000;-0.80902;0.58779;,
 -0.18164;-0.80902;0.55902;,
 -0.34549;-0.80902;0.47553;,
 -0.47553;-0.80902;0.34549;,
 -0.55902;-0.80902;0.18164;,
 -0.58779;-0.80902;0.00000;,
 -0.55902;-0.80902;-0.18164;,
 -0.47553;-0.80902;-0.34549;,
 -0.34549;-0.80902;-0.47553;,
 -0.18164;-0.80902;-0.55902;,
 0.00000;-0.80902;-0.58779;,
 0.14029;-0.89101;-0.43177;,
 0.00000;-0.89101;-0.45399;,
 0.26685;-0.89101;-0.36729;,
 0.36729;-0.89101;-0.26685;,
 0.43177;-0.89101;-0.14029;,
 0.45399;-0.89101;-0.00000;,
 0.43177;-0.89101;0.14029;,
 0.36729;-0.89101;0.26685;,
 0.26685;-0.89101;0.36729;,
 0.14029;-0.89101;0.43177;,
 0.00000;-0.89101;0.45399;,
 -0.14029;-0.89101;0.43177;,
 -0.26685;-0.89101;0.36729;,
 -0.36729;-0.89101;0.26685;,
 -0.43177;-0.89101;0.14029;,
 -0.45399;-0.89101;0.00000;,
 -0.43177;-0.89101;-0.14029;,
 -0.36729;-0.89101;-0.26685;,
 -0.26685;-0.89101;-0.36729;,
 -0.14029;-0.89101;-0.43177;,
 0.00000;-0.89101;-0.45399;,
 0.09549;-0.95106;-0.29389;,
 0.00000;-0.95106;-0.30902;,
 0.18164;-0.95106;-0.25000;,
 0.25000;-0.95106;-0.18164;,
 0.29389;-0.95106;-0.09549;,
 0.30902;-0.95106;-0.00000;,
 0.29389;-0.95106;0.09549;,
 0.25000;-0.95106;0.18164;,
 0.18164;-0.95106;0.25000;,
 0.09549;-0.95106;0.29389;,
 0.00000;-0.95106;0.30902;,
 -0.09549;-0.95106;0.29389;,
 -0.18164;-0.95106;0.25000;,
 -0.25000;-0.95106;0.18164;,
 -0.29389;-0.95106;0.09549;,
 -0.30902;-0.95106;0.00000;,
 -0.29389;-0.95106;-0.09549;,
 -0.25000;-0.95106;-0.18164;,
 -0.18164;-0.95106;-0.25000;,
 -0.09549;-0.95106;-0.29389;,
 0.00000;-0.95106;-0.30902;,
 0.04834;-0.98769;-0.14878;,
 0.00000;-0.98769;-0.15643;,
 0.09195;-0.98769;-0.12656;,
 0.12656;-0.98769;-0.09195;,
 0.14878;-0.98769;-0.04834;,
 0.15643;-0.98769;-0.00000;,
 0.14878;-0.98769;0.04834;,
 0.12656;-0.98769;0.09195;,
 0.09195;-0.98769;0.12656;,
 0.04834;-0.98769;0.14878;,
 0.00000;-0.98769;0.15643;,
 -0.04834;-0.98769;0.14878;,
 -0.09195;-0.98769;0.12656;,
 -0.12656;-0.98769;0.09195;,
 -0.14878;-0.98769;0.04834;,
 -0.15643;-0.98769;0.00000;,
 -0.14878;-0.98769;-0.04834;,
 -0.12656;-0.98769;-0.09195;,
 -0.09195;-0.98769;-0.12656;,
 -0.04834;-0.98769;-0.14878;,
 0.00000;-0.98769;-0.15643;,
 0.00000;-1.00000;-0.00000;,
 0.00000;-1.00000;-0.00000;,
 0.00000;-1.00000;-0.00000;,
 0.00000;-1.00000;-0.00000;,
 0.00000;-1.00000;-0.00000;,
 0.00000;-1.00000;-0.00000;,
 0.00000;-1.00000;-0.00000;,
 0.00000;-1.00000;-0.00000;,
 0.00000;-1.00000;-0.00000;,
 0.00000;-1.00000;-0.00000;,
 0.00000;-1.00000;-0.00000;,
 0.00000;-1.00000;-0.00000;,
 0.00000;-1.00000;-0.00000;,
 0.00000;-1.00000;-0.00000;,
 0.00000;-1.00000;-0.00000;,
 0.00000;-1.00000;-0.00000;,
 0.00000;-1.00000;-0.00000;,
 0.00000;-1.00000;-0.00000;,
 0.00000;-1.00000;-0.00000;,
 0.00000;-1.00000;-0.00000;;
 
 400;
 3;0,1,2;,
 3;3,4,1;,
 3;5,6,4;,
 3;7,8,6;,
 3;9,10,8;,
 3;11,12,10;,
 3;13,14,12;,
 3;15,16,14;,
 3;17,18,16;,
 3;19,20,18;,
 3;21,22,20;,
 3;23,24,22;,
 3;25,26,24;,
 3;27,28,26;,
 3;29,30,28;,
 3;31,32,30;,
 3;33,34,35;,
 3;36,37,34;,
 3;38,39,40;,
 3;41,42,39;,
 4;2,1,43,44;,
 4;1,4,45,43;,
 4;4,6,46,45;,
 4;6,8,47,46;,
 4;8,10,48,47;,
 4;10,12,49,48;,
 4;12,14,50,49;,
 4;14,16,51,50;,
 4;16,18,52,51;,
 4;18,20,53,52;,
 4;20,22,54,53;,
 4;22,24,55,54;,
 4;24,26,56,55;,
 4;26,28,57,56;,
 4;28,30,58,57;,
 4;30,32,59,58;,
 4;32,60,61,59;,
 4;60,40,62,61;,
 4;40,39,63,62;,
 4;39,42,64,63;,
 4;44,43,65,66;,
 4;43,45,67,65;,
 4;45,46,68,67;,
 4;46,47,69,68;,
 4;47,48,70,69;,
 4;48,49,71,70;,
 4;49,50,72,71;,
 4;50,51,73,72;,
 4;51,52,74,73;,
 4;52,53,75,74;,
 4;53,54,76,75;,
 4;54,55,77,76;,
 4;55,56,78,77;,
 4;56,57,79,78;,
 4;57,58,80,79;,
 4;58,59,81,80;,
 4;59,61,82,81;,
 4;61,62,83,82;,
 4;62,63,84,83;,
 4;63,64,85,84;,
 4;66,65,86,87;,
 4;65,67,88,86;,
 4;67,68,89,88;,
 4;68,69,90,89;,
 4;69,70,91,90;,
 4;70,71,92,91;,
 4;71,72,93,92;,
 4;72,73,94,93;,
 4;73,74,95,94;,
 4;74,75,96,95;,
 4;75,76,97,96;,
 4;76,77,98,97;,
 4;77,78,99,98;,
 4;78,79,100,99;,
 4;79,80,101,100;,
 4;80,81,102,101;,
 4;81,82,103,102;,
 4;82,83,104,103;,
 4;83,84,105,104;,
 4;84,85,106,105;,
 4;87,86,107,108;,
 4;86,88,109,107;,
 4;88,89,110,109;,
 4;89,90,111,110;,
 4;90,91,112,111;,
 4;91,92,113,112;,
 4;92,93,114,113;,
 4;93,94,115,114;,
 4;94,95,116,115;,
 4;95,96,117,116;,
 4;96,97,118,117;,
 4;97,98,119,118;,
 4;98,99,120,119;,
 4;99,100,121,120;,
 4;100,101,122,121;,
 4;101,102,123,122;,
 4;102,103,124,123;,
 4;103,104,125,124;,
 4;104,105,126,125;,
 4;105,106,127,126;,
 4;108,107,128,129;,
 4;107,109,130,128;,
 4;109,110,131,130;,
 4;110,111,132,131;,
 4;111,112,133,132;,
 4;112,113,134,133;,
 4;113,114,135,134;,
 4;114,115,136,135;,
 4;115,116,137,136;,
 4;116,117,138,137;,
 4;117,118,139,138;,
 4;118,119,140,139;,
 4;119,120,141,140;,
 4;120,121,142,141;,
 4;121,122,143,142;,
 4;122,123,144,143;,
 4;123,124,145,144;,
 4;124,125,146,145;,
 4;125,126,147,146;,
 4;126,127,148,147;,
 4;129,128,149,150;,
 4;128,130,151,149;,
 4;130,131,152,151;,
 4;131,132,153,152;,
 4;132,133,154,153;,
 4;133,134,155,154;,
 4;134,135,156,155;,
 4;135,136,157,156;,
 4;136,137,158,157;,
 4;137,138,159,158;,
 4;138,139,160,159;,
 4;139,140,161,160;,
 4;140,141,162,161;,
 4;141,142,163,162;,
 4;142,143,164,163;,
 4;143,144,165,164;,
 4;144,145,166,165;,
 4;145,146,167,166;,
 4;146,147,168,167;,
 4;147,148,169,168;,
 4;150,149,170,171;,
 4;149,151,172,170;,
 4;151,152,173,172;,
 4;152,153,174,173;,
 4;153,154,175,174;,
 4;154,155,176,175;,
 4;155,156,177,176;,
 4;156,157,178,177;,
 4;157,158,179,178;,
 4;158,159,180,179;,
 4;159,160,181,180;,
 4;160,161,182,181;,
 4;161,162,183,182;,
 4;162,163,184,183;,
 4;163,164,185,184;,
 4;164,165,186,185;,
 4;165,166,187,186;,
 4;166,167,188,187;,
 4;167,168,189,188;,
 4;168,169,190,189;,
 4;171,170,191,192;,
 4;170,172,193,191;,
 4;172,173,194,193;,
 4;173,174,195,194;,
 4;174,175,196,195;,
 4;175,176,197,196;,
 4;176,177,198,197;,
 4;177,178,199,198;,
 4;178,179,200,199;,
 4;179,180,201,200;,
 4;180,181,202,201;,
 4;181,182,203,202;,
 4;182,183,204,203;,
 4;183,184,205,204;,
 4;184,185,206,205;,
 4;185,186,207,206;,
 4;186,187,208,207;,
 4;187,188,209,208;,
 4;188,189,210,209;,
 4;189,190,211,210;,
 4;192,191,212,213;,
 4;214,215,216,217;,
 4;193,194,218,219;,
 4;194,195,220,218;,
 4;195,196,221,220;,
 4;196,197,222,221;,
 4;197,198,223,222;,
 4;198,199,224,223;,
 4;199,200,225,224;,
 4;200,201,226,225;,
 4;201,202,227,226;,
 4;202,203,228,227;,
 4;203,204,229,228;,
 4;204,205,230,229;,
 4;205,206,231,230;,
 4;206,207,232,231;,
 4;207,208,233,232;,
 4;208,209,234,233;,
 4;209,210,235,234;,
 4;210,211,236,235;,
 4;237,217,238,239;,
 4;217,216,240,238;,
 4;219,218,241,242;,
 4;218,220,243,241;,
 4;220,221,244,243;,
 4;221,222,245,244;,
 4;222,223,246,245;,
 4;223,224,247,246;,
 4;224,225,248,247;,
 4;225,226,249,248;,
 4;226,227,250,249;,
 4;227,228,251,250;,
 4;228,229,252,251;,
 4;229,230,253,252;,
 4;230,231,254,253;,
 4;231,232,255,254;,
 4;232,233,256,255;,
 4;233,234,257,256;,
 4;234,235,258,257;,
 4;259,260,261,262;,
 4;239,238,263,264;,
 4;265,242,266,267;,
 4;242,241,268,266;,
 4;241,243,269,268;,
 4;243,244,270,269;,
 4;244,245,271,270;,
 4;245,246,272,271;,
 4;246,247,273,272;,
 4;247,248,274,273;,
 4;248,249,275,274;,
 4;249,250,276,275;,
 4;250,251,277,276;,
 4;251,252,278,277;,
 4;252,253,279,278;,
 4;253,254,280,279;,
 4;254,255,281,280;,
 4;255,256,282,281;,
 4;256,257,283,282;,
 4;284,262,285,286;,
 4;262,261,287,285;,
 4;288,267,289,290;,
 4;267,266,291,289;,
 4;266,268,292,291;,
 4;268,269,293,292;,
 4;269,270,294,293;,
 4;270,271,295,294;,
 4;271,272,296,295;,
 4;272,273,297,296;,
 4;273,274,298,297;,
 4;274,275,299,298;,
 4;275,276,300,299;,
 4;276,277,301,300;,
 4;277,278,302,301;,
 4;278,279,303,302;,
 4;279,280,304,303;,
 4;280,281,305,304;,
 4;281,282,306,305;,
 4;307,286,308,309;,
 4;286,285,310,308;,
 4;285,287,311,310;,
 4;290,289,312,313;,
 4;289,291,314,312;,
 4;291,292,315,314;,
 4;292,293,316,315;,
 4;293,294,317,316;,
 4;294,295,318,317;,
 4;295,296,319,318;,
 4;296,297,320,319;,
 4;297,298,321,320;,
 4;298,299,322,321;,
 4;299,300,323,322;,
 4;300,301,324,323;,
 4;301,302,325,324;,
 4;302,303,326,325;,
 4;303,304,327,326;,
 4;304,305,328,327;,
 4;305,306,329,328;,
 4;306,330,331,329;,
 4;308,310,332,333;,
 4;334,335,336,337;,
 4;313,312,338,339;,
 4;312,314,340,338;,
 4;314,315,341,340;,
 4;315,316,342,341;,
 4;316,317,343,342;,
 4;317,318,344,343;,
 4;318,319,345,344;,
 4;319,320,346,345;,
 4;320,321,347,346;,
 4;321,322,348,347;,
 4;322,323,349,348;,
 4;323,324,350,349;,
 4;324,325,351,350;,
 4;325,326,352,351;,
 4;326,327,353,352;,
 4;327,328,354,353;,
 4;328,329,355,354;,
 4;329,331,356,355;,
 4;331,337,357,356;,
 4;337,336,358,357;,
 4;339,338,359,360;,
 4;338,340,361,359;,
 4;340,341,362,361;,
 4;341,342,363,362;,
 4;342,343,364,363;,
 4;343,344,365,364;,
 4;344,345,366,365;,
 4;345,346,367,366;,
 4;346,347,368,367;,
 4;347,348,369,368;,
 4;348,349,370,369;,
 4;349,350,371,370;,
 4;350,351,372,371;,
 4;351,352,373,372;,
 4;352,353,374,373;,
 4;353,354,375,374;,
 4;354,355,376,375;,
 4;355,356,377,376;,
 4;356,357,378,377;,
 4;357,358,379,378;,
 4;360,359,380,381;,
 4;359,361,382,380;,
 4;361,362,383,382;,
 4;362,363,384,383;,
 4;363,364,385,384;,
 4;364,365,386,385;,
 4;365,366,387,386;,
 4;366,367,388,387;,
 4;367,368,389,388;,
 4;368,369,390,389;,
 4;369,370,391,390;,
 4;370,371,392,391;,
 4;371,372,393,392;,
 4;372,373,394,393;,
 4;373,374,395,394;,
 4;374,375,396,395;,
 4;375,376,397,396;,
 4;376,377,398,397;,
 4;377,378,399,398;,
 4;378,379,400,399;,
 4;381,380,401,402;,
 4;380,382,403,401;,
 4;382,383,404,403;,
 4;383,384,405,404;,
 4;384,385,406,405;,
 4;385,386,407,406;,
 4;386,387,408,407;,
 4;387,388,409,408;,
 4;388,389,410,409;,
 4;389,390,411,410;,
 4;390,391,412,411;,
 4;391,392,413,412;,
 4;392,393,414,413;,
 4;393,394,415,414;,
 4;394,395,416,415;,
 4;395,396,417,416;,
 4;396,397,418,417;,
 4;397,398,419,418;,
 4;398,399,420,419;,
 4;399,400,421,420;,
 4;402,401,422,423;,
 4;401,403,424,422;,
 4;403,404,425,424;,
 4;404,405,426,425;,
 4;405,406,427,426;,
 4;406,407,428,427;,
 4;407,408,429,428;,
 4;408,409,430,429;,
 4;409,410,431,430;,
 4;410,411,432,431;,
 4;411,412,433,432;,
 4;412,413,434,433;,
 4;413,414,435,434;,
 4;414,415,436,435;,
 4;415,416,437,436;,
 4;416,417,438,437;,
 4;417,418,439,438;,
 4;418,419,440,439;,
 4;419,420,441,440;,
 4;420,421,442,441;,
 3;423,422,443;,
 3;422,424,444;,
 3;424,425,445;,
 3;425,426,446;,
 3;426,427,447;,
 3;427,428,448;,
 3;428,429,449;,
 3;429,430,450;,
 3;430,431,451;,
 3;431,432,452;,
 3;432,433,453;,
 3;433,434,454;,
 3;434,435,455;,
 3;435,436,456;,
 3;436,437,457;,
 3;437,438,458;,
 3;438,439,459;,
 3;439,440,460;,
 3;440,441,461;,
 3;441,442,462;;
 
 MeshMaterialList {
  1;
  400;
  0,
  0,
  0,
  0,
  0,
  0,
  0,
  0,
  0,
  0,
  0,
  0,
  0,
  0,
  0,
  0,
  0,
  0,
  0,
  0,
  0,
  0,
  0,
  0,
  0,
  0,
  0,
  0,
  0,
  0,
  0,
  0,
  0,
  0,
  0,
  0,
  0,
  0,
  0,
  0,
  0,
  0,
  0,
  0,
  0,
  0,
  0,
  0,
  0,
  0,
  0,
  0,
  0,
  0,
  0,
  0,
  0,
  0,
  0,
  0,
  0,
  0,
  0,
  0,
  0,
  0,
  0,
  0,
  0,
  0,
  0,
  0,
  0,
  0,
  0,
  0,
  0,
  0,
  0,
  0,
  0,
  0,
  0,
  0,
  0,
  0,
  0,
  0,
  0,
  0,
  0,
  0,
  0,
  0,
  0,
  0,
  0,
  0,
  0,
  0,
  0,
  0,
  0,
  0,
  0,
  0,
  0,
  0,
  0,
  0,
  0,
  0,
  0,
  0,
  0,
  0,
  0,
  0,
  0,
  0,
  0,
  0,
  0,
  0,
  0,
  0,
  0,
  0,
  0,
  0,
  0,
  0,
  0,
  0,
  0,
  0,
  0,
  0,
  0,
  0,
  0,
  0,
  0,
  0,
  0,
  0,
  0,
  0,
  0,
  0,
  0,
  0,
  0,
  0,
  0,
  0,
  0,
  0,
  0,
  0,
  0,
  0,
  0,
  0,
  0,
  0,
  0,
  0,
  0,
  0,
  0,
  0,
  0,
  0,
  0,
  0,
  0,
  0,
  0,
  0,
  0,
  0,
  0,
  0,
  0,
  0,
  0,
  0,
  0,
  0,
  0,
  0,
  0,
  0,
  0,
  0,
  0,
  0,
  0,
  0,
  0,
  0,
  0,
  0,
  0,
  0,
  0,
  0,
  0,
  0,
  0,
  0,
  0,
  0,
  0,
  0,
  0,
  0,
  0,
  0,
  0,
  0,
  0,
  0,
  0,
  0,
  0,
  0,
  0,
  0,
  0,
  0,
  0,
  0,
  0,
  0,
  0,
  0,
  0,
  0,
  0,
  0,
  0,
  0,
  0,
  0,
  0,
  0,
  0,
  0,
  0,
  0,
  0,
  0,
  0,
  0,
  0,
  0,
  0,
  0,
  0,
  0,
  0,
  0,
  0,
  0,
  0,
  0,
  0,
  0,
  0,
  0,
  0,
  0,
  0,
  0,
  0,
  0,
  0,
  0,
  0,
  0,
  0,
  0,
  0,
  0,
  0,
  0,
  0,
  0,
  0,
  0,
  0,
  0,
  0,
  0,
  0,
  0,
  0,
  0,
  0,
  0,
  0,
  0,
  0,
  0,
  0,
  0,
  0,
  0,
  0,
  0,
  0,
  0,
  0,
  0,
  0,
  0,
  0,
  0,
  0,
  0,
  0,
  0,
  0,
  0,
  0,
  0,
  0,
  0,
  0,
  0,
  0,
  0,
  0,
  0,
  0,
  0,
  0,
  0,
  0,
  0,
  0,
  0,
  0,
  0,
  0,
  0,
  0,
  0,
  0,
  0,
  0,
  0,
  0,
  0,
  0,
  0,
  0,
  0,
  0,
  0,
  0,
  0,
  0,
  0,
  0,
  0,
  0,
  0,
  0,
  0,
  0,
  0,
  0,
  0,
  0,
  0,
  0,
  0,
  0,
  0,
  0,
  0,
  0,
  0,
  0,
  0,
  0,
  0,
  0,
  0,
  0,
  0,
  0,
  0,
  0,
  0,
  0,
  0;;
  Material {
   0.800000;0.800000;0.800000;1.000000;;
   5.000000;
   0.000000;0.000000;0.000000;;
   0.000000;0.000000;0.000000;;
   TextureFilename {
    "Date\\Graphics\\XFileTexture\\BulletTex.png";
   }
  }
 }
 MeshNormals {
  382;
  0.000000;1.000000;0.000000;,
  0.000000;0.987692;-0.156411;,
  0.048334;0.987692;-0.148756;,
  0.091936;0.987692;-0.126539;,
  0.126539;0.987692;-0.091936;,
  0.148756;0.987692;-0.048334;,
  0.156411;0.987692;0.000000;,
  0.148756;0.987692;0.048334;,
  0.126539;0.987692;0.091936;,
  0.091936;0.987692;0.126539;,
  0.048334;0.987692;0.148756;,
  0.000000;0.987692;0.156411;,
  -0.048334;0.987692;0.148756;,
  -0.091936;0.987692;0.126539;,
  -0.126539;0.987692;0.091936;,
  -0.148756;0.987692;0.048334;,
  -0.156411;0.987692;0.000000;,
  -0.148756;0.987692;-0.048334;,
  -0.126539;0.987692;-0.091936;,
  -0.091936;0.987692;-0.126539;,
  -0.048334;0.987692;-0.148756;,
  0.000000;0.951071;-0.308974;,
  0.095478;0.951071;-0.293852;,
  0.181610;0.951071;-0.249965;,
  0.249965;0.951071;-0.181610;,
  0.293852;0.951071;-0.095478;,
  0.308974;0.951071;0.000000;,
  0.293852;0.951071;0.095478;,
  0.249965;0.951071;0.181610;,
  0.181610;0.951071;0.249965;,
  0.095478;0.951071;0.293852;,
  0.000000;0.951071;0.308974;,
  -0.095478;0.951071;0.293852;,
  -0.181610;0.951071;0.249965;,
  -0.249965;0.951071;0.181610;,
  -0.293852;0.951071;0.095478;,
  -0.308974;0.951071;0.000000;,
  -0.293852;0.951071;-0.095478;,
  -0.249965;0.951071;-0.181610;,
  -0.181610;0.951071;-0.249965;,
  -0.095478;0.951071;-0.293852;,
  0.000000;0.891035;-0.453935;,
  0.140274;0.891035;-0.431718;,
  0.266816;0.891035;-0.367241;,
  0.367241;0.891035;-0.266816;,
  0.431718;0.891035;-0.140274;,
  0.453935;0.891035;0.000000;,
  0.431718;0.891035;0.140274;,
  0.367241;0.891035;0.266816;,
  0.266816;0.891035;0.367241;,
  0.140274;0.891035;0.431718;,
  0.000000;0.891035;0.453935;,
  -0.140274;0.891035;0.431718;,
  -0.266816;0.891035;0.367241;,
  -0.367241;0.891035;0.266816;,
  -0.431718;0.891035;0.140274;,
  -0.453935;0.891035;0.000000;,
  -0.431718;0.891035;-0.140274;,
  -0.367241;0.891035;-0.266816;,
  -0.266816;0.891035;-0.367241;,
  -0.140274;0.891035;-0.431718;,
  0.000000;0.809060;-0.587726;,
  0.181617;0.809060;-0.558961;,
  0.345457;0.809060;-0.475481;,
  0.475481;0.809060;-0.345457;,
  0.558961;0.809060;-0.181617;,
  0.587726;0.809060;0.000000;,
  0.558961;0.809060;0.181617;,
  0.475481;0.809060;0.345457;,
  0.345457;0.809060;0.475481;,
  0.181617;0.809060;0.558961;,
  0.000000;0.809060;0.587726;,
  -0.181617;0.809060;0.558961;,
  -0.345457;0.809060;0.475481;,
  -0.475481;0.809060;0.345457;,
  -0.558961;0.809060;0.181617;,
  -0.587726;0.809060;0.000000;,
  -0.558961;0.809060;-0.181617;,
  -0.475481;0.809060;-0.345457;,
  -0.345457;0.809060;-0.475481;,
  -0.181617;0.809060;-0.558961;,
  0.000000;0.707161;-0.707053;,
  0.218491;0.707161;-0.672447;,
  0.415595;0.707161;-0.572018;,
  0.572018;0.707161;-0.415595;,
  0.672447;0.707161;-0.218491;,
  0.707053;0.707161;0.000000;,
  0.672447;0.707161;0.218491;,
  0.572018;0.707161;0.415595;,
  0.415595;0.707161;0.572018;,
  0.218491;0.707161;0.672447;,
  0.000000;0.707161;0.707053;,
  -0.218491;0.707161;0.672447;,
  -0.415595;0.707161;0.572018;,
  -0.572018;0.707161;0.415595;,
  -0.672447;0.707161;0.218491;,
  -0.707053;0.707161;0.000000;,
  -0.672447;0.707161;-0.218491;,
  -0.572018;0.707161;-0.415595;,
  -0.415595;0.707161;-0.572018;,
  -0.218491;0.707161;-0.672447;,
  0.000000;0.587844;-0.808975;,
  0.249987;0.587844;-0.769381;,
  0.475503;0.587844;-0.654474;,
  0.654474;0.587844;-0.475503;,
  0.769381;0.587844;-0.249987;,
  0.808975;0.587844;0.000000;,
  0.769381;0.587844;0.249987;,
  0.654474;0.587844;0.475503;,
  0.475503;0.587844;0.654474;,
  0.249987;0.587844;0.769381;,
  0.000000;0.587844;0.808975;,
  -0.249987;0.587844;0.769381;,
  -0.475503;0.587844;0.654474;,
  -0.654474;0.587844;0.475503;,
  -0.769381;0.587844;0.249987;,
  -0.808975;0.587844;0.000000;,
  -0.769381;0.587844;-0.249987;,
  -0.654474;0.587844;-0.475503;,
  -0.475503;0.587844;-0.654474;,
  -0.249987;0.587844;-0.769381;,
  0.000000;0.454045;-0.890979;,
  0.275328;0.454045;-0.847371;,
  0.523704;0.454045;-0.720817;,
  0.720817;0.454045;-0.523704;,
  0.847371;0.454045;-0.275328;,
  0.890979;0.454045;0.000000;,
  0.847371;0.454045;0.275328;,
  0.720817;0.454045;0.523704;,
  0.523704;0.454045;0.720817;,
  0.275328;0.454045;0.847371;,
  0.000000;0.454045;0.890979;,
  -0.275328;0.454045;0.847371;,
  -0.523704;0.454045;0.720817;,
  -0.720817;0.454045;0.523704;,
  -0.847371;0.454045;0.275328;,
  -0.890979;0.454045;0.000000;,
  -0.847371;0.454045;-0.275328;,
  -0.720817;0.454045;-0.523704;,
  -0.523704;0.454045;-0.720817;,
  -0.275328;0.454045;-0.847371;,
  0.000000;0.309059;-0.951043;,
  0.293888;0.309059;-0.904495;,
  0.559009;0.309059;-0.769410;,
  0.769410;0.309059;-0.559009;,
  0.904495;0.309059;-0.293888;,
  0.951043;0.309059;0.000000;,
  0.904495;0.309059;0.293888;,
  0.769410;0.309059;0.559009;,
  0.559009;0.309059;0.769410;,
  0.293888;0.309059;0.904495;,
  0.000000;0.309059;0.951043;,
  -0.293888;0.309059;0.904495;,
  -0.559009;0.309059;0.769410;,
  -0.769410;0.309059;0.559009;,
  -0.904495;0.309059;0.293888;,
  -0.951043;0.309059;0.000000;,
  -0.904495;0.309059;-0.293888;,
  -0.769410;0.309059;-0.559009;,
  -0.559009;0.309059;-0.769410;,
  -0.293888;0.309059;-0.904495;,
  0.000000;0.156458;-0.987685;,
  0.305211;0.156458;-0.939344;,
  0.580546;0.156458;-0.799054;,
  0.799054;0.156458;-0.580546;,
  0.939344;0.156458;-0.305211;,
  0.987685;0.156458;0.000000;,
  0.939344;0.156458;0.305211;,
  0.799054;0.156458;0.580546;,
  0.580546;0.156458;0.799054;,
  0.305211;0.156458;0.939344;,
  0.000000;0.156458;0.987685;,
  -0.305211;0.156458;0.939344;,
  -0.580546;0.156458;0.799054;,
  -0.799054;0.156458;0.580546;,
  -0.939344;0.156458;0.305211;,
  -0.987685;0.156458;0.000000;,
  -0.939344;0.156458;-0.305211;,
  -0.799054;0.156458;-0.580546;,
  -0.580546;0.156458;-0.799054;,
  -0.305211;0.156458;-0.939344;,
  0.000000;0.000000;-1.000000;,
  0.309017;0.000000;-0.951056;,
  0.587785;-0.000000;-0.809017;,
  0.809017;-0.000000;-0.587785;,
  0.951056;0.000000;-0.309017;,
  1.000000;0.000000;0.000000;,
  0.951056;0.000000;0.309017;,
  0.809017;-0.000000;0.587785;,
  0.587785;-0.000000;0.809017;,
  0.309017;0.000000;0.951056;,
  0.000000;0.000000;1.000000;,
  -0.309017;0.000000;0.951056;,
  -0.587785;-0.000000;0.809017;,
  -0.809017;-0.000000;0.587785;,
  -0.951056;0.000000;0.309017;,
  -1.000000;0.000000;0.000000;,
  -0.951056;0.000000;-0.309017;,
  -0.809017;-0.000000;-0.587785;,
  -0.587785;-0.000000;-0.809017;,
  -0.309017;0.000000;-0.951056;,
  0.000000;-0.156458;-0.987685;,
  0.305211;-0.156458;-0.939344;,
  0.580546;-0.156458;-0.799054;,
  0.799054;-0.156458;-0.580546;,
  0.939344;-0.156458;-0.305211;,
  0.987685;-0.156458;-0.000000;,
  0.939344;-0.156458;0.305211;,
  0.799054;-0.156458;0.580546;,
  0.580546;-0.156458;0.799054;,
  0.305211;-0.156458;0.939344;,
  0.000000;-0.156458;0.987685;,
  -0.305211;-0.156458;0.939344;,
  -0.580546;-0.156458;0.799054;,
  -0.799054;-0.156458;0.580546;,
  -0.939344;-0.156458;0.305211;,
  -0.987685;-0.156458;0.000000;,
  -0.939344;-0.156458;-0.305211;,
  -0.799054;-0.156458;-0.580546;,
  -0.580546;-0.156458;-0.799054;,
  -0.305211;-0.156458;-0.939344;,
  0.000000;-0.309059;-0.951043;,
  0.293888;-0.309059;-0.904495;,
  0.559009;-0.309059;-0.769410;,
  0.769410;-0.309059;-0.559009;,
  0.904495;-0.309059;-0.293888;,
  0.951043;-0.309059;-0.000000;,
  0.904495;-0.309059;0.293888;,
  0.769410;-0.309059;0.559009;,
  0.559009;-0.309059;0.769410;,
  0.293888;-0.309059;0.904495;,
  0.000000;-0.309059;0.951043;,
  -0.293888;-0.309059;0.904495;,
  -0.559009;-0.309059;0.769410;,
  -0.769410;-0.309059;0.559009;,
  -0.904495;-0.309059;0.293888;,
  -0.951043;-0.309059;0.000000;,
  -0.904495;-0.309059;-0.293888;,
  -0.769410;-0.309059;-0.559009;,
  -0.559009;-0.309059;-0.769410;,
  -0.293888;-0.309059;-0.904495;,
  0.000000;-0.454045;-0.890979;,
  0.275328;-0.454045;-0.847371;,
  0.523704;-0.454045;-0.720817;,
  0.720817;-0.454045;-0.523704;,
  0.847371;-0.454045;-0.275328;,
  0.890979;-0.454045;-0.000000;,
  0.847371;-0.454045;0.275328;,
  0.720817;-0.454045;0.523704;,
  0.523704;-0.454045;0.720817;,
  0.275328;-0.454045;0.847371;,
  0.000000;-0.454045;0.890979;,
  -0.275328;-0.454045;0.847371;,
  -0.523704;-0.454045;0.720817;,
  -0.720817;-0.454045;0.523704;,
  -0.847371;-0.454045;0.275328;,
  -0.890979;-0.454045;0.000000;,
  -0.847371;-0.454045;-0.275328;,
  -0.720817;-0.454045;-0.523704;,
  -0.523704;-0.454045;-0.720817;,
  -0.275328;-0.454045;-0.847371;,
  0.000000;-0.587844;-0.808975;,
  0.249987;-0.587844;-0.769381;,
  0.475503;-0.587844;-0.654474;,
  0.654474;-0.587844;-0.475503;,
  0.769380;-0.587844;-0.249987;,
  0.808975;-0.587844;-0.000000;,
  0.769381;-0.587844;0.249987;,
  0.654474;-0.587844;0.475503;,
  0.475503;-0.587844;0.654474;,
  0.249987;-0.587844;0.769380;,
  0.000000;-0.587844;0.808975;,
  -0.249987;-0.587844;0.769381;,
  -0.475503;-0.587844;0.654474;,
  -0.654474;-0.587844;0.475503;,
  -0.769380;-0.587844;0.249987;,
  -0.808975;-0.587844;0.000000;,
  -0.769381;-0.587844;-0.249987;,
  -0.654474;-0.587844;-0.475503;,
  -0.475503;-0.587844;-0.654474;,
  -0.249987;-0.587844;-0.769380;,
  0.000000;-0.707161;-0.707053;,
  0.218491;-0.707161;-0.672447;,
  0.415595;-0.707161;-0.572018;,
  0.572018;-0.707161;-0.415595;,
  0.672447;-0.707161;-0.218491;,
  0.707053;-0.707161;-0.000000;,
  0.672447;-0.707161;0.218491;,
  0.572018;-0.707161;0.415595;,
  0.415595;-0.707161;0.572018;,
  0.218491;-0.707161;0.672447;,
  0.000000;-0.707161;0.707053;,
  -0.218491;-0.707161;0.672447;,
  -0.415595;-0.707161;0.572018;,
  -0.572018;-0.707161;0.415595;,
  -0.672447;-0.707161;0.218491;,
  -0.707053;-0.707161;0.000000;,
  -0.672447;-0.707161;-0.218491;,
  -0.572018;-0.707161;-0.415595;,
  -0.415595;-0.707161;-0.572018;,
  -0.218491;-0.707161;-0.672447;,
  0.000000;-0.809060;-0.587726;,
  0.181617;-0.809060;-0.558961;,
  0.345457;-0.809060;-0.475481;,
  0.475481;-0.809060;-0.345457;,
  0.558961;-0.809060;-0.181617;,
  0.587726;-0.809060;-0.000000;,
  0.558961;-0.809060;0.181617;,
  0.475481;-0.809060;0.345457;,
  0.345457;-0.809060;0.475481;,
  0.181617;-0.809060;0.558961;,
  0.000000;-0.809060;0.587726;,
  -0.181617;-0.809060;0.558961;,
  -0.345457;-0.809060;0.475481;,
  -0.475481;-0.809060;0.345457;,
  -0.558961;-0.809060;0.181617;,
  -0.587726;-0.809060;0.000000;,
  -0.558961;-0.809060;-0.181617;,
  -0.475481;-0.809060;-0.345457;,
  -0.345457;-0.809060;-0.475481;,
  -0.181617;-0.809060;-0.558961;,
  0.000000;-0.891035;-0.453935;,
  0.140274;-0.891035;-0.431718;,
  0.266816;-0.891035;-0.367241;,
  0.367241;-0.891035;-0.266816;,
  0.431718;-0.891035;-0.140274;,
  0.453935;-0.891035;-0.000000;,
  0.431718;-0.891035;0.140274;,
  0.367241;-0.891035;0.266816;,
  0.266816;-0.891035;0.367241;,
  0.140274;-0.891035;0.431718;,
  0.000000;-0.891035;0.453935;,
  -0.140274;-0.891035;0.431718;,
  -0.266816;-0.891035;0.367241;,
  -0.367241;-0.891035;0.266816;,
  -0.431718;-0.891035;0.140274;,
  -0.453935;-0.891035;0.000000;,
  -0.431718;-0.891035;-0.140274;,
  -0.367241;-0.891035;-0.266816;,
  -0.266816;-0.891035;-0.367241;,
  -0.140274;-0.891035;-0.431718;,
  0.000000;-0.951070;-0.308974;,
  0.095478;-0.951070;-0.293852;,
  0.181610;-0.951070;-0.249965;,
  0.249965;-0.951070;-0.181610;,
  0.293852;-0.951070;-0.095478;,
  0.308974;-0.951070;-0.000000;,
  0.293852;-0.951070;0.095478;,
  0.249965;-0.951070;0.181610;,
  0.181610;-0.951070;0.249965;,
  0.095478;-0.951070;0.293852;,
  0.000000;-0.951070;0.308974;,
  -0.095478;-0.951070;0.293852;,
  -0.181610;-0.951070;0.249965;,
  -0.249965;-0.951070;0.181610;,
  -0.293852;-0.951070;0.095478;,
  -0.308974;-0.951070;0.000000;,
  -0.293852;-0.951070;-0.095478;,
  -0.249965;-0.951070;-0.181610;,
  -0.181610;-0.951070;-0.249965;,
  -0.095478;-0.951070;-0.293852;,
  0.000000;-0.987692;-0.156411;,
  0.048334;-0.987692;-0.148756;,
  0.091936;-0.987692;-0.126539;,
  0.126539;-0.987692;-0.091936;,
  0.148756;-0.987692;-0.048334;,
  0.156411;-0.987692;-0.000000;,
  0.148756;-0.987692;0.048334;,
  0.126539;-0.987692;0.091936;,
  0.091936;-0.987692;0.126539;,
  0.048334;-0.987692;0.148756;,
  0.000000;-0.987692;0.156411;,
  -0.048334;-0.987692;0.148756;,
  -0.091936;-0.987692;0.126539;,
  -0.126539;-0.987692;0.091936;,
  -0.148756;-0.987692;0.048334;,
  -0.156411;-0.987692;0.000000;,
  -0.148756;-0.987692;-0.048334;,
  -0.126539;-0.987692;-0.091936;,
  -0.091936;-0.987692;-0.126539;,
  -0.048334;-0.987692;-0.148756;,
  0.000000;-1.000000;-0.000000;;
  400;
  3;0,2,1;,
  3;0,3,2;,
  3;0,4,3;,
  3;0,5,4;,
  3;0,6,5;,
  3;0,7,6;,
  3;0,8,7;,
  3;0,9,8;,
  3;0,10,9;,
  3;0,11,10;,
  3;0,12,11;,
  3;0,13,12;,
  3;0,14,13;,
  3;0,15,14;,
  3;0,16,15;,
  3;0,17,16;,
  3;0,18,17;,
  3;0,19,18;,
  3;0,20,19;,
  3;0,1,20;,
  4;1,2,22,21;,
  4;2,3,23,22;,
  4;3,4,24,23;,
  4;4,5,25,24;,
  4;5,6,26,25;,
  4;6,7,27,26;,
  4;7,8,28,27;,
  4;8,9,29,28;,
  4;9,10,30,29;,
  4;10,11,31,30;,
  4;11,12,32,31;,
  4;12,13,33,32;,
  4;13,14,34,33;,
  4;14,15,35,34;,
  4;15,16,36,35;,
  4;16,17,37,36;,
  4;17,18,38,37;,
  4;18,19,39,38;,
  4;19,20,40,39;,
  4;20,1,21,40;,
  4;21,22,42,41;,
  4;22,23,43,42;,
  4;23,24,44,43;,
  4;24,25,45,44;,
  4;25,26,46,45;,
  4;26,27,47,46;,
  4;27,28,48,47;,
  4;28,29,49,48;,
  4;29,30,50,49;,
  4;30,31,51,50;,
  4;31,32,52,51;,
  4;32,33,53,52;,
  4;33,34,54,53;,
  4;34,35,55,54;,
  4;35,36,56,55;,
  4;36,37,57,56;,
  4;37,38,58,57;,
  4;38,39,59,58;,
  4;39,40,60,59;,
  4;40,21,41,60;,
  4;41,42,62,61;,
  4;42,43,63,62;,
  4;43,44,64,63;,
  4;44,45,65,64;,
  4;45,46,66,65;,
  4;46,47,67,66;,
  4;47,48,68,67;,
  4;48,49,69,68;,
  4;49,50,70,69;,
  4;50,51,71,70;,
  4;51,52,72,71;,
  4;52,53,73,72;,
  4;53,54,74,73;,
  4;54,55,75,74;,
  4;55,56,76,75;,
  4;56,57,77,76;,
  4;57,58,78,77;,
  4;58,59,79,78;,
  4;59,60,80,79;,
  4;60,41,61,80;,
  4;61,62,82,81;,
  4;62,63,83,82;,
  4;63,64,84,83;,
  4;64,65,85,84;,
  4;65,66,86,85;,
  4;66,67,87,86;,
  4;67,68,88,87;,
  4;68,69,89,88;,
  4;69,70,90,89;,
  4;70,71,91,90;,
  4;71,72,92,91;,
  4;72,73,93,92;,
  4;73,74,94,93;,
  4;74,75,95,94;,
  4;75,76,96,95;,
  4;76,77,97,96;,
  4;77,78,98,97;,
  4;78,79,99,98;,
  4;79,80,100,99;,
  4;80,61,81,100;,
  4;81,82,102,101;,
  4;82,83,103,102;,
  4;83,84,104,103;,
  4;84,85,105,104;,
  4;85,86,106,105;,
  4;86,87,107,106;,
  4;87,88,108,107;,
  4;88,89,109,108;,
  4;89,90,110,109;,
  4;90,91,111,110;,
  4;91,92,112,111;,
  4;92,93,113,112;,
  4;93,94,114,113;,
  4;94,95,115,114;,
  4;95,96,116,115;,
  4;96,97,117,116;,
  4;97,98,118,117;,
  4;98,99,119,118;,
  4;99,100,120,119;,
  4;100,81,101,120;,
  4;101,102,122,121;,
  4;102,103,123,122;,
  4;103,104,124,123;,
  4;104,105,125,124;,
  4;105,106,126,125;,
  4;106,107,127,126;,
  4;107,108,128,127;,
  4;108,109,129,128;,
  4;109,110,130,129;,
  4;110,111,131,130;,
  4;111,112,132,131;,
  4;112,113,133,132;,
  4;113,114,134,133;,
  4;114,115,135,134;,
  4;115,116,136,135;,
  4;116,117,137,136;,
  4;117,118,138,137;,
  4;118,119,139,138;,
  4;119,120,140,139;,
  4;120,101,121,140;,
  4;121,122,142,141;,
  4;122,123,143,142;,
  4;123,124,144,143;,
  4;124,125,145,144;,
  4;125,126,146,145;,
  4;126,127,147,146;,
  4;127,128,148,147;,
  4;128,129,149,148;,
  4;129,130,150,149;,
  4;130,131,151,150;,
  4;131,132,152,151;,
  4;132,133,153,152;,
  4;133,134,154,153;,
  4;134,135,155,154;,
  4;135,136,156,155;,
  4;136,137,157,156;,
  4;137,138,158,157;,
  4;138,139,159,158;,
  4;139,140,160,159;,
  4;140,121,141,160;,
  4;141,142,162,161;,
  4;142,143,163,162;,
  4;143,144,164,163;,
  4;144,145,165,164;,
  4;145,146,166,165;,
  4;146,147,167,166;,
  4;147,148,168,167;,
  4;148,149,169,168;,
  4;149,150,170,169;,
  4;150,151,171,170;,
  4;151,152,172,171;,
  4;152,153,173,172;,
  4;153,154,174,173;,
  4;154,155,175,174;,
  4;155,156,176,175;,
  4;156,157,177,176;,
  4;157,158,178,177;,
  4;158,159,179,178;,
  4;159,160,180,179;,
  4;160,141,161,180;,
  4;161,162,182,181;,
  4;162,163,183,182;,
  4;163,164,184,183;,
  4;164,165,185,184;,
  4;165,166,186,185;,
  4;166,167,187,186;,
  4;167,168,188,187;,
  4;168,169,189,188;,
  4;169,170,190,189;,
  4;170,171,191,190;,
  4;171,172,192,191;,
  4;172,173,193,192;,
  4;173,174,194,193;,
  4;174,175,195,194;,
  4;175,176,196,195;,
  4;176,177,197,196;,
  4;177,178,198,197;,
  4;178,179,199,198;,
  4;179,180,200,199;,
  4;180,161,181,200;,
  4;181,182,202,201;,
  4;182,183,203,202;,
  4;183,184,204,203;,
  4;184,185,205,204;,
  4;185,186,206,205;,
  4;186,187,207,206;,
  4;187,188,208,207;,
  4;188,189,209,208;,
  4;189,190,210,209;,
  4;190,191,211,210;,
  4;191,192,212,211;,
  4;192,193,213,212;,
  4;193,194,214,213;,
  4;194,195,215,214;,
  4;195,196,216,215;,
  4;196,197,217,216;,
  4;197,198,218,217;,
  4;198,199,219,218;,
  4;199,200,220,219;,
  4;200,181,201,220;,
  4;201,202,222,221;,
  4;202,203,223,222;,
  4;203,204,224,223;,
  4;204,205,225,224;,
  4;205,206,226,225;,
  4;206,207,227,226;,
  4;207,208,228,227;,
  4;208,209,229,228;,
  4;209,210,230,229;,
  4;210,211,231,230;,
  4;211,212,232,231;,
  4;212,213,233,232;,
  4;213,214,234,233;,
  4;214,215,235,234;,
  4;215,216,236,235;,
  4;216,217,237,236;,
  4;217,218,238,237;,
  4;218,219,239,238;,
  4;219,220,240,239;,
  4;220,201,221,240;,
  4;221,222,242,241;,
  4;222,223,243,242;,
  4;223,224,244,243;,
  4;224,225,245,244;,
  4;225,226,246,245;,
  4;226,227,247,246;,
  4;227,228,248,247;,
  4;228,229,249,248;,
  4;229,230,250,249;,
  4;230,231,251,250;,
  4;231,232,252,251;,
  4;232,233,253,252;,
  4;233,234,254,253;,
  4;234,235,255,254;,
  4;235,236,256,255;,
  4;236,237,257,256;,
  4;237,238,258,257;,
  4;238,239,259,258;,
  4;239,240,260,259;,
  4;240,221,241,260;,
  4;241,242,262,261;,
  4;242,243,263,262;,
  4;243,244,264,263;,
  4;244,245,265,264;,
  4;245,246,266,265;,
  4;246,247,267,266;,
  4;247,248,268,267;,
  4;248,249,269,268;,
  4;249,250,270,269;,
  4;250,251,271,270;,
  4;251,252,272,271;,
  4;252,253,273,272;,
  4;253,254,274,273;,
  4;254,255,275,274;,
  4;255,256,276,275;,
  4;256,257,277,276;,
  4;257,258,278,277;,
  4;258,259,279,278;,
  4;259,260,280,279;,
  4;260,241,261,280;,
  4;261,262,282,281;,
  4;262,263,283,282;,
  4;263,264,284,283;,
  4;264,265,285,284;,
  4;265,266,286,285;,
  4;266,267,287,286;,
  4;267,268,288,287;,
  4;268,269,289,288;,
  4;269,270,290,289;,
  4;270,271,291,290;,
  4;271,272,292,291;,
  4;272,273,293,292;,
  4;273,274,294,293;,
  4;274,275,295,294;,
  4;275,276,296,295;,
  4;276,277,297,296;,
  4;277,278,298,297;,
  4;278,279,299,298;,
  4;279,280,300,299;,
  4;280,261,281,300;,
  4;281,282,302,301;,
  4;282,283,303,302;,
  4;283,284,304,303;,
  4;284,285,305,304;,
  4;285,286,306,305;,
  4;286,287,307,306;,
  4;287,288,308,307;,
  4;288,289,309,308;,
  4;289,290,310,309;,
  4;290,291,311,310;,
  4;291,292,312,311;,
  4;292,293,313,312;,
  4;293,294,314,313;,
  4;294,295,315,314;,
  4;295,296,316,315;,
  4;296,297,317,316;,
  4;297,298,318,317;,
  4;298,299,319,318;,
  4;299,300,320,319;,
  4;300,281,301,320;,
  4;301,302,322,321;,
  4;302,303,323,322;,
  4;303,304,324,323;,
  4;304,305,325,324;,
  4;305,306,326,325;,
  4;306,307,327,326;,
  4;307,308,328,327;,
  4;308,309,329,328;,
  4;309,310,330,329;,
  4;310,311,331,330;,
  4;311,312,332,331;,
  4;312,313,333,332;,
  4;313,314,334,333;,
  4;314,315,335,334;,
  4;315,316,336,335;,
  4;316,317,337,336;,
  4;317,318,338,337;,
  4;318,319,339,338;,
  4;319,320,340,339;,
  4;320,301,321,340;,
  4;321,322,342,341;,
  4;322,323,343,342;,
  4;323,324,344,343;,
  4;324,325,345,344;,
  4;325,326,346,345;,
  4;326,327,347,346;,
  4;327,328,348,347;,
  4;328,329,349,348;,
  4;329,330,350,349;,
  4;330,331,351,350;,
  4;331,332,352,351;,
  4;332,333,353,352;,
  4;333,334,354,353;,
  4;334,335,355,354;,
  4;335,336,356,355;,
  4;336,337,357,356;,
  4;337,338,358,357;,
  4;338,339,359,358;,
  4;339,340,360,359;,
  4;340,321,341,360;,
  4;341,342,362,361;,
  4;342,343,363,362;,
  4;343,344,364,363;,
  4;344,345,365,364;,
  4;345,346,366,365;,
  4;346,347,367,366;,
  4;347,348,368,367;,
  4;348,349,369,368;,
  4;349,350,370,369;,
  4;350,351,371,370;,
  4;351,352,372,371;,
  4;352,353,373,372;,
  4;353,354,374,373;,
  4;354,355,375,374;,
  4;355,356,376,375;,
  4;356,357,377,376;,
  4;357,358,378,377;,
  4;358,359,379,378;,
  4;359,360,380,379;,
  4;360,341,361,380;,
  3;361,362,381;,
  3;362,363,381;,
  3;363,364,381;,
  3;364,365,381;,
  3;365,366,381;,
  3;366,367,381;,
  3;367,368,381;,
  3;368,369,381;,
  3;369,370,381;,
  3;370,371,381;,
  3;371,372,381;,
  3;372,373,381;,
  3;373,374,381;,
  3;374,375,381;,
  3;375,376,381;,
  3;376,377,381;,
  3;377,378,381;,
  3;378,379,381;,
  3;379,380,381;,
  3;380,361,381;;
 }
 MeshTextureCoords {
  463;
  0.517105;0.244764;,
  0.524714;0.262427;,
  0.509496;0.262427;,
  0.532323;0.244764;,
  0.539931;0.262427;,
  0.547540;0.244764;,
  0.555148;0.262427;,
  0.562757;0.244764;,
  0.570366;0.262427;,
  0.577975;0.244764;,
  0.585584;0.262427;,
  0.593192;0.244764;,
  0.600801;0.262427;,
  0.608410;0.244764;,
  0.616018;0.262427;,
  0.623627;0.244764;,
  0.631236;0.262427;,
  0.638845;0.244764;,
  0.646453;0.262427;,
  0.654062;0.244764;,
  0.661671;0.262427;,
  0.669279;0.244764;,
  0.676888;0.262427;,
  0.684497;0.244764;,
  0.692106;0.262427;,
  0.699714;0.244764;,
  0.707323;0.262427;,
  0.714932;0.244764;,
  0.722541;0.262427;,
  0.730149;0.244764;,
  0.737758;0.262427;,
  0.745367;0.244764;,
  0.752976;0.262427;,
  0.792521;0.157814;,
  0.804938;0.184648;,
  0.780105;0.184648;,
  0.817355;0.157814;,
  0.829771;0.184648;,
  0.791019;0.244764;,
  0.798628;0.262427;,
  0.783410;0.262427;,
  0.806237;0.244764;,
  0.813845;0.262427;,
  0.524714;0.280091;,
  0.509496;0.280091;,
  0.539931;0.280091;,
  0.555148;0.280091;,
  0.570366;0.280091;,
  0.585584;0.280091;,
  0.600801;0.280091;,
  0.616018;0.280091;,
  0.631236;0.280091;,
  0.646453;0.280091;,
  0.661671;0.280091;,
  0.676888;0.280091;,
  0.692106;0.280091;,
  0.707323;0.280091;,
  0.722541;0.280091;,
  0.737758;0.280091;,
  0.752976;0.280091;,
  0.768193;0.262427;,
  0.768193;0.280091;,
  0.783410;0.280091;,
  0.798628;0.280091;,
  0.813845;0.280091;,
  0.524714;0.297755;,
  0.509496;0.297755;,
  0.539931;0.297755;,
  0.555148;0.297755;,
  0.570366;0.297755;,
  0.585584;0.297755;,
  0.600801;0.297755;,
  0.616018;0.297755;,
  0.631236;0.297755;,
  0.646453;0.297755;,
  0.661671;0.297755;,
  0.676888;0.297755;,
  0.692106;0.297755;,
  0.707323;0.297755;,
  0.722541;0.297755;,
  0.737758;0.297755;,
  0.752976;0.297755;,
  0.768193;0.297755;,
  0.783410;0.297755;,
  0.798628;0.297755;,
  0.813845;0.297755;,
  0.524714;0.315418;,
  0.509496;0.315418;,
  0.539931;0.315418;,
  0.555148;0.315418;,
  0.570366;0.315418;,
  0.585584;0.315418;,
  0.600801;0.315418;,
  0.616018;0.315418;,
  0.631236;0.315418;,
  0.646453;0.315418;,
  0.661671;0.315418;,
  0.676888;0.315418;,
  0.692106;0.315418;,
  0.707323;0.315418;,
  0.722541;0.315418;,
  0.737758;0.315418;,
  0.752976;0.315418;,
  0.768193;0.315418;,
  0.783410;0.315418;,
  0.798628;0.315418;,
  0.813845;0.315418;,
  0.524714;0.333082;,
  0.509496;0.333082;,
  0.539931;0.333082;,
  0.555148;0.333082;,
  0.570366;0.333082;,
  0.585584;0.333082;,
  0.600801;0.333082;,
  0.616018;0.333082;,
  0.631236;0.333082;,
  0.646453;0.333082;,
  0.661671;0.333082;,
  0.676888;0.333082;,
  0.692106;0.333082;,
  0.707323;0.333082;,
  0.722541;0.333082;,
  0.737758;0.333082;,
  0.752976;0.333082;,
  0.768193;0.333082;,
  0.783410;0.333082;,
  0.798628;0.333082;,
  0.813845;0.333082;,
  0.524714;0.350746;,
  0.509496;0.350746;,
  0.539931;0.350746;,
  0.555148;0.350746;,
  0.570366;0.350746;,
  0.585584;0.350746;,
  0.600801;0.350746;,
  0.616018;0.350746;,
  0.631236;0.350746;,
  0.646453;0.350746;,
  0.661671;0.350746;,
  0.676888;0.350746;,
  0.692106;0.350746;,
  0.707323;0.350746;,
  0.722541;0.350746;,
  0.737758;0.350746;,
  0.752976;0.350746;,
  0.768193;0.350746;,
  0.783410;0.350746;,
  0.798628;0.350746;,
  0.813845;0.350746;,
  0.524714;0.368409;,
  0.509496;0.368409;,
  0.539931;0.368409;,
  0.555148;0.368409;,
  0.570366;0.368409;,
  0.585584;0.368409;,
  0.600801;0.368409;,
  0.616018;0.368409;,
  0.631236;0.368409;,
  0.646453;0.368409;,
  0.661671;0.368409;,
  0.676888;0.368409;,
  0.692106;0.368409;,
  0.707323;0.368409;,
  0.722541;0.368409;,
  0.737758;0.368409;,
  0.752976;0.368409;,
  0.768193;0.368409;,
  0.783410;0.368409;,
  0.798628;0.368409;,
  0.813845;0.368409;,
  0.524714;0.386073;,
  0.509496;0.386073;,
  0.539931;0.386073;,
  0.555148;0.386073;,
  0.570366;0.386073;,
  0.585584;0.386073;,
  0.600801;0.386073;,
  0.616018;0.386073;,
  0.631236;0.386073;,
  0.646453;0.386073;,
  0.661671;0.386073;,
  0.676888;0.386073;,
  0.692106;0.386073;,
  0.707323;0.386073;,
  0.722541;0.386073;,
  0.737758;0.386073;,
  0.752976;0.386073;,
  0.768193;0.386073;,
  0.783410;0.386073;,
  0.798628;0.386073;,
  0.813845;0.386073;,
  0.524714;0.403736;,
  0.509496;0.403736;,
  0.539931;0.403736;,
  0.555148;0.403736;,
  0.570366;0.403736;,
  0.585584;0.403736;,
  0.600801;0.403736;,
  0.616018;0.403736;,
  0.631236;0.403736;,
  0.646453;0.403736;,
  0.661671;0.403736;,
  0.676888;0.403736;,
  0.692106;0.403736;,
  0.707323;0.403736;,
  0.722541;0.403736;,
  0.737758;0.403736;,
  0.752976;0.403736;,
  0.768193;0.403736;,
  0.783410;0.403736;,
  0.798628;0.403736;,
  0.813845;0.403736;,
  0.524714;0.421400;,
  0.509496;0.421400;,
  0.502262;0.600411;,
  0.517479;0.600411;,
  0.517479;0.618075;,
  0.502262;0.618075;,
  0.555148;0.421400;,
  0.539931;0.421400;,
  0.570366;0.421400;,
  0.585584;0.421400;,
  0.600801;0.421400;,
  0.616018;0.421400;,
  0.631236;0.421400;,
  0.646453;0.421400;,
  0.661671;0.421400;,
  0.676888;0.421400;,
  0.692106;0.421400;,
  0.707323;0.421400;,
  0.722541;0.421400;,
  0.737758;0.421400;,
  0.752976;0.421400;,
  0.768193;0.421400;,
  0.783410;0.421400;,
  0.798628;0.421400;,
  0.813845;0.421400;,
  0.487045;0.618075;,
  0.502262;0.635738;,
  0.487045;0.635738;,
  0.517479;0.635738;,
  0.555148;0.439064;,
  0.539931;0.439064;,
  0.570366;0.439064;,
  0.585584;0.439064;,
  0.600801;0.439064;,
  0.616018;0.439064;,
  0.631236;0.439064;,
  0.646453;0.439064;,
  0.661671;0.439064;,
  0.676888;0.439064;,
  0.692106;0.439064;,
  0.707323;0.439064;,
  0.722541;0.439064;,
  0.737758;0.439064;,
  0.752976;0.439064;,
  0.768193;0.439064;,
  0.783410;0.439064;,
  0.798628;0.439064;,
  0.815808;0.564496;,
  0.831025;0.564496;,
  0.831025;0.582160;,
  0.815808;0.582160;,
  0.502262;0.653402;,
  0.487045;0.653402;,
  0.524714;0.439064;,
  0.539931;0.456727;,
  0.524714;0.456727;,
  0.555148;0.456727;,
  0.570366;0.456727;,
  0.585584;0.456727;,
  0.600801;0.456727;,
  0.616018;0.456727;,
  0.631236;0.456727;,
  0.646453;0.456727;,
  0.661671;0.456727;,
  0.676888;0.456727;,
  0.692106;0.456727;,
  0.707323;0.456727;,
  0.722541;0.456727;,
  0.737758;0.456727;,
  0.752976;0.456727;,
  0.768193;0.456727;,
  0.783410;0.456727;,
  0.800590;0.582160;,
  0.815808;0.599824;,
  0.800590;0.599824;,
  0.831025;0.599824;,
  0.509496;0.456727;,
  0.524714;0.474391;,
  0.509496;0.474391;,
  0.539931;0.474391;,
  0.555148;0.474391;,
  0.570366;0.474391;,
  0.585584;0.474391;,
  0.600801;0.474391;,
  0.616018;0.474391;,
  0.631236;0.474391;,
  0.646453;0.474391;,
  0.661671;0.474391;,
  0.676888;0.474391;,
  0.692106;0.474391;,
  0.707323;0.474391;,
  0.722541;0.474391;,
  0.737758;0.474391;,
  0.752976;0.474391;,
  0.768193;0.474391;,
  0.785373;0.599824;,
  0.800590;0.617487;,
  0.785373;0.617487;,
  0.815808;0.617487;,
  0.831025;0.617487;,
  0.524714;0.492055;,
  0.509496;0.492055;,
  0.539931;0.492055;,
  0.555148;0.492055;,
  0.570366;0.492055;,
  0.585584;0.492055;,
  0.600801;0.492055;,
  0.616018;0.492055;,
  0.631236;0.492055;,
  0.646453;0.492055;,
  0.661671;0.492055;,
  0.676888;0.492055;,
  0.692106;0.492055;,
  0.707323;0.492055;,
  0.722541;0.492055;,
  0.737758;0.492055;,
  0.752976;0.492055;,
  0.768193;0.492055;,
  0.783410;0.474391;,
  0.783410;0.492055;,
  0.815808;0.635151;,
  0.800590;0.635151;,
  0.798628;0.474391;,
  0.813845;0.474391;,
  0.813845;0.492055;,
  0.798628;0.492055;,
  0.524714;0.509718;,
  0.509496;0.509718;,
  0.539931;0.509718;,
  0.555148;0.509718;,
  0.570366;0.509718;,
  0.585584;0.509718;,
  0.600801;0.509718;,
  0.616018;0.509718;,
  0.631236;0.509718;,
  0.646453;0.509718;,
  0.661671;0.509718;,
  0.676888;0.509718;,
  0.692106;0.509718;,
  0.707323;0.509718;,
  0.722541;0.509718;,
  0.737758;0.509718;,
  0.752976;0.509718;,
  0.768193;0.509718;,
  0.783410;0.509718;,
  0.798628;0.509718;,
  0.813845;0.509718;,
  0.524714;0.527382;,
  0.509496;0.527382;,
  0.539931;0.527382;,
  0.555148;0.527382;,
  0.570366;0.527382;,
  0.585584;0.527382;,
  0.600801;0.527382;,
  0.616018;0.527382;,
  0.631236;0.527382;,
  0.646453;0.527382;,
  0.661671;0.527382;,
  0.676888;0.527382;,
  0.692106;0.527382;,
  0.707323;0.527382;,
  0.722541;0.527382;,
  0.737758;0.527382;,
  0.752976;0.527382;,
  0.768193;0.527382;,
  0.783410;0.527382;,
  0.798628;0.527382;,
  0.813845;0.527382;,
  0.524714;0.545046;,
  0.509496;0.545046;,
  0.539931;0.545046;,
  0.555148;0.545046;,
  0.570366;0.545046;,
  0.585584;0.545046;,
  0.600801;0.545046;,
  0.616018;0.545046;,
  0.631236;0.545046;,
  0.646453;0.545046;,
  0.661671;0.545046;,
  0.676888;0.545046;,
  0.692106;0.545046;,
  0.707323;0.545046;,
  0.722541;0.545046;,
  0.737758;0.545046;,
  0.752976;0.545046;,
  0.768193;0.545046;,
  0.783410;0.545046;,
  0.798628;0.545046;,
  0.813845;0.545046;,
  0.524714;0.562709;,
  0.509496;0.562709;,
  0.539931;0.562709;,
  0.555148;0.562709;,
  0.570366;0.562709;,
  0.585584;0.562709;,
  0.600801;0.562709;,
  0.616018;0.562709;,
  0.631236;0.562709;,
  0.646453;0.562709;,
  0.661671;0.562709;,
  0.676888;0.562709;,
  0.692106;0.562709;,
  0.707323;0.562709;,
  0.722541;0.562709;,
  0.737758;0.562709;,
  0.752976;0.562709;,
  0.768193;0.562709;,
  0.783410;0.562709;,
  0.798628;0.562709;,
  0.813845;0.562709;,
  0.524714;0.580373;,
  0.509496;0.580373;,
  0.539931;0.580373;,
  0.555148;0.580373;,
  0.570366;0.580373;,
  0.585584;0.580373;,
  0.600801;0.580373;,
  0.616018;0.580373;,
  0.631236;0.580373;,
  0.646453;0.580373;,
  0.661671;0.580373;,
  0.676888;0.580373;,
  0.692106;0.580373;,
  0.707323;0.580373;,
  0.722541;0.580373;,
  0.737758;0.580373;,
  0.752976;0.580373;,
  0.768193;0.580373;,
  0.783410;0.580373;,
  0.798628;0.580373;,
  0.813845;0.580373;,
  0.517105;0.598037;,
  0.532323;0.598037;,
  0.547540;0.598037;,
  0.562757;0.598037;,
  0.577975;0.598037;,
  0.593192;0.598037;,
  0.608410;0.598037;,
  0.623627;0.598037;,
  0.638845;0.598037;,
  0.654062;0.598037;,
  0.669279;0.598037;,
  0.684497;0.598037;,
  0.699714;0.598037;,
  0.714932;0.598037;,
  0.730149;0.598037;,
  0.745367;0.598037;,
  0.760584;0.598037;,
  0.775802;0.598037;,
  0.791019;0.598037;,
  0.806237;0.598037;;
 }
 MeshVertexColors {
  463;
  0;1.000000;1.000000;1.000000;1.000000;,
  1;1.000000;1.000000;1.000000;1.000000;,
  2;1.000000;1.000000;1.000000;1.000000;,
  3;1.000000;1.000000;1.000000;1.000000;,
  4;1.000000;1.000000;1.000000;1.000000;,
  5;1.000000;1.000000;1.000000;1.000000;,
  6;1.000000;1.000000;1.000000;1.000000;,
  7;1.000000;1.000000;1.000000;1.000000;,
  8;1.000000;1.000000;1.000000;1.000000;,
  9;1.000000;1.000000;1.000000;1.000000;,
  10;1.000000;1.000000;1.000000;1.000000;,
  11;1.000000;1.000000;1.000000;1.000000;,
  12;1.000000;1.000000;1.000000;1.000000;,
  13;1.000000;1.000000;1.000000;1.000000;,
  14;1.000000;1.000000;1.000000;1.000000;,
  15;1.000000;1.000000;1.000000;1.000000;,
  16;1.000000;1.000000;1.000000;1.000000;,
  17;1.000000;1.000000;1.000000;1.000000;,
  18;1.000000;1.000000;1.000000;1.000000;,
  19;1.000000;1.000000;1.000000;1.000000;,
  20;1.000000;1.000000;1.000000;1.000000;,
  21;1.000000;1.000000;1.000000;1.000000;,
  22;1.000000;1.000000;1.000000;1.000000;,
  23;1.000000;1.000000;1.000000;1.000000;,
  24;1.000000;1.000000;1.000000;1.000000;,
  25;1.000000;1.000000;1.000000;1.000000;,
  26;1.000000;1.000000;1.000000;1.000000;,
  27;1.000000;1.000000;1.000000;1.000000;,
  28;1.000000;1.000000;1.000000;1.000000;,
  29;1.000000;1.000000;1.000000;1.000000;,
  30;1.000000;1.000000;1.000000;1.000000;,
  31;1.000000;1.000000;1.000000;1.000000;,
  32;1.000000;1.000000;1.000000;1.000000;,
  33;1.000000;1.000000;1.000000;1.000000;,
  34;1.000000;1.000000;1.000000;1.000000;,
  35;1.000000;1.000000;1.000000;1.000000;,
  36;1.000000;1.000000;1.000000;1.000000;,
  37;1.000000;1.000000;1.000000;1.000000;,
  38;1.000000;1.000000;1.000000;1.000000;,
  39;1.000000;1.000000;1.000000;1.000000;,
  40;1.000000;1.000000;1.000000;1.000000;,
  41;1.000000;1.000000;1.000000;1.000000;,
  42;1.000000;1.000000;1.000000;1.000000;,
  43;1.000000;1.000000;1.000000;1.000000;,
  44;1.000000;1.000000;1.000000;1.000000;,
  45;1.000000;1.000000;1.000000;1.000000;,
  46;1.000000;1.000000;1.000000;1.000000;,
  47;1.000000;1.000000;1.000000;1.000000;,
  48;1.000000;1.000000;1.000000;1.000000;,
  49;1.000000;1.000000;1.000000;1.000000;,
  50;1.000000;1.000000;1.000000;1.000000;,
  51;1.000000;1.000000;1.000000;1.000000;,
  52;1.000000;1.000000;1.000000;1.000000;,
  53;1.000000;1.000000;1.000000;1.000000;,
  54;1.000000;1.000000;1.000000;1.000000;,
  55;1.000000;1.000000;1.000000;1.000000;,
  56;1.000000;1.000000;1.000000;1.000000;,
  57;1.000000;1.000000;1.000000;1.000000;,
  58;1.000000;1.000000;1.000000;1.000000;,
  59;1.000000;1.000000;1.000000;1.000000;,
  60;1.000000;1.000000;1.000000;1.000000;,
  61;1.000000;1.000000;1.000000;1.000000;,
  62;1.000000;1.000000;1.000000;1.000000;,
  63;1.000000;1.000000;1.000000;1.000000;,
  64;1.000000;1.000000;1.000000;1.000000;,
  65;1.000000;1.000000;1.000000;1.000000;,
  66;1.000000;1.000000;1.000000;1.000000;,
  67;1.000000;1.000000;1.000000;1.000000;,
  68;1.000000;1.000000;1.000000;1.000000;,
  69;1.000000;1.000000;1.000000;1.000000;,
  70;1.000000;1.000000;1.000000;1.000000;,
  71;1.000000;1.000000;1.000000;1.000000;,
  72;1.000000;1.000000;1.000000;1.000000;,
  73;1.000000;1.000000;1.000000;1.000000;,
  74;1.000000;1.000000;1.000000;1.000000;,
  75;1.000000;1.000000;1.000000;1.000000;,
  76;1.000000;1.000000;1.000000;1.000000;,
  77;1.000000;1.000000;1.000000;1.000000;,
  78;1.000000;1.000000;1.000000;1.000000;,
  79;1.000000;1.000000;1.000000;1.000000;,
  80;1.000000;1.000000;1.000000;1.000000;,
  81;1.000000;1.000000;1.000000;1.000000;,
  82;1.000000;1.000000;1.000000;1.000000;,
  83;1.000000;1.000000;1.000000;1.000000;,
  84;1.000000;1.000000;1.000000;1.000000;,
  85;1.000000;1.000000;1.000000;1.000000;,
  86;1.000000;1.000000;1.000000;1.000000;,
  87;1.000000;1.000000;1.000000;1.000000;,
  88;1.000000;1.000000;1.000000;1.000000;,
  89;1.000000;1.000000;1.000000;1.000000;,
  90;1.000000;1.000000;1.000000;1.000000;,
  91;1.000000;1.000000;1.000000;1.000000;,
  92;1.000000;1.000000;1.000000;1.000000;,
  93;1.000000;1.000000;1.000000;1.000000;,
  94;1.000000;1.000000;1.000000;1.000000;,
  95;1.000000;1.000000;1.000000;1.000000;,
  96;1.000000;1.000000;1.000000;1.000000;,
  97;1.000000;1.000000;1.000000;1.000000;,
  98;1.000000;1.000000;1.000000;1.000000;,
  99;1.000000;1.000000;1.000000;1.000000;,
  100;1.000000;1.000000;1.000000;1.000000;,
  101;1.000000;1.000000;1.000000;1.000000;,
  102;1.000000;1.000000;1.000000;1.000000;,
  103;1.000000;1.000000;1.000000;1.000000;,
  104;1.000000;1.000000;1.000000;1.000000;,
  105;1.000000;1.000000;1.000000;1.000000;,
  106;1.000000;1.000000;1.000000;1.000000;,
  107;1.000000;1.000000;1.000000;1.000000;,
  108;1.000000;1.000000;1.000000;1.000000;,
  109;1.000000;1.000000;1.000000;1.000000;,
  110;1.000000;1.000000;1.000000;1.000000;,
  111;1.000000;1.000000;1.000000;1.000000;,
  112;1.000000;1.000000;1.000000;1.000000;,
  113;1.000000;1.000000;1.000000;1.000000;,
  114;1.000000;1.000000;1.000000;1.000000;,
  115;1.000000;1.000000;1.000000;1.000000;,
  116;1.000000;1.000000;1.000000;1.000000;,
  117;1.000000;1.000000;1.000000;1.000000;,
  118;1.000000;1.000000;1.000000;1.000000;,
  119;1.000000;1.000000;1.000000;1.000000;,
  120;1.000000;1.000000;1.000000;1.000000;,
  121;1.000000;1.000000;1.000000;1.000000;,
  122;1.000000;1.000000;1.000000;1.000000;,
  123;1.000000;1.000000;1.000000;1.000000;,
  124;1.000000;1.000000;1.000000;1.000000;,
  125;1.000000;1.000000;1.000000;1.000000;,
  126;1.000000;1.000000;1.000000;1.000000;,
  127;1.000000;1.000000;1.000000;1.000000;,
  128;1.000000;1.000000;1.000000;1.000000;,
  129;1.000000;1.000000;1.000000;1.000000;,
  130;1.000000;1.000000;1.000000;1.000000;,
  131;1.000000;1.000000;1.000000;1.000000;,
  132;1.000000;1.000000;1.000000;1.000000;,
  133;1.000000;1.000000;1.000000;1.000000;,
  134;1.000000;1.000000;1.000000;1.000000;,
  135;1.000000;1.000000;1.000000;1.000000;,
  136;1.000000;1.000000;1.000000;1.000000;,
  137;1.000000;1.000000;1.000000;1.000000;,
  138;1.000000;1.000000;1.000000;1.000000;,
  139;1.000000;1.000000;1.000000;1.000000;,
  140;1.000000;1.000000;1.000000;1.000000;,
  141;1.000000;1.000000;1.000000;1.000000;,
  142;1.000000;1.000000;1.000000;1.000000;,
  143;1.000000;1.000000;1.000000;1.000000;,
  144;1.000000;1.000000;1.000000;1.000000;,
  145;1.000000;1.000000;1.000000;1.000000;,
  146;1.000000;1.000000;1.000000;1.000000;,
  147;1.000000;1.000000;1.000000;1.000000;,
  148;1.000000;1.000000;1.000000;1.000000;,
  149;1.000000;1.000000;1.000000;1.000000;,
  150;1.000000;1.000000;1.000000;1.000000;,
  151;1.000000;1.000000;1.000000;1.000000;,
  152;1.000000;1.000000;1.000000;1.000000;,
  153;1.000000;1.000000;1.000000;1.000000;,
  154;1.000000;1.000000;1.000000;1.000000;,
  155;1.000000;1.000000;1.000000;1.000000;,
  156;1.000000;1.000000;1.000000;1.000000;,
  157;1.000000;1.000000;1.000000;1.000000;,
  158;1.000000;1.000000;1.000000;1.000000;,
  159;1.000000;1.000000;1.000000;1.000000;,
  160;1.000000;1.000000;1.000000;1.000000;,
  161;1.000000;1.000000;1.000000;1.000000;,
  162;1.000000;1.000000;1.000000;1.000000;,
  163;1.000000;1.000000;1.000000;1.000000;,
  164;1.000000;1.000000;1.000000;1.000000;,
  165;1.000000;1.000000;1.000000;1.000000;,
  166;1.000000;1.000000;1.000000;1.000000;,
  167;1.000000;1.000000;1.000000;1.000000;,
  168;1.000000;1.000000;1.000000;1.000000;,
  169;1.000000;1.000000;1.000000;1.000000;,
  170;1.000000;1.000000;1.000000;1.000000;,
  171;1.000000;1.000000;1.000000;1.000000;,
  172;1.000000;1.000000;1.000000;1.000000;,
  173;1.000000;1.000000;1.000000;1.000000;,
  174;1.000000;1.000000;1.000000;1.000000;,
  175;1.000000;1.000000;1.000000;1.000000;,
  176;1.000000;1.000000;1.000000;1.000000;,
  177;1.000000;1.000000;1.000000;1.000000;,
  178;1.000000;1.000000;1.000000;1.000000;,
  179;1.000000;1.000000;1.000000;1.000000;,
  180;1.000000;1.000000;1.000000;1.000000;,
  181;1.000000;1.000000;1.000000;1.000000;,
  182;1.000000;1.000000;1.000000;1.000000;,
  183;1.000000;1.000000;1.000000;1.000000;,
  184;1.000000;1.000000;1.000000;1.000000;,
  185;1.000000;1.000000;1.000000;1.000000;,
  186;1.000000;1.000000;1.000000;1.000000;,
  187;1.000000;1.000000;1.000000;1.000000;,
  188;1.000000;1.000000;1.000000;1.000000;,
  189;1.000000;1.000000;1.000000;1.000000;,
  190;1.000000;1.000000;1.000000;1.000000;,
  191;1.000000;1.000000;1.000000;1.000000;,
  192;1.000000;1.000000;1.000000;1.000000;,
  193;1.000000;1.000000;1.000000;1.000000;,
  194;1.000000;1.000000;1.000000;1.000000;,
  195;1.000000;1.000000;1.000000;1.000000;,
  196;1.000000;1.000000;1.000000;1.000000;,
  197;1.000000;1.000000;1.000000;1.000000;,
  198;1.000000;1.000000;1.000000;1.000000;,
  199;1.000000;1.000000;1.000000;1.000000;,
  200;1.000000;1.000000;1.000000;1.000000;,
  201;1.000000;1.000000;1.000000;1.000000;,
  202;1.000000;1.000000;1.000000;1.000000;,
  203;1.000000;1.000000;1.000000;1.000000;,
  204;1.000000;1.000000;1.000000;1.000000;,
  205;1.000000;1.000000;1.000000;1.000000;,
  206;1.000000;1.000000;1.000000;1.000000;,
  207;1.000000;1.000000;1.000000;1.000000;,
  208;1.000000;1.000000;1.000000;1.000000;,
  209;1.000000;1.000000;1.000000;1.000000;,
  210;1.000000;1.000000;1.000000;1.000000;,
  211;1.000000;1.000000;1.000000;1.000000;,
  212;1.000000;1.000000;1.000000;1.000000;,
  213;1.000000;1.000000;1.000000;1.000000;,
  214;1.000000;1.000000;1.000000;1.000000;,
  215;1.000000;1.000000;1.000000;1.000000;,
  216;1.000000;1.000000;1.000000;1.000000;,
  217;1.000000;1.000000;1.000000;1.000000;,
  218;1.000000;1.000000;1.000000;1.000000;,
  219;1.000000;1.000000;1.000000;1.000000;,
  220;1.000000;1.000000;1.000000;1.000000;,
  221;1.000000;1.000000;1.000000;1.000000;,
  222;1.000000;1.000000;1.000000;1.000000;,
  223;1.000000;1.000000;1.000000;1.000000;,
  224;1.000000;1.000000;1.000000;1.000000;,
  225;1.000000;1.000000;1.000000;1.000000;,
  226;1.000000;1.000000;1.000000;1.000000;,
  227;1.000000;1.000000;1.000000;1.000000;,
  228;1.000000;1.000000;1.000000;1.000000;,
  229;1.000000;1.000000;1.000000;1.000000;,
  230;1.000000;1.000000;1.000000;1.000000;,
  231;1.000000;1.000000;1.000000;1.000000;,
  232;1.000000;1.000000;1.000000;1.000000;,
  233;1.000000;1.000000;1.000000;1.000000;,
  234;1.000000;1.000000;1.000000;1.000000;,
  235;1.000000;1.000000;1.000000;1.000000;,
  236;1.000000;1.000000;1.000000;1.000000;,
  237;1.000000;1.000000;1.000000;1.000000;,
  238;1.000000;1.000000;1.000000;1.000000;,
  239;1.000000;1.000000;1.000000;1.000000;,
  240;1.000000;1.000000;1.000000;1.000000;,
  241;1.000000;1.000000;1.000000;1.000000;,
  242;1.000000;1.000000;1.000000;1.000000;,
  243;1.000000;1.000000;1.000000;1.000000;,
  244;1.000000;1.000000;1.000000;1.000000;,
  245;1.000000;1.000000;1.000000;1.000000;,
  246;1.000000;1.000000;1.000000;1.000000;,
  247;1.000000;1.000000;1.000000;1.000000;,
  248;1.000000;1.000000;1.000000;1.000000;,
  249;1.000000;1.000000;1.000000;1.000000;,
  250;1.000000;1.000000;1.000000;1.000000;,
  251;1.000000;1.000000;1.000000;1.000000;,
  252;1.000000;1.000000;1.000000;1.000000;,
  253;1.000000;1.000000;1.000000;1.000000;,
  254;1.000000;1.000000;1.000000;1.000000;,
  255;1.000000;1.000000;1.000000;1.000000;,
  256;1.000000;1.000000;1.000000;1.000000;,
  257;1.000000;1.000000;1.000000;1.000000;,
  258;1.000000;1.000000;1.000000;1.000000;,
  259;1.000000;1.000000;1.000000;1.000000;,
  260;1.000000;1.000000;1.000000;1.000000;,
  261;1.000000;1.000000;1.000000;1.000000;,
  262;1.000000;1.000000;1.000000;1.000000;,
  263;1.000000;1.000000;1.000000;1.000000;,
  264;1.000000;1.000000;1.000000;1.000000;,
  265;1.000000;1.000000;1.000000;1.000000;,
  266;1.000000;1.000000;1.000000;1.000000;,
  267;1.000000;1.000000;1.000000;1.000000;,
  268;1.000000;1.000000;1.000000;1.000000;,
  269;1.000000;1.000000;1.000000;1.000000;,
  270;1.000000;1.000000;1.000000;1.000000;,
  271;1.000000;1.000000;1.000000;1.000000;,
  272;1.000000;1.000000;1.000000;1.000000;,
  273;1.000000;1.000000;1.000000;1.000000;,
  274;1.000000;1.000000;1.000000;1.000000;,
  275;1.000000;1.000000;1.000000;1.000000;,
  276;1.000000;1.000000;1.000000;1.000000;,
  277;1.000000;1.000000;1.000000;1.000000;,
  278;1.000000;1.000000;1.000000;1.000000;,
  279;1.000000;1.000000;1.000000;1.000000;,
  280;1.000000;1.000000;1.000000;1.000000;,
  281;1.000000;1.000000;1.000000;1.000000;,
  282;1.000000;1.000000;1.000000;1.000000;,
  283;1.000000;1.000000;1.000000;1.000000;,
  284;1.000000;1.000000;1.000000;1.000000;,
  285;1.000000;1.000000;1.000000;1.000000;,
  286;1.000000;1.000000;1.000000;1.000000;,
  287;1.000000;1.000000;1.000000;1.000000;,
  288;1.000000;1.000000;1.000000;1.000000;,
  289;1.000000;1.000000;1.000000;1.000000;,
  290;1.000000;1.000000;1.000000;1.000000;,
  291;1.000000;1.000000;1.000000;1.000000;,
  292;1.000000;1.000000;1.000000;1.000000;,
  293;1.000000;1.000000;1.000000;1.000000;,
  294;1.000000;1.000000;1.000000;1.000000;,
  295;1.000000;1.000000;1.000000;1.000000;,
  296;1.000000;1.000000;1.000000;1.000000;,
  297;1.000000;1.000000;1.000000;1.000000;,
  298;1.000000;1.000000;1.000000;1.000000;,
  299;1.000000;1.000000;1.000000;1.000000;,
  300;1.000000;1.000000;1.000000;1.000000;,
  301;1.000000;1.000000;1.000000;1.000000;,
  302;1.000000;1.000000;1.000000;1.000000;,
  303;1.000000;1.000000;1.000000;1.000000;,
  304;1.000000;1.000000;1.000000;1.000000;,
  305;1.000000;1.000000;1.000000;1.000000;,
  306;1.000000;1.000000;1.000000;1.000000;,
  307;1.000000;1.000000;1.000000;1.000000;,
  308;1.000000;1.000000;1.000000;1.000000;,
  309;1.000000;1.000000;1.000000;1.000000;,
  310;1.000000;1.000000;1.000000;1.000000;,
  311;1.000000;1.000000;1.000000;1.000000;,
  312;1.000000;1.000000;1.000000;1.000000;,
  313;1.000000;1.000000;1.000000;1.000000;,
  314;1.000000;1.000000;1.000000;1.000000;,
  315;1.000000;1.000000;1.000000;1.000000;,
  316;1.000000;1.000000;1.000000;1.000000;,
  317;1.000000;1.000000;1.000000;1.000000;,
  318;1.000000;1.000000;1.000000;1.000000;,
  319;1.000000;1.000000;1.000000;1.000000;,
  320;1.000000;1.000000;1.000000;1.000000;,
  321;1.000000;1.000000;1.000000;1.000000;,
  322;1.000000;1.000000;1.000000;1.000000;,
  323;1.000000;1.000000;1.000000;1.000000;,
  324;1.000000;1.000000;1.000000;1.000000;,
  325;1.000000;1.000000;1.000000;1.000000;,
  326;1.000000;1.000000;1.000000;1.000000;,
  327;1.000000;1.000000;1.000000;1.000000;,
  328;1.000000;1.000000;1.000000;1.000000;,
  329;1.000000;1.000000;1.000000;1.000000;,
  330;1.000000;1.000000;1.000000;1.000000;,
  331;1.000000;1.000000;1.000000;1.000000;,
  332;1.000000;1.000000;1.000000;1.000000;,
  333;1.000000;1.000000;1.000000;1.000000;,
  334;1.000000;1.000000;1.000000;1.000000;,
  335;1.000000;1.000000;1.000000;1.000000;,
  336;1.000000;1.000000;1.000000;1.000000;,
  337;1.000000;1.000000;1.000000;1.000000;,
  338;1.000000;1.000000;1.000000;1.000000;,
  339;1.000000;1.000000;1.000000;1.000000;,
  340;1.000000;1.000000;1.000000;1.000000;,
  341;1.000000;1.000000;1.000000;1.000000;,
  342;1.000000;1.000000;1.000000;1.000000;,
  343;1.000000;1.000000;1.000000;1.000000;,
  344;1.000000;1.000000;1.000000;1.000000;,
  345;1.000000;1.000000;1.000000;1.000000;,
  346;1.000000;1.000000;1.000000;1.000000;,
  347;1.000000;1.000000;1.000000;1.000000;,
  348;1.000000;1.000000;1.000000;1.000000;,
  349;1.000000;1.000000;1.000000;1.000000;,
  350;1.000000;1.000000;1.000000;1.000000;,
  351;1.000000;1.000000;1.000000;1.000000;,
  352;1.000000;1.000000;1.000000;1.000000;,
  353;1.000000;1.000000;1.000000;1.000000;,
  354;1.000000;1.000000;1.000000;1.000000;,
  355;1.000000;1.000000;1.000000;1.000000;,
  356;1.000000;1.000000;1.000000;1.000000;,
  357;1.000000;1.000000;1.000000;1.000000;,
  358;1.000000;1.000000;1.000000;1.000000;,
  359;1.000000;1.000000;1.000000;1.000000;,
  360;1.000000;1.000000;1.000000;1.000000;,
  361;1.000000;1.000000;1.000000;1.000000;,
  362;1.000000;1.000000;1.000000;1.000000;,
  363;1.000000;1.000000;1.000000;1.000000;,
  364;1.000000;1.000000;1.000000;1.000000;,
  365;1.000000;1.000000;1.000000;1.000000;,
  366;1.000000;1.000000;1.000000;1.000000;,
  367;1.000000;1.000000;1.000000;1.000000;,
  368;1.000000;1.000000;1.000000;1.000000;,
  369;1.000000;1.000000;1.000000;1.000000;,
  370;1.000000;1.000000;1.000000;1.000000;,
  371;1.000000;1.000000;1.000000;1.000000;,
  372;1.000000;1.000000;1.000000;1.000000;,
  373;1.000000;1.000000;1.000000;1.000000;,
  374;1.000000;1.000000;1.000000;1.000000;,
  375;1.000000;1.000000;1.000000;1.000000;,
  376;1.000000;1.000000;1.000000;1.000000;,
  377;1.000000;1.000000;1.000000;1.000000;,
  378;1.000000;1.000000;1.000000;1.000000;,
  379;1.000000;1.000000;1.000000;1.000000;,
  380;1.000000;1.000000;1.000000;1.000000;,
  381;1.000000;1.000000;1.000000;1.000000;,
  382;1.000000;1.000000;1.000000;1.000000;,
  383;1.000000;1.000000;1.000000;1.000000;,
  384;1.000000;1.000000;1.000000;1.000000;,
  385;1.000000;1.000000;1.000000;1.000000;,
  386;1.000000;1.000000;1.000000;1.000000;,
  387;1.000000;1.000000;1.000000;1.000000;,
  388;1.000000;1.000000;1.000000;1.000000;,
  389;1.000000;1.000000;1.000000;1.000000;,
  390;1.000000;1.000000;1.000000;1.000000;,
  391;1.000000;1.000000;1.000000;1.000000;,
  392;1.000000;1.000000;1.000000;1.000000;,
  393;1.000000;1.000000;1.000000;1.000000;,
  394;1.000000;1.000000;1.000000;1.000000;,
  395;1.000000;1.000000;1.000000;1.000000;,
  396;1.000000;1.000000;1.000000;1.000000;,
  397;1.000000;1.000000;1.000000;1.000000;,
  398;1.000000;1.000000;1.000000;1.000000;,
  399;1.000000;1.000000;1.000000;1.000000;,
  400;1.000000;1.000000;1.000000;1.000000;,
  401;1.000000;1.000000;1.000000;1.000000;,
  402;1.000000;1.000000;1.000000;1.000000;,
  403;1.000000;1.000000;1.000000;1.000000;,
  404;1.000000;1.000000;1.000000;1.000000;,
  405;1.000000;1.000000;1.000000;1.000000;,
  406;1.000000;1.000000;1.000000;1.000000;,
  407;1.000000;1.000000;1.000000;1.000000;,
  408;1.000000;1.000000;1.000000;1.000000;,
  409;1.000000;1.000000;1.000000;1.000000;,
  410;1.000000;1.000000;1.000000;1.000000;,
  411;1.000000;1.000000;1.000000;1.000000;,
  412;1.000000;1.000000;1.000000;1.000000;,
  413;1.000000;1.000000;1.000000;1.000000;,
  414;1.000000;1.000000;1.000000;1.000000;,
  415;1.000000;1.000000;1.000000;1.000000;,
  416;1.000000;1.000000;1.000000;1.000000;,
  417;1.000000;1.000000;1.000000;1.000000;,
  418;1.000000;1.000000;1.000000;1.000000;,
  419;1.000000;1.000000;1.000000;1.000000;,
  420;1.000000;1.000000;1.000000;1.000000;,
  421;1.000000;1.000000;1.000000;1.000000;,
  422;1.000000;1.000000;1.000000;1.000000;,
  423;1.000000;1.000000;1.000000;1.000000;,
  424;1.000000;1.000000;1.000000;1.000000;,
  425;1.000000;1.000000;1.000000;1.000000;,
  426;1.000000;1.000000;1.000000;1.000000;,
  427;1.000000;1.000000;1.000000;1.000000;,
  428;1.000000;1.000000;1.000000;1.000000;,
  429;1.000000;1.000000;1.000000;1.000000;,
  430;1.000000;1.000000;1.000000;1.000000;,
  431;1.000000;1.000000;1.000000;1.000000;,
  432;1.000000;1.000000;1.000000;1.000000;,
  433;1.000000;1.000000;1.000000;1.000000;,
  434;1.000000;1.000000;1.000000;1.000000;,
  435;1.000000;1.000000;1.000000;1.000000;,
  436;1.000000;1.000000;1.000000;1.000000;,
  437;1.000000;1.000000;1.000000;1.000000;,
  438;1.000000;1.000000;1.000000;1.000000;,
  439;1.000000;1.000000;1.000000;1.000000;,
  440;1.000000;1.000000;1.000000;1.000000;,
  441;1.000000;1.000000;1.000000;1.000000;,
  442;1.000000;1.000000;1.000000;1.000000;,
  443;1.000000;1.000000;1.000000;1.000000;,
  444;1.000000;1.000000;1.000000;1.000000;,
  445;1.000000;1.000000;1.000000;1.000000;,
  446;1.000000;1.000000;1.000000;1.000000;,
  447;1.000000;1.000000;1.000000;1.000000;,
  448;1.000000;1.000000;1.000000;1.000000;,
  449;1.000000;1.000000;1.000000;1.000000;,
  450;1.000000;1.000000;1.000000;1.000000;,
  451;1.000000;1.000000;1.000000;1.000000;,
  452;1.000000;1.000000;1.000000;1.000000;,
  453;1.000000;1.000000;1.000000;1.000000;,
  454;1.000000;1.000000;1.000000;1.000000;,
  455;1.000000;1.000000;1.000000;1.000000;,
  456;1.000000;1.000000;1.000000;1.000000;,
  457;1.000000;1.000000;1.000000;1.000000;,
  458;1.000000;1.000000;1.000000;1.000000;,
  459;1.000000;1.000000;1.000000;1.000000;,
  460;1.000000;1.000000;1.000000;1.000000;,
  461;1.000000;1.000000;1.000000;1.000000;,
  462;1.000000;1.000000;1.000000;1.000000;;
 }
}
