xof 0302txt 0064
template Header {
 <3D82AB43-62DA-11cf-AB39-0020AF71E433>
 WORD major;
 WORD minor;
 DWORD flags;
}

template Vector {
 <3D82AB5E-62DA-11cf-AB39-0020AF71E433>
 FLOAT x;
 FLOAT y;
 FLOAT z;
}

template Coords2d {
 <F6F23F44-7686-11cf-8F52-0040333594A3>
 FLOAT u;
 FLOAT v;
}

template Matrix4x4 {
 <F6F23F45-7686-11cf-8F52-0040333594A3>
 array FLOAT matrix[16];
}

template ColorRGBA {
 <35FF44E0-6C7C-11cf-8F52-0040333594A3>
 FLOAT red;
 FLOAT green;
 FLOAT blue;
 FLOAT alpha;
}

template ColorRGB {
 <D3E16E81-7835-11cf-8F52-0040333594A3>
 FLOAT red;
 FLOAT green;
 FLOAT blue;
}

template IndexedColor {
 <1630B820-7842-11cf-8F52-0040333594A3>
 DWORD index;
 ColorRGBA indexColor;
}

template Boolean {
 <4885AE61-78E8-11cf-8F52-0040333594A3>
 WORD truefalse;
}

template Boolean2d {
 <4885AE63-78E8-11cf-8F52-0040333594A3>
 Boolean u;
 Boolean v;
}

template MaterialWrap {
 <4885AE60-78E8-11cf-8F52-0040333594A3>
 Boolean u;
 Boolean v;
}

template TextureFilename {
 <A42790E1-7810-11cf-8F52-0040333594A3>
 STRING filename;
}

template Material {
 <3D82AB4D-62DA-11cf-AB39-0020AF71E433>
 ColorRGBA faceColor;
 FLOAT power;
 ColorRGB specularColor;
 ColorRGB emissiveColor;
 [...]
}

template MeshFace {
 <3D82AB5F-62DA-11cf-AB39-0020AF71E433>
 DWORD nFaceVertexIndices;
 array DWORD faceVertexIndices[nFaceVertexIndices];
}

template MeshFaceWraps {
 <4885AE62-78E8-11cf-8F52-0040333594A3>
 DWORD nFaceWrapValues;
 Boolean2d faceWrapValues;
}

template MeshTextureCoords {
 <F6F23F40-7686-11cf-8F52-0040333594A3>
 DWORD nTextureCoords;
 array Coords2d textureCoords[nTextureCoords];
}

template MeshMaterialList {
 <F6F23F42-7686-11cf-8F52-0040333594A3>
 DWORD nMaterials;
 DWORD nFaceIndexes;
 array DWORD faceIndexes[nFaceIndexes];
 [Material]
}

template MeshNormals {
 <F6F23F43-7686-11cf-8F52-0040333594A3>
 DWORD nNormals;
 array Vector normals[nNormals];
 DWORD nFaceNormals;
 array MeshFace faceNormals[nFaceNormals];
}

template MeshVertexColors {
 <1630B821-7842-11cf-8F52-0040333594A3>
 DWORD nVertexColors;
 array IndexedColor vertexColors[nVertexColors];
}

template Mesh {
 <3D82AB44-62DA-11cf-AB39-0020AF71E433>
 DWORD nVertices;
 array Vector vertices[nVertices];
 DWORD nFaces;
 array MeshFace faces[nFaces];
 [...]
}

Header{
1;
0;
1;
}

Mesh {
 372;
 -0.46615;-1.74042;0.40491;,
 -0.34576;-1.51265;0.64096;,
 -0.52159;-1.44277;0.51033;,
 -0.51262;-0.64633;-0.13309;,
 -0.34067;-0.60453;-0.28423;,
 -0.48609;-0.88773;-0.28032;,
 0.01106;-0.21187;-0.11020;,
 -0.19099;-0.40323;-0.27366;,
 -0.36365;-0.33658;-0.02102;,
 -0.19099;-0.40323;-0.27366;,
 0.06338;-0.67519;-0.38871;,
 -0.34067;-0.60453;-0.28423;,
 0.08468;-0.40852;-0.29846;,
 -0.16868;-1.35492;-0.52729;,
 -0.06784;-1.61693;-0.51182;,
 -0.30371;-1.58819;-0.44917;,
 -0.21920;-0.83273;-0.40887;,
 -0.38911;-1.10777;-0.39915;,
 -0.48609;-0.88773;-0.28032;,
 -0.46013;-1.38414;-0.40746;,
 -0.69321;-1.27419;-0.12686;,
 -0.38911;-1.10777;-0.39915;,
 -0.30371;-1.58819;-0.44917;,
 -0.46013;-1.38414;-0.40746;,
 -0.16868;-1.35492;-0.52729;,
 -0.44223;-0.45239;0.19170;,
 -0.66283;-0.85243;0.06648;,
 -0.47732;-0.73033;0.41441;,
 -0.44223;-0.45239;0.19170;,
 -0.51262;-0.64633;-0.13309;,
 -0.66283;-0.85243;0.06648;,
 -0.65231;-1.04632;0.32416;,
 -0.47732;-0.73033;0.41441;,
 -0.65231;-1.04632;0.32416;,
 -0.68790;-1.44019;0.19139;,
 -0.65231;-1.04632;0.32416;,
 -0.66283;-0.85243;0.06648;,
 -0.69321;-1.27419;-0.12686;,
 -0.56198;-1.18007;0.50372;,
 -0.52159;-1.44277;0.51033;,
 -0.68790;-1.44019;0.19139;,
 -0.46615;-1.74042;0.40491;,
 -0.52159;-1.44277;0.51033;,
 -0.58674;-1.71987;0.02855;,
 -0.57744;-1.58419;-0.24397;,
 -0.37962;-1.85859;-0.17041;,
 -0.22017;-1.81425;0.56894;,
 -0.08754;-2.00258;-0.10750;,
 -0.36667;-1.92230;0.20298;,
 -0.37962;-1.85859;-0.17041;,
 -0.05705;-2.04009;0.29072;,
 -0.22017;-1.81425;0.56894;,
 -0.36667;-1.92230;0.20298;,
 -0.00238;-1.93211;0.53106;,
 -0.05705;-2.04009;0.29072;,
 -0.03870;-1.86154;-0.37231;,
 -0.08754;-2.00258;-0.10750;,
 -0.03870;-1.86154;-0.37231;,
 -0.37962;-1.85859;-0.17041;,
 -0.30371;-1.58819;-0.44917;,
 -0.34576;-1.51265;0.64096;,
 -0.07984;-1.64743;0.75340;,
 0.00139;-1.38419;0.75141;,
 -0.28111;-1.10702;0.65858;,
 -0.34576;-1.51265;0.64096;,
 0.00139;-1.38419;0.75141;,
 -0.27651;-0.56562;0.48633;,
 -0.13901;-0.76320;0.60357;,
 -0.56198;-1.18007;0.50372;,
 -0.28111;-1.10702;0.65858;,
 -0.36365;-0.33658;-0.02102;,
 -0.01108;-0.19336;0.15981;,
 0.01106;-0.21187;-0.11020;,
 -0.07984;-1.64743;0.75340;,
 -0.22017;-1.81425;0.56894;,
 -0.22017;-1.81425;0.56894;,
 0.13012;-1.75284;0.65039;,
 -0.07984;-1.64743;0.75340;,
 -0.57744;-1.58419;-0.24397;,
 -0.30371;-1.58819;-0.44917;,
 -0.37962;-1.85859;-0.17041;,
 -0.30371;-1.58819;-0.44917;,
 -0.57744;-1.58419;-0.24397;,
 -0.46013;-1.38414;-0.40746;,
 -0.46013;-1.38414;-0.40746;,
 -0.38911;-1.10777;-0.39915;,
 -0.16868;-1.35492;-0.52729;,
 -0.21920;-0.83273;-0.40887;,
 -0.03687;-1.03092;-0.50135;,
 -0.03687;-1.03092;-0.50135;,
 -0.21920;-0.83273;-0.40887;,
 -0.48609;-0.88773;-0.28032;,
 -0.21920;-0.83273;-0.40887;,
 -0.34067;-0.60453;-0.28423;,
 0.06338;-0.67519;-0.38871;,
 -0.34576;-1.51265;0.64096;,
 -0.28111;-1.10702;0.65858;,
 -0.52159;-1.44277;0.51033;,
 -0.48609;-0.88773;-0.28032;,
 -0.66283;-0.85243;0.06648;,
 -0.48609;-0.88773;-0.28032;,
 -0.38911;-1.10777;-0.39915;,
 -0.69321;-1.27419;-0.12686;,
 -0.13373;-0.37375;0.39123;,
 -0.28111;-1.10702;0.65858;,
 -0.47732;-0.73033;0.41441;,
 -0.65231;-1.04632;0.32416;,
 0.00139;-1.38419;0.75141;,
 0.00629;-1.07951;0.70696;,
 0.14755;-0.56749;0.50484;,
 -0.36365;-0.33658;-0.02102;,
 -0.13373;-0.37375;0.39123;,
 -0.01108;-0.19336;0.15981;,
 0.08468;-0.40852;-0.29846;,
 -0.19099;-0.40323;-0.27366;,
 0.01106;-0.21187;-0.11020;,
 -0.36365;-0.33658;-0.02102;,
 -0.36365;-0.33658;-0.02102;,
 -0.19099;-0.40323;-0.27366;,
 -0.34067;-0.60453;-0.28423;,
 -0.51262;-0.64633;-0.13309;,
 -0.36365;-0.33658;-0.02102;,
 -0.34067;-0.60453;-0.28423;,
 -0.48609;-0.88773;-0.28032;,
 -0.66283;-0.85243;0.06648;,
 -0.51262;-0.64633;-0.13309;,
 -0.52159;-1.44277;0.51033;,
 -0.36667;-1.92230;0.20298;,
 -0.36667;-1.92230;0.20298;,
 -0.46615;-1.74042;0.40491;,
 -0.58674;-1.71987;0.02855;,
 -0.46615;-1.74042;0.40491;,
 -0.68790;-1.44019;0.19139;,
 -0.58674;-1.71987;0.02855;,
 -0.03687;-1.03092;-0.50135;,
 -0.16868;-1.35492;-0.52729;,
 -0.38911;-1.10777;-0.39915;,
 -0.03870;-1.86154;-0.37231;,
 -0.30371;-1.58819;-0.44917;,
 -0.06784;-1.61693;-0.51182;,
 -0.08754;-2.00258;-0.10750;,
 -0.36667;-1.92230;0.20298;,
 -0.00238;-1.93211;0.53106;,
 0.48142;-1.47413;0.49194;,
 0.31043;-1.55234;0.62266;,
 0.34302;-1.80202;0.42618;,
 0.43923;-0.88773;-0.28032;,
 0.06338;-0.67519;-0.38871;,
 0.43691;-0.64382;-0.16602;,
 -0.03687;-1.03092;-0.50135;,
 0.18057;-0.91831;-0.42427;,
 0.17831;-1.31341;-0.50690;,
 0.18057;-0.91831;-0.42427;,
 0.43923;-0.88773;-0.28032;,
 0.40377;-1.10746;-0.36177;,
 0.17831;-1.31341;-0.50690;,
 0.18057;-0.91831;-0.42427;,
 0.24657;-1.68153;-0.40533;,
 -0.06784;-1.61693;-0.51182;,
 0.17831;-1.31341;-0.50690;,
 0.43923;-0.88773;-0.28032;,
 0.40377;-1.10746;-0.36177;,
 0.18057;-0.91831;-0.42427;,
 0.53367;-1.48800;-0.27914;,
 0.17831;-1.31341;-0.50690;,
 0.40377;-1.10746;-0.36177;,
 0.17831;-1.31341;-0.50690;,
 0.53367;-1.48800;-0.27914;,
 0.24657;-1.68153;-0.40533;,
 0.40377;-1.10746;-0.36177;,
 0.66294;-1.27932;-0.08473;,
 0.43691;-0.64382;-0.16602;,
 0.58987;-0.74633;0.10063;,
 0.64206;-0.95852;0.03234;,
 0.44292;-0.62114;0.33621;,
 0.58987;-0.74633;0.10063;,
 0.35653;-0.37209;0.14493;,
 0.58987;-0.74633;0.10063;,
 0.43691;-0.64382;-0.16602;,
 0.35653;-0.37209;0.14493;,
 0.64104;-1.44019;0.19139;,
 0.66294;-1.27932;-0.08473;,
 0.60730;-1.17386;0.36842;,
 0.66294;-1.27932;-0.08473;,
 0.64206;-0.95852;0.03234;,
 0.60730;-1.17386;0.36842;,
 0.48142;-1.47413;0.49194;,
 0.34302;-1.80202;0.42618;,
 0.44608;-1.79573;-0.10733;,
 0.53367;-1.48800;-0.27914;,
 0.61316;-1.61158;0.02337;,
 0.60730;-1.17386;0.36842;,
 0.54172;-0.91902;0.37910;,
 0.33548;-1.16495;0.62467;,
 0.33548;-1.16495;0.62467;,
 0.27211;-0.79115;0.55707;,
 0.44292;-0.62114;0.33621;,
 0.54172;-0.91902;0.37910;,
 0.17267;-1.99757;0.28034;,
 0.42644;-1.83934;0.14000;,
 0.20167;-1.90446;-0.27554;,
 0.44608;-1.79573;-0.10733;,
 0.16726;-1.99932;-0.03505;,
 0.17267;-1.99757;0.28034;,
 -0.05705;-2.04009;0.29072;,
 0.16726;-1.99932;-0.03505;,
 -0.05705;-2.04009;0.29072;,
 -0.08754;-2.00258;-0.10750;,
 0.20167;-1.90446;-0.27554;,
 -0.03870;-1.86154;-0.37231;,
 0.24657;-1.68153;-0.40533;,
 -0.06784;-1.61693;-0.51182;,
 0.24657;-1.68153;-0.40533;,
 -0.03870;-1.86154;-0.37231;,
 0.64206;-0.95852;0.03234;,
 0.66294;-1.27932;-0.08473;,
 0.43923;-0.88773;-0.28032;,
 0.66294;-1.27932;-0.08473;,
 0.40377;-1.10746;-0.36177;,
 0.43923;-0.88773;-0.28032;,
 0.58987;-0.74633;0.10063;,
 0.44292;-0.62114;0.33621;,
 0.54172;-0.91902;0.37910;,
 0.00139;-1.38419;0.75141;,
 0.31043;-1.55234;0.62266;,
 0.33548;-1.16495;0.62467;,
 0.27211;-0.79115;0.55707;,
 0.14755;-0.56749;0.50484;,
 -0.13901;-0.76320;0.60357;,
 -0.01108;-0.19336;0.15981;,
 0.15869;-0.35170;0.36620;,
 0.35653;-0.37209;0.14493;,
 0.35653;-0.37209;0.14493;,
 0.01106;-0.21187;-0.11020;,
 -0.01108;-0.19336;0.15981;,
 0.30991;-0.35920;-0.12407;,
 0.01106;-0.21187;-0.11020;,
 0.35653;-0.37209;0.14493;,
 0.01106;-0.21187;-0.11020;,
 0.30991;-0.35920;-0.12407;,
 0.08468;-0.40852;-0.29846;,
 -0.01108;-0.19336;0.15981;,
 0.15869;-0.35170;0.36620;,
 0.30991;-0.35920;-0.12407;,
 0.30991;-0.35920;-0.12407;,
 0.35653;-0.37209;0.14493;,
 0.43691;-0.64382;-0.16602;,
 0.14755;-0.56749;0.50484;,
 0.44292;-0.62114;0.33621;,
 0.35653;-0.37209;0.14493;,
 0.35653;-0.37209;0.14493;,
 0.15869;-0.35170;0.36620;,
 0.14755;-0.56749;0.50484;,
 0.64206;-0.95852;0.03234;,
 0.58987;-0.74633;0.10063;,
 0.54172;-0.91902;0.37910;,
 0.64206;-0.95852;0.03234;,
 0.54172;-0.91902;0.37910;,
 0.60730;-1.17386;0.36842;,
 0.60730;-1.17386;0.36842;,
 0.33548;-1.16495;0.62467;,
 0.48142;-1.47413;0.49194;,
 0.42644;-1.83934;0.14000;,
 0.64104;-1.44019;0.19139;,
 0.34302;-1.80202;0.42618;,
 -0.16868;-1.35492;-0.52729;,
 -0.03687;-1.03092;-0.50135;,
 0.17831;-1.31341;-0.50690;,
 0.17831;-1.31341;-0.50690;,
 -0.06784;-1.61693;-0.51182;,
 -0.16868;-1.35492;-0.52729;,
 -0.02614;-0.12110;0.03475;,
 -0.02550;-0.14048;0.05610;,
 -0.02175;-0.11300;0.05220;,
 -0.02955;-0.14162;0.03894;,
 0.02052;-0.11345;0.05967;,
 -0.01289;-0.12291;0.06654;,
 0.01022;-0.12673;0.06651;,
 0.01420;-0.09078;0.05743;,
 -0.00974;-0.09720;0.06065;,
 -0.04127;-0.22109;0.04910;,
 -0.03713;-0.20194;0.04269;,
 -0.03993;-0.21764;0.03069;,
 -0.03837;-0.23432;0.01794;,
 -0.04694;-0.23882;0.04547;,
 -0.02384;-0.10369;0.03549;,
 -0.03422;-0.20770;0.06071;,
 -0.02556;-0.21216;0.07512;,
 -0.02604;-0.19097;0.06876;,
 -0.01931;-0.08270;0.04356;,
 -0.01982;-0.08455;0.02244;,
 -0.02759;-0.14629;0.02343;,
 -0.01753;-0.15298;0.00520;,
 -0.02694;-0.16850;0.01648;,
 -0.01122;-0.17816;0.00272;,
 -0.03168;-0.19375;0.02018;,
 -0.00517;-0.08075;0.05522;,
 -0.01725;-0.22910;0.08528;,
 -0.03152;-0.23478;0.07851;,
 -0.00589;-0.13781;0.07206;,
 -0.03006;-0.15834;0.04938;,
 -0.03305;-0.21593;0.01368;,
 -0.00176;-0.21490;0.08593;,
 0.00179;-0.23612;0.09096;,
 -0.01291;-0.15443;0.07158;,
 0.00782;-0.16278;0.07705;,
 -0.00230;-0.18716;0.08052;,
 -0.01956;-0.17215;0.07118;,
 0.00007;-0.02474;-0.00474;,
 -0.01510;-0.03652;0.02298;,
 -0.00521;-0.01314;0.01823;,
 -0.01057;-0.04722;0.00030;,
 -0.01372;-0.06148;0.04266;,
 0.00623;-0.06659;0.05072;,
 -0.02990;-0.17467;0.05806;,
 -0.03316;-0.17972;0.03867;,
 -0.03111;-0.16439;0.03268;,
 -0.03974;-0.23174;0.06350;,
 0.01282;-0.01255;0.00937;,
 0.01543;-0.02712;0.02125;,
 0.00068;-0.03890;0.03977;,
 -0.01750;-0.11833;0.01386;,
 -0.00137;-0.12352;-0.00090;,
 -0.01504;-0.13682;0.00448;,
 0.00027;-0.09663;-0.00300;,
 -0.00640;-0.07396;-0.00402;,
 -0.01712;-0.06207;0.01261;,
 0.00245;-0.00064;-0.00091;,
 -0.01704;-0.20275;0.00414;,
 0.01827;-0.22136;0.00283;,
 -0.00529;-0.23312;-0.00119;,
 0.00028;-0.14977;-0.00231;,
 -0.02331;-0.23327;0.00382;,
 0.00579;-0.19799;-0.00072;,
 0.00649;-0.05476;-0.00491;,
 0.01654;-0.07455;0.00495;,
 0.03046;-0.11575;0.04060;,
 0.03097;-0.14037;0.05117;,
 0.03358;-0.14120;0.03358;,
 0.03698;-0.22507;0.01394;,
 0.04026;-0.21034;0.02373;,
 0.04737;-0.22954;0.03665;,
 0.04076;-0.20652;0.04552;,
 0.02565;-0.07989;0.02539;,
 0.02867;-0.11477;0.02306;,
 0.02324;-0.09920;0.01490;,
 0.01826;-0.18632;0.00379;,
 0.02726;-0.16596;0.01010;,
 0.03334;-0.18819;0.01767;,
 0.01082;-0.16670;-0.00040;,
 0.01535;-0.14382;0.00175;,
 0.03337;-0.21075;0.06971;,
 0.01572;-0.22068;0.08500;,
 0.03932;-0.23519;0.07280;,
 0.02387;-0.23718;0.08609;,
 0.03486;-0.16074;0.03339;,
 0.03177;-0.15906;0.05642;,
 0.03676;-0.18065;0.04510;,
 0.02180;-0.17212;0.07113;,
 0.02524;-0.09318;0.04465;,
 0.02032;-0.07080;0.04229;,
 0.02142;-0.14961;0.06827;,
 0.01730;-0.04683;0.00752;,
 0.03310;-0.19097;0.06124;,
 0.01573;-0.19642;0.07895;,
 0.04745;-0.23381;0.05672;,
 0.02333;-0.24093;0.00294;,
 0.02909;-0.14602;0.01505;,
 0.01520;-0.11443;0.00381;,
 0.02294;-0.13064;0.00849;,
 0.02488;-0.20481;0.00707;,
 0.01555;-0.04982;0.03628;;
 
 326;
 3;0,1,2;,
 3;3,4,5;,
 3;6,7,8;,
 3;9,10,11;,
 3;9,12,10;,
 3;13,14,15;,
 3;16,17,18;,
 3;19,20,21;,
 3;22,23,24;,
 3;25,26,27;,
 3;28,29,30;,
 3;31,32,30;,
 3;33,20,34;,
 3;35,36,37;,
 3;38,34,39;,
 3;40,41,42;,
 3;43,44,45;,
 3;46,1,0;,
 3;47,48,49;,
 3;50,51,52;,
 3;53,46,54;,
 3;45,55,56;,
 3;57,58,59;,
 3;60,61,62;,
 3;63,64,65;,
 3;66,32,67;,
 3;68,69,31;,
 3;70,71,72;,
 3;73,64,74;,
 3;75,76,77;,
 3;44,43,20;,
 3;78,79,80;,
 3;81,82,83;,
 3;84,85,86;,
 3;87,88,21;,
 3;10,89,90;,
 3;11,90,91;,
 3;92,93,94;,
 3;95,96,97;,
 3;98,20,99;,
 3;100,101,102;,
 3;66,67,103;,
 3;104,105,106;,
 3;107,108,69;,
 3;67,109,103;,
 3;110,111,112;,
 3;113,114,115;,
 3;116,28,103;,
 3;117,118,119;,
 3;29,28,116;,
 3;120,121,122;,
 3;28,32,66;,
 3;66,103,28;,
 3;123,124,125;,
 3;20,43,34;,
 3;108,67,69;,
 3;32,69,67;,
 3;68,126,69;,
 3;38,33,34;,
 3;46,0,127;,
 3;128,129,130;,
 3;131,132,133;,
 3;20,19,44;,
 3;134,135,136;,
 3;137,138,139;,
 3;127,140,54;,
 3;141,43,45;,
 3;142,76,75;,
 3;143,144,145;,
 3;146,147,148;,
 3;149,150,151;,
 3;152,10,153;,
 3;89,10,152;,
 3;154,155,156;,
 3;157,158,159;,
 3;160,161,162;,
 3;163,164,165;,
 3;166,167,168;,
 3;169,170,167;,
 3;171,172,173;,
 3;174,175,176;,
 3;177,178,179;,
 3;180,181,182;,
 3;183,184,185;,
 3;186,180,182;,
 3;186,187,180;,
 3;188,189,190;,
 3;191,192,193;,
 3;108,194,195;,
 3;196,109,195;,
 3;196,195,197;,
 3;143,194,144;,
 3;145,144,76;,
 3;198,199,187;,
 3;200,201,202;,
 3;76,142,145;,
 3;142,203,145;,
 3;204,203,142;,
 3;205,206,207;,
 3;208,205,207;,
 3;208,207,209;,
 3;210,208,209;,
 3;211,212,213;,
 3;107,76,144;,
 3;77,76,107;,
 3;190,180,199;,
 3;181,190,189;,
 3;205,188,199;,
 3;208,210,188;,
 3;205,199,198;,
 3;198,206,205;,
 3;210,189,188;,
 3;214,215,216;,
 3;217,218,219;,
 3;220,221,222;,
 3;197,195,194;,
 3;223,224,225;,
 3;226,227,228;,
 3;229,230,231;,
 3;232,233,234;,
 3;235,236,237;,
 3;238,239,240;,
 3;241,103,242;,
 3;103,109,242;,
 3;171,12,243;,
 3;171,10,12;,
 3;244,245,246;,
 3;247,248,249;,
 3;250,251,252;,
 3;171,173,153;,
 3;180,190,181;,
 3;253,254,255;,
 3;108,195,67;,
 3;256,257,258;,
 3;259,260,261;,
 3;194,108,107;,
 3;262,263,264;,
 3;265,266,267;,
 3;268,269,270;,
 3;190,199,188;,
 3;271,272,273;,
 3;274,272,271;,
 3;275,276,277;,
 3;278,279,275;,
 3;275,279,276;,
 3;280,281,282;,
 3;282,283,284;,
 3;280,282,284;,
 3;271,273,285;,
 3;276,273,272;,
 3;286,287,288;,
 3;289,290,285;,
 3;291,292,293;,
 3;293,292,294;,
 3;293,294,295;,
 3;296,279,278;,
 3;279,296,289;,
 3;297,287,298;,
 3;299,277,276;,
 3;300,272,274;,
 3;282,295,301;,
 3;282,301,283;,
 3;281,295,282;,
 3;302,297,303;,
 3;297,302,287;,
 3;304,305,299;,
 3;305,304,306;,
 3;307,306,304;,
 3;300,307,304;,
 3;272,304,299;,
 3;299,276,272;,
 3;273,276,279;,
 3;308,309,310;,
 3;311,309,308;,
 3;289,296,312;,
 3;312,296,313;,
 3;288,314,315;,
 3;307,314,288;,
 3;293,315,316;,
 3;316,291,293;,
 3;315,293,295;,
 3;306,307,288;,
 3;288,287,306;,
 3;317,287,286;,
 3;298,287,317;,
 3;318,310,319;,
 3;310,320,319;,
 3;281,315,295;,
 3;300,316,315;,
 3;300,291,316;,
 3;274,291,300;,
 3;321,322,323;,
 3;322,321,324;,
 3;291,321,323;,
 3;285,321,271;,
 3;325,290,326;,
 3;290,324,321;,
 3;290,325,324;,
 3;290,321,285;,
 3;318,327,310;,
 3;312,326,290;,
 3;309,326,312;,
 3;311,326,309;,
 3;327,308,310;,
 3;317,280,284;,
 3;286,280,317;,
 3;280,286,281;,
 3;328,329,330;,
 3;295,294,328;,
 3;292,323,331;,
 3;292,331,294;,
 3;331,323,322;,
 3;291,323,292;,
 3;274,271,291;,
 3;321,291,271;,
 3;273,279,285;,
 3;279,289,285;,
 3;309,320,310;,
 3;330,332,328;,
 3;328,294,333;,
 3;333,329,328;,
 3;288,281,286;,
 3;288,315,281;,
 3;332,283,301;,
 3;301,295,328;,
 3;301,328,332;,
 3;300,314,307;,
 3;272,300,304;,
 3;315,314,300;,
 3;289,312,290;,
 3;309,312,320;,
 3;334,335,325;,
 3;335,324,325;,
 3;326,311,325;,
 3;334,325,311;,
 3;334,311,308;,
 3;336,337,338;,
 3;337,336,275;,
 3;339,340,341;,
 3;342,341,340;,
 3;343,344,345;,
 3;346,347,348;,
 3;349,350,347;,
 3;351,352,353;,
 3;352,354,353;,
 3;355,356,357;,
 3;355,337,356;,
 3;338,337,355;,
 3;342,340,348;,
 3;354,352,303;,
 3;305,306,358;,
 3;359,360,278;,
 3;278,360,313;,
 3;337,277,361;,
 3;305,361,299;,
 3;361,305,358;,
 3;277,299,361;,
 3;356,361,358;,
 3;275,277,337;,
 3;362,318,319;,
 3;362,308,318;,
 3;334,308,362;,
 3;278,313,296;,
 3;352,302,303;,
 3;358,363,357;,
 3;345,335,343;,
 3;345,324,335;,
 3;348,347,355;,
 3;358,306,364;,
 3;363,364,351;,
 3;364,363,358;,
 3;364,352,351;,
 3;365,351,353;,
 3;339,366,329;,
 3;355,357,348;,
 3;348,357,342;,
 3;367,338,355;,
 3;345,368,324;,
 3;344,368,345;,
 3;369,368,344;,
 3;343,360,359;,
 3;362,335,334;,
 3;365,342,351;,
 3;342,365,341;,
 3;348,370,346;,
 3;333,370,329;,
 3;370,333,346;,
 3;346,333,294;,
 3;350,331,322;,
 3;350,349,331;,
 3;349,294,331;,
 3;369,344,367;,
 3;367,344,336;,
 3;367,336,338;,
 3;336,359,275;,
 3;359,278,275;,
 3;366,330,329;,
 3;364,302,352;,
 3;306,302,364;,
 3;287,302,306;,
 3;342,363,351;,
 3;363,342,357;,
 3;329,370,339;,
 3;340,370,348;,
 3;340,339,370;,
 3;346,349,347;,
 3;294,349,346;,
 3;367,350,369;,
 3;347,350,367;,
 3;347,367,355;,
 3;357,356,358;,
 3;361,356,337;,
 3;359,344,343;,
 3;359,336,344;,
 3;343,371,360;,
 3;335,362,343;,
 3;371,343,362;,
 3;319,371,362;,
 3;320,371,319;,
 3;313,320,312;,
 3;360,371,313;,
 3;313,371,320;,
 3;308,327,318;,
 3;350,322,368;,
 3;350,368,369;,
 3;324,368,322;;
 
 MeshMaterialList {
  1;
  326;
  0,
  0,
  0,
  0,
  0,
  0,
  0,
  0,
  0,
  0,
  0,
  0,
  0,
  0,
  0,
  0,
  0,
  0,
  0,
  0,
  0,
  0,
  0,
  0,
  0,
  0,
  0,
  0,
  0,
  0,
  0,
  0,
  0,
  0,
  0,
  0,
  0,
  0,
  0,
  0,
  0,
  0,
  0,
  0,
  0,
  0,
  0,
  0,
  0,
  0,
  0,
  0,
  0,
  0,
  0,
  0,
  0,
  0,
  0,
  0,
  0,
  0,
  0,
  0,
  0,
  0,
  0,
  0,
  0,
  0,
  0,
  0,
  0,
  0,
  0,
  0,
  0,
  0,
  0,
  0,
  0,
  0,
  0,
  0,
  0,
  0,
  0,
  0,
  0,
  0,
  0,
  0,
  0,
  0,
  0,
  0,
  0,
  0,
  0,
  0,
  0,
  0,
  0,
  0,
  0,
  0,
  0,
  0,
  0,
  0,
  0,
  0,
  0,
  0,
  0,
  0,
  0,
  0,
  0,
  0,
  0,
  0,
  0,
  0,
  0,
  0,
  0,
  0,
  0,
  0,
  0,
  0,
  0,
  0,
  0,
  0,
  0,
  0,
  0,
  0,
  0,
  0,
  0,
  0,
  0,
  0,
  0,
  0,
  0,
  0,
  0,
  0,
  0,
  0,
  0,
  0,
  0,
  0,
  0,
  0,
  0,
  0,
  0,
  0,
  0,
  0,
  0,
  0,
  0,
  0,
  0,
  0,
  0,
  0,
  0,
  0,
  0,
  0,
  0,
  0,
  0,
  0,
  0,
  0,
  0,
  0,
  0,
  0,
  0,
  0,
  0,
  0,
  0,
  0,
  0,
  0,
  0,
  0,
  0,
  0,
  0,
  0,
  0,
  0,
  0,
  0,
  0,
  0,
  0,
  0,
  0,
  0,
  0,
  0,
  0,
  0,
  0,
  0,
  0,
  0,
  0,
  0,
  0,
  0,
  0,
  0,
  0,
  0,
  0,
  0,
  0,
  0,
  0,
  0,
  0,
  0,
  0,
  0,
  0,
  0,
  0,
  0,
  0,
  0,
  0,
  0,
  0,
  0,
  0,
  0,
  0,
  0,
  0,
  0,
  0,
  0,
  0,
  0,
  0,
  0,
  0,
  0,
  0,
  0,
  0,
  0,
  0,
  0,
  0,
  0,
  0,
  0,
  0,
  0,
  0,
  0,
  0,
  0,
  0,
  0,
  0,
  0,
  0,
  0,
  0,
  0,
  0,
  0,
  0,
  0,
  0,
  0,
  0,
  0,
  0,
  0,
  0,
  0,
  0,
  0,
  0,
  0,
  0,
  0,
  0,
  0,
  0,
  0,
  0,
  0,
  0,
  0,
  0,
  0,
  0,
  0,
  0,
  0,
  0,
  0,
  0,
  0,
  0,
  0,
  0,
  0;;
  Material {
   0.800000;0.800000;0.800000;1.000000;;
   5.000000;
   0.000000;0.000000;0.000000;;
   0.000000;0.000000;0.000000;;
   TextureFilename {
    "Data\\Graphics\\XFileTexture\\0008.png";
   }
  }
 }
 MeshNormals {
  173;
  -0.128254;-0.973243;0.190654;,
  -0.520733;-0.741117;-0.423772;,
  -0.605345;0.775247;-0.180414;,
  -0.210467;0.016689;-0.977459;,
  -0.488946;0.174988;-0.854582;,
  -0.947244;0.315617;-0.055804;,
  -0.586913;-0.021870;-0.809355;,
  -0.888566;0.204556;0.410618;,
  -0.713776;-0.164444;0.680796;,
  -0.945193;-0.199517;0.258461;,
  -0.443260;0.489361;0.751030;,
  -0.517282;-0.172227;0.838306;,
  -0.725570;-0.506403;0.465946;,
  -0.093736;-0.671829;-0.734751;,
  -0.846815;-0.529549;-0.049828;,
  -0.383452;-0.662052;0.643934;,
  0.081937;0.925391;-0.370052;,
  -0.305985;0.278300;-0.910452;,
  -0.229252;0.701516;0.674773;,
  -0.142254;-0.321578;0.936136;,
  -0.686485;0.340039;0.642738;,
  -0.292599;0.541070;-0.788435;,
  -0.747380;0.603906;0.276984;,
  -0.482804;0.381239;-0.788389;,
  -0.816990;0.417250;-0.398031;,
  -0.685832;0.232634;-0.689577;,
  -0.135167;0.346233;0.928360;,
  -0.750746;0.085709;0.655007;,
  -0.429737;0.181145;0.884597;,
  -0.933743;0.007814;-0.357859;,
  -0.003495;-0.287774;-0.957692;,
  -0.416254;-0.375438;-0.828118;,
  -0.749402;-0.378137;-0.543515;,
  -0.532153;-0.837165;0.126362;,
  0.124823;-0.794134;0.594787;,
  0.330035;-0.778839;-0.533373;,
  0.348889;0.241542;-0.905502;,
  0.420247;-0.405019;-0.812005;,
  0.649428;0.266441;-0.712217;,
  0.967830;0.215410;-0.130014;,
  0.318573;0.693325;0.646383;,
  0.956821;0.022590;-0.289798;,
  0.707810;-0.693601;0.133880;,
  0.903397;-0.418382;-0.093975;,
  0.908497;0.049048;0.415004;,
  0.917353;-0.288068;0.274738;,
  0.685908;0.463545;0.560942;,
  0.758589;-0.216607;0.614511;,
  0.517819;0.099133;0.849727;,
  0.079102;0.016142;0.996736;,
  0.647879;-0.582647;0.490688;,
  0.338963;-0.930770;-0.137007;,
  0.405020;-0.882891;0.237618;,
  -0.150872;-0.948470;-0.278643;,
  0.678682;-0.646530;-0.348411;,
  0.067934;0.223056;0.972436;,
  0.285876;-0.472777;0.833521;,
  0.131038;0.322403;-0.937489;,
  0.004599;0.965682;0.259688;,
  0.608778;0.662893;-0.435847;,
  0.254894;0.492523;-0.832136;,
  0.737993;0.379441;-0.558024;,
  0.691139;0.699066;0.183393;,
  0.319936;0.484094;0.814429;,
  0.596166;0.136616;-0.791152;,
  0.918584;0.391580;0.053563;,
  0.392163;0.321890;0.861740;,
  0.811421;0.246003;0.530168;,
  0.531364;-0.222647;0.817362;,
  0.301707;0.007487;-0.953371;,
  -0.041000;0.203298;-0.978258;,
  0.726447;-0.218180;-0.651669;,
  -0.885251;0.236203;0.400673;,
  -0.955222;0.139254;0.261072;,
  -0.855400;0.138004;0.499245;,
  -0.817067;0.162887;0.553055;,
  -0.875553;0.258439;0.408187;,
  -0.995514;0.094576;0.002827;,
  -0.986278;0.102996;-0.129028;,
  0.047490;0.926076;-0.374336;,
  0.965929;0.213563;-0.146192;,
  0.539355;0.207304;0.816163;,
  0.753783;0.029456;-0.656463;,
  0.198712;0.390435;0.898929;,
  -0.065722;-0.023053;-0.997572;,
  0.898369;0.103214;-0.426942;,
  0.741767;0.453443;0.494137;,
  0.965742;0.238880;0.101388;,
  0.903761;0.074402;-0.421522;,
  0.912387;0.093224;0.398571;,
  0.983426;0.152969;0.097338;,
  -0.461571;0.283392;0.840620;,
  -0.957742;0.210039;-0.196506;,
  -0.659869;0.193082;0.726148;,
  -0.613117;0.251308;0.748954;,
  -0.959289;0.057396;-0.276531;,
  -0.661602;0.032509;-0.749150;,
  -0.349966;-0.012090;-0.936684;,
  0.345046;0.280734;0.895618;,
  -0.173280;0.215383;0.961033;,
  -0.872484;0.167410;-0.459070;,
  0.046898;0.208001;0.977004;,
  -0.358603;0.267154;0.894445;,
  -0.723832;0.119120;-0.679616;,
  -0.297720;0.346129;0.889695;,
  -0.890506;0.251836;0.378917;,
  -0.882169;0.049053;-0.468371;,
  -0.672223;0.280063;0.685333;,
  -0.943705;0.118195;-0.308951;,
  -0.644741;0.124347;-0.754220;,
  -0.940298;0.329984;0.083371;,
  -0.523341;0.075943;-0.848732;,
  -0.877167;0.115168;-0.466170;,
  -0.375287;0.080092;-0.923442;,
  -0.915834;0.116689;0.384230;,
  -0.773495;0.309106;0.553316;,
  -0.430980;-0.106069;-0.896106;,
  -0.039224;0.524701;0.850383;,
  0.403111;0.285481;0.869484;,
  0.478098;0.042680;-0.877269;,
  0.992729;0.103066;-0.062174;,
  0.941296;0.119718;-0.315641;,
  0.415133;0.262860;0.870959;,
  0.378002;0.246008;0.892522;,
  0.146868;0.147394;0.978113;,
  0.799101;0.307368;0.516684;,
  0.565658;0.227193;0.792726;,
  0.840853;0.200717;0.502672;,
  0.689010;-0.038080;-0.723751;,
  0.421497;0.215657;0.880813;,
  0.912670;0.295519;0.282316;,
  0.261137;0.038722;-0.964525;,
  0.411807;0.013660;-0.911169;,
  0.589620;0.078717;-0.803836;,
  -0.130552;-0.000541;-0.991441;,
  0.257585;-0.068677;-0.963812;,
  0.925676;0.204448;0.318317;,
  0.816878;0.334217;0.470116;,
  0.870370;0.490119;-0.047318;,
  0.280290;-0.005236;-0.959901;,
  0.592563;0.081615;-0.801379;,
  -0.984974;0.164672;-0.052045;,
  -0.973253;0.229703;-0.004020;,
  -0.954188;0.257674;0.152081;,
  -0.350227;0.263107;0.898953;,
  -0.774479;0.155955;-0.613075;,
  -0.525635;0.157925;0.835923;,
  -0.401359;0.752232;0.522549;,
  -0.834951;0.131330;-0.534424;,
  -0.016369;0.100794;-0.994773;,
  0.106598;0.012786;-0.994220;,
  0.893634;0.146870;0.424084;,
  0.902570;0.196041;-0.383321;,
  0.981830;0.159654;-0.102568;,
  0.992809;0.075977;-0.092514;,
  0.920526;0.124096;-0.370448;,
  -0.088560;0.238906;0.966996;,
  0.797760;0.052816;-0.600658;,
  0.345852;0.084088;-0.934514;,
  -0.992446;0.116263;0.039171;,
  -0.880603;0.229129;0.414774;,
  -0.966563;0.245081;0.075441;,
  -0.144410;0.159776;0.976533;,
  -0.984277;0.162866;0.068362;,
  -0.973942;0.047655;-0.221734;,
  0.644865;0.110576;0.756255;,
  0.765949;0.260915;0.587576;,
  0.679749;0.286076;0.675353;,
  0.700213;0.117362;-0.704222;,
  0.975258;0.125312;0.182122;,
  0.752762;0.098325;-0.650908;,
  -0.160584;0.066042;-0.984810;,
  -0.217156;0.242924;-0.945426;;
  326;
  3;12,11,8;,
  3;24,23,25;,
  3;16,21,2;,
  3;21,57,23;,
  3;21,60,57;,
  3;3,30,31;,
  3;17,4,25;,
  3;6,29,4;,
  3;31,6,3;,
  3;22,5,20;,
  3;22,24,5;,
  3;7,20,5;,
  3;7,29,9;,
  3;7,5,29;,
  3;27,9,8;,
  3;9,12,8;,
  3;14,32,1;,
  3;15,11,12;,
  3;53,33,1;,
  3;0,15,33;,
  3;34,15,0;,
  3;1,13,53;,
  3;13,1,31;,
  3;11,19,49;,
  3;28,11,49;,
  3;10,20,26;,
  3;27,28,7;,
  3;2,58,16;,
  3;19,11,15;,
  3;15,56,19;,
  3;32,14,29;,
  3;32,31,1;,
  3;31,32,6;,
  3;6,4,3;,
  3;17,70,4;,
  3;57,70,17;,
  3;23,17,25;,
  3;17,23,57;,
  3;11,28,8;,
  3;25,29,5;,
  3;25,4,29;,
  3;10,26,18;,
  3;28,20,7;,
  3;49,55,28;,
  3;26,63,18;,
  3;2,18,58;,
  3;60,21,16;,
  3;2,22,18;,
  3;2,21,23;,
  3;24,22,2;,
  3;24,2,23;,
  3;22,20,10;,
  3;10,18,22;,
  3;25,5,24;,
  3;29,14,9;,
  3;55,26,28;,
  3;20,28,26;,
  3;27,8,28;,
  3;27,7,9;,
  3;15,12,33;,
  3;33,12,14;,
  3;12,9,14;,
  3;29,6,32;,
  3;70,3,4;,
  3;13,31,30;,
  3;33,53,0;,
  3;33,14,1;,
  3;34,56,15;,
  3;47,68,50;,
  3;38,57,61;,
  3;70,36,69;,
  3;36,57,38;,
  3;70,57,36;,
  3;64,69,36;,
  3;37,30,69;,
  3;38,64,36;,
  3;71,69,64;,
  3;69,71,37;,
  3;64,41,71;,
  3;61,65,39;,
  3;46,65,62;,
  3;65,61,62;,
  3;45,41,44;,
  3;41,39,44;,
  3;47,45,44;,
  3;47,50,45;,
  3;54,71,43;,
  3;44,67,48;,
  3;55,48,66;,
  3;46,63,66;,
  3;46,66,67;,
  3;47,48,68;,
  3;50,68,56;,
  3;52,42,50;,
  3;35,54,51;,
  3;56,34,50;,
  3;34,52,50;,
  3;0,52,34;,
  3;51,0,53;,
  3;35,51,53;,
  3;35,53,13;,
  3;37,35,13;,
  3;30,37,13;,
  3;49,56,68;,
  3;19,56,49;,
  3;43,45,42;,
  3;41,43,71;,
  3;51,54,42;,
  3;35,37,54;,
  3;51,42,52;,
  3;52,0,51;,
  3;37,71,54;,
  3;39,41,38;,
  3;41,64,38;,
  3;65,46,67;,
  3;67,66,48;,
  3;49,68,48;,
  3;66,63,26;,
  3;58,40,62;,
  3;62,16,58;,
  3;59,16,62;,
  3;16,59,60;,
  3;58,18,40;,
  3;18,63,40;,
  3;61,60,59;,
  3;61,57,60;,
  3;59,62,61;,
  3;63,46,62;,
  3;62,40,63;,
  3;61,39,38;,
  3;45,43,41;,
  3;39,65,67;,
  3;55,66,26;,
  3;39,67,44;,
  3;44,48,47;,
  3;48,55,49;,
  3;42,45,50;,
  3;3,70,69;,
  3;69,30,3;,
  3;43,42,54;,
  3;141,74,72;,
  3;159,74,141;,
  3;81,144,98;,
  3;118,91,81;,
  3;81,91,144;,
  3;143,161,92;,
  3;92,112,142;,
  3;143,92,142;,
  3;141,72,163;,
  3;144,72,74;,
  3;105,94,75;,
  3;160,95,163;,
  3;108,96,106;,
  3;106,96,97;,
  3;106,97,100;,
  3;104,91,118;,
  3;91,104,160;,
  3;102,94,107;,
  3;99,98,144;,
  3;73,74,159;,
  3;92,100,145;,
  3;92,145,112;,
  3;161,100,92;,
  3;156,102,101;,
  3;102,156,94;,
  3;146,124,99;,
  3;124,146,162;,
  3;93,162,146;,
  3;73,93,146;,
  3;74,146,99;,
  3;99,144,74;,
  3;72,144,91;,
  3;172,110,147;,
  3;103,110,172;,
  3;160,104,115;,
  3;115,104,83;,
  3;75,114,77;,
  3;93,114,75;,
  3;106,77,78;,
  3;78,108,106;,
  3;77,106,100;,
  3;162,93,75;,
  3;75,94,162;,
  3;76,94,105;,
  3;107,94,76;,
  3;138,147,86;,
  3;147,117,86;,
  3;161,77,100;,
  3;73,78,77;,
  3;73,108,78;,
  3;159,108,73;,
  3;148,171,109;,
  3;171,148,84;,
  3;108,148,109;,
  3;163,148,141;,
  3;116,95,164;,
  3;95,84,148;,
  3;95,116,84;,
  3;95,148,163;,
  3;138,79,147;,
  3;115,164,95;,
  3;110,164,115;,
  3;103,164,110;,
  3;79,172,147;,
  3;76,143,142;,
  3;105,143,76;,
  3;143,105,161;,
  3;113,131,149;,
  3;100,97,113;,
  3;96,109,134;,
  3;96,134,97;,
  3;134,109,171;,
  3;108,109,96;,
  3;159,141,108;,
  3;148,108,141;,
  3;72,91,163;,
  3;91,160,163;,
  3;110,117,147;,
  3;149,111,113;,
  3;113,97,150;,
  3;150,131,113;,
  3;75,161,105;,
  3;75,77,161;,
  3;111,112,145;,
  3;145,100,113;,
  3;145,113,111;,
  3;73,114,93;,
  3;74,73,146;,
  3;77,114,73;,
  3;160,115,95;,
  3;110,115,117;,
  3;139,128,116;,
  3;128,84,116;,
  3;164,103,116;,
  3;139,116,103;,
  3;139,103,172;,
  3;90,151,120;,
  3;151,90,81;,
  3;168,152,80;,
  3;87,80,152;,
  3;153,121,157;,
  3;132,82,85;,
  3;135,119,82;,
  3;166,123,167;,
  3;123,122,167;,
  3;154,89,169;,
  3;154,151,89;,
  3;120,151,154;,
  3;87,152,85;,
  3;122,123,101;,
  3;124,162,165;,
  3;136,125,118;,
  3;118,125,83;,
  3;151,98,126;,
  3;124,126,99;,
  3;126,124,165;,
  3;98,99,126;,
  3;89,126,165;,
  3;81,98,151;,
  3;155,138,86;,
  3;155,172,138;,
  3;139,172,155;,
  3;118,83,104;,
  3;123,156,101;,
  3;165,127,169;,
  3;157,128,153;,
  3;157,84,128;,
  3;85,82,154;,
  3;165,162,129;,
  3;127,129,166;,
  3;129,127,165;,
  3;129,123,166;,
  3;130,166,167;,
  3;168,158,131;,
  3;154,169,85;,
  3;85,169,87;,
  3;88,120,154;,
  3;157,140,84;,
  3;121,140,157;,
  3;170,140,121;,
  3;153,125,136;,
  3;155,128,139;,
  3;130,87,166;,
  3;87,130,80;,
  3;85,133,132;,
  3;150,133,131;,
  3;133,150,132;,
  3;132,150,97;,
  3;119,134,171;,
  3;119,135,134;,
  3;135,97,134;,
  3;170,121,88;,
  3;88,121,90;,
  3;88,90,120;,
  3;90,136,81;,
  3;136,118,81;,
  3;158,149,131;,
  3;129,156,123;,
  3;162,156,129;,
  3;94,156,162;,
  3;87,127,166;,
  3;127,87,169;,
  3;131,133,168;,
  3;152,133,85;,
  3;152,168,133;,
  3;132,135,82;,
  3;97,135,132;,
  3;88,119,170;,
  3;82,119,88;,
  3;82,88,154;,
  3;169,89,165;,
  3;126,89,151;,
  3;136,121,153;,
  3;136,90,121;,
  3;153,137,125;,
  3;128,155,153;,
  3;137,153,155;,
  3;86,137,155;,
  3;117,137,86;,
  3;83,117,115;,
  3;125,137,83;,
  3;83,137,117;,
  3;172,79,138;,
  3;119,171,140;,
  3;119,140,170;,
  3;84,140,171;;
 }
 MeshTextureCoords {
  372;
  0.233624;0.492715;,
  0.150294;0.426108;,
  0.173739;0.368999;,
  0.898040;0.752310;,
  0.902430;0.748770;,
  0.904020;0.752020;,
  0.699860;0.269990;,
  0.703390;0.265530;,
  0.705380;0.270370;,
  0.197427;0.499363;,
  0.251697;0.526046;,
  0.184938;0.540408;,
  0.243226;0.482820;,
  0.397048;0.631892;,
  0.482146;0.729236;,
  0.376307;0.739880;,
  0.608878;0.608018;,
  0.569149;0.701544;,
  0.494491;0.605575;,
  -0.496884;0.683925;,
  -0.674032;0.625791;,
  -0.485958;0.578924;,
  0.350200;0.683000;,
  0.254598;0.613032;,
  0.370940;0.575012;,
  0.795798;0.523541;,
  0.904921;0.653038;,
  0.758974;0.618126;,
  0.678131;0.420207;,
  0.776558;0.477442;,
  0.787254;0.549704;,
  0.725843;0.617258;,
  0.641307;0.514792;,
  -0.872518;0.561277;,
  -0.818978;0.712235;,
  0.718162;0.591932;,
  0.834229;0.496653;,
  0.916649;0.656446;,
  -0.936167;0.637106;,
  -0.930820;0.750690;,
  0.234168;0.631739;,
  0.406783;0.722088;,
  0.353749;0.599020;,
  -0.723254;0.830918;,
  -0.596262;0.761225;,
  -0.588955;0.902238;,
  0.209414;0.561719;,
  0.858467;0.661342;,
  0.637337;0.592933;,
  0.823429;0.526770;,
  0.847546;0.652650;,
  0.656941;0.517244;,
  0.819223;0.526958;,
  0.272000;0.634492;,
  0.370943;0.659368;,
  -0.425540;0.933509;,
  -0.557199;1.000230;,
  0.382232;0.767159;,
  0.249087;0.793136;,
  0.210960;0.685994;,
  0.908749;0.581762;,
  0.787033;0.631918;,
  0.757887;0.530611;,
  0.472876;0.348649;,
  0.500598;0.480204;,
  0.348213;0.436733;,
  0.551363;0.460572;,
  0.474593;0.525104;,
  0.652511;0.662918;,
  0.514589;0.638997;,
  0.724390;0.302300;,
  0.725880;0.306480;,
  0.722280;0.305920;,
  0.377653;0.522829;,
  0.470476;0.574838;,
  0.512189;0.865187;,
  0.365122;0.842792;,
  0.419366;0.813178;,
  0.187775;0.861223;,
  0.289282;0.843161;,
  0.327410;0.950304;,
  0.195295;0.798256;,
  0.093788;0.816318;,
  0.099693;0.728288;,
  0.068364;0.752237;,
  0.064593;0.629028;,
  0.184706;0.714217;,
  -0.446229;0.485398;,
  -0.365940;0.584065;,
  0.251244;0.588238;,
  0.212811;0.568600;,
  0.179800;0.594042;,
  0.517711;0.833289;,
  0.466715;0.754048;,
  0.588856;0.713680;,
  0.436725;0.553072;,
  0.409003;0.421516;,
  0.530587;0.530016;,
  -0.560616;0.482955;,
  -0.756451;0.465998;,
  0.801043;0.513610;,
  0.875700;0.609579;,
  0.687626;0.656446;,
  0.520071;0.395020;,
  0.681207;0.640359;,
  0.807925;0.516154;,
  0.892462;0.618620;,
  0.389926;0.727081;,
  0.398049;0.627661;,
  0.391211;0.456549;,
  0.964399;0.593833;,
  0.769494;0.617591;,
  0.776724;0.529362;,
  0.656420;0.273850;,
  0.658650;0.272200;,
  0.659270;0.275170;,
  0.696722;0.377721;,
  0.622791;0.569562;,
  0.616791;0.566542;,
  0.620101;0.562432;,
  0.694197;0.748128;,
  0.606016;0.687081;,
  0.699541;0.640612;,
  0.405810;0.256060;,
  0.407800;0.257560;,
  0.405100;0.259070;,
  0.636173;0.747497;,
  0.346940;0.568724;,
  0.814784;0.747842;,
  0.695194;0.795044;,
  0.724993;0.920251;,
  0.345865;0.882249;,
  0.173250;0.791900;,
  0.237657;0.905331;,
  0.455687;0.400536;,
  0.435339;0.551063;,
  0.315225;0.465873;,
  0.903128;0.694823;,
  0.689551;0.549983;,
  0.821532;0.530989;,
  0.547360;0.618537;,
  -0.757619;0.950415;,
  0.440517;0.899993;,
  0.271254;0.745484;,
  0.304973;0.775313;,
  0.336859;0.851842;,
  0.737885;0.473560;,
  0.936272;0.665970;,
  0.673731;0.581303;,
  0.095403;0.523276;,
  0.191445;0.448921;,
  0.233925;0.617724;,
  0.285998;0.556838;,
  0.338040;0.535710;,
  0.684821;0.362579;,
  0.588988;0.480015;,
  0.546508;0.311212;,
  0.508918;0.547506;,
  0.339425;0.560094;,
  0.413197;0.406670;,
  0.298875;0.314125;,
  0.301911;0.413471;,
  0.163597;0.362104;,
  0.625782;0.553697;,
  0.406235;0.530907;,
  0.502069;0.413471;,
  0.587247;0.619220;,
  0.806795;0.642010;,
  0.682968;0.760056;,
  0.683081;0.501784;,
  0.863798;0.531489;,
  0.328752;0.497542;,
  0.380312;0.503955;,
  0.399118;0.533993;,
  0.661312;0.975579;,
  0.636557;0.756549;,
  0.500635;0.891629;,
  0.324270;0.304830;,
  0.320190;0.304390;,
  0.323070;0.308010;,
  0.442996;0.609664;,
  0.416675;0.583064;,
  0.431111;0.569947;,
  0.440446;0.644487;,
  0.303814;0.532089;,
  0.552795;0.614443;,
  0.438723;0.625013;,
  0.433061;0.685231;,
  0.413522;0.677823;,
  0.395523;0.624009;,
  0.438439;0.638357;,
  0.201720;0.387030;,
  0.206450;0.386210;,
  0.201930;0.382010;,
  0.295306;0.649815;,
  0.333717;0.528405;,
  0.320194;0.467152;,
  0.274269;0.563125;,
  0.407327;0.726695;,
  0.430189;0.685873;,
  0.458075;0.780378;,
  0.629918;0.682645;,
  0.522437;0.831578;,
  0.432102;0.914239;,
  0.514303;0.930890;,
  0.384809;0.727357;,
  0.371679;0.747853;,
  0.336470;0.743943;,
  0.367616;0.710329;,
  0.316899;0.718757;,
  0.351039;0.672513;,
  0.290691;0.853473;,
  0.460184;0.840885;,
  0.356125;0.945282;,
  0.872222;0.334574;,
  0.910792;0.471616;,
  0.727038;0.342565;,
  0.460002;0.913181;,
  0.279284;0.883477;,
  0.276248;0.784131;,
  0.230130;0.510860;,
  0.236540;0.509020;,
  0.231160;0.503900;,
  0.671977;0.895708;,
  0.573851;0.919002;,
  0.609752;0.797078;,
  0.595188;0.738115;,
  0.667057;0.611887;,
  0.771283;0.732316;,
  0.553729;0.490092;,
  0.583223;0.534593;,
  0.529961;0.555416;,
  0.761720;0.280060;,
  0.758340;0.281260;,
  0.761870;0.284680;,
  0.750690;0.238490;,
  0.753550;0.242180;,
  0.756570;0.235340;,
  0.779210;0.783310;,
  0.781670;0.779830;,
  0.778250;0.778770;,
  0.526624;0.330776;,
  0.418072;0.383969;,
  0.290360;0.460850;,
  0.300200;0.310900;,
  0.306470;0.312690;,
  0.302060;0.306960;,
  0.289370;0.643630;,
  0.292020;0.648970;,
  0.297290;0.647710;,
  0.294220;0.624940;,
  0.292740;0.622470;,
  0.291090;0.625250;,
  0.503380;0.777380;,
  0.499860;0.780230;,
  0.504350;0.782160;,
  0.546320;0.646610;,
  0.701109;0.645074;,
  0.692063;0.747097;,
  0.366240;0.500750;,
  0.369790;0.502630;,
  0.372390;0.497950;,
  0.493252;0.816268;,
  0.511712;0.705980;,
  0.624920;0.814620;,
  0.930172;0.784010;,
  0.754812;0.769140;,
  0.862200;0.648381;,
  0.629019;0.500970;,
  0.555247;0.654394;,
  0.470149;0.557050;,
  0.486047;0.193004;,
  0.476383;0.202238;,
  0.478951;0.191142;,
  0.483418;0.201287;,
  0.484298;0.196823;,
  0.474211;0.197078;,
  0.479021;0.201436;,
  0.484016;0.186590;,
  0.477569;0.186533;,
  0.476322;0.233210;,
  0.480122;0.225458;,
  0.485046;0.230947;,
  0.491222;0.237319;,
  0.476810;0.239646;,
  0.486183;0.186140;,
  0.472459;0.229166;,
  0.467644;0.232835;,
  0.470460;0.223689;,
  0.483425;0.178465;,
  0.493008;0.178017;,
  0.490940;0.202605;,
  0.501395;0.205582;,
  0.494268;0.211465;,
  0.503844;0.216593;,
  0.491584;0.221511;,
  0.481006;0.180002;,
  0.464703;0.241378;,
  0.464848;0.241634;,
  0.473130;0.204367;,
  0.478521;0.208690;,
  0.494282;0.230143;,
  0.467622;0.237422;,
  0.466052;0.246875;,
  0.471895;0.210351;,
  0.473687;0.216590;,
  0.469990;0.225617;,
  0.470695;0.216842;,
  0.509610;0.154260;,
  0.493742;0.158804;,
  0.497974;0.150090;,
  0.505090;0.162527;,
  0.484996;0.170337;,
  0.485439;0.175286;,
  0.474570;0.215917;,
  0.482793;0.216554;,
  0.485966;0.210151;,
  0.470030;0.238573;,
  0.505781;0.151534;,
  0.500874;0.158508;,
  0.489311;0.162601;,
  0.497427;0.191763;,
  0.507551;0.195045;,
  0.502244;0.199176;,
  0.508855;0.184035;,
  0.507936;0.173825;,
  0.498082;0.168535;,
  0.508345;0.144814;,
  0.501983;0.226115;,
  0.509915;0.237971;,
  0.506867;0.239766;,
  0.508542;0.205996;,
  0.500829;0.237933;,
  0.508951;0.226635;,
  0.511023;0.167407;,
  0.508583;0.177319;,
  0.495113;0.197929;,
  0.490369;0.208724;,
  0.498978;0.208422;,
  0.508701;0.242358;,
  0.504887;0.237211;,
  0.500437;0.246691;,
  0.494992;0.236883;,
  0.501093;0.181733;,
  0.502788;0.196356;,
  0.505408;0.188836;,
  0.509475;0.223567;,
  0.508446;0.216595;,
  0.506232;0.226909;,
  0.509850;0.214353;,
  0.509806;0.205575;,
  0.482358;0.239054;,
  0.471677;0.241857;,
  0.482176;0.250020;,
  0.472867;0.249704;,
  0.499333;0.216625;,
  0.488122;0.216817;,
  0.494356;0.225707;,
  0.479303;0.221804;,
  0.492173;0.188212;,
  0.492230;0.178259;,
  0.480539;0.212316;,
  0.507562;0.166116;,
  0.486187;0.230402;,
  0.474456;0.231522;,
  0.491240;0.249554;,
  0.510914;0.246660;,
  0.506551;0.208860;,
  0.508827;0.193544;,
  0.508286;0.201419;,
  0.509343;0.232170;,
  0.494002;0.168704;;
 }
 MeshVertexColors {
  372;
  0;1.000000;1.000000;1.000000;1.000000;,
  1;1.000000;1.000000;1.000000;1.000000;,
  2;1.000000;1.000000;1.000000;1.000000;,
  3;1.000000;1.000000;1.000000;1.000000;,
  4;1.000000;1.000000;1.000000;1.000000;,
  5;1.000000;1.000000;1.000000;1.000000;,
  6;1.000000;1.000000;1.000000;1.000000;,
  7;1.000000;1.000000;1.000000;1.000000;,
  8;1.000000;1.000000;1.000000;1.000000;,
  9;1.000000;1.000000;1.000000;1.000000;,
  10;1.000000;1.000000;1.000000;1.000000;,
  11;1.000000;1.000000;1.000000;1.000000;,
  12;1.000000;1.000000;1.000000;1.000000;,
  13;1.000000;1.000000;1.000000;1.000000;,
  14;1.000000;1.000000;1.000000;1.000000;,
  15;1.000000;1.000000;1.000000;1.000000;,
  16;1.000000;1.000000;1.000000;1.000000;,
  17;1.000000;1.000000;1.000000;1.000000;,
  18;1.000000;1.000000;1.000000;1.000000;,
  19;1.000000;1.000000;1.000000;1.000000;,
  20;1.000000;1.000000;1.000000;1.000000;,
  21;1.000000;1.000000;1.000000;1.000000;,
  22;1.000000;1.000000;1.000000;1.000000;,
  23;1.000000;1.000000;1.000000;1.000000;,
  24;1.000000;1.000000;1.000000;1.000000;,
  25;1.000000;1.000000;1.000000;1.000000;,
  26;1.000000;1.000000;1.000000;1.000000;,
  27;1.000000;1.000000;1.000000;1.000000;,
  28;1.000000;1.000000;1.000000;1.000000;,
  29;1.000000;1.000000;1.000000;1.000000;,
  30;1.000000;1.000000;1.000000;1.000000;,
  31;1.000000;1.000000;1.000000;1.000000;,
  32;1.000000;1.000000;1.000000;1.000000;,
  33;1.000000;1.000000;1.000000;1.000000;,
  34;1.000000;1.000000;1.000000;1.000000;,
  35;1.000000;1.000000;1.000000;1.000000;,
  36;1.000000;1.000000;1.000000;1.000000;,
  37;1.000000;1.000000;1.000000;1.000000;,
  38;1.000000;1.000000;1.000000;1.000000;,
  39;1.000000;1.000000;1.000000;1.000000;,
  40;1.000000;1.000000;1.000000;1.000000;,
  41;1.000000;1.000000;1.000000;1.000000;,
  42;1.000000;1.000000;1.000000;1.000000;,
  43;1.000000;1.000000;1.000000;1.000000;,
  44;1.000000;1.000000;1.000000;1.000000;,
  45;1.000000;1.000000;1.000000;1.000000;,
  46;1.000000;1.000000;1.000000;1.000000;,
  47;1.000000;1.000000;1.000000;1.000000;,
  48;1.000000;1.000000;1.000000;1.000000;,
  49;1.000000;1.000000;1.000000;1.000000;,
  50;1.000000;1.000000;1.000000;1.000000;,
  51;1.000000;1.000000;1.000000;1.000000;,
  52;1.000000;1.000000;1.000000;1.000000;,
  53;1.000000;1.000000;1.000000;1.000000;,
  54;1.000000;1.000000;1.000000;1.000000;,
  55;1.000000;1.000000;1.000000;1.000000;,
  56;1.000000;1.000000;1.000000;1.000000;,
  57;1.000000;1.000000;1.000000;1.000000;,
  58;1.000000;1.000000;1.000000;1.000000;,
  59;1.000000;1.000000;1.000000;1.000000;,
  60;1.000000;1.000000;1.000000;1.000000;,
  61;1.000000;1.000000;1.000000;1.000000;,
  62;1.000000;1.000000;1.000000;1.000000;,
  63;1.000000;1.000000;1.000000;1.000000;,
  64;1.000000;1.000000;1.000000;1.000000;,
  65;1.000000;1.000000;1.000000;1.000000;,
  66;1.000000;1.000000;1.000000;1.000000;,
  67;1.000000;1.000000;1.000000;1.000000;,
  68;1.000000;1.000000;1.000000;1.000000;,
  69;1.000000;1.000000;1.000000;1.000000;,
  70;1.000000;1.000000;1.000000;1.000000;,
  71;1.000000;1.000000;1.000000;1.000000;,
  72;1.000000;1.000000;1.000000;1.000000;,
  73;1.000000;1.000000;1.000000;1.000000;,
  74;1.000000;1.000000;1.000000;1.000000;,
  75;1.000000;1.000000;1.000000;1.000000;,
  76;1.000000;1.000000;1.000000;1.000000;,
  77;1.000000;1.000000;1.000000;1.000000;,
  78;1.000000;1.000000;1.000000;1.000000;,
  79;1.000000;1.000000;1.000000;1.000000;,
  80;1.000000;1.000000;1.000000;1.000000;,
  81;1.000000;1.000000;1.000000;1.000000;,
  82;1.000000;1.000000;1.000000;1.000000;,
  83;1.000000;1.000000;1.000000;1.000000;,
  84;1.000000;1.000000;1.000000;1.000000;,
  85;1.000000;1.000000;1.000000;1.000000;,
  86;1.000000;1.000000;1.000000;1.000000;,
  87;1.000000;1.000000;1.000000;1.000000;,
  88;1.000000;1.000000;1.000000;1.000000;,
  89;1.000000;1.000000;1.000000;1.000000;,
  90;1.000000;1.000000;1.000000;1.000000;,
  91;1.000000;1.000000;1.000000;1.000000;,
  92;1.000000;1.000000;1.000000;1.000000;,
  93;1.000000;1.000000;1.000000;1.000000;,
  94;1.000000;1.000000;1.000000;1.000000;,
  95;1.000000;1.000000;1.000000;1.000000;,
  96;1.000000;1.000000;1.000000;1.000000;,
  97;1.000000;1.000000;1.000000;1.000000;,
  98;1.000000;1.000000;1.000000;1.000000;,
  99;1.000000;1.000000;1.000000;1.000000;,
  100;1.000000;1.000000;1.000000;1.000000;,
  101;1.000000;1.000000;1.000000;1.000000;,
  102;1.000000;1.000000;1.000000;1.000000;,
  103;1.000000;1.000000;1.000000;1.000000;,
  104;1.000000;1.000000;1.000000;1.000000;,
  105;1.000000;1.000000;1.000000;1.000000;,
  106;1.000000;1.000000;1.000000;1.000000;,
  107;1.000000;1.000000;1.000000;1.000000;,
  108;1.000000;1.000000;1.000000;1.000000;,
  109;1.000000;1.000000;1.000000;1.000000;,
  110;1.000000;1.000000;1.000000;1.000000;,
  111;1.000000;1.000000;1.000000;1.000000;,
  112;1.000000;1.000000;1.000000;1.000000;,
  113;1.000000;1.000000;1.000000;1.000000;,
  114;1.000000;1.000000;1.000000;1.000000;,
  115;1.000000;1.000000;1.000000;1.000000;,
  116;1.000000;1.000000;1.000000;1.000000;,
  117;1.000000;1.000000;1.000000;1.000000;,
  118;1.000000;1.000000;1.000000;1.000000;,
  119;1.000000;1.000000;1.000000;1.000000;,
  120;1.000000;1.000000;1.000000;1.000000;,
  121;1.000000;1.000000;1.000000;1.000000;,
  122;1.000000;1.000000;1.000000;1.000000;,
  123;1.000000;1.000000;1.000000;1.000000;,
  124;1.000000;1.000000;1.000000;1.000000;,
  125;1.000000;1.000000;1.000000;1.000000;,
  126;1.000000;1.000000;1.000000;1.000000;,
  127;1.000000;1.000000;1.000000;1.000000;,
  128;1.000000;1.000000;1.000000;1.000000;,
  129;1.000000;1.000000;1.000000;1.000000;,
  130;1.000000;1.000000;1.000000;1.000000;,
  131;1.000000;1.000000;1.000000;1.000000;,
  132;1.000000;1.000000;1.000000;1.000000;,
  133;1.000000;1.000000;1.000000;1.000000;,
  134;1.000000;1.000000;1.000000;1.000000;,
  135;1.000000;1.000000;1.000000;1.000000;,
  136;1.000000;1.000000;1.000000;1.000000;,
  137;1.000000;1.000000;1.000000;1.000000;,
  138;1.000000;1.000000;1.000000;1.000000;,
  139;1.000000;1.000000;1.000000;1.000000;,
  140;1.000000;1.000000;1.000000;1.000000;,
  141;1.000000;1.000000;1.000000;1.000000;,
  142;1.000000;1.000000;1.000000;1.000000;,
  143;1.000000;1.000000;1.000000;1.000000;,
  144;1.000000;1.000000;1.000000;1.000000;,
  145;1.000000;1.000000;1.000000;1.000000;,
  146;1.000000;1.000000;1.000000;1.000000;,
  147;1.000000;1.000000;1.000000;1.000000;,
  148;1.000000;1.000000;1.000000;1.000000;,
  149;1.000000;1.000000;1.000000;1.000000;,
  150;1.000000;1.000000;1.000000;1.000000;,
  151;1.000000;1.000000;1.000000;1.000000;,
  152;1.000000;1.000000;1.000000;1.000000;,
  153;1.000000;1.000000;1.000000;1.000000;,
  154;1.000000;1.000000;1.000000;1.000000;,
  155;1.000000;1.000000;1.000000;1.000000;,
  156;1.000000;1.000000;1.000000;1.000000;,
  157;1.000000;1.000000;1.000000;1.000000;,
  158;1.000000;1.000000;1.000000;1.000000;,
  159;1.000000;1.000000;1.000000;1.000000;,
  160;1.000000;1.000000;1.000000;1.000000;,
  161;1.000000;1.000000;1.000000;1.000000;,
  162;1.000000;1.000000;1.000000;1.000000;,
  163;1.000000;1.000000;1.000000;1.000000;,
  164;1.000000;1.000000;1.000000;1.000000;,
  165;1.000000;1.000000;1.000000;1.000000;,
  166;1.000000;1.000000;1.000000;1.000000;,
  167;1.000000;1.000000;1.000000;1.000000;,
  168;1.000000;1.000000;1.000000;1.000000;,
  169;1.000000;1.000000;1.000000;1.000000;,
  170;1.000000;1.000000;1.000000;1.000000;,
  171;1.000000;1.000000;1.000000;1.000000;,
  172;1.000000;1.000000;1.000000;1.000000;,
  173;1.000000;1.000000;1.000000;1.000000;,
  174;1.000000;1.000000;1.000000;1.000000;,
  175;1.000000;1.000000;1.000000;1.000000;,
  176;1.000000;1.000000;1.000000;1.000000;,
  177;1.000000;1.000000;1.000000;1.000000;,
  178;1.000000;1.000000;1.000000;1.000000;,
  179;1.000000;1.000000;1.000000;1.000000;,
  180;1.000000;1.000000;1.000000;1.000000;,
  181;1.000000;1.000000;1.000000;1.000000;,
  182;1.000000;1.000000;1.000000;1.000000;,
  183;1.000000;1.000000;1.000000;1.000000;,
  184;1.000000;1.000000;1.000000;1.000000;,
  185;1.000000;1.000000;1.000000;1.000000;,
  186;1.000000;1.000000;1.000000;1.000000;,
  187;1.000000;1.000000;1.000000;1.000000;,
  188;1.000000;1.000000;1.000000;1.000000;,
  189;1.000000;1.000000;1.000000;1.000000;,
  190;1.000000;1.000000;1.000000;1.000000;,
  191;1.000000;1.000000;1.000000;1.000000;,
  192;1.000000;1.000000;1.000000;1.000000;,
  193;1.000000;1.000000;1.000000;1.000000;,
  194;1.000000;1.000000;1.000000;1.000000;,
  195;1.000000;1.000000;1.000000;1.000000;,
  196;1.000000;1.000000;1.000000;1.000000;,
  197;1.000000;1.000000;1.000000;1.000000;,
  198;1.000000;1.000000;1.000000;1.000000;,
  199;1.000000;1.000000;1.000000;1.000000;,
  200;1.000000;1.000000;1.000000;1.000000;,
  201;1.000000;1.000000;1.000000;1.000000;,
  202;1.000000;1.000000;1.000000;1.000000;,
  203;1.000000;1.000000;1.000000;1.000000;,
  204;1.000000;1.000000;1.000000;1.000000;,
  205;1.000000;1.000000;1.000000;1.000000;,
  206;1.000000;1.000000;1.000000;1.000000;,
  207;1.000000;1.000000;1.000000;1.000000;,
  208;1.000000;1.000000;1.000000;1.000000;,
  209;1.000000;1.000000;1.000000;1.000000;,
  210;1.000000;1.000000;1.000000;1.000000;,
  211;1.000000;1.000000;1.000000;1.000000;,
  212;1.000000;1.000000;1.000000;1.000000;,
  213;1.000000;1.000000;1.000000;1.000000;,
  214;1.000000;1.000000;1.000000;1.000000;,
  215;1.000000;1.000000;1.000000;1.000000;,
  216;1.000000;1.000000;1.000000;1.000000;,
  217;1.000000;1.000000;1.000000;1.000000;,
  218;1.000000;1.000000;1.000000;1.000000;,
  219;1.000000;1.000000;1.000000;1.000000;,
  220;1.000000;1.000000;1.000000;1.000000;,
  221;1.000000;1.000000;1.000000;1.000000;,
  222;1.000000;1.000000;1.000000;1.000000;,
  223;1.000000;1.000000;1.000000;1.000000;,
  224;1.000000;1.000000;1.000000;1.000000;,
  225;1.000000;1.000000;1.000000;1.000000;,
  226;1.000000;1.000000;1.000000;1.000000;,
  227;1.000000;1.000000;1.000000;1.000000;,
  228;1.000000;1.000000;1.000000;1.000000;,
  229;1.000000;1.000000;1.000000;1.000000;,
  230;1.000000;1.000000;1.000000;1.000000;,
  231;1.000000;1.000000;1.000000;1.000000;,
  232;1.000000;1.000000;1.000000;1.000000;,
  233;1.000000;1.000000;1.000000;1.000000;,
  234;1.000000;1.000000;1.000000;1.000000;,
  235;1.000000;1.000000;1.000000;1.000000;,
  236;1.000000;1.000000;1.000000;1.000000;,
  237;1.000000;1.000000;1.000000;1.000000;,
  238;1.000000;1.000000;1.000000;1.000000;,
  239;1.000000;1.000000;1.000000;1.000000;,
  240;1.000000;1.000000;1.000000;1.000000;,
  241;1.000000;1.000000;1.000000;1.000000;,
  242;1.000000;1.000000;1.000000;1.000000;,
  243;1.000000;1.000000;1.000000;1.000000;,
  244;1.000000;1.000000;1.000000;1.000000;,
  245;1.000000;1.000000;1.000000;1.000000;,
  246;1.000000;1.000000;1.000000;1.000000;,
  247;1.000000;1.000000;1.000000;1.000000;,
  248;1.000000;1.000000;1.000000;1.000000;,
  249;1.000000;1.000000;1.000000;1.000000;,
  250;1.000000;1.000000;1.000000;1.000000;,
  251;1.000000;1.000000;1.000000;1.000000;,
  252;1.000000;1.000000;1.000000;1.000000;,
  253;1.000000;1.000000;1.000000;1.000000;,
  254;1.000000;1.000000;1.000000;1.000000;,
  255;1.000000;1.000000;1.000000;1.000000;,
  256;1.000000;1.000000;1.000000;1.000000;,
  257;1.000000;1.000000;1.000000;1.000000;,
  258;1.000000;1.000000;1.000000;1.000000;,
  259;1.000000;1.000000;1.000000;1.000000;,
  260;1.000000;1.000000;1.000000;1.000000;,
  261;1.000000;1.000000;1.000000;1.000000;,
  262;1.000000;1.000000;1.000000;1.000000;,
  263;1.000000;1.000000;1.000000;1.000000;,
  264;1.000000;1.000000;1.000000;1.000000;,
  265;1.000000;1.000000;1.000000;1.000000;,
  266;1.000000;1.000000;1.000000;1.000000;,
  267;1.000000;1.000000;1.000000;1.000000;,
  268;1.000000;1.000000;1.000000;1.000000;,
  269;1.000000;1.000000;1.000000;1.000000;,
  270;1.000000;1.000000;1.000000;1.000000;,
  271;1.000000;1.000000;1.000000;1.000000;,
  272;1.000000;1.000000;1.000000;1.000000;,
  273;1.000000;1.000000;1.000000;1.000000;,
  274;1.000000;1.000000;1.000000;1.000000;,
  275;1.000000;1.000000;1.000000;1.000000;,
  276;1.000000;1.000000;1.000000;1.000000;,
  277;1.000000;1.000000;1.000000;1.000000;,
  278;1.000000;1.000000;1.000000;1.000000;,
  279;1.000000;1.000000;1.000000;1.000000;,
  280;1.000000;1.000000;1.000000;1.000000;,
  281;1.000000;1.000000;1.000000;1.000000;,
  282;1.000000;1.000000;1.000000;1.000000;,
  283;1.000000;1.000000;1.000000;1.000000;,
  284;1.000000;1.000000;1.000000;1.000000;,
  285;1.000000;1.000000;1.000000;1.000000;,
  286;1.000000;1.000000;1.000000;1.000000;,
  287;1.000000;1.000000;1.000000;1.000000;,
  288;1.000000;1.000000;1.000000;1.000000;,
  289;1.000000;1.000000;1.000000;1.000000;,
  290;1.000000;1.000000;1.000000;1.000000;,
  291;1.000000;1.000000;1.000000;1.000000;,
  292;1.000000;1.000000;1.000000;1.000000;,
  293;1.000000;1.000000;1.000000;1.000000;,
  294;1.000000;1.000000;1.000000;1.000000;,
  295;1.000000;1.000000;1.000000;1.000000;,
  296;1.000000;1.000000;1.000000;1.000000;,
  297;1.000000;1.000000;1.000000;1.000000;,
  298;1.000000;1.000000;1.000000;1.000000;,
  299;1.000000;1.000000;1.000000;1.000000;,
  300;1.000000;1.000000;1.000000;1.000000;,
  301;1.000000;1.000000;1.000000;1.000000;,
  302;1.000000;1.000000;1.000000;1.000000;,
  303;1.000000;1.000000;1.000000;1.000000;,
  304;1.000000;1.000000;1.000000;1.000000;,
  305;1.000000;1.000000;1.000000;1.000000;,
  306;1.000000;1.000000;1.000000;1.000000;,
  307;1.000000;1.000000;1.000000;1.000000;,
  308;1.000000;1.000000;1.000000;1.000000;,
  309;1.000000;1.000000;1.000000;1.000000;,
  310;1.000000;1.000000;1.000000;1.000000;,
  311;1.000000;1.000000;1.000000;1.000000;,
  312;1.000000;1.000000;1.000000;1.000000;,
  313;1.000000;1.000000;1.000000;1.000000;,
  314;1.000000;1.000000;1.000000;1.000000;,
  315;1.000000;1.000000;1.000000;1.000000;,
  316;1.000000;1.000000;1.000000;1.000000;,
  317;1.000000;1.000000;1.000000;1.000000;,
  318;1.000000;1.000000;1.000000;1.000000;,
  319;1.000000;1.000000;1.000000;1.000000;,
  320;1.000000;1.000000;1.000000;1.000000;,
  321;1.000000;1.000000;1.000000;1.000000;,
  322;1.000000;1.000000;1.000000;1.000000;,
  323;1.000000;1.000000;1.000000;1.000000;,
  324;1.000000;1.000000;1.000000;1.000000;,
  325;1.000000;1.000000;1.000000;1.000000;,
  326;1.000000;1.000000;1.000000;1.000000;,
  327;1.000000;1.000000;1.000000;1.000000;,
  328;1.000000;1.000000;1.000000;1.000000;,
  329;1.000000;1.000000;1.000000;1.000000;,
  330;1.000000;1.000000;1.000000;1.000000;,
  331;1.000000;1.000000;1.000000;1.000000;,
  332;1.000000;1.000000;1.000000;1.000000;,
  333;1.000000;1.000000;1.000000;1.000000;,
  334;1.000000;1.000000;1.000000;1.000000;,
  335;1.000000;1.000000;1.000000;1.000000;,
  336;1.000000;1.000000;1.000000;1.000000;,
  337;1.000000;1.000000;1.000000;1.000000;,
  338;1.000000;1.000000;1.000000;1.000000;,
  339;1.000000;1.000000;1.000000;1.000000;,
  340;1.000000;1.000000;1.000000;1.000000;,
  341;1.000000;1.000000;1.000000;1.000000;,
  342;1.000000;1.000000;1.000000;1.000000;,
  343;1.000000;1.000000;1.000000;1.000000;,
  344;1.000000;1.000000;1.000000;1.000000;,
  345;1.000000;1.000000;1.000000;1.000000;,
  346;1.000000;1.000000;1.000000;1.000000;,
  347;1.000000;1.000000;1.000000;1.000000;,
  348;1.000000;1.000000;1.000000;1.000000;,
  349;1.000000;1.000000;1.000000;1.000000;,
  350;1.000000;1.000000;1.000000;1.000000;,
  351;1.000000;1.000000;1.000000;1.000000;,
  352;1.000000;1.000000;1.000000;1.000000;,
  353;1.000000;1.000000;1.000000;1.000000;,
  354;1.000000;1.000000;1.000000;1.000000;,
  355;1.000000;1.000000;1.000000;1.000000;,
  356;1.000000;1.000000;1.000000;1.000000;,
  357;1.000000;1.000000;1.000000;1.000000;,
  358;1.000000;1.000000;1.000000;1.000000;,
  359;1.000000;1.000000;1.000000;1.000000;,
  360;1.000000;1.000000;1.000000;1.000000;,
  361;1.000000;1.000000;1.000000;1.000000;,
  362;1.000000;1.000000;1.000000;1.000000;,
  363;1.000000;1.000000;1.000000;1.000000;,
  364;1.000000;1.000000;1.000000;1.000000;,
  365;1.000000;1.000000;1.000000;1.000000;,
  366;1.000000;1.000000;1.000000;1.000000;,
  367;1.000000;1.000000;1.000000;1.000000;,
  368;1.000000;1.000000;1.000000;1.000000;,
  369;1.000000;1.000000;1.000000;1.000000;,
  370;1.000000;1.000000;1.000000;1.000000;,
  371;1.000000;1.000000;1.000000;1.000000;;
 }
}
