xof 0302txt 0064
template Header {
 <3D82AB43-62DA-11cf-AB39-0020AF71E433>
 WORD major;
 WORD minor;
 DWORD flags;
}

template Vector {
 <3D82AB5E-62DA-11cf-AB39-0020AF71E433>
 FLOAT x;
 FLOAT y;
 FLOAT z;
}

template Coords2d {
 <F6F23F44-7686-11cf-8F52-0040333594A3>
 FLOAT u;
 FLOAT v;
}

template Matrix4x4 {
 <F6F23F45-7686-11cf-8F52-0040333594A3>
 array FLOAT matrix[16];
}

template ColorRGBA {
 <35FF44E0-6C7C-11cf-8F52-0040333594A3>
 FLOAT red;
 FLOAT green;
 FLOAT blue;
 FLOAT alpha;
}

template ColorRGB {
 <D3E16E81-7835-11cf-8F52-0040333594A3>
 FLOAT red;
 FLOAT green;
 FLOAT blue;
}

template IndexedColor {
 <1630B820-7842-11cf-8F52-0040333594A3>
 DWORD index;
 ColorRGBA indexColor;
}

template Boolean {
 <4885AE61-78E8-11cf-8F52-0040333594A3>
 WORD truefalse;
}

template Boolean2d {
 <4885AE63-78E8-11cf-8F52-0040333594A3>
 Boolean u;
 Boolean v;
}

template MaterialWrap {
 <4885AE60-78E8-11cf-8F52-0040333594A3>
 Boolean u;
 Boolean v;
}

template TextureFilename {
 <A42790E1-7810-11cf-8F52-0040333594A3>
 STRING filename;
}

template Material {
 <3D82AB4D-62DA-11cf-AB39-0020AF71E433>
 ColorRGBA faceColor;
 FLOAT power;
 ColorRGB specularColor;
 ColorRGB emissiveColor;
 [...]
}

template MeshFace {
 <3D82AB5F-62DA-11cf-AB39-0020AF71E433>
 DWORD nFaceVertexIndices;
 array DWORD faceVertexIndices[nFaceVertexIndices];
}

template MeshFaceWraps {
 <4885AE62-78E8-11cf-8F52-0040333594A3>
 DWORD nFaceWrapValues;
 Boolean2d faceWrapValues;
}

template MeshTextureCoords {
 <F6F23F40-7686-11cf-8F52-0040333594A3>
 DWORD nTextureCoords;
 array Coords2d textureCoords[nTextureCoords];
}

template MeshMaterialList {
 <F6F23F42-7686-11cf-8F52-0040333594A3>
 DWORD nMaterials;
 DWORD nFaceIndexes;
 array DWORD faceIndexes[nFaceIndexes];
 [Material]
}

template MeshNormals {
 <F6F23F43-7686-11cf-8F52-0040333594A3>
 DWORD nNormals;
 array Vector normals[nNormals];
 DWORD nFaceNormals;
 array MeshFace faceNormals[nFaceNormals];
}

template MeshVertexColors {
 <1630B821-7842-11cf-8F52-0040333594A3>
 DWORD nVertexColors;
 array IndexedColor vertexColors[nVertexColors];
}

template Mesh {
 <3D82AB44-62DA-11cf-AB39-0020AF71E433>
 DWORD nVertices;
 array Vector vertices[nVertices];
 DWORD nFaces;
 array MeshFace faces[nFaces];
 [...]
}

Header{
1;
0;
1;
}

Mesh {
 28;
 -245.00000;0.00000;24.06590;,
 -29.39289;0.00000;24.06590;,
 -29.39289;0.00000;-245.00000;,
 -245.00000;0.00000;-245.00000;,
 248.12785;0.00014;24.26348;,
 248.12785;0.00014;-245.00000;,
 28.32924;0.00000;-245.00000;,
 28.32924;0.00000;24.26347;,
 -245.00000;0.00000;245.00000;,
 248.12785;0.00014;244.53646;,
 -245.00000;0.00000;24.06590;,
 -29.05000;0.00006;24.15242;,
 248.12785;0.00014;24.26346;,
 -29.05003;0.00006;24.07208;,
 248.12785;0.00014;24.08000;,
 28.32924;0.00000;24.26347;,
 28.32924;0.00000;-33.65623;,
 -29.39289;0.00000;-33.65623;,
 -29.39289;0.00000;24.06590;,
 -29.05002;0.00000;-33.65623;,
 28.32924;0.00000;-33.65623;,
 -29.39289;0.00000;-33.65623;,
 28.32924;0.00000;-245.00000;,
 -29.39289;0.00000;-245.00000;,
 -29.39289;0.00000;-33.65623;,
 28.32924;0.00000;-33.65623;,
 28.32924;0.00000;-245.00000;,
 -29.39289;0.00000;-33.65623;;
 
 20;
 4;0,1,2,3;,
 4;4,5,6,7;,
 3;8,9,10;,
 4;3,2,1,0;,
 4;7,6,5,4;,
 3;10,9,8;,
 4;11,10,9,12;,
 3;13,10,11;,
 4;11,12,14,13;,
 4;11,12,9,10;,
 4;13,14,12,11;,
 3;11,10,13;,
 4;15,16,17,18;,
 3;19,20,21;,
 3;19,21,20;,
 3;22,23,24;,
 3;25,26,27;,
 4;18,17,16,15;,
 3;24,23,22;,
 3;27,26,25;;
 
 MeshMaterialList {
  12;
  20;
  4,
  4,
  4,
  4,
  4,
  4,
  4,
  4,
  4,
  4,
  4,
  4,
  4,
  4,
  4,
  4,
  4,
  4,
  4,
  4;;
  Material {
   1.000000;1.000000;1.000000;1.000000;;
   84.000000;
   1.000000;1.000000;1.000000;;
   0.000000;0.000000;0.000000;;
   TextureFilename {
    "Data\\Graphics\\XFileTexture\\ground3.png";
   }
  }
  Material {
   1.000000;1.000000;1.000000;1.000000;;
   69.000000;
   1.000000;1.000000;1.000000;;
   0.000000;0.000000;0.000000;;
   TextureFilename {
    "Data\\Graphics\\XFileTexture\\oahe.png";
   }
  }
  Material {
   0.800000;0.800000;0.800000;1.000000;;
   5.000000;
   0.000000;0.000000;0.000000;;
   0.000000;0.000000;0.000000;;
   TextureFilename {
    "Data\\Graphics\\XFileTexture\\Wall.png";
   }
  }
  Material {
   0.800000;0.800000;0.800000;0.000000;;
   5.000000;
   0.000000;0.000000;0.000000;;
   0.000000;0.000000;0.000000;;
  }
  Material {
   1.000000;1.000000;1.000000;1.000000;;
   73.000000;
   1.000000;1.000000;1.000000;;
   0.500000;0.500000;0.500000;;
   TextureFilename {
    "Data\\Graphics\\XFileTexture\\27953512_p11_master1200.jpg";
   }
  }
  Material {
   1.000000;1.000000;1.000000;1.000000;;
   86.000000;
   1.000000;1.000000;1.000000;;
   0.000000;0.000000;0.000000;;
   TextureFilename {
    "Data\\Graphics\\XFileTexture\\oahe.png";
   }
  }
  Material {
   0.630000;0.630000;0.630000;1.000000;;
   5.000000;
   0.190000;0.190000;0.190000;;
   0.270000;0.270000;0.270000;;
   TextureFilename {
    "Data\\Graphics\\XFileTexture\\leaf.png";
   }
  }
  Material {
   0.520000;0.520000;0.520000;1.000000;;
   7.140000;
   0.310000;0.310000;0.310000;;
   0.200000;0.200000;0.200000;;
   TextureFilename {
    "Data\\Graphics\\XFileTexture\\wood.bmp";
   }
  }
  Material {
   0.800000;0.800000;0.800000;1.000000;;
   5.000000;
   0.000000;0.000000;0.000000;;
   0.000000;0.000000;0.000000;;
   TextureFilename {
    "Data\\Graphics\\XFileTexture\\BarkDecidious0099_1_S.jpg";
   }
  }
  Material {
   0.800000;0.800000;0.800000;1.000000;;
   5.000000;
   0.000000;0.000000;0.000000;;
   0.000000;0.000000;0.000000;;
   TextureFilename {
    "Data\\Graphics\\XFileTexture\\Branches0002_S.png";
   }
  }
  Material {
   1.000000;0.878000;0.255000;1.000000;;
   15.080000;
   1.000000;1.000000;1.000000;;
   0.910000;0.798980;0.232050;;
   TextureFilename {
    "Data\\Graphics\\XFileTexture\\GorldApple.png";
   }
  }
  Material {
   1.000000;1.000000;1.000000;1.000000;;
   0.000000;
   0.000000;0.000000;0.000000;;
   0.000000;0.000000;0.000000;;
  }
 }
 MeshNormals {
  18;
  -0.000001;1.000000;0.000000;,
  0.000000;1.000000;0.000000;,
  -0.000000;1.000000;-0.000000;,
  -0.000000;1.000000;0.000000;,
  -0.000000;1.000000;0.000000;,
  -0.000000;1.000000;0.000000;,
  -0.000000;1.000000;0.000000;,
  -0.000000;1.000000;0.000000;,
  -0.000000;1.000000;0.000000;,
  0.000000;-1.000000;-0.000000;,
  0.000001;-1.000000;-0.000000;,
  0.000000;-1.000000;-0.000000;,
  0.000000;-1.000000;0.000000;,
  0.000000;-1.000000;-0.000000;,
  0.000000;-1.000000;-0.000000;,
  0.000000;-1.000000;-0.000000;,
  0.000000;-1.000000;-0.000000;,
  0.000000;-1.000000;-0.000000;;
  20;
  4;1,1,1,1;,
  4;0,0,0,0;,
  3;4,2,3;,
  4;9,9,9,9;,
  4;10,10,10,10;,
  3;11,12,13;,
  4;7,3,2,6;,
  3;8,3,7;,
  4;7,6,5,8;,
  4;14,15,12,11;,
  4;16,17,15,14;,
  3;14,11,16;,
  4;1,1,1,1;,
  3;1,1,1;,
  3;9,9,9;,
  3;1,1,1;,
  3;1,1,1;,
  4;9,9,9,9;,
  3;9,9,9;,
  3;9,9,9;;
 }
 MeshTextureCoords {
  28;
  -11.571500;-6.303780;,
  -2.112380;-6.303780;,
  -2.112380;9.435500;,
  -11.571500;9.435500;,
  10.063000;-6.315320;,
  10.063000;9.435500;,
  0.420010;9.435500;,
  0.420010;-6.315370;,
  -11.571500;-19.227600;,
  10.063000;-19.200399;,
  -11.571500;-6.303780;,
  -2.097340;-6.308840;,
  10.063000;-6.315340;,
  -2.097340;-6.304140;,
  10.063000;-6.304610;,
  1.779090;-1.018290;,
  1.779090;1.766760;,
  -0.302575;1.766760;,
  -0.302575;-1.008790;,
  -2.097340;-2.927270;,
  0.420010;-2.927270;,
  -2.112380;-2.927270;,
  0.420010;9.435500;,
  -2.112380;9.435500;,
  -2.112380;-2.927270;,
  0.420010;-2.927270;,
  0.420010;9.435500;,
  -2.112380;-2.927270;;
 }
 MeshVertexColors {
  28;
  0;1.000000;1.000000;1.000000;1.000000;,
  1;1.000000;1.000000;1.000000;1.000000;,
  2;1.000000;1.000000;1.000000;1.000000;,
  3;1.000000;1.000000;1.000000;1.000000;,
  4;1.000000;1.000000;1.000000;1.000000;,
  5;1.000000;1.000000;1.000000;1.000000;,
  6;1.000000;1.000000;1.000000;1.000000;,
  7;1.000000;1.000000;1.000000;1.000000;,
  8;1.000000;1.000000;1.000000;1.000000;,
  9;1.000000;1.000000;1.000000;1.000000;,
  10;1.000000;1.000000;1.000000;1.000000;,
  11;1.000000;1.000000;1.000000;1.000000;,
  12;1.000000;1.000000;1.000000;1.000000;,
  13;1.000000;1.000000;1.000000;1.000000;,
  14;1.000000;1.000000;1.000000;1.000000;,
  15;1.000000;1.000000;1.000000;1.000000;,
  16;1.000000;1.000000;1.000000;1.000000;,
  17;1.000000;1.000000;1.000000;1.000000;,
  18;1.000000;1.000000;1.000000;1.000000;,
  19;1.000000;1.000000;1.000000;1.000000;,
  20;1.000000;1.000000;1.000000;1.000000;,
  21;1.000000;1.000000;1.000000;1.000000;,
  22;1.000000;1.000000;1.000000;1.000000;,
  23;1.000000;1.000000;1.000000;1.000000;,
  24;1.000000;1.000000;1.000000;1.000000;,
  25;1.000000;1.000000;1.000000;1.000000;,
  26;1.000000;1.000000;1.000000;1.000000;,
  27;1.000000;1.000000;1.000000;1.000000;;
 }
}
