xof 0302txt 0064
template Header {
 <3D82AB43-62DA-11cf-AB39-0020AF71E433>
 WORD major;
 WORD minor;
 DWORD flags;
}

template Vector {
 <3D82AB5E-62DA-11cf-AB39-0020AF71E433>
 FLOAT x;
 FLOAT y;
 FLOAT z;
}

template Coords2d {
 <F6F23F44-7686-11cf-8F52-0040333594A3>
 FLOAT u;
 FLOAT v;
}

template Matrix4x4 {
 <F6F23F45-7686-11cf-8F52-0040333594A3>
 array FLOAT matrix[16];
}

template ColorRGBA {
 <35FF44E0-6C7C-11cf-8F52-0040333594A3>
 FLOAT red;
 FLOAT green;
 FLOAT blue;
 FLOAT alpha;
}

template ColorRGB {
 <D3E16E81-7835-11cf-8F52-0040333594A3>
 FLOAT red;
 FLOAT green;
 FLOAT blue;
}

template IndexedColor {
 <1630B820-7842-11cf-8F52-0040333594A3>
 DWORD index;
 ColorRGBA indexColor;
}

template Boolean {
 <4885AE61-78E8-11cf-8F52-0040333594A3>
 WORD truefalse;
}

template Boolean2d {
 <4885AE63-78E8-11cf-8F52-0040333594A3>
 Boolean u;
 Boolean v;
}

template MaterialWrap {
 <4885AE60-78E8-11cf-8F52-0040333594A3>
 Boolean u;
 Boolean v;
}

template TextureFilename {
 <A42790E1-7810-11cf-8F52-0040333594A3>
 STRING filename;
}

template Material {
 <3D82AB4D-62DA-11cf-AB39-0020AF71E433>
 ColorRGBA faceColor;
 FLOAT power;
 ColorRGB specularColor;
 ColorRGB emissiveColor;
 [...]
}

template MeshFace {
 <3D82AB5F-62DA-11cf-AB39-0020AF71E433>
 DWORD nFaceVertexIndices;
 array DWORD faceVertexIndices[nFaceVertexIndices];
}

template MeshFaceWraps {
 <4885AE62-78E8-11cf-8F52-0040333594A3>
 DWORD nFaceWrapValues;
 Boolean2d faceWrapValues;
}

template MeshTextureCoords {
 <F6F23F40-7686-11cf-8F52-0040333594A3>
 DWORD nTextureCoords;
 array Coords2d textureCoords[nTextureCoords];
}

template MeshMaterialList {
 <F6F23F42-7686-11cf-8F52-0040333594A3>
 DWORD nMaterials;
 DWORD nFaceIndexes;
 array DWORD faceIndexes[nFaceIndexes];
 [Material]
}

template MeshNormals {
 <F6F23F43-7686-11cf-8F52-0040333594A3>
 DWORD nNormals;
 array Vector normals[nNormals];
 DWORD nFaceNormals;
 array MeshFace faceNormals[nFaceNormals];
}

template MeshVertexColors {
 <1630B821-7842-11cf-8F52-0040333594A3>
 DWORD nVertexColors;
 array IndexedColor vertexColors[nVertexColors];
}

template Mesh {
 <3D82AB44-62DA-11cf-AB39-0020AF71E433>
 DWORD nVertices;
 array Vector vertices[nVertices];
 DWORD nFaces;
 array MeshFace faces[nFaces];
 [...]
}

Header{
1;
0;
1;
}

Mesh {
 83;
 -0.19104;-0.14028;-0.38323;,
 0.07203;-0.36012;-0.37797;,
 -0.10345;-0.38531;-0.33228;,
 -0.33448;-0.35841;-0.39633;,
 0.07203;-0.36012;-0.37797;,
 0.09788;-0.06981;-0.42002;,
 0.28215;-0.28330;-0.37882;,
 0.09788;-0.06981;-0.42002;,
 -0.33448;-0.35841;-0.39633;,
 -0.37443;0.02384;-0.32347;,
 -0.19104;-0.14028;-0.38323;,
 0.24168;0.13400;-0.38618;,
 -0.11160;0.07406;-0.40526;,
 0.00569;0.21046;-0.47950;,
 0.24168;0.13400;-0.38618;,
 -0.20177;0.29217;-0.36371;,
 0.00569;0.21046;-0.47950;,
 -0.20177;0.29217;-0.36371;,
 -0.35151;0.27781;-0.24700;,
 0.06594;0.33318;-0.31634;,
 0.28215;-0.28330;-0.37882;,
 0.42536;-0.10590;-0.14707;,
 0.34507;-0.37219;-0.15034;,
 0.33899;0.20485;-0.09432;,
 0.06594;0.33318;-0.31634;,
 -0.13174;0.39014;-0.16366;,
 -0.45236;-0.18192;-0.22845;,
 -0.47779;-0.38576;-0.16531;,
 -0.29287;-0.40680;-0.21484;,
 -0.08312;-0.40658;-0.13502;,
 0.14159;-0.38976;-0.15298;,
 0.28215;-0.28330;-0.37882;,
 0.42447;0.05702;0.01528;,
 0.12701;0.34478;-0.09639;,
 0.29597;0.36826;0.14037;,
 -0.22705;0.35374;0.01626;,
 -0.48352;-0.00117;-0.07465;,
 -0.37443;0.02384;-0.32347;,
 -0.41335;0.15609;0.09108;,
 -0.47724;-0.37361;0.04072;,
 -0.29287;-0.40680;-0.21484;,
 -0.08312;-0.40658;-0.13502;,
 -0.29074;-0.41454;-0.02404;,
 -0.06294;-0.40384;0.06109;,
 0.14756;-0.37872;0.13345;,
 0.43125;-0.08033;0.13838;,
 0.42129;0.17650;0.15434;,
 0.10970;0.38331;0.20556;,
 -0.01211;0.39403;0.01825;,
 -0.22705;0.35374;0.01626;,
 -0.45912;-0.07874;0.16168;,
 -0.47724;-0.37361;0.04072;,
 -0.33655;-0.38638;0.20526;,
 -0.06294;-0.40384;0.06109;,
 -0.33655;-0.38638;0.20526;,
 0.40577;-0.35686;0.14549;,
 0.40577;-0.35686;0.14549;,
 0.36484;0.12125;0.42647;,
 0.10970;0.38331;0.20556;,
 -0.17136;0.26272;0.22843;,
 -0.17136;0.26272;0.22843;,
 -0.33655;-0.38638;0.20526;,
 -0.21361;-0.37977;0.34252;,
 0.14756;-0.37872;0.13345;,
 0.05037;-0.36759;0.36613;,
 0.30134;-0.35710;0.33250;,
 0.38966;-0.11752;0.34608;,
 0.38849;0.29624;0.35418;,
 0.16936;0.31856;0.40663;,
 0.16936;0.31856;0.40663;,
 -0.17136;0.26272;0.22843;,
 -0.21408;0.04924;0.32842;,
 -0.30519;-0.14355;0.37538;,
 -0.03133;-0.16821;0.40364;,
 0.19735;-0.13311;0.43279;,
 -0.03133;-0.16821;0.40364;,
 -0.30519;-0.14355;0.37538;,
 -0.21361;-0.37977;0.34252;,
 0.30134;-0.35710;0.33250;,
 0.08297;0.05064;0.41309;,
 -0.21408;0.04924;0.32842;,
 0.36484;0.12125;0.42647;,
 0.08297;0.05064;0.41309;;
 
 100;
 3;0,1,2;,
 3;3,0,2;,
 3;4,5,6;,
 3;1,0,7;,
 3;8,9,10;,
 3;5,11,6;,
 3;0,12,7;,
 3;12,0,9;,
 3;5,13,14;,
 3;12,13,7;,
 3;15,16,12;,
 3;17,12,9;,
 3;18,17,9;,
 3;16,15,19;,
 3;20,21,22;,
 3;11,21,20;,
 3;11,23,21;,
 3;24,14,13;,
 3;15,25,19;,
 3;25,17,18;,
 3;9,8,26;,
 3;26,8,27;,
 3;3,2,28;,
 3;1,29,2;,
 3;30,29,1;,
 3;31,30,4;,
 3;23,32,21;,
 3;33,23,11;,
 3;33,34,23;,
 3;33,11,24;,
 3;19,25,33;,
 3;25,18,35;,
 3;36,18,37;,
 3;38,18,36;,
 3;37,26,36;,
 3;36,26,39;,
 3;39,26,27;,
 3;8,40,27;,
 3;28,2,41;,
 3;28,41,42;,
 3;29,30,43;,
 3;22,44,30;,
 3;31,22,30;,
 3;21,32,45;,
 3;32,23,46;,
 3;34,46,23;,
 3;33,47,34;,
 3;25,48,33;,
 3;25,49,48;,
 3;35,18,38;,
 3;39,50,36;,
 3;27,40,51;,
 3;42,51,40;,
 3;42,52,51;,
 3;41,53,42;,
 3;53,54,42;,
 3;44,43,30;,
 3;22,55,44;,
 3;21,55,22;,
 3;21,45,56;,
 3;46,57,45;,
 3;32,46,45;,
 3;48,58,33;,
 3;48,59,58;,
 3;48,49,59;,
 3;60,35,38;,
 3;38,36,50;,
 3;50,39,61;,
 3;53,62,54;,
 3;63,64,43;,
 3;44,55,65;,
 3;45,66,56;,
 3;45,57,66;,
 3;67,57,46;,
 3;34,67,46;,
 3;34,68,67;,
 3;34,47,68;,
 3;69,58,70;,
 3;60,38,71;,
 3;38,50,72;,
 3;71,38,72;,
 3;61,72,50;,
 3;64,62,43;,
 3;73,62,64;,
 3;63,65,64;,
 3;74,75,64;,
 3;74,64,65;,
 3;62,73,76;,
 3;72,52,77;,
 3;78,56,66;,
 3;66,74,65;,
 3;74,79,75;,
 3;73,79,80;,
 3;73,80,76;,
 3;81,74,66;,
 3;74,81,82;,
 3;70,80,79;,
 3;68,82,81;,
 3;79,69,70;,
 3;67,68,81;;
 
 MeshMaterialList {
  2;
  100;
  0,
  0,
  0,
  0,
  0,
  0,
  0,
  0,
  0,
  0,
  0,
  0,
  0,
  0,
  0,
  0,
  0,
  0,
  0,
  0,
  0,
  0,
  0,
  0,
  0,
  0,
  0,
  0,
  0,
  0,
  0,
  0,
  0,
  0,
  0,
  0,
  0,
  0,
  0,
  0,
  0,
  0,
  0,
  0,
  0,
  0,
  0,
  0,
  0,
  0,
  0,
  0,
  0,
  0,
  0,
  0,
  0,
  0,
  0,
  0,
  0,
  0,
  0,
  0,
  0,
  0,
  0,
  0,
  0,
  0,
  0,
  0,
  0,
  0,
  0,
  0,
  0,
  0,
  0,
  0,
  0,
  0,
  0,
  0,
  0,
  0,
  0,
  0,
  0,
  0,
  0,
  0,
  0,
  0,
  0,
  0,
  0,
  0,
  0,
  0;;
  Material {
   0.627200;0.627200;0.627200;1.000000;;
   5.000000;
   0.000000;0.000000;0.000000;;
   0.000000;0.000000;0.000000;;
   TextureFilename {
    "Data\\Graphics\\XFileTexture\\Terrain 1 high res_mtl1_bumpamt.bmp";
   }
  }
  Material {
   0.800000;0.800000;0.800000;1.000000;;
   5.000000;
   0.000000;0.000000;0.000000;;
   0.000000;0.000000;0.000000;;
   TextureFilename {
    "Terrain 1 high res_mtl1_bumpamt.bmp";
   }
  }
 }
 MeshNormals {
  68;
  -0.149072;-0.146667;-0.977889;,
  0.968489;0.244602;-0.046885;,
  -0.420354;0.676155;0.605076;,
  -0.083665;-0.185238;-0.979126;,
  0.398253;-0.026566;-0.916891;,
  0.640140;0.388513;-0.662781;,
  0.058721;-0.995995;-0.067428;,
  0.972144;0.178562;-0.151828;,
  -0.070915;-0.997100;0.027625;,
  0.046586;-0.996976;0.062194;,
  0.082809;-0.995262;0.050956;,
  0.470169;0.878745;-0.082151;,
  0.058914;-0.994543;0.086106;,
  0.833839;0.021934;0.551572;,
  -0.364950;0.353295;0.861391;,
  -0.213450;0.147182;0.965804;,
  -0.454528;0.008449;-0.890692;,
  0.026116;-0.120686;-0.992347;,
  -0.106386;-0.067154;-0.992055;,
  -0.299550;-0.064186;-0.951919;,
  -0.620068;0.140699;-0.771828;,
  -0.352585;0.557073;-0.751900;,
  0.024479;-0.195112;-0.980475;,
  0.963326;0.009974;-0.268150;,
  0.786322;0.518790;-0.335492;,
  -0.106921;0.980141;-0.167009;,
  0.271843;0.861434;-0.428990;,
  -0.728744;0.634160;-0.258406;,
  -0.939337;0.042017;-0.340413;,
  -0.979576;0.169945;-0.107468;,
  -0.959493;0.033069;-0.279785;,
  -0.080065;-0.991718;-0.100427;,
  -0.986845;-0.034202;0.158009;,
  0.126692;-0.985303;-0.114572;,
  0.923865;-0.275272;-0.265891;,
  0.082429;-0.995809;0.039636;,
  0.995778;-0.008572;0.091396;,
  0.356581;0.906685;-0.225327;,
  -0.053282;0.991935;0.115008;,
  -0.431036;0.875080;0.220097;,
  -0.070614;-0.993204;0.092519;,
  0.797391;-0.184659;0.574516;,
  -0.051495;0.987999;0.145626;,
  -0.761830;0.497630;0.414705;,
  -0.900730;0.024801;0.433670;,
  0.005236;-0.996106;0.088010;,
  0.967080;0.254393;0.006315;,
  0.065989;0.864163;0.498866;,
  0.066531;-0.996168;0.056767;,
  0.118910;-0.161880;0.979620;,
  -0.129609;-0.037383;0.990860;,
  -0.563751;0.046139;0.824655;,
  0.225577;0.736748;-0.637430;,
  0.495042;-0.790929;-0.359673;,
  -0.106052;-0.966580;-0.233400;,
  0.036990;-0.986464;-0.159754;,
  0.170396;-0.971456;-0.165039;,
  -0.133871;-0.987736;-0.080356;,
  0.085914;-0.990700;-0.105509;,
  -0.170386;-0.984753;0.035083;,
  0.971761;-0.205052;0.116768;,
  -0.756485;-0.274386;0.593669;,
  0.229286;0.725169;0.649276;,
  -0.311580;-0.265204;0.912461;,
  -0.009576;-0.263629;0.964577;,
  0.492343;-0.315518;0.811201;,
  -0.061030;0.054828;0.996629;,
  -0.275812;0.111971;0.954668;;
  100;
  3;18,3,22;,
  3;16,18,22;,
  3;3,17,4;,
  3;3,18,17;,
  3;16,20,18;,
  3;17,5,4;,
  3;18,19,17;,
  3;19,18,20;,
  3;17,0,5;,
  3;19,0,17;,
  3;21,0,19;,
  3;21,19,20;,
  3;27,21,20;,
  3;52,21,26;,
  3;53,23,34;,
  3;5,23,4;,
  3;5,24,23;,
  3;26,5,52;,
  3;21,25,26;,
  3;25,21,27;,
  3;20,16,28;,
  3;28,16,30;,
  3;54,55,31;,
  3;56,6,55;,
  3;33,6,56;,
  3;53,33,56;,
  3;24,7,23;,
  3;37,24,5;,
  3;37,11,24;,
  3;37,5,26;,
  3;26,25,37;,
  3;25,27,39;,
  3;29,27,20;,
  3;43,27,29;,
  3;20,28,29;,
  3;29,28,32;,
  3;32,28,30;,
  3;54,31,57;,
  3;31,55,6;,
  3;31,6,8;,
  3;6,33,9;,
  3;58,10,33;,
  3;53,58,33;,
  3;23,7,36;,
  3;7,24,1;,
  3;11,1,24;,
  3;37,42,11;,
  3;25,38,37;,
  3;25,39,38;,
  3;39,27,43;,
  3;32,44,29;,
  3;57,31,59;,
  3;8,59,31;,
  3;8,40,59;,
  3;6,9,8;,
  3;9,40,8;,
  3;10,9,33;,
  3;58,35,10;,
  3;23,60,34;,
  3;23,36,60;,
  3;1,13,36;,
  3;7,1,36;,
  3;38,42,37;,
  3;38,2,42;,
  3;38,39,2;,
  3;2,39,43;,
  3;43,29,44;,
  3;44,32,61;,
  3;9,45,40;,
  3;10,12,9;,
  3;10,35,48;,
  3;36,41,60;,
  3;36,13,41;,
  3;46,13,1;,
  3;11,46,1;,
  3;11,47,62;,
  3;11,42,47;,
  3;47,42,2;,
  3;2,43,14;,
  3;43,44,51;,
  3;14,43,51;,
  3;61,51,44;,
  3;12,45,9;,
  3;50,63,64;,
  3;10,48,12;,
  3;49,50,64;,
  3;49,64,65;,
  3;63,50,51;,
  3;51,61,63;,
  3;65,60,41;,
  3;41,49,65;,
  3;49,15,50;,
  3;50,15,14;,
  3;50,14,51;,
  3;13,49,41;,
  3;49,66,15;,
  3;2,14,15;,
  3;67,15,66;,
  3;15,67,2;,
  3;62,47,13;;
 }
 MeshTextureCoords {
  83;
  0.445830;0.466420;,
  0.498190;0.546920;,
  0.457500;0.554420;,
  0.396140;0.549170;,
  0.536720;0.544710;,
  0.548110;0.437320;,
  0.571450;0.490090;,
  0.504450;0.455960;,
  0.361010;0.541290;,
  0.379820;0.428430;,
  0.409330;0.475000;,
  0.589740;0.384260;,
  0.454720;0.397490;,
  0.516090;0.357560;,
  0.561080;0.369760;,
  0.443200;0.322140;,
  0.473480;0.344220;,
  0.404630;0.323810;,
  0.372760;0.327880;,
  0.494680;0.296990;,
  0.619840;0.488950;,
  0.638160;0.458960;,
  0.610730;0.549940;,
  0.608650;0.352800;,
  0.536060;0.320940;,
  0.447840;0.289500;,
  0.338310;0.484940;,
  0.329620;0.554570;,
  0.411240;0.560610;,
  0.484710;0.561080;,
  0.541220;0.555940;,
  0.582820;0.549620;,
  0.637860;0.403310;,
  0.536240;0.305000;,
  0.593960;0.296980;,
  0.394360;0.310290;,
  0.327660;0.423190;,
  0.350050;0.400850;,
  0.351640;0.369460;,
  0.318800;0.538910;,
  0.374350;0.562910;,
  0.444190;0.562290;,
  0.393520;0.564410;,
  0.496970;0.559530;,
  0.556410;0.551730;,
  0.640170;0.450230;,
  0.636770;0.362490;,
  0.551650;0.288450;,
  0.488710;0.288180;,
  0.436200;0.293590;,
  0.336000;0.449690;,
  0.340820;0.561930;,
  0.365910;0.557940;,
  0.445710;0.561970;,
  0.402550;0.560630;,
  0.611470;0.550360;,
  0.651460;0.539040;,
  0.633230;0.392610;,
  0.508990;0.295220;,
  0.454690;0.307830;,
  0.410370;0.341700;,
  0.340460;0.539940;,
  0.446590;0.553790;,
  0.530100;0.552610;,
  0.510050;0.548360;,
  0.570150;0.548110;,
  0.625960;0.462940;,
  0.625560;0.321580;,
  0.577100;0.314670;,
  0.524310;0.313250;,
  0.480980;0.327750;,
  0.393600;0.394430;,
  0.364740;0.468160;,
  0.463460;0.479100;,
  0.560270;0.468260;,
  0.500830;0.481400;,
  0.412430;0.475500;,
  0.393160;0.551270;,
  0.621430;0.541450;,
  0.503870;0.413020;,
  0.445820;0.417510;,
  0.601730;0.370120;,
  0.538510;0.397960;;
 }
 MeshVertexColors {
  83;
  0;1.000000;1.000000;1.000000;1.000000;,
  1;1.000000;1.000000;1.000000;1.000000;,
  2;1.000000;1.000000;1.000000;1.000000;,
  3;1.000000;1.000000;1.000000;1.000000;,
  4;1.000000;1.000000;1.000000;1.000000;,
  5;1.000000;1.000000;1.000000;1.000000;,
  6;1.000000;1.000000;1.000000;1.000000;,
  7;1.000000;1.000000;1.000000;1.000000;,
  8;1.000000;1.000000;1.000000;1.000000;,
  9;1.000000;1.000000;1.000000;1.000000;,
  10;1.000000;1.000000;1.000000;1.000000;,
  11;1.000000;1.000000;1.000000;1.000000;,
  12;1.000000;1.000000;1.000000;1.000000;,
  13;1.000000;1.000000;1.000000;1.000000;,
  14;1.000000;1.000000;1.000000;1.000000;,
  15;1.000000;1.000000;1.000000;1.000000;,
  16;1.000000;1.000000;1.000000;1.000000;,
  17;1.000000;1.000000;1.000000;1.000000;,
  18;1.000000;1.000000;1.000000;1.000000;,
  19;1.000000;1.000000;1.000000;1.000000;,
  20;1.000000;1.000000;1.000000;1.000000;,
  21;1.000000;1.000000;1.000000;1.000000;,
  22;1.000000;1.000000;1.000000;1.000000;,
  23;1.000000;1.000000;1.000000;1.000000;,
  24;1.000000;1.000000;1.000000;1.000000;,
  25;1.000000;1.000000;1.000000;1.000000;,
  26;1.000000;1.000000;1.000000;1.000000;,
  27;1.000000;1.000000;1.000000;1.000000;,
  28;1.000000;1.000000;1.000000;1.000000;,
  29;1.000000;1.000000;1.000000;1.000000;,
  30;1.000000;1.000000;1.000000;1.000000;,
  31;1.000000;1.000000;1.000000;1.000000;,
  32;1.000000;1.000000;1.000000;1.000000;,
  33;1.000000;1.000000;1.000000;1.000000;,
  34;1.000000;1.000000;1.000000;1.000000;,
  35;1.000000;1.000000;1.000000;1.000000;,
  36;1.000000;1.000000;1.000000;1.000000;,
  37;1.000000;1.000000;1.000000;1.000000;,
  38;1.000000;1.000000;1.000000;1.000000;,
  39;1.000000;1.000000;1.000000;1.000000;,
  40;1.000000;1.000000;1.000000;1.000000;,
  41;1.000000;1.000000;1.000000;1.000000;,
  42;1.000000;1.000000;1.000000;1.000000;,
  43;1.000000;1.000000;1.000000;1.000000;,
  44;1.000000;1.000000;1.000000;1.000000;,
  45;1.000000;1.000000;1.000000;1.000000;,
  46;1.000000;1.000000;1.000000;1.000000;,
  47;1.000000;1.000000;1.000000;1.000000;,
  48;1.000000;1.000000;1.000000;1.000000;,
  49;1.000000;1.000000;1.000000;1.000000;,
  50;1.000000;1.000000;1.000000;1.000000;,
  51;1.000000;1.000000;1.000000;1.000000;,
  52;1.000000;1.000000;1.000000;1.000000;,
  53;1.000000;1.000000;1.000000;1.000000;,
  54;1.000000;1.000000;1.000000;1.000000;,
  55;1.000000;1.000000;1.000000;1.000000;,
  56;1.000000;1.000000;1.000000;1.000000;,
  57;1.000000;1.000000;1.000000;1.000000;,
  58;1.000000;1.000000;1.000000;1.000000;,
  59;1.000000;1.000000;1.000000;1.000000;,
  60;1.000000;1.000000;1.000000;1.000000;,
  61;1.000000;1.000000;1.000000;1.000000;,
  62;1.000000;1.000000;1.000000;1.000000;,
  63;1.000000;1.000000;1.000000;1.000000;,
  64;1.000000;1.000000;1.000000;1.000000;,
  65;1.000000;1.000000;1.000000;1.000000;,
  66;1.000000;1.000000;1.000000;1.000000;,
  67;1.000000;1.000000;1.000000;1.000000;,
  68;1.000000;1.000000;1.000000;1.000000;,
  69;1.000000;1.000000;1.000000;1.000000;,
  70;1.000000;1.000000;1.000000;1.000000;,
  71;1.000000;1.000000;1.000000;1.000000;,
  72;1.000000;1.000000;1.000000;1.000000;,
  73;1.000000;1.000000;1.000000;1.000000;,
  74;1.000000;1.000000;1.000000;1.000000;,
  75;1.000000;1.000000;1.000000;1.000000;,
  76;1.000000;1.000000;1.000000;1.000000;,
  77;1.000000;1.000000;1.000000;1.000000;,
  78;1.000000;1.000000;1.000000;1.000000;,
  79;1.000000;1.000000;1.000000;1.000000;,
  80;1.000000;1.000000;1.000000;1.000000;,
  81;1.000000;1.000000;1.000000;1.000000;,
  82;1.000000;1.000000;1.000000;1.000000;;
 }
}
