xof 0302txt 0064
template Header {
 <3D82AB43-62DA-11cf-AB39-0020AF71E433>
 WORD major;
 WORD minor;
 DWORD flags;
}

template Vector {
 <3D82AB5E-62DA-11cf-AB39-0020AF71E433>
 FLOAT x;
 FLOAT y;
 FLOAT z;
}

template Coords2d {
 <F6F23F44-7686-11cf-8F52-0040333594A3>
 FLOAT u;
 FLOAT v;
}

template Matrix4x4 {
 <F6F23F45-7686-11cf-8F52-0040333594A3>
 array FLOAT matrix[16];
}

template ColorRGBA {
 <35FF44E0-6C7C-11cf-8F52-0040333594A3>
 FLOAT red;
 FLOAT green;
 FLOAT blue;
 FLOAT alpha;
}

template ColorRGB {
 <D3E16E81-7835-11cf-8F52-0040333594A3>
 FLOAT red;
 FLOAT green;
 FLOAT blue;
}

template IndexedColor {
 <1630B820-7842-11cf-8F52-0040333594A3>
 DWORD index;
 ColorRGBA indexColor;
}

template Boolean {
 <4885AE61-78E8-11cf-8F52-0040333594A3>
 WORD truefalse;
}

template Boolean2d {
 <4885AE63-78E8-11cf-8F52-0040333594A3>
 Boolean u;
 Boolean v;
}

template MaterialWrap {
 <4885AE60-78E8-11cf-8F52-0040333594A3>
 Boolean u;
 Boolean v;
}

template TextureFilename {
 <A42790E1-7810-11cf-8F52-0040333594A3>
 STRING filename;
}

template Material {
 <3D82AB4D-62DA-11cf-AB39-0020AF71E433>
 ColorRGBA faceColor;
 FLOAT power;
 ColorRGB specularColor;
 ColorRGB emissiveColor;
 [...]
}

template MeshFace {
 <3D82AB5F-62DA-11cf-AB39-0020AF71E433>
 DWORD nFaceVertexIndices;
 array DWORD faceVertexIndices[nFaceVertexIndices];
}

template MeshFaceWraps {
 <4885AE62-78E8-11cf-8F52-0040333594A3>
 DWORD nFaceWrapValues;
 Boolean2d faceWrapValues;
}

template MeshTextureCoords {
 <F6F23F40-7686-11cf-8F52-0040333594A3>
 DWORD nTextureCoords;
 array Coords2d textureCoords[nTextureCoords];
}

template MeshMaterialList {
 <F6F23F42-7686-11cf-8F52-0040333594A3>
 DWORD nMaterials;
 DWORD nFaceIndexes;
 array DWORD faceIndexes[nFaceIndexes];
 [Material]
}

template MeshNormals {
 <F6F23F43-7686-11cf-8F52-0040333594A3>
 DWORD nNormals;
 array Vector normals[nNormals];
 DWORD nFaceNormals;
 array MeshFace faceNormals[nFaceNormals];
}

template MeshVertexColors {
 <1630B821-7842-11cf-8F52-0040333594A3>
 DWORD nVertexColors;
 array IndexedColor vertexColors[nVertexColors];
}

template Mesh {
 <3D82AB44-62DA-11cf-AB39-0020AF71E433>
 DWORD nVertices;
 array Vector vertices[nVertices];
 DWORD nFaces;
 array MeshFace faces[nFaces];
 [...]
}

Header{
1;
0;
1;
}

Mesh {
 84;
 0.16446;-0.01473;-0.48646;,
 0.28981;0.18242;-0.52508;,
 0.33083;-0.03248;-0.45155;,
 -0.16359;0.26782;-0.45637;,
 0.02536;-0.02271;-0.43469;,
 -0.12147;-0.04978;-0.40424;,
 -0.34293;-0.03084;-0.50431;,
 0.46447;0.18652;-0.41826;,
 0.20557;0.37288;-0.54371;,
 0.04798;0.30560;-0.48113;,
 -0.29535;0.23687;-0.47774;,
 -0.46973;-0.00238;-0.46211;,
 -0.40187;0.40494;-0.44138;,
 0.35582;0.56438;-0.39173;,
 -0.13151;0.51664;-0.49422;,
 0.25237;0.61670;-0.54966;,
 0.09000;0.66075;-0.58603;,
 -0.06380;0.70889;-0.58550;,
 -0.17308;0.78860;-0.47779;,
 -0.31231;0.78254;-0.40819;,
 -0.42734;0.76787;-0.29908;,
 -0.50932;0.50449;-0.34537;,
 0.01270;0.87936;-0.38919;,
 0.53057;0.29475;-0.17587;,
 0.43157;-0.03361;-0.17990;,
 0.42408;0.67790;-0.11083;,
 0.16209;0.79290;-0.37997;,
 -0.15635;0.90638;-0.19632;,
 -0.55168;0.20100;-0.27621;,
 -0.58304;-0.05034;-0.19836;,
 -0.42159;-0.08043;-0.21349;,
 -0.28846;-0.07213;-0.30536;,
 -0.02328;-0.07382;-0.13810;,
 0.18068;-0.05527;-0.18315;,
 0.52948;0.49562;0.02432;,
 0.16270;0.85044;-0.11337;,
 0.37103;0.87939;0.17856;,
 -0.34938;0.83136;-0.01447;,
 -0.59010;0.42388;-0.08657;,
 -0.50358;0.61777;0.11778;,
 -0.62209;0.00618;0.07057;,
 -0.16952;-0.07820;-0.18391;,
 -0.35241;-0.08583;-0.02417;,
 0.02099;-0.06822;0.08743;,
 0.23550;-0.04007;0.07819;,
 0.53784;0.32626;0.17611;,
 0.52556;0.64295;0.19579;,
 0.21834;0.91017;0.29831;,
 -0.00884;0.91117;0.02798;,
 -0.19836;0.89162;0.06553;,
 -0.56002;0.32822;0.20483;,
 -0.54263;-0.07690;0.04080;,
 -0.45205;-0.06249;0.26109;,
 -0.16402;-0.07705;0.07417;,
 -0.31979;-0.07219;0.21626;,
 0.43425;-0.03514;0.18102;,
 0.57858;0.00572;0.18874;,
 0.51280;0.53425;0.45668;,
 0.06436;0.88574;0.21957;,
 -0.13163;0.84024;0.26635;,
 -0.29160;0.71798;0.23992;,
 -0.54391;0.00246;0.34068;,
 -0.16087;-0.04750;0.39749;,
 0.14057;-0.04324;0.26187;,
 0.06820;-0.02793;0.45693;,
 0.28512;-0.02703;0.41098;,
 0.48655;0.28041;0.43220;,
 0.48511;0.79059;0.44219;,
 0.31019;0.81554;0.54005;,
 0.11966;0.82068;0.47369;,
 -0.03673;0.76835;0.41157;,
 -0.35210;0.52769;0.39436;,
 -0.45628;0.26156;0.44598;,
 -0.35371;-0.03840;0.45814;,
 -0.09998;0.22206;0.49766;,
 0.47019;-0.00298;0.41995;,
 0.24943;0.26119;0.53912;,
 0.03490;0.21377;0.50871;,
 -0.28416;0.23508;0.49070;,
 0.04587;0.46056;0.47144;,
 0.17092;0.51494;0.55824;,
 -0.16365;0.44437;0.42651;,
 0.39910;0.61539;0.60599;,
 -0.17516;0.67328;0.39319;;
 
 164;
 3;0,1,2;,
 3;3,4,5;,
 3;6,3,5;,
 3;1,7,2;,
 3;0,8,1;,
 3;9,8,0;,
 3;4,9,0;,
 3;4,3,9;,
 3;10,3,6;,
 3;11,10,6;,
 3;11,12,10;,
 3;13,7,1;,
 3;8,13,1;,
 3;3,14,9;,
 3;3,10,12;,
 3;14,3,12;,
 3;15,13,8;,
 3;8,16,15;,
 3;16,8,9;,
 3;14,16,9;,
 3;14,17,16;,
 3;18,17,14;,
 3;19,18,14;,
 3;19,14,12;,
 3;20,19,12;,
 3;21,20,12;,
 3;17,22,16;,
 3;17,18,22;,
 3;7,23,24;,
 3;13,23,7;,
 3;13,25,23;,
 3;26,13,15;,
 3;26,15,16;,
 3;22,26,16;,
 3;18,27,22;,
 3;27,18,19;,
 3;27,19,20;,
 3;12,28,21;,
 3;12,11,28;,
 3;28,11,29;,
 3;11,6,30;,
 3;6,5,31;,
 3;4,32,5;,
 3;33,32,4;,
 3;33,4,0;,
 3;2,33,0;,
 3;24,2,7;,
 3;25,34,23;,
 3;35,25,13;,
 3;35,36,25;,
 3;35,13,26;,
 3;22,27,35;,
 3;22,35,26;,
 3;27,20,37;,
 3;38,20,21;,
 3;39,20,38;,
 3;21,28,38;,
 3;38,28,40;,
 3;40,28,29;,
 3;6,31,30;,
 3;11,30,29;,
 3;31,5,41;,
 3;30,31,42;,
 3;31,41,42;,
 3;5,32,41;,
 3;32,33,43;,
 3;24,44,33;,
 3;2,24,33;,
 3;23,34,45;,
 3;34,25,46;,
 3;36,46,25;,
 3;35,47,36;,
 3;27,48,35;,
 3;27,49,48;,
 3;37,49,27;,
 3;37,20,39;,
 3;40,50,38;,
 3;40,29,51;,
 3;29,30,51;,
 3;42,51,30;,
 3;42,52,51;,
 3;41,53,42;,
 3;53,54,42;,
 3;32,43,53;,
 3;53,41,32;,
 3;44,43,33;,
 3;24,55,44;,
 3;23,56,55;,
 3;23,55,24;,
 3;23,45,56;,
 3;46,57,45;,
 3;34,46,45;,
 3;47,35,58;,
 3;48,58,35;,
 3;48,59,58;,
 3;48,49,59;,
 3;49,37,60;,
 3;60,37,39;,
 3;39,38,50;,
 3;50,40,61;,
 3;61,40,51;,
 3;61,51,52;,
 3;42,54,52;,
 3;53,62,54;,
 3;43,62,53;,
 3;63,43,44;,
 3;63,64,43;,
 3;65,63,44;,
 3;44,55,65;,
 3;45,66,56;,
 3;45,57,66;,
 3;67,57,46;,
 3;36,67,46;,
 3;36,68,67;,
 3;36,47,68;,
 3;47,58,69;,
 3;69,58,70;,
 3;58,59,70;,
 3;59,49,60;,
 3;60,39,71;,
 3;39,50,72;,
 3;71,39,72;,
 3;61,72,50;,
 3;52,72,61;,
 3;73,52,54;,
 3;54,62,73;,
 3;64,62,43;,
 3;74,62,64;,
 3;63,65,64;,
 3;55,75,65;,
 3;56,75,55;,
 3;76,77,64;,
 3;76,64,65;,
 3;74,64,77;,
 3;62,74,78;,
 3;73,62,78;,
 3;72,52,73;,
 3;78,72,73;,
 3;75,56,66;,
 3;66,65,75;,
 3;66,76,65;,
 3;76,79,77;,
 3;76,80,79;,
 3;79,74,77;,
 3;74,79,81;,
 3;74,81,78;,
 3;78,71,72;,
 3;57,82,66;,
 3;82,76,66;,
 3;76,82,80;,
 3;70,81,79;,
 3;71,78,81;,
 3;82,57,67;,
 3;68,69,80;,
 3;68,80,82;,
 3;80,69,79;,
 3;79,69,70;,
 3;70,83,81;,
 3;81,83,71;,
 3;67,68,82;,
 3;47,69,68;,
 3;70,59,83;,
 3;71,83,60;,
 3;59,60,83;;
 
 MeshMaterialList {
  2;
  164;
  0,
  0,
  0,
  0,
  0,
  0,
  0,
  0,
  0,
  0,
  0,
  0,
  0,
  0,
  0,
  0,
  0,
  0,
  0,
  0,
  0,
  0,
  0,
  0,
  0,
  0,
  0,
  0,
  0,
  0,
  0,
  0,
  0,
  0,
  0,
  0,
  0,
  0,
  0,
  0,
  0,
  0,
  0,
  0,
  0,
  0,
  0,
  0,
  0,
  0,
  0,
  0,
  0,
  0,
  0,
  0,
  0,
  0,
  0,
  0,
  0,
  0,
  0,
  0,
  0,
  0,
  0,
  0,
  0,
  0,
  0,
  0,
  0,
  0,
  0,
  0,
  0,
  0,
  0,
  0,
  0,
  0,
  0,
  0,
  0,
  0,
  0,
  0,
  0,
  0,
  0,
  0,
  0,
  0,
  0,
  0,
  0,
  0,
  0,
  0,
  0,
  0,
  0,
  0,
  0,
  0,
  0,
  0,
  0,
  0,
  0,
  0,
  0,
  0,
  0,
  0,
  0,
  0,
  0,
  0,
  0,
  0,
  0,
  0,
  0,
  0,
  0,
  0,
  0,
  0,
  0,
  0,
  0,
  0,
  0,
  0,
  0,
  0,
  0,
  0,
  0,
  0,
  0,
  0,
  0,
  0,
  0,
  0,
  0,
  0,
  0,
  0,
  0,
  0,
  0,
  0,
  0,
  0,
  0,
  0,
  0,
  0,
  0,
  0;;
  Material {
   0.627200;0.627200;0.627200;1.000000;;
   5.000000;
   0.000000;0.000000;0.000000;;
   0.000000;0.000000;0.000000;;
   TextureFilename {
    "Date\\Graphics\\XFileTexture\\Terrain 1 high res_mtl1_bumpamt.bmp";
   }
  }
  Material {
   0.800000;0.800000;0.800000;1.000000;;
   5.000000;
   0.000000;0.000000;0.000000;;
   0.000000;0.000000;0.000000;;
   TextureFilename {
    "Terrain 1 high res_mtl1_bumpamt.bmp";
   }
  }
 }
 MeshNormals {
  106;
  -0.455583;-0.245779;-0.855591;,
  0.569649;0.735151;-0.367495;,
  -0.610425;0.105401;-0.785030;,
  0.958535;0.271048;-0.087999;,
  0.140047;-0.986828;-0.080972;,
  -0.562834;0.662510;0.494266;,
  0.551553;-0.341901;-0.760850;,
  -0.152013;-0.163892;-0.974695;,
  0.356068;-0.049182;-0.933165;,
  0.825604;-0.100042;-0.555311;,
  0.611268;0.337663;-0.715776;,
  0.073128;-0.995161;-0.065623;,
  0.972144;0.178561;-0.151826;,
  -0.003915;-0.999899;0.013642;,
  0.080476;-0.995150;0.056567;,
  0.077654;-0.996519;0.030327;,
  0.519279;0.848685;-0.100416;,
  -0.013922;0.990974;0.133332;,
  -0.132575;-0.982884;0.127915;,
  0.038472;-0.998332;0.043043;,
  0.047358;-0.994258;0.095955;,
  0.075066;-0.994975;0.066249;,
  0.946917;0.001951;0.321472;,
  -0.135071;0.208971;0.968549;,
  -0.379489;0.035204;0.924526;,
  0.091953;0.042309;-0.994864;,
  -0.225821;-0.164382;-0.960200;,
  0.022335;-0.050280;-0.998485;,
  -0.063470;0.144584;-0.987455;,
  0.168321;-0.100881;-0.980557;,
  -0.823494;0.167223;-0.542120;,
  -0.297347;-0.126704;-0.946325;,
  -0.426330;0.131350;-0.894980;,
  -0.106546;-0.242619;-0.964253;,
  -0.410040;0.588153;-0.697096;,
  -0.455459;0.500087;-0.736526;,
  0.768291;0.385325;-0.511129;,
  -0.128024;-0.982412;-0.135932;,
  0.123035;-0.144823;-0.981778;,
  -0.201424;-0.141917;-0.969169;,
  0.981373;0.069810;-0.178978;,
  0.786128;0.514681;-0.342209;,
  -0.176740;0.972205;-0.153557;,
  0.177213;0.879502;-0.441669;,
  -0.737882;0.593117;-0.322091;,
  -0.919080;0.040488;-0.391986;,
  -0.977393;0.202300;-0.061471;,
  -0.954920;-0.230918;-0.186561;,
  0.008215;-0.992832;-0.119232;,
  -0.365215;-0.927589;0.078716;,
  0.040683;-0.997720;-0.053839;,
  0.054288;-0.997023;-0.054750;,
  0.924701;-0.348987;-0.152103;,
  0.275103;-0.917567;-0.287033;,
  0.997035;0.040516;0.065425;,
  0.345573;0.919154;-0.189036;,
  0.046138;0.996497;0.069755;,
  -0.344049;0.908920;0.235574;,
  -0.561294;0.807403;0.181796;,
  -0.002448;-0.995357;0.096226;,
  0.803438;-0.155969;0.574597;,
  -0.127420;0.970902;0.202763;,
  -0.808610;0.489222;0.326819;,
  -0.938565;0.175658;0.297052;,
  -0.976165;-0.210171;0.054127;,
  0.036950;-0.993791;0.104951;,
  0.792637;0.508985;0.335650;,
  0.262491;0.866977;0.423615;,
  -0.407822;0.588691;0.697943;,
  -0.344304;0.825982;0.446328;,
  -0.855938;-0.403118;0.323829;,
  -0.015197;-0.990558;0.136248;,
  0.195271;-0.975440;0.101914;,
  0.058695;-0.996057;0.066523;,
  -0.702472;0.142202;0.697361;,
  0.016614;-0.220622;0.975218;,
  -0.117150;-0.027978;0.992720;,
  -0.108399;-0.034264;0.993517;,
  -0.048444;0.052732;0.997433;,
  -0.317730;0.095746;0.943335;,
  -0.395363;0.423882;0.814869;,
  -0.402884;0.447094;0.798618;,
  0.394803;0.033460;0.918156;,
  -0.339520;0.497829;0.798055;,
  0.073265;0.738699;-0.670041;,
  0.327902;0.708565;-0.624833;,
  -0.243873;-0.937778;-0.247182;,
  -0.115768;-0.970676;-0.210681;,
  0.072742;-0.986835;-0.144451;,
  0.070807;-0.986722;-0.146170;,
  -0.035650;-0.990804;-0.130525;,
  0.003903;-0.996589;-0.082437;,
  -0.195800;-0.966145;-0.168009;,
  0.066361;-0.997796;-0.000213;,
  0.243907;-0.744092;-0.621961;,
  0.957427;-0.288555;-0.008318;,
  0.976302;0.063374;0.206926;,
  0.376872;-0.455299;0.806641;,
  0.003978;-0.279377;0.960173;,
  -0.051915;-0.283056;0.957697;,
  0.192715;-0.256759;0.947067;,
  0.014891;-0.121966;0.992422;,
  -0.847552;-0.271301;0.456127;,
  0.904205;-0.070439;0.421250;,
  -0.043126;-0.040671;0.998241;,
  -0.298240;0.194709;0.934420;;
  164;
  3;7,8,6;,
  3;27,39,38;,
  3;25,27,38;,
  3;8,9,6;,
  3;7,29,8;,
  3;26,29,7;,
  3;39,26,7;,
  3;39,27,26;,
  3;28,27,25;,
  3;2,28,25;,
  3;2,32,28;,
  3;36,9,8;,
  3;29,36,8;,
  3;27,31,26;,
  3;27,28,32;,
  3;31,27,32;,
  3;10,36,29;,
  3;29,33,10;,
  3;33,29,26;,
  3;31,33,26;,
  3;31,0,33;,
  3;34,0,31;,
  3;35,34,31;,
  3;35,31,32;,
  3;44,35,32;,
  3;30,44,32;,
  3;84,43,85;,
  3;84,34,43;,
  3;9,40,52;,
  3;36,40,9;,
  3;36,41,40;,
  3;1,36,10;,
  3;1,10,85;,
  3;43,1,85;,
  3;34,42,43;,
  3;42,34,35;,
  3;42,35,44;,
  3;32,45,30;,
  3;32,2,45;,
  3;45,2,47;,
  3;86,87,37;,
  3;87,88,48;,
  3;89,11,88;,
  3;51,11,89;,
  3;51,89,90;,
  3;91,51,90;,
  3;52,6,9;,
  3;41,12,40;,
  3;55,41,36;,
  3;55,16,41;,
  3;55,36,1;,
  3;43,42,55;,
  3;43,55,1;,
  3;42,44,58;,
  3;46,44,30;,
  3;62,44,46;,
  3;30,45,46;,
  3;46,45,64;,
  3;64,45,47;,
  3;87,48,37;,
  3;86,37,92;,
  3;48,88,50;,
  3;37,48,13;,
  3;48,50,13;,
  3;88,11,50;,
  3;11,51,14;,
  3;93,15,51;,
  3;91,93,51;,
  3;40,12,54;,
  3;12,41,3;,
  3;16,3,41;,
  3;55,17,16;,
  3;42,56,55;,
  3;42,57,56;,
  3;58,57,42;,
  3;58,44,62;,
  3;64,63,46;,
  3;64,47,49;,
  3;92,37,49;,
  3;13,49,37;,
  3;13,18,49;,
  3;50,19,13;,
  3;19,59,13;,
  3;11,14,19;,
  3;19,50,11;,
  3;15,14,51;,
  3;93,4,15;,
  3;94,53,4;,
  3;40,95,52;,
  3;40,54,96;,
  3;3,22,54;,
  3;12,3,54;,
  3;17,55,61;,
  3;56,61,55;,
  3;56,69,61;,
  3;56,57,69;,
  3;57,58,5;,
  3;5,58,62;,
  3;62,46,63;,
  3;63,64,70;,
  3;70,64,49;,
  3;70,49,18;,
  3;13,59,18;,
  3;19,65,59;,
  3;14,65,19;,
  3;21,14,15;,
  3;21,20,14;,
  3;73,21,15;,
  3;15,4,73;,
  3;54,60,96;,
  3;54,22,60;,
  3;66,22,3;,
  3;16,66,3;,
  3;16,67,66;,
  3;16,17,67;,
  3;17,61,68;,
  3;68,61,83;,
  3;61,69,83;,
  3;69,57,5;,
  3;5,62,80;,
  3;62,63,74;,
  3;80,62,74;,
  3;70,74,63;,
  3;97,97,97;,
  3;71,18,59;,
  3;59,65,71;,
  3;20,65,14;,
  3;76,98,99;,
  3;21,73,20;,
  3;4,72,73;,
  3;53,72,4;,
  3;75,77,99;,
  3;75,99,100;,
  3;76,99,77;,
  3;98,76,78;,
  3;101,98,78;,
  3;74,102,102;,
  3;78,74,101;,
  3;103,96,60;,
  3;104,100,104;,
  3;60,75,100;,
  3;75,79,77;,
  3;75,24,79;,
  3;79,76,77;,
  3;76,79,23;,
  3;76,23,78;,
  3;78,80,74;,
  3;22,82,60;,
  3;82,75,60;,
  3;75,82,24;,
  3;83,23,79;,
  3;80,78,23;,
  3;82,22,66;,
  3;105,68,24;,
  3;105,24,82;,
  3;24,68,79;,
  3;79,68,83;,
  3;83,81,23;,
  3;23,81,80;,
  3;66,67,82;,
  3;17,68,67;,
  3;83,69,81;,
  3;80,81,5;,
  3;69,5,81;;
 }
 MeshTextureCoords {
  84;
  0.536722;0.544707;,
  0.571452;0.490085;,
  0.582818;0.549625;,
  0.445834;0.466423;,
  0.498185;0.546917;,
  0.457504;0.554420;,
  0.396144;0.549171;,
  0.619845;0.488950;,
  0.548113;0.437316;,
  0.504450;0.455956;,
  0.409326;0.474998;,
  0.361014;0.541286;,
  0.379816;0.428432;,
  0.589741;0.384259;,
  0.454721;0.397487;,
  0.561079;0.369764;,
  0.516094;0.357557;,
  0.473481;0.344221;,
  0.443203;0.322135;,
  0.404628;0.323814;,
  0.372760;0.327879;,
  0.350046;0.400851;,
  0.494676;0.296989;,
  0.638158;0.458964;,
  0.610729;0.549939;,
  0.608654;0.352805;,
  0.536065;0.320945;,
  0.447840;0.289504;,
  0.338309;0.484937;,
  0.329619;0.554574;,
  0.374351;0.562910;,
  0.411237;0.560610;,
  0.484709;0.561079;,
  0.541217;0.555939;,
  0.637857;0.403309;,
  0.536237;0.305002;,
  0.593956;0.296981;,
  0.394359;0.310288;,
  0.327664;0.423186;,
  0.351636;0.369465;,
  0.318802;0.538915;,
  0.444191;0.562292;,
  0.393520;0.564406;,
  0.496973;0.559528;,
  0.556407;0.551728;,
  0.640172;0.450232;,
  0.636769;0.362491;,
  0.551651;0.288454;,
  0.488708;0.288176;,
  0.436200;0.293593;,
  0.335997;0.449688;,
  0.340816;0.561932;,
  0.365913;0.557941;,
  0.445713;0.561973;,
  0.402555;0.560628;,
  0.611471;0.550361;,
  0.651460;0.539041;,
  0.633235;0.392608;,
  0.508989;0.295222;,
  0.454689;0.307828;,
  0.410366;0.341702;,
  0.340460;0.539944;,
  0.446586;0.553787;,
  0.530104;0.552606;,
  0.510053;0.548365;,
  0.570153;0.548114;,
  0.625963;0.462936;,
  0.625564;0.321585;,
  0.577099;0.314672;,
  0.524310;0.313247;,
  0.480981;0.327748;,
  0.393604;0.394425;,
  0.364741;0.468157;,
  0.393157;0.551266;,
  0.463458;0.479102;,
  0.621428;0.541452;,
  0.560265;0.468261;,
  0.500827;0.481400;,
  0.412427;0.475496;,
  0.503865;0.413022;,
  0.538512;0.397957;,
  0.445816;0.417508;,
  0.601732;0.370125;,
  0.442627;0.354087;;
 }
 MeshVertexColors {
  84;
  0;1.000000;1.000000;1.000000;1.000000;,
  1;1.000000;1.000000;1.000000;1.000000;,
  2;1.000000;1.000000;1.000000;1.000000;,
  3;1.000000;1.000000;1.000000;1.000000;,
  4;1.000000;1.000000;1.000000;1.000000;,
  5;1.000000;1.000000;1.000000;1.000000;,
  6;1.000000;1.000000;1.000000;1.000000;,
  7;1.000000;1.000000;1.000000;1.000000;,
  8;1.000000;1.000000;1.000000;1.000000;,
  9;1.000000;1.000000;1.000000;1.000000;,
  10;1.000000;1.000000;1.000000;1.000000;,
  11;1.000000;1.000000;1.000000;1.000000;,
  12;1.000000;1.000000;1.000000;1.000000;,
  13;1.000000;1.000000;1.000000;1.000000;,
  14;1.000000;1.000000;1.000000;1.000000;,
  15;1.000000;1.000000;1.000000;1.000000;,
  16;1.000000;1.000000;1.000000;1.000000;,
  17;1.000000;1.000000;1.000000;1.000000;,
  18;1.000000;1.000000;1.000000;1.000000;,
  19;1.000000;1.000000;1.000000;1.000000;,
  20;1.000000;1.000000;1.000000;1.000000;,
  21;1.000000;1.000000;1.000000;1.000000;,
  22;1.000000;1.000000;1.000000;1.000000;,
  23;1.000000;1.000000;1.000000;1.000000;,
  24;1.000000;1.000000;1.000000;1.000000;,
  25;1.000000;1.000000;1.000000;1.000000;,
  26;1.000000;1.000000;1.000000;1.000000;,
  27;1.000000;1.000000;1.000000;1.000000;,
  28;1.000000;1.000000;1.000000;1.000000;,
  29;1.000000;1.000000;1.000000;1.000000;,
  30;1.000000;1.000000;1.000000;1.000000;,
  31;1.000000;1.000000;1.000000;1.000000;,
  32;1.000000;1.000000;1.000000;1.000000;,
  33;1.000000;1.000000;1.000000;1.000000;,
  34;1.000000;1.000000;1.000000;1.000000;,
  35;1.000000;1.000000;1.000000;1.000000;,
  36;1.000000;1.000000;1.000000;1.000000;,
  37;1.000000;1.000000;1.000000;1.000000;,
  38;1.000000;1.000000;1.000000;1.000000;,
  39;1.000000;1.000000;1.000000;1.000000;,
  40;1.000000;1.000000;1.000000;1.000000;,
  41;1.000000;1.000000;1.000000;1.000000;,
  42;1.000000;1.000000;1.000000;1.000000;,
  43;1.000000;1.000000;1.000000;1.000000;,
  44;1.000000;1.000000;1.000000;1.000000;,
  45;1.000000;1.000000;1.000000;1.000000;,
  46;1.000000;1.000000;1.000000;1.000000;,
  47;1.000000;1.000000;1.000000;1.000000;,
  48;1.000000;1.000000;1.000000;1.000000;,
  49;1.000000;1.000000;1.000000;1.000000;,
  50;1.000000;1.000000;1.000000;1.000000;,
  51;1.000000;1.000000;1.000000;1.000000;,
  52;1.000000;1.000000;1.000000;1.000000;,
  53;1.000000;1.000000;1.000000;1.000000;,
  54;1.000000;1.000000;1.000000;1.000000;,
  55;1.000000;1.000000;1.000000;1.000000;,
  56;1.000000;1.000000;1.000000;1.000000;,
  57;1.000000;1.000000;1.000000;1.000000;,
  58;1.000000;1.000000;1.000000;1.000000;,
  59;1.000000;1.000000;1.000000;1.000000;,
  60;1.000000;1.000000;1.000000;1.000000;,
  61;1.000000;1.000000;1.000000;1.000000;,
  62;1.000000;1.000000;1.000000;1.000000;,
  63;1.000000;1.000000;1.000000;1.000000;,
  64;1.000000;1.000000;1.000000;1.000000;,
  65;1.000000;1.000000;1.000000;1.000000;,
  66;1.000000;1.000000;1.000000;1.000000;,
  67;1.000000;1.000000;1.000000;1.000000;,
  68;1.000000;1.000000;1.000000;1.000000;,
  69;1.000000;1.000000;1.000000;1.000000;,
  70;1.000000;1.000000;1.000000;1.000000;,
  71;1.000000;1.000000;1.000000;1.000000;,
  72;1.000000;1.000000;1.000000;1.000000;,
  73;1.000000;1.000000;1.000000;1.000000;,
  74;1.000000;1.000000;1.000000;1.000000;,
  75;1.000000;1.000000;1.000000;1.000000;,
  76;1.000000;1.000000;1.000000;1.000000;,
  77;1.000000;1.000000;1.000000;1.000000;,
  78;1.000000;1.000000;1.000000;1.000000;,
  79;1.000000;1.000000;1.000000;1.000000;,
  80;1.000000;1.000000;1.000000;1.000000;,
  81;1.000000;1.000000;1.000000;1.000000;,
  82;1.000000;1.000000;1.000000;1.000000;,
  83;1.000000;1.000000;1.000000;1.000000;;
 }
}
