xof 0302txt 0064
template Header {
 <3D82AB43-62DA-11cf-AB39-0020AF71E433>
 WORD major;
 WORD minor;
 DWORD flags;
}

template Vector {
 <3D82AB5E-62DA-11cf-AB39-0020AF71E433>
 FLOAT x;
 FLOAT y;
 FLOAT z;
}

template Coords2d {
 <F6F23F44-7686-11cf-8F52-0040333594A3>
 FLOAT u;
 FLOAT v;
}

template Matrix4x4 {
 <F6F23F45-7686-11cf-8F52-0040333594A3>
 array FLOAT matrix[16];
}

template ColorRGBA {
 <35FF44E0-6C7C-11cf-8F52-0040333594A3>
 FLOAT red;
 FLOAT green;
 FLOAT blue;
 FLOAT alpha;
}

template ColorRGB {
 <D3E16E81-7835-11cf-8F52-0040333594A3>
 FLOAT red;
 FLOAT green;
 FLOAT blue;
}

template IndexedColor {
 <1630B820-7842-11cf-8F52-0040333594A3>
 DWORD index;
 ColorRGBA indexColor;
}

template Boolean {
 <4885AE61-78E8-11cf-8F52-0040333594A3>
 WORD truefalse;
}

template Boolean2d {
 <4885AE63-78E8-11cf-8F52-0040333594A3>
 Boolean u;
 Boolean v;
}

template MaterialWrap {
 <4885AE60-78E8-11cf-8F52-0040333594A3>
 Boolean u;
 Boolean v;
}

template TextureFilename {
 <A42790E1-7810-11cf-8F52-0040333594A3>
 STRING filename;
}

template Material {
 <3D82AB4D-62DA-11cf-AB39-0020AF71E433>
 ColorRGBA faceColor;
 FLOAT power;
 ColorRGB specularColor;
 ColorRGB emissiveColor;
 [...]
}

template MeshFace {
 <3D82AB5F-62DA-11cf-AB39-0020AF71E433>
 DWORD nFaceVertexIndices;
 array DWORD faceVertexIndices[nFaceVertexIndices];
}

template MeshFaceWraps {
 <4885AE62-78E8-11cf-8F52-0040333594A3>
 DWORD nFaceWrapValues;
 Boolean2d faceWrapValues;
}

template MeshTextureCoords {
 <F6F23F40-7686-11cf-8F52-0040333594A3>
 DWORD nTextureCoords;
 array Coords2d textureCoords[nTextureCoords];
}

template MeshMaterialList {
 <F6F23F42-7686-11cf-8F52-0040333594A3>
 DWORD nMaterials;
 DWORD nFaceIndexes;
 array DWORD faceIndexes[nFaceIndexes];
 [Material]
}

template MeshNormals {
 <F6F23F43-7686-11cf-8F52-0040333594A3>
 DWORD nNormals;
 array Vector normals[nNormals];
 DWORD nFaceNormals;
 array MeshFace faceNormals[nFaceNormals];
}

template MeshVertexColors {
 <1630B821-7842-11cf-8F52-0040333594A3>
 DWORD nVertexColors;
 array IndexedColor vertexColors[nVertexColors];
}

template Mesh {
 <3D82AB44-62DA-11cf-AB39-0020AF71E433>
 DWORD nVertices;
 array Vector vertices[nVertices];
 DWORD nFaces;
 array MeshFace faces[nFaces];
 [...]
}

Header{
1;
0;
1;
}

Mesh {
 136;
 -2.86374;10.74858;2.86374;,
 2.86374;10.74858;2.86374;,
 2.86374;10.74858;-2.86374;,
 -2.86374;10.74858;-2.86374;,
 -2.86374;10.03265;-3.57968;,
 2.86374;10.03265;-3.57968;,
 2.86374;0.68770;-3.57968;,
 -2.86374;0.68770;-3.57968;,
 -2.86374;-0.02824;-2.86374;,
 2.86374;-0.02824;-2.86374;,
 2.86374;-0.02824;2.86374;,
 -2.86374;-0.02824;2.86374;,
 -2.86374;0.68770;3.57968;,
 2.86374;0.68770;3.57968;,
 2.86374;10.03265;3.57968;,
 -2.86374;10.03265;3.57968;,
 3.57968;10.03265;2.86374;,
 3.57968;0.68770;2.86374;,
 3.57968;0.68770;-2.86374;,
 3.57968;10.03265;-2.86374;,
 -3.57968;0.68770;2.86374;,
 -3.57968;10.03265;2.86374;,
 -3.57968;10.03265;-2.86374;,
 -3.57968;0.68770;-2.86374;,
 2.86374;10.69409;-3.13772;,
 -2.86374;10.69409;-3.13772;,
 2.86374;10.53889;-3.36999;,
 -2.86374;10.53889;-3.36999;,
 2.86374;10.30662;-3.52518;,
 -2.86374;10.30662;-3.52518;,
 2.86374;10.03265;-3.57968;,
 -2.86374;10.03265;-3.57968;,
 -2.86374;0.02626;-3.13772;,
 2.86374;0.02626;-3.13772;,
 -2.86374;0.18145;-3.36999;,
 2.86374;0.18145;-3.36999;,
 -2.86374;0.41372;-3.52518;,
 2.86374;0.41372;-3.52518;,
 -2.86374;0.68770;-3.57968;,
 2.86374;0.68770;-3.57968;,
 -2.86374;10.69409;3.13771;,
 2.86374;10.69409;3.13771;,
 -2.86374;10.53889;3.36999;,
 2.86374;10.53889;3.36999;,
 -2.86374;10.30662;3.52518;,
 2.86374;10.30662;3.52518;,
 -2.86374;10.03265;3.57968;,
 2.86374;10.03265;3.57968;,
 2.86374;0.02626;3.13771;,
 -2.86374;0.02626;3.13771;,
 2.86374;0.18145;3.36999;,
 -2.86374;0.18145;3.36999;,
 2.86374;0.41372;3.52518;,
 -2.86374;0.41372;3.52518;,
 2.86374;0.68770;3.57968;,
 -2.86374;0.68770;3.57968;,
 3.13772;10.69409;2.86374;,
 3.13772;10.69409;-2.86374;,
 3.36998;10.53889;2.86374;,
 3.36998;10.53889;-2.86374;,
 3.52518;10.30662;2.86374;,
 3.52518;10.30662;-2.86374;,
 3.57968;10.03265;2.86374;,
 3.57968;10.03265;-2.86374;,
 3.13772;0.02626;-2.86374;,
 3.13772;0.02626;2.86374;,
 3.36998;0.18145;-2.86374;,
 3.36998;0.18145;2.86374;,
 3.52518;0.41372;-2.86374;,
 3.52518;0.41372;2.86374;,
 3.57968;0.68770;-2.86374;,
 3.57968;0.68770;2.86374;,
 -3.13772;10.69409;-2.86374;,
 -3.13772;10.69409;2.86374;,
 -3.36998;10.53889;-2.86374;,
 -3.36998;10.53889;2.86374;,
 -3.52518;10.30662;-2.86374;,
 -3.52518;10.30662;2.86374;,
 -3.57968;10.03265;-2.86374;,
 -3.57968;10.03265;2.86374;,
 -3.13772;0.02626;2.86374;,
 -3.13772;0.02626;-2.86374;,
 -3.36998;0.18145;2.86374;,
 -3.36998;0.18145;-2.86374;,
 -3.52518;0.41372;2.86374;,
 -3.52518;0.41372;-2.86374;,
 -3.57968;0.68770;2.86374;,
 -3.57968;0.68770;-2.86374;,
 3.13772;10.03265;-3.52518;,
 3.13772;0.68770;-3.52518;,
 3.36998;10.03265;-3.36999;,
 3.36998;0.68770;-3.36999;,
 3.52518;10.03265;-3.13772;,
 3.52518;0.68770;-3.13772;,
 3.13772;0.68770;3.52518;,
 3.13772;10.03265;3.52518;,
 3.36998;0.68770;3.36999;,
 3.36998;10.03265;3.36999;,
 3.52518;0.68770;3.13771;,
 3.52518;10.03265;3.13771;,
 -3.13772;0.68770;-3.52518;,
 -3.13772;10.03265;-3.52518;,
 -3.36998;0.68770;-3.36999;,
 -3.36998;10.03265;-3.36999;,
 -3.52518;0.68770;-3.13772;,
 -3.52518;10.03265;-3.13772;,
 -3.13772;10.03265;3.52518;,
 -3.13772;0.68770;3.52518;,
 -3.36998;10.03265;3.36999;,
 -3.36998;0.68770;3.36999;,
 -3.52518;10.03265;3.13771;,
 -3.52518;0.68770;3.13771;,
 3.22171;10.53889;-3.22171;,
 3.43656;10.30662;-3.19446;,
 3.19446;10.30662;-3.43656;,
 -3.22171;10.53889;-3.22171;,
 -3.43656;10.30662;-3.19446;,
 -3.19446;10.30662;-3.43656;,
 3.22171;0.18145;-3.22171;,
 3.43656;0.41372;-3.19446;,
 3.19446;0.41372;-3.43656;,
 3.22171;10.53889;3.22171;,
 3.43656;10.30662;3.19446;,
 3.19446;10.30662;3.43656;,
 -3.22171;0.18145;-3.22171;,
 -3.43656;0.41372;-3.19446;,
 -3.19446;0.41372;-3.43656;,
 3.22171;0.18145;3.22171;,
 3.43656;0.41372;3.19446;,
 3.19446;0.41372;3.43656;,
 -3.22171;10.53889;3.22171;,
 -3.43656;10.30662;3.19446;,
 -3.19446;10.30662;3.43656;,
 -3.22171;0.18145;3.22171;,
 -3.43656;0.41372;3.19446;,
 -3.19446;0.41372;3.43656;;
 
 182;
 4;0,1,2,3;,
 4;4,5,6,7;,
 4;8,9,10,11;,
 4;12,13,14,15;,
 4;16,17,18,19;,
 4;20,21,22,23;,
 4;3,2,24,25;,
 4;25,24,26,27;,
 4;27,26,28,29;,
 4;29,28,30,31;,
 4;32,33,9,8;,
 4;34,35,33,32;,
 4;36,37,35,34;,
 4;38,39,37,36;,
 4;40,41,1,0;,
 4;42,43,41,40;,
 4;44,45,43,42;,
 4;46,47,45,44;,
 4;11,10,48,49;,
 4;49,48,50,51;,
 4;51,50,52,53;,
 4;53,52,54,55;,
 4;2,1,56,57;,
 4;57,56,58,59;,
 4;59,58,60,61;,
 4;61,60,62,63;,
 4;10,9,64,65;,
 4;65,64,66,67;,
 4;67,66,68,69;,
 4;69,68,70,71;,
 4;0,3,72,73;,
 4;73,72,74,75;,
 4;75,74,76,77;,
 4;77,76,78,79;,
 4;8,11,80,81;,
 4;81,80,82,83;,
 4;83,82,84,85;,
 4;85,84,86,87;,
 4;39,30,88,89;,
 4;89,88,90,91;,
 4;91,90,92,93;,
 4;93,92,63,70;,
 4;47,54,94,95;,
 4;95,94,96,97;,
 4;97,96,98,99;,
 4;99,98,71,62;,
 4;31,38,100,101;,
 4;101,100,102,103;,
 4;103,102,104,105;,
 4;105,104,87,78;,
 4;55,46,106,107;,
 4;107,106,108,109;,
 4;109,108,110,111;,
 4;111,110,79,86;,
 3;2,57,24;,
 3;57,59,112;,
 3;112,24,57;,
 3;24,112,26;,
 3;59,61,113;,
 3;113,112,59;,
 3;112,113,114;,
 3;114,26,112;,
 3;26,114,28;,
 3;61,63,92;,
 3;92,113,61;,
 3;113,92,90;,
 3;90,114,113;,
 3;114,90,88;,
 3;88,28,114;,
 3;28,88,30;,
 3;25,72,3;,
 3;115,74,72;,
 3;72,25,115;,
 3;27,115,25;,
 3;116,76,74;,
 3;74,115,116;,
 3;117,116,115;,
 3;115,27,117;,
 3;29,117,27;,
 3;105,78,76;,
 3;76,116,105;,
 3;103,105,116;,
 3;116,117,103;,
 3;101,103,117;,
 3;117,29,101;,
 3;31,101,29;,
 3;33,64,9;,
 3;118,66,64;,
 3;64,33,118;,
 3;35,118,33;,
 3;119,68,66;,
 3;66,118,119;,
 3;120,119,118;,
 3;118,35,120;,
 3;37,120,35;,
 3;93,70,68;,
 3;68,119,93;,
 3;91,93,119;,
 3;119,120,91;,
 3;89,91,120;,
 3;120,37,89;,
 3;39,89,37;,
 3;41,56,1;,
 3;121,58,56;,
 3;56,41,121;,
 3;43,121,41;,
 3;122,60,58;,
 3;58,121,122;,
 3;123,122,121;,
 3;121,43,123;,
 3;45,123,43;,
 3;99,62,60;,
 3;60,122,99;,
 3;97,99,122;,
 3;122,123,97;,
 3;95,97,123;,
 3;123,45,95;,
 3;47,95,45;,
 3;8,81,32;,
 3;81,83,124;,
 3;124,32,81;,
 3;32,124,34;,
 3;83,85,125;,
 3;125,124,83;,
 3;124,125,126;,
 3;126,34,124;,
 3;34,126,36;,
 3;85,87,104;,
 3;104,125,85;,
 3;125,104,102;,
 3;102,126,125;,
 3;126,102,100;,
 3;100,36,126;,
 3;36,100,38;,
 3;10,65,48;,
 3;65,67,127;,
 3;127,48,65;,
 3;48,127,50;,
 3;67,69,128;,
 3;128,127,67;,
 3;127,128,129;,
 3;129,50,127;,
 3;50,129,52;,
 3;69,71,98;,
 3;98,128,69;,
 3;128,98,96;,
 3;96,129,128;,
 3;129,96,94;,
 3;94,52,129;,
 3;52,94,54;,
 3;0,73,40;,
 3;73,75,130;,
 3;130,40,73;,
 3;40,130,42;,
 3;75,77,131;,
 3;131,130,75;,
 3;130,131,132;,
 3;132,42,130;,
 3;42,132,44;,
 3;77,79,110;,
 3;110,131,77;,
 3;131,110,108;,
 3;108,132,131;,
 3;132,108,106;,
 3;106,44,132;,
 3;44,106,46;,
 3;49,80,11;,
 3;133,82,80;,
 3;80,49,133;,
 3;51,133,49;,
 3;134,84,82;,
 3;82,133,134;,
 3;135,134,133;,
 3;133,51,135;,
 3;53,135,51;,
 3;111,86,84;,
 3;84,134,111;,
 3;109,111,134;,
 3;134,135,109;,
 3;107,109,135;,
 3;135,53,107;,
 3;55,107,53;;
 
 MeshMaterialList {
  1;
  182;
  0,
  0,
  0,
  0,
  0,
  0,
  0,
  0,
  0,
  0,
  0,
  0,
  0,
  0,
  0,
  0,
  0,
  0,
  0,
  0,
  0,
  0,
  0,
  0,
  0,
  0,
  0,
  0,
  0,
  0,
  0,
  0,
  0,
  0,
  0,
  0,
  0,
  0,
  0,
  0,
  0,
  0,
  0,
  0,
  0,
  0,
  0,
  0,
  0,
  0,
  0,
  0,
  0,
  0,
  0,
  0,
  0,
  0,
  0,
  0,
  0,
  0,
  0,
  0,
  0,
  0,
  0,
  0,
  0,
  0,
  0,
  0,
  0,
  0,
  0,
  0,
  0,
  0,
  0,
  0,
  0,
  0,
  0,
  0,
  0,
  0,
  0,
  0,
  0,
  0,
  0,
  0,
  0,
  0,
  0,
  0,
  0,
  0,
  0,
  0,
  0,
  0,
  0,
  0,
  0,
  0,
  0,
  0,
  0,
  0,
  0,
  0,
  0,
  0,
  0,
  0,
  0,
  0,
  0,
  0,
  0,
  0,
  0,
  0,
  0,
  0,
  0,
  0,
  0,
  0,
  0,
  0,
  0,
  0,
  0,
  0,
  0,
  0,
  0,
  0,
  0,
  0,
  0,
  0,
  0,
  0,
  0,
  0,
  0,
  0,
  0,
  0,
  0,
  0,
  0,
  0,
  0,
  0,
  0,
  0,
  0,
  0,
  0,
  0,
  0,
  0,
  0,
  0,
  0,
  0,
  0,
  0,
  0,
  0,
  0,
  0,
  0,
  0,
  0,
  0,
  0,
  0;;
  Material {
   0.800000;0.800000;0.800000;1.000000;;
   5.000000;
   0.000000;0.000000;0.000000;;
   0.000000;0.000000;0.000000;;
   TextureFilename {
    "Data\\Graphics\\XFileTexture\\Terrain 1 high res_mtl1_bumpamt.bmp";
   }
  }
 }
 MeshNormals {
  120;
  -0.097561;0.990436;0.097562;,
  0.097560;0.990436;0.097562;,
  -0.097561;0.990436;-0.097561;,
  0.097560;0.990436;-0.097561;,
  -0.097566;0.097567;-0.990435;,
  0.097565;0.097567;-0.990435;,
  -0.097566;-0.097565;-0.990435;,
  0.097565;-0.097565;-0.990435;,
  -0.097566;-0.990435;-0.097566;,
  0.097566;-0.990435;-0.097566;,
  -0.097566;-0.990435;0.097567;,
  0.097566;-0.990435;0.097567;,
  -0.097560;-0.097559;0.990436;,
  0.097559;-0.097559;0.990436;,
  -0.097560;0.097561;0.990436;,
  0.097559;0.097561;0.990436;,
  0.990434;0.097570;0.097570;,
  0.990434;-0.097568;0.097570;,
  0.990434;0.097570;-0.097569;,
  0.990435;-0.097568;-0.097569;,
  -0.990435;-0.097567;0.097569;,
  -0.990435;0.097569;0.097569;,
  -0.990435;-0.097567;-0.097567;,
  -0.990435;0.097569;-0.097567;,
  -0.149547;0.917631;-0.368224;,
  0.149546;0.917632;-0.368223;,
  -0.151339;0.689773;-0.708033;,
  0.151337;0.689773;-0.708033;,
  -0.134931;0.354966;-0.925091;,
  0.134931;0.354966;-0.925091;,
  -0.149549;-0.917630;-0.368226;,
  0.149547;-0.917630;-0.368226;,
  -0.151338;-0.689777;-0.708028;,
  0.151336;-0.689777;-0.708029;,
  -0.134931;-0.354966;-0.925090;,
  0.134931;-0.354966;-0.925091;,
  -0.149546;0.917634;0.368217;,
  0.149544;0.917635;0.368216;,
  -0.151342;0.689779;0.708026;,
  0.151340;0.689779;0.708026;,
  -0.134933;0.354964;0.925091;,
  0.134932;0.354964;0.925091;,
  -0.149547;-0.917633;0.368219;,
  0.149546;-0.917633;0.368219;,
  -0.151341;-0.689784;0.708021;,
  0.151340;-0.689784;0.708022;,
  -0.134933;-0.354965;0.925091;,
  0.134932;-0.354965;0.925091;,
  0.368222;0.917632;0.149547;,
  0.368223;0.917632;-0.149547;,
  0.708034;0.689772;0.151336;,
  0.708035;0.689771;-0.151338;,
  0.925091;0.354965;0.134931;,
  0.925090;0.354966;-0.134932;,
  0.368225;-0.917631;0.149548;,
  0.368226;-0.917630;-0.149548;,
  0.708030;-0.689776;0.151335;,
  0.708030;-0.689776;-0.151337;,
  0.925091;-0.354966;0.134931;,
  0.925090;-0.354967;-0.134932;,
  -0.368227;0.917630;0.149547;,
  -0.368228;0.917629;-0.149547;,
  -0.708031;0.689776;0.151334;,
  -0.708031;0.689775;-0.151336;,
  -0.925089;0.354971;0.134930;,
  -0.925088;0.354972;-0.134931;,
  -0.368230;-0.917628;0.149548;,
  -0.368231;-0.917628;-0.149549;,
  -0.708027;-0.689780;0.151333;,
  -0.708027;-0.689780;-0.151335;,
  -0.925089;-0.354972;0.134930;,
  -0.925088;-0.354973;-0.134931;,
  0.356109;-0.121467;-0.926516;,
  0.356109;0.121470;-0.926516;,
  0.702220;-0.117391;-0.702216;,
  0.702219;0.117393;-0.702216;,
  0.926516;-0.121468;-0.356110;,
  0.926516;0.121471;-0.356110;,
  0.356107;-0.121469;0.926517;,
  0.356107;0.121472;0.926516;,
  0.702225;-0.117392;0.702210;,
  0.702225;0.117395;0.702210;,
  0.926519;-0.121464;0.356102;,
  0.926519;0.121467;0.356102;,
  -0.356114;-0.121467;-0.926514;,
  -0.356114;0.121469;-0.926514;,
  -0.702217;-0.117385;-0.702219;,
  -0.702217;0.117388;-0.702219;,
  -0.926514;-0.121466;-0.356116;,
  -0.926513;0.121469;-0.356116;,
  -0.356112;-0.121469;0.926515;,
  -0.356112;0.121472;0.926514;,
  -0.702223;-0.117387;0.702213;,
  -0.702223;0.117389;0.702213;,
  -0.926517;-0.121462;0.356108;,
  -0.926517;0.121465;0.356108;,
  0.472236;0.744303;-0.472236;,
  0.794183;0.405796;-0.452331;,
  0.452333;0.405797;-0.794181;,
  -0.472237;0.744303;-0.472234;,
  -0.794180;0.405798;-0.452334;,
  -0.452335;0.405796;-0.794181;,
  0.472233;-0.744306;-0.472233;,
  0.794182;-0.405798;-0.452331;,
  0.452333;-0.405799;-0.794180;,
  0.472235;0.744306;0.472232;,
  0.794185;0.405795;0.452328;,
  0.452335;0.405801;0.794178;,
  -0.472234;-0.744307;-0.472231;,
  -0.794179;-0.405800;-0.452334;,
  -0.452335;-0.405797;-0.794180;,
  0.472232;-0.744309;0.472229;,
  0.794184;-0.405797;0.452328;,
  0.452335;-0.405803;0.794177;,
  -0.472236;0.744306;0.472230;,
  -0.794182;0.405798;0.452331;,
  -0.452337;0.405800;0.794177;,
  -0.472233;-0.744310;0.472227;,
  -0.794181;-0.405800;0.452330;,
  -0.452337;-0.405802;0.794176;;
  182;
  4;0,1,3,2;,
  4;4,5,7,6;,
  4;8,9,11,10;,
  4;12,13,15,14;,
  4;16,17,19,18;,
  4;20,21,23,22;,
  4;2,3,25,24;,
  4;24,25,27,26;,
  4;26,27,29,28;,
  4;28,29,5,4;,
  4;30,31,9,8;,
  4;32,33,31,30;,
  4;34,35,33,32;,
  4;6,7,35,34;,
  4;36,37,1,0;,
  4;38,39,37,36;,
  4;40,41,39,38;,
  4;14,15,41,40;,
  4;10,11,43,42;,
  4;42,43,45,44;,
  4;44,45,47,46;,
  4;46,47,13,12;,
  4;3,1,48,49;,
  4;49,48,50,51;,
  4;51,50,52,53;,
  4;53,52,16,18;,
  4;11,9,55,54;,
  4;54,55,57,56;,
  4;56,57,59,58;,
  4;58,59,19,17;,
  4;0,2,61,60;,
  4;60,61,63,62;,
  4;62,63,65,64;,
  4;64,65,23,21;,
  4;8,10,66,67;,
  4;67,66,68,69;,
  4;69,68,70,71;,
  4;71,70,20,22;,
  4;7,5,73,72;,
  4;72,73,75,74;,
  4;74,75,77,76;,
  4;76,77,18,19;,
  4;15,13,78,79;,
  4;79,78,80,81;,
  4;81,80,82,83;,
  4;83,82,17,16;,
  4;4,6,84,85;,
  4;85,84,86,87;,
  4;87,86,88,89;,
  4;89,88,22,23;,
  4;12,14,91,90;,
  4;90,91,93,92;,
  4;92,93,95,94;,
  4;94,95,21,20;,
  3;3,49,25;,
  3;49,51,96;,
  3;96,25,49;,
  3;25,96,27;,
  3;51,53,97;,
  3;97,96,51;,
  3;96,97,98;,
  3;98,27,96;,
  3;27,98,29;,
  3;53,18,77;,
  3;77,97,53;,
  3;97,77,75;,
  3;75,98,97;,
  3;98,75,73;,
  3;73,29,98;,
  3;29,73,5;,
  3;24,61,2;,
  3;99,63,61;,
  3;61,24,99;,
  3;26,99,24;,
  3;100,65,63;,
  3;63,99,100;,
  3;101,100,99;,
  3;99,26,101;,
  3;28,101,26;,
  3;89,23,65;,
  3;65,100,89;,
  3;87,89,100;,
  3;100,101,87;,
  3;85,87,101;,
  3;101,28,85;,
  3;4,85,28;,
  3;31,55,9;,
  3;102,57,55;,
  3;55,31,102;,
  3;33,102,31;,
  3;103,59,57;,
  3;57,102,103;,
  3;104,103,102;,
  3;102,33,104;,
  3;35,104,33;,
  3;76,19,59;,
  3;59,103,76;,
  3;74,76,103;,
  3;103,104,74;,
  3;72,74,104;,
  3;104,35,72;,
  3;7,72,35;,
  3;37,48,1;,
  3;105,50,48;,
  3;48,37,105;,
  3;39,105,37;,
  3;106,52,50;,
  3;50,105,106;,
  3;107,106,105;,
  3;105,39,107;,
  3;41,107,39;,
  3;83,16,52;,
  3;52,106,83;,
  3;81,83,106;,
  3;106,107,81;,
  3;79,81,107;,
  3;107,41,79;,
  3;15,79,41;,
  3;8,67,30;,
  3;67,69,108;,
  3;108,30,67;,
  3;30,108,32;,
  3;69,71,109;,
  3;109,108,69;,
  3;108,109,110;,
  3;110,32,108;,
  3;32,110,34;,
  3;71,22,88;,
  3;88,109,71;,
  3;109,88,86;,
  3;86,110,109;,
  3;110,86,84;,
  3;84,34,110;,
  3;34,84,6;,
  3;11,54,43;,
  3;54,56,111;,
  3;111,43,54;,
  3;43,111,45;,
  3;56,58,112;,
  3;112,111,56;,
  3;111,112,113;,
  3;113,45,111;,
  3;45,113,47;,
  3;58,17,82;,
  3;82,112,58;,
  3;112,82,80;,
  3;80,113,112;,
  3;113,80,78;,
  3;78,47,113;,
  3;47,78,13;,
  3;0,60,36;,
  3;60,62,114;,
  3;114,36,60;,
  3;36,114,38;,
  3;62,64,115;,
  3;115,114,62;,
  3;114,115,116;,
  3;116,38,114;,
  3;38,116,40;,
  3;64,21,95;,
  3;95,115,64;,
  3;115,95,93;,
  3;93,116,115;,
  3;116,93,91;,
  3;91,40,116;,
  3;40,91,14;,
  3;42,66,10;,
  3;117,68,66;,
  3;66,42,117;,
  3;44,117,42;,
  3;118,70,68;,
  3;68,117,118;,
  3;119,118,117;,
  3;117,44,119;,
  3;46,119,44;,
  3;94,20,70;,
  3;70,118,94;,
  3;92,94,118;,
  3;118,119,92;,
  3;90,92,119;,
  3;119,46,90;,
  3;12,90,46;;
 }
 MeshTextureCoords {
  136;
  0.342514;0.392537;,
  0.536879;0.392537;,
  0.536879;0.586901;,
  0.342514;0.586901;,
  0.335784;0.429050;,
  0.446756;0.429050;,
  0.446756;0.610111;,
  0.335784;0.610111;,
  0.342514;0.586901;,
  0.536879;0.586901;,
  0.536879;0.392537;,
  0.342514;0.392537;,
  0.446756;0.610111;,
  0.335784;0.610111;,
  0.335784;0.429050;,
  0.446756;0.429050;,
  0.441716;0.422333;,
  0.441716;0.620536;,
  0.320238;0.620536;,
  0.320238;0.422333;,
  0.335784;0.610111;,
  0.335784;0.429050;,
  0.446756;0.429050;,
  0.446756;0.610111;,
  0.536879;0.596198;,
  0.342514;0.596198;,
  0.536879;0.604080;,
  0.342514;0.604080;,
  0.536879;0.609347;,
  0.342514;0.609347;,
  0.536879;0.611197;,
  0.342514;0.611197;,
  0.342514;0.596198;,
  0.536879;0.596198;,
  0.342514;0.604080;,
  0.536879;0.604080;,
  0.342514;0.609347;,
  0.536879;0.609347;,
  0.342514;0.611197;,
  0.536879;0.611197;,
  0.342514;0.383239;,
  0.536879;0.383239;,
  0.342514;0.375357;,
  0.536879;0.375357;,
  0.342514;0.370090;,
  0.536879;0.370090;,
  0.342514;0.368241;,
  0.536879;0.368241;,
  0.536879;0.383239;,
  0.342514;0.383239;,
  0.536879;0.375357;,
  0.342514;0.375357;,
  0.536879;0.370090;,
  0.342514;0.370090;,
  0.536879;0.368241;,
  0.342514;0.368241;,
  0.546176;0.392537;,
  0.546176;0.586901;,
  0.554058;0.392537;,
  0.554058;0.586901;,
  0.559325;0.392537;,
  0.559325;0.586901;,
  0.561174;0.392537;,
  0.561174;0.586901;,
  0.546176;0.586901;,
  0.546176;0.392537;,
  0.554058;0.586901;,
  0.554058;0.392537;,
  0.559325;0.586901;,
  0.559325;0.392537;,
  0.561174;0.586901;,
  0.561174;0.392537;,
  0.333217;0.586901;,
  0.333217;0.392537;,
  0.325335;0.586901;,
  0.325335;0.392537;,
  0.320068;0.586901;,
  0.320068;0.392537;,
  0.318219;0.586901;,
  0.318219;0.392537;,
  0.333217;0.392537;,
  0.333217;0.586901;,
  0.325335;0.392537;,
  0.325335;0.586901;,
  0.320068;0.392537;,
  0.320068;0.586901;,
  0.318219;0.392537;,
  0.318219;0.586901;,
  0.546176;0.609347;,
  0.546176;0.609347;,
  0.554058;0.604080;,
  0.554058;0.604080;,
  0.559325;0.596198;,
  0.559325;0.596198;,
  0.546176;0.370090;,
  0.546176;0.370090;,
  0.554058;0.375357;,
  0.554058;0.375357;,
  0.559325;0.383239;,
  0.559325;0.383239;,
  0.333217;0.609347;,
  0.333217;0.609347;,
  0.325335;0.604080;,
  0.325335;0.604080;,
  0.320068;0.596198;,
  0.320068;0.596198;,
  0.333217;0.370090;,
  0.333217;0.370090;,
  0.325335;0.375357;,
  0.325335;0.375357;,
  0.320068;0.383239;,
  0.320068;0.383239;,
  0.549026;0.599049;,
  0.556317;0.598124;,
  0.548102;0.606340;,
  0.330366;0.599049;,
  0.323075;0.598124;,
  0.331291;0.606340;,
  0.549026;0.599049;,
  0.556317;0.598124;,
  0.548102;0.606340;,
  0.549026;0.380389;,
  0.556317;0.381313;,
  0.548102;0.373098;,
  0.330366;0.599049;,
  0.323075;0.598124;,
  0.331291;0.606340;,
  0.549026;0.380389;,
  0.556317;0.381313;,
  0.548102;0.373098;,
  0.330366;0.380389;,
  0.323075;0.381313;,
  0.331291;0.373098;,
  0.330366;0.380389;,
  0.323075;0.381313;,
  0.331291;0.373098;;
 }
 MeshVertexColors {
  136;
  0;1.000000;1.000000;1.000000;1.000000;,
  1;1.000000;1.000000;1.000000;1.000000;,
  2;1.000000;1.000000;1.000000;1.000000;,
  3;1.000000;1.000000;1.000000;1.000000;,
  4;1.000000;1.000000;1.000000;1.000000;,
  5;1.000000;1.000000;1.000000;1.000000;,
  6;1.000000;1.000000;1.000000;1.000000;,
  7;1.000000;1.000000;1.000000;1.000000;,
  8;1.000000;1.000000;1.000000;1.000000;,
  9;1.000000;1.000000;1.000000;1.000000;,
  10;1.000000;1.000000;1.000000;1.000000;,
  11;1.000000;1.000000;1.000000;1.000000;,
  12;1.000000;1.000000;1.000000;1.000000;,
  13;1.000000;1.000000;1.000000;1.000000;,
  14;1.000000;1.000000;1.000000;1.000000;,
  15;1.000000;1.000000;1.000000;1.000000;,
  16;1.000000;1.000000;1.000000;1.000000;,
  17;1.000000;1.000000;1.000000;1.000000;,
  18;1.000000;1.000000;1.000000;1.000000;,
  19;1.000000;1.000000;1.000000;1.000000;,
  20;1.000000;1.000000;1.000000;1.000000;,
  21;1.000000;1.000000;1.000000;1.000000;,
  22;1.000000;1.000000;1.000000;1.000000;,
  23;1.000000;1.000000;1.000000;1.000000;,
  24;1.000000;1.000000;1.000000;1.000000;,
  25;1.000000;1.000000;1.000000;1.000000;,
  26;1.000000;1.000000;1.000000;1.000000;,
  27;1.000000;1.000000;1.000000;1.000000;,
  28;1.000000;1.000000;1.000000;1.000000;,
  29;1.000000;1.000000;1.000000;1.000000;,
  30;1.000000;1.000000;1.000000;1.000000;,
  31;1.000000;1.000000;1.000000;1.000000;,
  32;1.000000;1.000000;1.000000;1.000000;,
  33;1.000000;1.000000;1.000000;1.000000;,
  34;1.000000;1.000000;1.000000;1.000000;,
  35;1.000000;1.000000;1.000000;1.000000;,
  36;1.000000;1.000000;1.000000;1.000000;,
  37;1.000000;1.000000;1.000000;1.000000;,
  38;1.000000;1.000000;1.000000;1.000000;,
  39;1.000000;1.000000;1.000000;1.000000;,
  40;1.000000;1.000000;1.000000;1.000000;,
  41;1.000000;1.000000;1.000000;1.000000;,
  42;1.000000;1.000000;1.000000;1.000000;,
  43;1.000000;1.000000;1.000000;1.000000;,
  44;1.000000;1.000000;1.000000;1.000000;,
  45;1.000000;1.000000;1.000000;1.000000;,
  46;1.000000;1.000000;1.000000;1.000000;,
  47;1.000000;1.000000;1.000000;1.000000;,
  48;1.000000;1.000000;1.000000;1.000000;,
  49;1.000000;1.000000;1.000000;1.000000;,
  50;1.000000;1.000000;1.000000;1.000000;,
  51;1.000000;1.000000;1.000000;1.000000;,
  52;1.000000;1.000000;1.000000;1.000000;,
  53;1.000000;1.000000;1.000000;1.000000;,
  54;1.000000;1.000000;1.000000;1.000000;,
  55;1.000000;1.000000;1.000000;1.000000;,
  56;1.000000;1.000000;1.000000;1.000000;,
  57;1.000000;1.000000;1.000000;1.000000;,
  58;1.000000;1.000000;1.000000;1.000000;,
  59;1.000000;1.000000;1.000000;1.000000;,
  60;1.000000;1.000000;1.000000;1.000000;,
  61;1.000000;1.000000;1.000000;1.000000;,
  62;1.000000;1.000000;1.000000;1.000000;,
  63;1.000000;1.000000;1.000000;1.000000;,
  64;1.000000;1.000000;1.000000;1.000000;,
  65;1.000000;1.000000;1.000000;1.000000;,
  66;1.000000;1.000000;1.000000;1.000000;,
  67;1.000000;1.000000;1.000000;1.000000;,
  68;1.000000;1.000000;1.000000;1.000000;,
  69;1.000000;1.000000;1.000000;1.000000;,
  70;1.000000;1.000000;1.000000;1.000000;,
  71;1.000000;1.000000;1.000000;1.000000;,
  72;1.000000;1.000000;1.000000;1.000000;,
  73;1.000000;1.000000;1.000000;1.000000;,
  74;1.000000;1.000000;1.000000;1.000000;,
  75;1.000000;1.000000;1.000000;1.000000;,
  76;1.000000;1.000000;1.000000;1.000000;,
  77;1.000000;1.000000;1.000000;1.000000;,
  78;1.000000;1.000000;1.000000;1.000000;,
  79;1.000000;1.000000;1.000000;1.000000;,
  80;1.000000;1.000000;1.000000;1.000000;,
  81;1.000000;1.000000;1.000000;1.000000;,
  82;1.000000;1.000000;1.000000;1.000000;,
  83;1.000000;1.000000;1.000000;1.000000;,
  84;1.000000;1.000000;1.000000;1.000000;,
  85;1.000000;1.000000;1.000000;1.000000;,
  86;1.000000;1.000000;1.000000;1.000000;,
  87;1.000000;1.000000;1.000000;1.000000;,
  88;1.000000;1.000000;1.000000;1.000000;,
  89;1.000000;1.000000;1.000000;1.000000;,
  90;1.000000;1.000000;1.000000;1.000000;,
  91;1.000000;1.000000;1.000000;1.000000;,
  92;1.000000;1.000000;1.000000;1.000000;,
  93;1.000000;1.000000;1.000000;1.000000;,
  94;1.000000;1.000000;1.000000;1.000000;,
  95;1.000000;1.000000;1.000000;1.000000;,
  96;1.000000;1.000000;1.000000;1.000000;,
  97;1.000000;1.000000;1.000000;1.000000;,
  98;1.000000;1.000000;1.000000;1.000000;,
  99;1.000000;1.000000;1.000000;1.000000;,
  100;1.000000;1.000000;1.000000;1.000000;,
  101;1.000000;1.000000;1.000000;1.000000;,
  102;1.000000;1.000000;1.000000;1.000000;,
  103;1.000000;1.000000;1.000000;1.000000;,
  104;1.000000;1.000000;1.000000;1.000000;,
  105;1.000000;1.000000;1.000000;1.000000;,
  106;1.000000;1.000000;1.000000;1.000000;,
  107;1.000000;1.000000;1.000000;1.000000;,
  108;1.000000;1.000000;1.000000;1.000000;,
  109;1.000000;1.000000;1.000000;1.000000;,
  110;1.000000;1.000000;1.000000;1.000000;,
  111;1.000000;1.000000;1.000000;1.000000;,
  112;1.000000;1.000000;1.000000;1.000000;,
  113;1.000000;1.000000;1.000000;1.000000;,
  114;1.000000;1.000000;1.000000;1.000000;,
  115;1.000000;1.000000;1.000000;1.000000;,
  116;1.000000;1.000000;1.000000;1.000000;,
  117;1.000000;1.000000;1.000000;1.000000;,
  118;1.000000;1.000000;1.000000;1.000000;,
  119;1.000000;1.000000;1.000000;1.000000;,
  120;1.000000;1.000000;1.000000;1.000000;,
  121;1.000000;1.000000;1.000000;1.000000;,
  122;1.000000;1.000000;1.000000;1.000000;,
  123;1.000000;1.000000;1.000000;1.000000;,
  124;1.000000;1.000000;1.000000;1.000000;,
  125;1.000000;1.000000;1.000000;1.000000;,
  126;1.000000;1.000000;1.000000;1.000000;,
  127;1.000000;1.000000;1.000000;1.000000;,
  128;1.000000;1.000000;1.000000;1.000000;,
  129;1.000000;1.000000;1.000000;1.000000;,
  130;1.000000;1.000000;1.000000;1.000000;,
  131;1.000000;1.000000;1.000000;1.000000;,
  132;1.000000;1.000000;1.000000;1.000000;,
  133;1.000000;1.000000;1.000000;1.000000;,
  134;1.000000;1.000000;1.000000;1.000000;,
  135;1.000000;1.000000;1.000000;1.000000;;
 }
}
