xof 0302txt 0064
template Header {
 <3D82AB43-62DA-11cf-AB39-0020AF71E433>
 WORD major;
 WORD minor;
 DWORD flags;
}

template Vector {
 <3D82AB5E-62DA-11cf-AB39-0020AF71E433>
 FLOAT x;
 FLOAT y;
 FLOAT z;
}

template Coords2d {
 <F6F23F44-7686-11cf-8F52-0040333594A3>
 FLOAT u;
 FLOAT v;
}

template Matrix4x4 {
 <F6F23F45-7686-11cf-8F52-0040333594A3>
 array FLOAT matrix[16];
}

template ColorRGBA {
 <35FF44E0-6C7C-11cf-8F52-0040333594A3>
 FLOAT red;
 FLOAT green;
 FLOAT blue;
 FLOAT alpha;
}

template ColorRGB {
 <D3E16E81-7835-11cf-8F52-0040333594A3>
 FLOAT red;
 FLOAT green;
 FLOAT blue;
}

template IndexedColor {
 <1630B820-7842-11cf-8F52-0040333594A3>
 DWORD index;
 ColorRGBA indexColor;
}

template Boolean {
 <4885AE61-78E8-11cf-8F52-0040333594A3>
 WORD truefalse;
}

template Boolean2d {
 <4885AE63-78E8-11cf-8F52-0040333594A3>
 Boolean u;
 Boolean v;
}

template MaterialWrap {
 <4885AE60-78E8-11cf-8F52-0040333594A3>
 Boolean u;
 Boolean v;
}

template TextureFilename {
 <A42790E1-7810-11cf-8F52-0040333594A3>
 STRING filename;
}

template Material {
 <3D82AB4D-62DA-11cf-AB39-0020AF71E433>
 ColorRGBA faceColor;
 FLOAT power;
 ColorRGB specularColor;
 ColorRGB emissiveColor;
 [...]
}

template MeshFace {
 <3D82AB5F-62DA-11cf-AB39-0020AF71E433>
 DWORD nFaceVertexIndices;
 array DWORD faceVertexIndices[nFaceVertexIndices];
}

template MeshFaceWraps {
 <4885AE62-78E8-11cf-8F52-0040333594A3>
 DWORD nFaceWrapValues;
 Boolean2d faceWrapValues;
}

template MeshTextureCoords {
 <F6F23F40-7686-11cf-8F52-0040333594A3>
 DWORD nTextureCoords;
 array Coords2d textureCoords[nTextureCoords];
}

template MeshMaterialList {
 <F6F23F42-7686-11cf-8F52-0040333594A3>
 DWORD nMaterials;
 DWORD nFaceIndexes;
 array DWORD faceIndexes[nFaceIndexes];
 [Material]
}

template MeshNormals {
 <F6F23F43-7686-11cf-8F52-0040333594A3>
 DWORD nNormals;
 array Vector normals[nNormals];
 DWORD nFaceNormals;
 array MeshFace faceNormals[nFaceNormals];
}

template MeshVertexColors {
 <1630B821-7842-11cf-8F52-0040333594A3>
 DWORD nVertexColors;
 array IndexedColor vertexColors[nVertexColors];
}

template Mesh {
 <3D82AB44-62DA-11cf-AB39-0020AF71E433>
 DWORD nVertices;
 array Vector vertices[nVertices];
 DWORD nFaces;
 array MeshFace faces[nFaces];
 [...]
}

Header{
1;
0;
1;
}

Mesh {
 544;
 3.70004;1.04163;-3.00562;,
 3.70004;1.63756;-3.00562;,
 5.70005;1.63756;-3.00562;,
 5.70005;1.04163;-3.00562;,
 5.70005;1.04163;2.58215;,
 5.70005;1.63756;2.58215;,
 3.70004;1.63756;2.58215;,
 3.70004;1.04163;2.58215;,
 5.70005;0.41072;-3.00562;,
 5.70005;-0.36244;-3.00562;,
 3.70004;-0.36244;-3.00562;,
 3.70004;0.41072;-3.00562;,
 3.70004;0.41072;2.58215;,
 3.70004;-0.36244;2.58215;,
 5.70005;-0.36244;2.58215;,
 5.70005;0.41072;2.58215;,
 5.70005;1.63756;-1.04142;,
 5.70005;1.63756;-3.00562;,
 3.70004;1.63756;-3.00562;,
 3.70004;1.63756;-1.04142;,
 3.70004;1.63756;2.58215;,
 5.70005;1.63756;2.58215;,
 5.70005;-0.36244;-1.04142;,
 5.70005;-0.36244;2.58215;,
 3.70004;-0.36244;2.58215;,
 3.70004;-0.36244;-1.04142;,
 3.70004;-0.36244;-3.00562;,
 5.70005;-0.36244;-3.00562;,
 5.70005;1.63756;-1.04142;,
 5.70005;1.63756;2.58215;,
 5.70005;1.04163;2.58215;,
 5.70005;1.04163;-1.04142;,
 5.70005;1.04163;-3.00562;,
 5.70005;1.63756;-3.00562;,
 3.70004;1.63756;-1.04142;,
 3.70004;1.63756;-3.00562;,
 3.70004;1.04163;-3.00562;,
 3.70004;1.04163;-1.04142;,
 3.70004;1.04163;2.58215;,
 3.70004;1.63756;2.58215;,
 5.70005;-0.36244;-1.04142;,
 5.70005;-0.36244;-3.00562;,
 5.70005;0.41072;-3.00562;,
 5.70005;0.41072;-1.04142;,
 5.70005;0.41072;2.58215;,
 3.70004;-0.36244;-1.04142;,
 3.70004;-0.36244;2.58215;,
 3.70004;0.41072;2.58215;,
 3.70004;0.41072;-1.04142;,
 3.70004;0.41072;-3.00562;,
 3.70004;-0.36244;-3.00562;,
 3.70004;2.86465;2.57719;,
 5.68437;2.86465;2.57719;,
 5.68437;2.86465;0.56720;,
 3.70004;2.86465;0.56720;,
 3.70004;0.86465;0.56720;,
 5.70005;0.86465;0.56720;,
 5.70005;0.86465;2.57719;,
 3.70004;0.86465;2.57719;,
 3.70004;1.04163;0.56720;,
 3.70004;2.86465;0.56720;,
 5.68437;2.86465;0.56720;,
 5.68437;1.04163;0.56720;,
 5.68437;1.04163;0.56720;,
 5.68437;2.86465;0.56720;,
 5.68437;2.86465;2.57719;,
 5.68437;1.04163;2.57719;,
 3.70004;1.04163;2.57719;,
 3.70004;0.86465;2.57719;,
 5.70005;0.86465;2.57719;,
 5.68437;1.04163;2.57719;,
 5.68437;2.86465;2.57719;,
 3.70004;2.86465;2.57719;,
 3.70004;1.04163;0.56720;,
 3.70004;0.86465;0.56720;,
 3.70004;0.86465;2.57719;,
 3.70004;1.04163;2.57719;,
 3.70004;2.86465;2.57719;,
 3.70004;2.86465;0.56720;,
 1.77628;1.04163;2.58363;,
 1.77628;1.63756;2.58363;,
 -0.22372;1.63756;2.58363;,
 -0.22372;1.04163;2.58363;,
 -0.22372;0.41072;2.58363;,
 -0.22372;-0.36244;2.58363;,
 1.77628;-0.36244;2.58363;,
 1.77628;0.41072;2.58363;,
 -0.22372;1.63756;-1.04142;,
 -0.22372;1.63756;2.58363;,
 1.77628;1.63756;2.58363;,
 1.77628;1.63756;-1.04142;,
 1.77628;1.63756;-1.04142;,
 1.77628;1.63756;2.58363;,
 1.77628;1.04163;2.58363;,
 1.77628;1.04163;-1.04142;,
 -0.22372;0.97579;-1.04142;,
 -0.22372;1.04163;2.58363;,
 -0.22372;1.63756;2.58363;,
 -0.22372;1.63756;-1.04142;,
 1.77628;0.41072;-1.04142;,
 1.77628;0.41072;2.58363;,
 1.77628;-0.36244;2.58363;,
 1.77628;-0.36244;-1.04142;,
 -0.22372;0.41072;-1.04142;,
 -0.22372;0.41072;2.58363;,
 -5.72021;1.04163;-1.07335;,
 -5.72021;1.63756;-1.07335;,
 -0.21543;1.63756;-1.07335;,
 -0.21543;0.97579;-1.07335;,
 -0.21543;1.04163;2.58363;,
 -0.21543;1.63756;2.58363;,
 -5.72021;1.63756;2.58363;,
 -5.72021;1.04163;2.58363;,
 -0.21543;0.41072;-1.07335;,
 -0.21543;-0.36244;-1.07335;,
 -5.72021;-0.36244;-1.07335;,
 -5.72021;0.41072;-1.07335;,
 -5.72021;0.41072;2.58363;,
 -5.72021;-0.36244;2.58363;,
 -0.21543;-0.36244;2.58363;,
 -0.21543;0.41072;2.58363;,
 -0.21543;1.63756;-1.04142;,
 -0.21543;1.63756;-1.07335;,
 -5.72021;1.63756;-1.07335;,
 -5.72021;1.63756;-1.04142;,
 -5.72021;1.63756;-1.04142;,
 -5.72021;1.63756;2.58363;,
 -0.21543;1.63756;2.58363;,
 -0.21543;1.63756;-1.04142;,
 -0.21543;-0.36244;-1.04142;,
 -0.21543;-0.36244;2.58363;,
 -5.72021;-0.36244;2.58363;,
 -5.72021;-0.36244;-1.04142;,
 -5.72021;-0.36244;-1.07335;,
 -0.21543;-0.36244;-1.07335;,
 -0.21543;1.63756;-1.04142;,
 -0.21543;1.63756;2.58363;,
 -0.21543;1.04163;2.58363;,
 -0.21543;0.97579;-1.04142;,
 -5.72021;1.63756;-1.04142;,
 -5.72021;1.63756;-1.07335;,
 -5.72021;1.04163;-1.07335;,
 -5.72021;1.04163;-1.04142;,
 -5.72021;1.04163;-1.04142;,
 -5.72021;1.04163;2.58363;,
 -5.72021;1.63756;2.58363;,
 -5.72021;1.63756;-1.04142;,
 -0.21543;0.41072;2.58363;,
 -0.21543;0.41072;-1.04142;,
 -5.72021;-0.36244;-1.04142;,
 -5.72021;-0.36244;2.58363;,
 -5.72021;0.41072;2.58363;,
 -5.72021;0.41072;-1.04142;,
 -5.72021;0.41072;-1.04142;,
 -5.72021;0.41072;-1.07335;,
 -5.72021;-0.36244;-1.07335;,
 -5.72021;-0.36244;-1.04142;,
 -3.72466;0.97579;-1.03625;,
 -3.72466;1.63756;-1.03625;,
 -5.72466;1.63756;-1.03625;,
 -5.72466;1.04163;-1.03625;,
 -5.72466;0.41072;-1.03625;,
 -5.72466;-0.36244;-1.03625;,
 -3.72466;-0.36244;-1.03625;,
 -3.72466;0.41072;-1.03625;,
 -5.72466;1.63756;-2.69815;,
 -5.72466;1.63756;-1.03625;,
 -3.72466;1.63756;-1.03625;,
 -3.72466;1.63756;-2.69815;,
 -3.72466;-0.36244;-2.69815;,
 -3.72466;-0.36244;-1.03625;,
 -5.72466;-0.36244;-1.03625;,
 -5.72466;-0.36244;-2.69815;,
 -5.72466;1.04163;-2.69815;,
 -5.72466;1.04163;-1.03625;,
 -5.72466;1.63756;-1.03625;,
 -5.72466;1.63756;-2.69815;,
 -5.72466;-0.36244;-2.69815;,
 -5.72466;-0.36244;-1.03625;,
 -5.72466;0.41072;-1.03625;,
 -5.72466;0.41072;-2.69815;,
 -3.73295;0.97579;-2.69815;,
 -3.73295;0.97579;-2.66622;,
 -3.73295;1.63756;-2.66622;,
 -3.73295;1.63756;-2.69815;,
 -3.73295;-0.36244;-2.69815;,
 -3.73295;-0.36244;-2.66622;,
 -3.73295;0.41072;-2.66622;,
 -3.73295;0.41072;-2.69815;,
 -3.02091;1.63756;-2.69815;,
 -3.02091;1.63756;-1.03625;,
 -3.02091;0.97579;-1.03625;,
 -3.02091;0.97579;-2.69815;,
 -2.01702;0.97579;-2.69815;,
 -2.01702;0.97579;-1.03625;,
 -2.01702;0.41072;-1.03625;,
 -2.01702;0.41072;-2.69815;,
 -1.24568;0.41072;-2.69815;,
 -1.24568;0.41072;-1.03625;,
 -1.24568;-0.36244;-1.03625;,
 -1.24568;-0.36244;-2.69815;,
 -3.72466;0.41072;-1.03625;,
 -3.72466;-0.36244;-1.03625;,
 -2.43196;0.41072;-1.03625;,
 -2.43196;0.97579;-1.03625;,
 -3.72466;0.97579;-1.03625;,
 -3.72466;0.41072;-1.03625;,
 -3.02091;1.63756;-1.03625;,
 -3.72466;1.63756;-1.03625;,
 -3.72466;0.97579;-1.03625;,
 -3.02091;0.97579;-1.03625;,
 -2.43196;0.41072;-1.03625;,
 -1.24568;0.41072;-1.03625;,
 -1.24568;0.41072;-2.69815;,
 -2.43196;0.41072;-2.69815;,
 -3.02091;0.97579;-1.03625;,
 -2.43196;0.97579;-1.03625;,
 -2.43196;0.97579;-2.69815;,
 -3.02091;0.97579;-2.69815;,
 -3.72466;1.63756;-1.03625;,
 -3.02091;1.63756;-1.03625;,
 -3.02091;1.63756;-2.69815;,
 -3.73295;1.63756;-2.66622;,
 -2.01702;0.41072;-1.03625;,
 -2.01702;0.97579;-1.03625;,
 -2.01702;0.97579;-1.03625;,
 -2.01702;0.97579;-2.69815;,
 -2.43196;0.97579;-1.03625;,
 1.77628;1.63756;-1.04142;,
 1.77628;0.00000;-1.04142;,
 -0.21543;1.63756;-1.07335;,
 -0.21543;0.00000;-1.07335;,
 -0.21543;1.63756;-1.07335;,
 -5.72021;1.63756;-1.07335;,
 1.77628;1.63756;-1.04142;,
 -3.72466;1.63756;-2.69815;,
 -3.72466;-0.36244;-2.69815;,
 -5.72466;-0.36244;-2.69815;,
 -5.72466;1.63756;-2.69815;,
 -3.73295;0.41072;-2.69815;,
 -3.73295;0.97579;-2.69815;,
 -2.01702;0.97579;-2.69815;,
 -2.01702;0.41072;-2.69815;,
 -3.73295;1.63756;-2.69815;,
 -3.02091;1.63756;-2.69815;,
 -3.02091;0.97579;-2.69815;,
 -1.24568;-0.36244;-2.69815;,
 -1.24568;0.41072;-2.69815;,
 -2.43196;0.41072;-2.69815;,
 -5.71653;1.63435;-7.58830;,
 -3.67622;1.63435;-7.58830;,
 -3.67622;-0.36565;-7.58830;,
 -5.71653;-0.36565;-7.58830;,
 -3.67622;1.63435;-7.58830;,
 -3.67622;1.63435;-5.46494;,
 -3.67622;-0.36565;-5.46494;,
 -3.67622;-0.36565;-7.58830;,
 -3.67622;1.63435;-5.46494;,
 -5.71653;1.63435;-5.46494;,
 -5.71653;-0.36565;-5.46494;,
 -3.67622;-0.36565;-5.46494;,
 -5.71653;1.63435;-5.46494;,
 -5.71653;1.63435;-7.58830;,
 -5.71653;-0.36565;-7.58830;,
 -5.71653;-0.36565;-5.46494;,
 -5.71653;1.63435;-5.46494;,
 -3.67622;1.63435;-5.46494;,
 -3.67622;1.63435;-7.58830;,
 -5.71653;1.63435;-7.58830;,
 -5.71653;-0.36565;-7.58830;,
 -3.67622;-0.36565;-7.58830;,
 -5.71653;-0.36565;-5.46494;,
 -8.39797;0.00000;6.87597;,
 8.09407;0.00000;6.87597;,
 8.09407;0.00000;-9.61607;,
 -8.39797;0.00000;-9.61607;,
 5.70005;1.04163;-1.04142;,
 5.70005;1.04163;2.58215;,
 5.70005;0.41072;2.58215;,
 5.70005;0.41072;-1.04142;,
 -8.39797;-1.18916;-9.61607;,
 -43.66791;-1.18916;6.87600;,
 -8.39797;-1.18916;6.87597;,
 -43.66791;-1.18916;-9.61610;,
 8.09407;-1.18916;-9.61607;,
 -8.39800;-1.18916;-46.04571;,
 8.09410;-1.18916;-46.04571;,
 8.09410;-1.18916;54.14872;,
 8.09407;-1.18916;6.87597;,
 -8.39800;-1.18916;54.14872;,
 51.44172;-1.18916;6.87600;,
 51.44172;-1.18916;-9.61610;,
 51.44172;-1.18916;54.14872;,
 51.44172;-1.18916;-46.04571;,
 -43.66791;-1.18916;-46.04571;,
 -43.66791;-1.18916;54.14872;,
 -5.71653;1.63435;-7.58830;,
 -3.67622;5.00000;-7.58830;,
 -3.67622;1.63435;-7.58830;,
 -5.71653;1.63435;-7.58830;,
 -5.71653;5.00000;-7.58830;,
 -5.71653;1.63435;-5.46494;,
 -5.71653;1.63435;-7.58830;,
 -5.71653;5.00000;-5.46494;,
 -5.71653;1.63435;-5.46494;,
 5.70000;5.00000;-7.58830;,
 5.70000;1.63435;-7.58830;,
 -3.67622;1.63435;-7.58830;,
 5.70000;0.00000;-7.58830;,
 -3.67622;1.63435;-7.58830;,
 -3.67622;0.00000;-7.58830;,
 -3.67622;1.63435;-7.58830;,
 5.70005;0.41072;-3.00562;,
 5.70005;0.00000;-3.00562;,
 5.70005;5.00000;-3.00562;,
 5.70005;1.63756;-3.00562;,
 5.70005;1.63756;-3.00562;,
 5.68437;5.00000;0.56720;,
 5.68437;2.86465;0.56720;,
 5.68437;1.04163;0.56720;,
 5.70005;1.63756;-3.00562;,
 5.68437;2.86465;0.56720;,
 5.68437;2.86465;0.56720;,
 5.68437;5.00000;2.57719;,
 5.68437;2.86465;2.57719;,
 5.68437;2.86465;2.57719;,
 3.70004;5.00000;2.57719;,
 3.70004;2.86465;2.57719;,
 1.77628;1.63756;2.58363;,
 3.70004;0.00000;2.57719;,
 1.77628;5.00000;2.58363;,
 1.77628;1.63756;2.58363;,
 1.77628;1.63756;2.58363;,
 1.77628;0.00000;2.58363;,
 1.77628;1.63756;2.58363;,
 -5.72021;5.00000;2.58363;,
 -5.72021;1.63756;2.58363;,
 -5.72466;1.63756;-2.69815;,
 -5.72021;1.63756;2.58363;,
 -5.71653;1.63435;-5.46494;,
 -5.72466;1.63756;-2.69815;,
 -5.71653;1.63435;-5.46494;,
 -5.71653;0.00000;-5.46494;,
 -5.72466;1.63756;-2.69815;,
 -5.72466;0.00000;-2.69815;,
 -5.72466;1.63756;-2.69815;,
 -3.67622;1.63435;-5.46494;,
 5.70000;1.63440;-5.46490;,
 5.70000;0.00000;-5.46490;,
 -3.67620;0.00000;-5.46490;,
 -3.67622;1.63435;-5.46494;,
 -3.67622;1.63435;-5.46494;,
 -3.67620;5.00000;-5.46490;,
 5.70000;5.00000;-5.46490;,
 8.09407;0.00000;-9.61607;,
 8.09407;-1.18916;-9.61607;,
 -8.39797;-1.18916;-9.61607;,
 -8.39797;0.00000;-9.61607;,
 -8.39797;0.00000;-9.61607;,
 -8.39797;-1.18916;-9.61607;,
 -8.39797;-1.18916;6.87597;,
 -8.39797;0.00000;6.87597;,
 8.09407;-1.18916;6.87597;,
 8.09407;0.00000;6.87597;,
 -8.39797;0.00000;6.87597;,
 -8.39797;-1.18916;6.87597;,
 8.09407;0.00000;6.87597;,
 8.09407;-1.18916;6.87597;,
 8.09407;-1.18916;-9.61607;,
 8.09407;0.00000;-9.61607;,
 -19.57706;-0.59045;-36.21325;,
 -19.57716;-0.59045;-36.21331;,
 -22.09325;-0.59045;-35.25992;,
 -22.09311;-0.59045;-35.25989;,
 -28.51097;-0.59045;-26.81177;,
 -29.20550;-0.59045;-25.28777;,
 -27.63468;-0.33722;-24.23792;,
 -26.70819;0.07668;-26.02196;,
 -25.71369;0.36852;-28.01286;,
 -27.60299;-0.59045;-28.80414;,
 -25.91590;-0.31883;-23.26014;,
 -24.78143;0.56344;-25.17810;,
 -23.73470;0.92187;-27.15749;,
 -23.70661;-0.23095;-22.08376;,
 -22.68012;0.10837;-24.18019;,
 -21.71884;0.35617;-26.18283;,
 -21.42524;-0.59045;-21.74210;,
 -20.73072;-0.59045;-23.26611;,
 -19.82273;-0.59045;-25.25848;,
 -28.59014;-0.60104;-22.20439;,
 -30.28247;-0.59045;-22.92457;,
 -31.04890;-0.59045;-21.24279;,
 -29.31864;-0.46858;-20.48516;,
 -26.76361;-0.65206;-21.40458;,
 -27.45202;-0.47870;-19.66676;,
 -24.54209;-0.43195;-20.34999;,
 -25.29643;-0.33103;-18.64464;,
 -22.50223;-0.59045;-19.37891;,
 -23.26865;-0.59045;-17.69712;,
 -31.88114;-0.59045;-19.41661;,
 -32.50854;-0.59045;-18.03992;,
 -30.73523;-0.00670;-17.06616;,
 -30.04289;-0.02915;-18.63702;,
 -28.79146;0.20960;-16.13499;,
 -28.07899;0.25668;-17.80581;,
 -26.83777;-0.00619;-15.13012;,
 -26.05804;0.01890;-16.81769;,
 -24.72828;-0.59045;-14.49426;,
 -24.10088;-0.59045;-15.87095;,
 -31.55070;-0.23936;-15.23785;,
 -33.42219;-0.59045;-16.03507;,
 -34.41178;-0.59045;-13.86362;,
 -32.50361;-0.21909;-12.94840;,
 -29.56676;-0.01428;-14.37902;,
 -30.54789;-0.06294;-12.02819;,
 -27.61372;-0.23868;-13.43828;,
 -28.58189;-0.20227;-11.16217;,
 -25.64193;-0.59045;-12.48940;,
 -26.63150;-0.59045;-10.31795;,
 -35.10727;-0.59045;-12.33749;,
 -35.81159;-0.59045;-10.79207;,
 -33.86647;-0.59045;-9.90564;,
 -33.16803;-0.31477;-11.42075;,
 -31.92143;-0.59045;-9.01923;,
 -31.20078;-0.11807;-10.49588;,
 -29.97641;-0.59045;-8.13283;,
 -29.26333;-0.31640;-9.64333;,
 -28.03131;-0.59045;-7.24640;,
 -27.32702;-0.59045;-8.79182;,
 -24.94599;0.08351;-29.76841;,
 -24.19494;-0.36926;-31.48770;,
 -25.90245;-0.59045;-32.53564;,
 -26.79708;-0.59045;-30.57255;,
 -22.95925;0.48845;-28.90157;,
 -22.26937;-0.36426;-30.50036;,
 -20.97121;0.07656;-27.94975;,
 -20.29176;-0.35716;-29.55756;,
 -19.01682;-0.59045;-27.02689;,
 -18.12220;-0.59045;-28.98998;,
 -25.09758;-0.59045;-34.30174;,
 -23.22326;-0.51461;-33.45615;,
 -22.29177;-0.33247;-35.41347;,
 -24.21935;-0.59045;-36.22886;,
 -21.24471;-0.56170;-32.57100;,
 -20.29759;-0.29929;-34.57747;,
 -19.27938;-0.51264;-31.66222;,
 -18.36808;-0.34154;-33.62923;,
 -17.31733;-0.59045;-30.75609;,
 -16.43909;-0.59045;-32.68320;,
 -21.47373;-0.39550;-37.18517;,
 -20.65432;-0.59045;-38.89707;,
 -22.59941;-0.59045;-39.78349;,
 -23.42690;-0.59045;-37.96772;,
 -19.49160;-0.25658;-36.36007;,
 -18.70928;-0.59045;-38.01067;,
 -17.56533;-0.38759;-35.40420;,
 -16.76425;-0.59045;-37.12426;,
 -15.64666;-0.59045;-34.42205;,
 -14.81916;-0.59045;-36.23784;,
 -0.45651;-0.07506;19.89759;,
 -2.74405;-0.07506;19.86255;,
 -3.06602;0.21324;21.99835;,
 -0.52134;0.68445;22.13719;,
 2.00428;1.01670;22.33800;,
 2.03370;-0.07506;20.00620;,
 -3.16740;0.23418;24.24845;,
 -0.59047;1.23860;24.53078;,
 1.94532;1.64666;24.79167;,
 -3.17453;0.33422;27.09769;,
 -0.74758;0.72052;27.17456;,
 1.77630;1.00263;27.33517;,
 -2.47792;-0.07506;29.59258;,
 -0.88098;-0.07506;29.62231;,
 1.60913;-0.07506;29.73091;,
 -5.97472;-0.08711;22.28240;,
 -6.41002;-0.07506;20.23345;,
 -8.96197;-0.07506;20.81973;,
 -8.32395;0.06369;22.87373;,
 -5.54819;-0.14520;24.51235;,
 -7.65355;0.05217;25.09534;,
 -5.12087;0.10539;27.27920;,
 -6.95972;0.22029;27.72123;,
 -4.73302;-0.07506;29.82172;,
 -6.30086;-0.07506;30.18252;,
 -11.64308;-0.07506;21.75020;,
 -13.58264;-0.07506;22.64659;,
 -12.69013;0.58952;24.77130;,
 -10.70194;0.56396;23.82034;,
 -11.58689;0.83577;26.96300;,
 -9.71908;0.88937;26.04071;,
 -10.51877;0.59010;29.22446;,
 -8.82341;0.61867;28.44012;,
 -9.13516;-0.07506;31.30466;,
 -7.94607;-0.07506;30.75446;,
 -14.87933;0.32465;26.10354;,
 -16.25057;-0.07506;24.23603;,
 -19.07308;-0.07506;26.69350;,
 -17.34992;0.34772;28.38440;,
 -13.45516;0.58090;28.11112;,
 -15.53609;0.52550;30.04869;,
 -12.10602;0.32543;30.17299;,
 -13.66096;0.36688;31.61747;,
 -10.62523;-0.07506;32.14407;,
 -11.77209;-0.07506;33.12667;,
 -20.56901;-0.07506;28.55549;,
 -21.88843;-0.07506;30.60186;,
 -19.80859;-0.07506;31.87147;,
 -18.64738;0.23879;30.06961;,
 -17.70427;-0.07506;33.09597;,
 -16.66167;0.46273;31.54876;,
 -15.57658;-0.07506;34.27456;,
 -14.66591;0.23694;32.89791;,
 -13.42583;-0.07506;35.40716;,
 -12.64874;-0.07506;34.20986;,
 4.18484;0.69222;22.39971;,
 6.31979;0.17676;22.45903;,
 6.69779;-0.07506;20.20983;,
 4.24417;-0.07506;20.10274;,
 4.11699;1.15324;24.86642;,
 6.09896;0.18246;24.91272;,
 3.96028;0.68431;27.37092;,
 5.94714;0.19054;27.40212;,
 3.81959;-0.07506;29.82749;,
 6.27328;-0.07506;29.93445;,
 10.88923;-0.07506;20.82053;,
 10.31224;0.01128;23.08944;,
 14.31410;0.21864;24.76342;,
 15.37692;-0.07506;22.62819;,
 9.71077;-0.04232;25.48295;,
 13.19625;0.25642;26.95855;,
 9.06431;0.01353;27.86154;,
 11.89320;0.20832;29.03160;,
 8.42707;-0.07506;30.23803;,
 10.62430;-0.07506;31.12313;,
 17.45063;0.14689;27.08365;,
 19.84329;-0.07506;29.94455;,
 21.85187;-0.07506;28.57060;,
 18.91919;-0.07506;25.18293;,
 15.87156;0.30504;28.95252;,
 17.83470;-0.07506;31.31819;,
 14.11294;0.15590;30.65721;,
 15.82604;-0.07506;32.69201;,
 12.35884;-0.07506;32.37401;,
 13.81746;-0.07506;34.06601;;
 
 265;
 4;0,1,2,3;,
 4;4,5,6,7;,
 4;8,9,10,11;,
 4;11,0,3,8;,
 4;12,13,14,15;,
 4;15,4,7,12;,
 4;16,17,18,19;,
 4;19,20,21,16;,
 4;22,23,24,25;,
 4;25,26,27,22;,
 4;28,29,30,31;,
 4;31,32,33,28;,
 4;34,35,36,37;,
 4;37,38,39,34;,
 4;40,41,42,43;,
 4;43,44,23,40;,
 4;43,42,32,31;,
 4;45,46,47,48;,
 4;48,49,50,45;,
 4;37,36,49,48;,
 4;48,47,38,37;,
 4;51,52,53,54;,
 4;55,56,57,58;,
 4;59,60,61,62;,
 4;63,64,65,66;,
 4;67,68,69,70;,
 4;70,71,72,67;,
 4;73,74,75,76;,
 4;76,77,78,73;,
 4;79,80,81,82;,
 4;83,84,85,86;,
 4;86,79,82,83;,
 4;87,88,89,90;,
 4;91,92,93,94;,
 4;95,96,97,98;,
 4;99,100,101,102;,
 4;94,93,100,99;,
 4;103,104,96,95;,
 4;105,106,107,108;,
 4;109,110,111,112;,
 4;113,114,115,116;,
 4;116,105,108,113;,
 4;117,118,119,120;,
 4;120,109,112,117;,
 4;121,122,123,124;,
 4;125,126,127,128;,
 4;129,130,131,132;,
 4;132,133,134,129;,
 4;135,136,137,138;,
 4;139,140,141,142;,
 4;143,144,145,146;,
 4;138,137,147,148;,
 4;149,150,151,152;,
 4;153,154,155,156;,
 4;142,141,154,153;,
 4;152,151,144,143;,
 4;157,158,159,160;,
 4;161,162,163,164;,
 4;164,157,160,161;,
 4;165,166,167,168;,
 4;169,170,171,172;,
 4;173,174,175,176;,
 4;177,178,179,180;,
 4;180,179,174,173;,
 4;181,182,183,184;,
 4;185,186,187,188;,
 4;188,187,182,181;,
 4;189,190,191,192;,
 4;193,194,195,196;,
 4;197,198,199,200;,
 4;201,202,199,198;,
 4;203,204,205,206;,
 4;207,208,209,210;,
 4;211,212,213,214;,
 4;215,216,217,218;,
 4;219,220,221,222;,
 4;204,203,223,224;,
 4;225,226,217,227;,
 3;228,229,230;,
 3;229,231,232;,
 3;233,190,234;,
 4;235,236,237,238;,
 4;239,240,241,242;,
 4;240,243,244,245;,
 3;246,236,247;,
 3;236,239,248;,
 3;248,247,236;,
 4;249,250,251,252;,
 4;253,254,255,256;,
 4;257,258,259,260;,
 4;261,262,263,264;,
 4;265,266,267,268;,
 4;269,270,255,271;,
 4;272,273,274,275;,
 4;276,277,278,279;,
 3;280,281,282;,
 3;280,283,281;,
 3;284,285,280;,
 3;284,286,285;,
 3;282,287,288;,
 3;282,289,287;,
 3;288,290,284;,
 3;290,291,284;,
 4;287,292,290,288;,
 4;291,293,286,284;,
 4;285,294,283,280;,
 4;281,295,289,282;,
 3;296,297,298;,
 3;299,300,297;,
 3;301,302,300;,
 3;300,303,304;,
 4;297,305,306,307;,
 3;306,308,309;,
 3;308,310,311;,
 4;312,313,308,305;,
 4;313,305,314,315;,
 4;316,314,317,318;,
 3;319,320,321;,
 4;322,317,323,324;,
 4;325,323,326,327;,
 3;328,329,326;,
 3;326,330,331;,
 3;332,333,329;,
 4;334,330,335,336;,
 4;335,303,337,338;,
 3;303,339,340;,
 3;341,342,343;,
 3;342,344,345;,
 3;346,347,348;,
 3;348,349,350;,
 3;347,351,352;,
 3;352,353,347;,
 4;354,355,356,357;,
 4;358,359,360,361;,
 4;362,363,364,365;,
 4;366,367,368,369;,
 4;370,371,372,373;,
 4;374,375,376,377;,
 4;374,377,378,379;,
 4;377,376,380,381;,
 4;377,381,382,378;,
 4;381,380,383,384;,
 4;381,384,385,382;,
 4;384,383,386,387;,
 4;384,387,388,385;,
 4;389,376,375,390;,
 4;389,390,391,392;,
 4;393,380,376,389;,
 4;393,389,392,394;,
 4;395,383,380,393;,
 4;395,393,394,396;,
 4;397,386,383,395;,
 4;397,395,396,398;,
 4;399,400,401,402;,
 4;399,402,392,391;,
 4;402,401,403,404;,
 4;402,404,394,392;,
 4;404,403,405,406;,
 4;404,406,396,394;,
 4;406,405,407,408;,
 4;406,408,398,396;,
 4;409,401,400,410;,
 4;409,410,411,412;,
 4;413,403,401,409;,
 4;413,409,412,414;,
 4;415,405,403,413;,
 4;415,413,414,416;,
 4;417,407,405,415;,
 4;417,415,416,418;,
 4;419,420,421,422;,
 4;419,422,412,411;,
 4;422,421,423,424;,
 4;422,424,414,412;,
 4;424,423,425,426;,
 4;424,426,416,414;,
 4;426,425,427,428;,
 4;426,428,418,416;,
 4;429,430,431,432;,
 4;429,432,379,378;,
 4;433,434,430,429;,
 4;433,429,378,382;,
 4;435,436,434,433;,
 4;435,433,382,385;,
 4;437,438,436,435;,
 4;437,435,385,388;,
 4;439,431,430,440;,
 4;439,440,441,442;,
 4;440,430,434,443;,
 4;440,443,444,441;,
 4;443,434,436,445;,
 4;443,445,446,444;,
 4;445,436,438,447;,
 4;445,447,448,446;,
 4;449,450,451,452;,
 4;449,452,442,441;,
 4;453,454,450,449;,
 4;453,449,441,444;,
 4;455,456,454,453;,
 4;455,453,444,446;,
 4;457,458,456,455;,
 4;457,455,446,448;,
 4;459,460,461,462;,
 4;459,462,463,464;,
 4;462,461,465,466;,
 4;462,466,467,463;,
 4;466,465,468,469;,
 4;466,469,470,467;,
 4;469,468,471,472;,
 4;469,472,473,470;,
 4;474,461,460,475;,
 4;474,475,476,477;,
 4;478,465,461,474;,
 4;478,474,477,479;,
 4;480,468,465,478;,
 4;480,478,479,481;,
 4;482,471,468,480;,
 4;482,480,481,483;,
 4;484,485,486,487;,
 4;484,487,477,476;,
 4;487,486,488,489;,
 4;487,489,479,477;,
 4;489,488,490,491;,
 4;489,491,481,479;,
 4;491,490,492,493;,
 4;491,493,483,481;,
 4;494,486,485,495;,
 4;494,495,496,497;,
 4;498,488,486,494;,
 4;498,494,497,499;,
 4;500,490,488,498;,
 4;500,498,499,501;,
 4;502,492,490,500;,
 4;502,500,501,503;,
 4;504,505,506,507;,
 4;504,507,497,496;,
 4;507,506,508,509;,
 4;507,509,499,497;,
 4;509,508,510,511;,
 4;509,511,501,499;,
 4;511,510,512,513;,
 4;511,513,503,501;,
 4;514,515,516,517;,
 4;514,517,464,463;,
 4;518,519,515,514;,
 4;518,514,463,467;,
 4;520,521,519,518;,
 4;520,518,467,470;,
 4;522,523,521,520;,
 4;522,520,470,473;,
 4;524,516,515,525;,
 4;524,525,526,527;,
 4;525,515,519,528;,
 4;525,528,529,526;,
 4;528,519,521,530;,
 4;528,530,531,529;,
 4;530,521,523,532;,
 4;530,532,533,531;,
 4;534,535,536,537;,
 4;534,537,527,526;,
 4;538,539,535,534;,
 4;538,534,526,529;,
 4;540,541,539,538;,
 4;540,538,529,531;,
 4;542,543,541,540;,
 4;542,540,531,533;;
 
 MeshMaterialList {
  7;
  265;
  1,
  1,
  1,
  1,
  1,
  1,
  0,
  0,
  0,
  0,
  1,
  1,
  1,
  1,
  1,
  1,
  1,
  1,
  1,
  1,
  1,
  0,
  0,
  1,
  1,
  0,
  1,
  1,
  1,
  1,
  1,
  1,
  0,
  1,
  0,
  1,
  1,
  0,
  1,
  1,
  1,
  1,
  1,
  1,
  0,
  0,
  0,
  0,
  0,
  0,
  1,
  0,
  1,
  0,
  0,
  1,
  0,
  0,
  0,
  0,
  0,
  1,
  1,
  1,
  0,
  0,
  0,
  1,
  1,
  1,
  0,
  0,
  0,
  0,
  0,
  0,
  0,
  0,
  1,
  1,
  0,
  1,
  1,
  1,
  1,
  1,
  1,
  1,
  1,
  1,
  1,
  0,
  0,
  0,
  1,
  5,
  5,
  5,
  5,
  5,
  5,
  5,
  5,
  5,
  5,
  5,
  5,
  3,
  3,
  3,
  3,
  3,
  3,
  3,
  3,
  3,
  3,
  3,
  3,
  3,
  3,
  3,
  3,
  3,
  3,
  3,
  3,
  3,
  3,
  3,
  3,
  3,
  5,
  5,
  5,
  5,
  6,
  6,
  6,
  6,
  6,
  6,
  6,
  6,
  6,
  6,
  6,
  6,
  6,
  6,
  6,
  6,
  6,
  6,
  6,
  6,
  6,
  6,
  6,
  6,
  6,
  6,
  6,
  6,
  6,
  6,
  6,
  6,
  6,
  6,
  6,
  6,
  6,
  6,
  6,
  6,
  6,
  6,
  6,
  6,
  6,
  6,
  6,
  6,
  6,
  6,
  6,
  6,
  6,
  6,
  6,
  6,
  6,
  6,
  6,
  6,
  6,
  6,
  6,
  6,
  6,
  6,
  6,
  6,
  6,
  6,
  6,
  6,
  6,
  6,
  6,
  6,
  6,
  6,
  6,
  6,
  6,
  6,
  6,
  6,
  6,
  6,
  6,
  6,
  6,
  6,
  6,
  6,
  6,
  6,
  6,
  6,
  6,
  6,
  6,
  6,
  6,
  6,
  6,
  6,
  6,
  6,
  6,
  6,
  6,
  6,
  6,
  6,
  6,
  6,
  6,
  6,
  6,
  6,
  6,
  6,
  6,
  6,
  6,
  6,
  6,
  6,
  6,
  6,
  6;;
  Material {
   1.000000;1.000000;1.000000;1.000000;;
   84.000000;
   1.000000;1.000000;1.000000;;
   0.000000;0.000000;0.000000;;
   TextureFilename {
    "Data\\Graphics\\XFileTexture\\ground3.png";
   }
  }
  Material {
   1.000000;1.000000;1.000000;1.000000;;
   69.000000;
   1.000000;1.000000;1.000000;;
   0.000000;0.000000;0.000000;;
   TextureFilename {
    "Data\\Graphics\\XFileTexture\\oahe.png";
   }
  }
  Material {
   0.800000;0.800000;0.800000;1.000000;;
   5.000000;
   0.000000;0.000000;0.000000;;
   0.000000;0.000000;0.000000;;
   TextureFilename {
    "Data\\Graphics\\XFileTexture\\Wall.png";
   }
  }
  Material {
   0.800000;0.800000;0.800000;0.000000;;
   5.000000;
   0.000000;0.000000;0.000000;;
   0.000000;0.000000;0.000000;;
  }
  Material {
   1.000000;1.000000;1.000000;1.000000;;
   73.000000;
   1.000000;1.000000;1.000000;;
   0.500000;0.500000;0.500000;;
   TextureFilename {
    "Data\\Graphics\\XFileTexture\\27953512_p11_master1200.jpg";
   }
  }
  Material {
   1.000000;1.000000;1.000000;1.000000;;
   86.000000;
   1.000000;1.000000;1.000000;;
   0.000000;0.000000;0.000000;;
   TextureFilename {
    "Data\\Graphics\\XFileTexture\\oahe.png";
   }
  }
  Material {
   1.000000;1.000000;1.000000;1.000000;;
   0.000000;
   0.000000;0.000000;0.000000;;
   0.000000;0.000000;0.000000;;
  }
 }
 MeshNormals {
  260;
  0.000000;0.000000;-1.000000;,
  0.000000;0.000000;1.000000;,
  0.000000;1.000000;0.000000;,
  0.000000;-1.000000;-0.000000;,
  -1.000000;0.000000;0.000000;,
  1.000000;0.000000;0.000000;,
  0.000000;1.000000;0.000000;,
  0.000000;-1.000000;-0.000000;,
  0.000000;0.000000;-1.000000;,
  1.000000;0.000000;0.000000;,
  0.000000;0.000000;1.000000;,
  -1.000000;0.000000;0.000000;,
  0.000000;0.000000;1.000000;,
  -0.000001;-0.000002;1.000000;,
  -0.000000;-0.000002;1.000000;,
  -0.000001;-0.000003;1.000000;,
  0.000000;1.000000;0.000000;,
  1.000000;-0.000002;-0.000000;,
  -1.000000;0.000000;0.000000;,
  1.000000;0.000000;-0.000001;,
  -1.000000;0.000001;0.000000;,
  1.000000;-0.000001;-0.000001;,
  1.000000;0.000000;-0.000001;,
  -1.000000;0.000000;0.000000;,
  0.000000;0.000000;-1.000000;,
  0.000000;0.000000;-1.000000;,
  0.000000;0.000000;1.000000;,
  0.000001;0.000000;1.000000;,
  0.000000;0.000000;-1.000000;,
  0.000000;-0.000002;1.000000;,
  0.000001;-0.000002;1.000000;,
  0.000000;1.000000;0.000000;,
  0.000000;-1.000000;-0.000000;,
  -1.000000;0.000000;0.000000;,
  1.000000;0.000000;-0.000000;,
  1.000000;0.000000;-0.000000;,
  1.000000;0.000000;-0.000000;,
  0.000000;0.000000;1.000000;,
  0.000000;1.000000;0.000000;,
  0.000000;-1.000000;0.000000;,
  -1.000000;0.000000;-0.000001;,
  -1.000000;0.000000;-0.000029;,
  -1.000000;0.000000;-0.000029;,
  1.000000;0.000000;0.000000;,
  1.000000;0.000000;-0.000001;,
  0.016029;0.000000;-0.999871;,
  0.016029;0.000000;-0.999872;,
  -1.000000;0.000000;-0.000001;,
  -1.000000;0.000000;-0.000001;,
  0.000000;0.000000;-1.000000;,
  -0.000000;0.000000;-1.000000;,
  -0.000001;0.000000;-1.000000;,
  0.000000;0.000000;-1.000000;,
  1.000000;0.000000;0.000000;,
  0.000000;0.000000;1.000000;,
  -1.000000;0.000000;0.000000;,
  0.000000;1.000000;0.000000;,
  0.000000;-1.000000;-0.000000;,
  0.000000;1.000000;0.000000;,
  1.000000;0.000000;0.000000;,
  0.000000;1.000000;0.000000;,
  0.000000;0.000000;-1.000000;,
  1.000000;0.000000;0.000000;,
  1.000000;0.000000;-0.000010;,
  0.999998;0.000000;0.002189;,
  0.999990;0.000000;0.004389;,
  0.999998;0.000000;0.002194;,
  0.000000;0.000000;1.000000;,
  0.002231;0.000000;0.999998;,
  0.003347;0.000000;0.999994;,
  0.003347;0.000000;0.999994;,
  0.001674;0.000000;0.999999;,
  -1.000000;0.001021;0.000192;,
  -0.999996;0.000000;-0.002939;,
  -0.999996;0.000000;-0.002939;,
  -0.999996;0.000000;-0.002939;,
  -0.999996;0.000000;-0.002939;,
  0.000005;0.000000;-1.000000;,
  0.000003;0.000004;-1.000000;,
  0.000002;-0.000014;-1.000000;,
  0.000000;-0.000028;-1.000000;,
  0.000005;0.000013;-1.000000;,
  0.000002;0.000007;-1.000000;,
  0.000000;0.000000;-1.000000;,
  -0.999999;0.000510;-0.001374;,
  0.000000;0.000000;-1.000000;,
  -1.000000;0.000000;0.000000;,
  0.000000;0.000000;1.000000;,
  1.000000;0.000000;0.000000;,
  0.000000;1.000000;0.000000;,
  -0.092163;0.994633;0.047024;,
  -0.112198;0.987134;0.113919;,
  -0.090077;0.975598;0.200235;,
  -0.011658;0.986930;0.160724;,
  0.025025;0.994586;0.100854;,
  -0.237277;0.968235;-0.078868;,
  -0.181706;0.982772;-0.033789;,
  -0.032228;0.997808;0.057794;,
  0.131316;0.984444;0.116731;,
  0.200917;0.971024;0.129398;,
  -0.172544;0.984978;0.006891;,
  -0.155758;0.984037;0.086090;,
  -0.109736;0.979041;0.171568;,
  0.030675;0.987074;0.157303;,
  0.142175;0.980686;0.134321;,
  -0.099319;0.987155;-0.125145;,
  -0.023452;0.986002;-0.165076;,
  0.089641;0.977649;-0.190175;,
  0.139830;0.985571;-0.095378;,
  0.152540;0.988187;-0.014736;,
  -0.020880;0.997614;-0.065806;,
  0.003533;0.994517;-0.104513;,
  0.058196;0.989813;-0.129934;,
  0.076717;0.994382;-0.072936;,
  0.064884;0.997472;-0.028994;,
  -0.063174;0.992727;-0.102483;,
  -0.006144;0.990222;-0.139364;,
  0.049823;0.984325;-0.169179;,
  0.102361;0.991665;-0.078247;,
  0.154902;0.987908;0.006566;,
  -0.152446;0.986843;-0.053860;,
  -0.120621;0.992183;-0.031982;,
  -0.012328;0.999656;0.023161;,
  0.103314;0.992370;0.067285;,
  0.142400;0.986712;0.078238;,
  -0.336152;0.928167;-0.159712;,
  -0.267472;0.953559;-0.138507;,
  0.004810;0.999713;-0.023470;,
  0.268079;0.957610;0.105440;,
  0.327923;0.934374;0.139328;,
  -0.089984;0.995560;-0.027623;,
  -0.062921;0.998009;0.004323;,
  -0.019560;0.998836;0.044094;,
  0.036314;0.998045;0.050865;,
  0.075931;0.995870;0.049776;,
  -0.311276;0.948409;-0.060227;,
  -0.278967;0.959964;0.025430;,
  -0.100772;0.978823;0.178186;,
  0.149919;0.965152;0.214491;,
  0.252533;0.949597;0.185724;,
  -0.047384;0.998837;-0.008872;,
  -0.025565;0.999619;0.010401;,
  -0.040601;0.999077;0.014034;,
  0.006022;0.999629;0.026582;,
  0.089123;0.994526;0.054536;,
  -0.180763;0.973655;-0.138999;,
  -0.104926;0.982934;-0.151097;,
  0.041535;0.991356;-0.124454;,
  0.169393;0.985455;-0.013571;,
  0.226176;0.972354;0.058069;,
  -0.191282;0.979934;-0.056041;,
  -0.151867;0.988212;-0.019348;,
  -0.027570;0.998128;0.054597;,
  0.109104;0.989305;0.096809;,
  0.160759;0.981706;0.102031;,
  -0.120874;0.992651;0.005750;,
  -0.117114;0.991843;0.050312;,
  -0.055767;0.990909;0.122434;,
  0.038965;0.991546;0.123769;,
  0.075962;0.992296;0.097870;,
  -0.231321;0.951798;-0.201422;,
  -0.131343;0.959100;-0.250751;,
  0.112037;0.964425;-0.239442;,
  0.273301;0.958984;-0.075205;,
  0.292679;0.955844;0.026474;,
  -0.068624;0.997253;-0.027883;,
  -0.033345;0.999423;-0.006491;,
  -0.004775;0.999929;0.010917;,
  0.025203;0.999490;0.019592;,
  0.061902;0.997561;0.032260;,
  -0.056288;0.996439;-0.062781;,
  -0.029787;0.996916;-0.072600;,
  0.029849;0.997337;-0.066545;,
  0.072847;0.997046;-0.024363;,
  0.082737;0.996570;0.001862;,
  -0.091900;0.995393;0.027345;,
  -0.123929;0.988316;0.088727;,
  -0.118355;0.975197;0.187036;,
  -0.035346;0.984550;0.171500;,
  0.010511;0.992926;0.118265;,
  -0.134534;0.969081;-0.206839;,
  -0.118452;0.983476;-0.136910;,
  -0.059827;0.997781;0.029216;,
  0.029810;0.983250;0.179809;,
  0.076718;0.969129;0.234316;,
  -0.070852;0.986388;-0.148390;,
  -0.133059;0.986081;-0.099693;,
  -0.198950;0.979810;-0.019793;,
  -0.134936;0.985668;0.101244;,
  -0.064975;0.979575;0.190290;,
  0.075728;0.987304;-0.139632;,
  0.136309;0.987169;-0.083165;,
  0.199492;0.979798;0.014126;,
  0.133938;0.986360;0.095678;,
  0.065392;0.988476;0.136525;,
  0.052417;0.998607;-0.006095;,
  0.067702;0.997470;0.021656;,
  0.062347;0.995195;0.075503;,
  0.015347;0.996336;0.084132;,
  -0.011028;0.997716;0.066642;,
  0.024357;0.993076;-0.114918;,
  0.088438;0.991336;-0.097114;,
  0.157412;0.984602;-0.076029;,
  0.134821;0.990571;0.024337;,
  0.105828;0.986962;0.121272;,
  -0.123005;0.987179;-0.101718;,
  -0.100511;0.992469;-0.070025;,
  -0.018018;0.999656;0.019049;,
  0.075842;0.992034;0.100583;,
  0.109598;0.986111;0.124796;,
  0.022161;0.928168;-0.371502;,
  0.028230;0.953558;-0.299883;,
  0.023564;0.999713;-0.004337;,
  0.002657;0.957612;0.288049;,
  -0.006344;0.934378;0.356227;,
  0.040092;0.995741;-0.083020;,
  0.011771;0.998422;-0.054913;,
  -0.029665;0.999475;-0.012997;,
  -0.049270;0.998104;0.036900;,
  -0.055735;0.995772;0.073018;,
  -0.059920;0.949559;-0.307809;,
  -0.125413;0.961351;-0.245105;,
  -0.201041;0.979386;-0.019661;,
  -0.142633;0.963794;0.225291;,
  -0.076962;0.948761;0.306481;,
  -0.016631;0.998853;-0.044912;,
  -0.020961;0.999611;-0.018426;,
  -0.034615;0.998912;-0.031264;,
  -0.020764;0.999640;0.017015;,
  0.002431;0.994551;0.104226;,
  -0.043521;0.973934;-0.222619;,
  0.020616;0.984133;-0.176232;,
  0.117075;0.991663;-0.053838;,
  0.141075;0.983662;0.111839;,
  0.132794;0.970576;0.200870;,
  -0.134799;0.979954;-0.146695;,
  -0.120123;0.988091;-0.096155;,
  -0.053711;0.998113;0.029765;,
  0.041369;0.989477;0.138651;,
  0.084374;0.981454;0.172132;,
  -0.112963;0.993334;-0.022942;,
  -0.118649;0.992696;0.021845;,
  -0.075542;0.990726;0.112944;,
  0.014142;0.989842;0.141464;,
  0.054796;0.990764;0.124030;,
  0.100099;0.951800;-0.289927;,
  0.183289;0.959101;-0.215709;,
  0.263975;0.964425;0.014179;,
  0.172112;0.958985;0.225223;,
  0.085100;0.955845;0.281281;,
  0.020305;0.996842;-0.076769;,
  0.007466;0.999200;-0.039283;,
  -0.003770;0.999949;-0.009363;,
  -0.010574;0.999704;0.021909;,
  -0.018987;0.997970;0.060785;,
  0.061675;0.997131;-0.043892;,
  0.058293;0.998142;-0.017766;,
  0.032571;0.998756;0.037748;,
  -0.011427;0.997251;0.073214;,
  -0.033063;0.996300;0.079330;;
  265;
  4;0,0,0,0;,
  4;1,1,1,1;,
  4;0,0,0,0;,
  4;0,0,0,0;,
  4;1,1,1,1;,
  4;1,1,1,1;,
  4;2,2,2,2;,
  4;2,2,2,2;,
  4;3,3,3,3;,
  4;3,3,3,3;,
  4;5,5,5,5;,
  4;5,5,5,5;,
  4;4,4,4,4;,
  4;4,4,4,4;,
  4;5,5,5,5;,
  4;5,5,5,5;,
  4;5,5,5,5;,
  4;4,4,4,4;,
  4;4,4,4,4;,
  4;4,4,4,4;,
  4;4,4,4,4;,
  4;6,6,6,6;,
  4;7,7,7,7;,
  4;8,8,8,8;,
  4;9,9,9,9;,
  4;10,10,10,10;,
  4;10,10,10,10;,
  4;11,11,11,11;,
  4;11,11,11,11;,
  4;14,12,12,14;,
  4;15,13,13,15;,
  4;15,14,14,15;,
  4;16,16,16,16;,
  4;22,22,19,19;,
  4;18,18,23,23;,
  4;21,21,17,17;,
  4;19,19,21,21;,
  4;20,20,18,18;,
  4;28,24,24,28;,
  4;29,26,26,29;,
  4;28,25,25,28;,
  4;28,28,28,28;,
  4;30,27,27,30;,
  4;30,29,29,30;,
  4;31,31,31,31;,
  4;31,31,31,31;,
  4;32,32,32,32;,
  4;32,32,32,32;,
  4;36,36,34,34;,
  4;33,33,33,33;,
  4;33,33,33,33;,
  4;34,34,35,35;,
  4;33,33,33,33;,
  4;33,33,33,33;,
  4;33,33,33,33;,
  4;33,33,33,33;,
  4;37,37,37,37;,
  4;37,37,37,37;,
  4;37,37,37,37;,
  4;38,38,38,38;,
  4;39,39,39,39;,
  4;40,40,47,47;,
  4;48,48,40,40;,
  4;40,40,40,40;,
  4;41,41,41,41;,
  4;42,42,41,41;,
  4;41,41,41,41;,
  4;43,43,43,43;,
  4;43,43,43,43;,
  4;44,44,44,44;,
  4;37,37,37,37;,
  4;37,37,37,37;,
  4;37,37,37,37;,
  4;38,38,38,38;,
  4;38,38,38,38;,
  4;38,38,38,38;,
  4;37,37,37,37;,
  4;38,38,38,38;,
  3;45,46,45;,
  3;46,45,45;,
  3;38,38,38;,
  4;49,49,49,49;,
  4;50,50,51,51;,
  4;50,49,49,49;,
  3;49,49,49;,
  3;49,50,49;,
  3;49,49,49;,
  4;52,52,52,52;,
  4;53,53,53,53;,
  4;54,54,54,54;,
  4;55,55,55,55;,
  4;56,56,56,56;,
  4;57,57,57,57;,
  4;58,58,58,58;,
  4;59,59,59,59;,
  3;60,60,60;,
  3;60,60,60;,
  3;60,60,60;,
  3;60,60,60;,
  3;60,60,60;,
  3;60,60,60;,
  3;60,60,60;,
  3;60,60,60;,
  4;60,60,60,60;,
  4;60,60,60,60;,
  4;60,60,60,60;,
  4;60,60,60,60;,
  3;61,61,61;,
  3;61,61,61;,
  3;62,62,62;,
  3;62,62,62;,
  4;61,61,61,61;,
  3;61,61,61;,
  3;61,61,61;,
  4;63,63,63,63;,
  4;63,63,64,63;,
  4;65,64,66,65;,
  3;65,65,65;,
  4;62,66,62,62;,
  4;67,67,68,67;,
  3;69,69,68;,
  3;68,71,70;,
  3;69,69,69;,
  4;67,71,67,67;,
  4;72,84,72,72;,
  3;84,73,73;,
  3;74,75,74;,
  3;75,76,76;,
  3;77,78,79;,
  3;79,80,80;,
  3;78,81,82;,
  3;82,83,78;,
  4;85,85,85,85;,
  4;86,86,86,86;,
  4;87,87,87,87;,
  4;88,88,88,88;,
  4;89,89,89,89;,
  4;135,100,101,136;,
  4;135,136,126,125;,
  4;136,101,102,137;,
  4;136,137,127,126;,
  4;137,102,103,138;,
  4;137,138,128,127;,
  4;138,103,104,139;,
  4;138,139,129,128;,
  4;141,101,100,140;,
  4;141,140,115,116;,
  4;142,102,101,141;,
  4;142,141,116,117;,
  4;143,103,102,142;,
  4;143,142,117,118;,
  4;144,104,103,143;,
  4;144,143,118,119;,
  4;145,95,96,146;,
  4;145,146,116,115;,
  4;146,96,97,147;,
  4;146,147,117,116;,
  4;147,97,98,148;,
  4;147,148,118,117;,
  4;148,98,99,149;,
  4;148,149,119,118;,
  4;151,96,95,150;,
  4;151,150,120,121;,
  4;152,97,96,151;,
  4;152,151,121,122;,
  4;153,98,97,152;,
  4;153,152,122,123;,
  4;154,99,98,153;,
  4;154,153,123,124;,
  4;155,90,91,156;,
  4;155,156,121,120;,
  4;156,91,92,157;,
  4;156,157,122,121;,
  4;157,92,93,158;,
  4;157,158,123,122;,
  4;158,93,94,159;,
  4;158,159,124,123;,
  4;161,106,105,160;,
  4;161,160,125,126;,
  4;162,107,106,161;,
  4;162,161,126,127;,
  4;163,108,107,162;,
  4;163,162,127,128;,
  4;164,109,108,163;,
  4;164,163,128,129;,
  4;165,105,106,166;,
  4;165,166,131,130;,
  4;166,106,107,167;,
  4;166,167,132,131;,
  4;167,107,108,168;,
  4;167,168,133,132;,
  4;168,108,109,169;,
  4;168,169,134,133;,
  4;171,111,110,170;,
  4;171,170,130,131;,
  4;172,112,111,171;,
  4;172,171,131,132;,
  4;173,113,112,172;,
  4;173,172,132,133;,
  4;174,114,113,173;,
  4;174,173,133,134;,
  4;220,185,186,221;,
  4;220,221,211,210;,
  4;221,186,187,222;,
  4;221,222,212,211;,
  4;222,187,188,223;,
  4;222,223,213,212;,
  4;223,188,189,224;,
  4;223,224,214,213;,
  4;226,186,185,225;,
  4;226,225,200,201;,
  4;227,187,186,226;,
  4;227,226,201,202;,
  4;228,188,187,227;,
  4;228,227,202,203;,
  4;229,189,188,228;,
  4;229,228,203,204;,
  4;230,180,181,231;,
  4;230,231,201,200;,
  4;231,181,182,232;,
  4;231,232,202,201;,
  4;232,182,183,233;,
  4;232,233,203,202;,
  4;233,183,184,234;,
  4;233,234,204,203;,
  4;236,181,180,235;,
  4;236,235,205,206;,
  4;237,182,181,236;,
  4;237,236,206,207;,
  4;238,183,182,237;,
  4;238,237,207,208;,
  4;239,184,183,238;,
  4;239,238,208,209;,
  4;240,175,176,241;,
  4;240,241,206,205;,
  4;241,176,177,242;,
  4;241,242,207,206;,
  4;242,177,178,243;,
  4;242,243,208,207;,
  4;243,178,179,244;,
  4;243,244,209,208;,
  4;246,191,190,245;,
  4;246,245,210,211;,
  4;247,192,191,246;,
  4;247,246,211,212;,
  4;248,193,192,247;,
  4;248,247,212,213;,
  4;249,194,193,248;,
  4;249,248,213,214;,
  4;250,190,191,251;,
  4;250,251,216,215;,
  4;251,191,192,252;,
  4;251,252,217,216;,
  4;252,192,193,253;,
  4;252,253,218,217;,
  4;253,193,194,254;,
  4;253,254,219,218;,
  4;256,196,195,255;,
  4;256,255,215,216;,
  4;257,197,196,256;,
  4;257,256,216,217;,
  4;258,198,197,257;,
  4;258,257,217,218;,
  4;259,199,198,258;,
  4;259,258,218,219;;
 }
 MeshTextureCoords {
  544;
  2.131100;-0.207070;,
  2.131100;-0.431250;,
  2.881080;-0.430650;,
  2.881080;-0.206460;,
  0.000000;0.297960;,
  0.000000;0.000000;,
  1.000000;0.000000;,
  1.000000;0.297960;,
  2.881080;0.030890;,
  2.881080;0.321750;,
  2.131100;0.321140;,
  2.131100;0.030280;,
  1.000000;0.613420;,
  1.000000;1.000000;,
  0.000000;1.000000;,
  0.000000;0.613420;,
  3.011850;-0.110780;,
  3.011850;1.071560;,
  1.807950;1.071560;,
  1.807950;-0.110780;,
  1.807950;-2.291990;,
  3.011850;-2.291990;,
  1.000000;0.351520;,
  1.000000;1.000000;,
  0.000000;1.000000;,
  0.000000;0.351520;,
  0.000000;0.000000;,
  1.000000;0.000000;,
  0.351520;0.000000;,
  1.000000;0.000000;,
  1.000000;0.297960;,
  0.351520;0.297960;,
  0.000000;0.297960;,
  0.000000;0.000000;,
  -0.530400;0.334370;,
  0.208570;0.334370;,
  0.208570;0.558560;,
  -0.530400;0.558560;,
  -1.893650;0.558560;,
  -1.893650;0.334370;,
  0.351520;1.000000;,
  0.000000;1.000000;,
  0.000000;0.613420;,
  0.351520;0.613420;,
  1.000000;0.613420;,
  -0.530400;1.086800;,
  -1.893650;1.086800;,
  -1.893650;0.795920;,
  -0.530400;0.795920;,
  0.208570;0.795920;,
  0.208570;1.086800;,
  1.807950;-2.289000;,
  3.011850;-2.289000;,
  3.011850;-1.079090;,
  1.807950;-1.079090;,
  0.000000;0.000000;,
  1.000000;0.000000;,
  1.000000;1.000000;,
  0.000000;1.000000;,
  2.239580;-0.220460;,
  2.239580;-0.906280;,
  2.989560;-0.905670;,
  2.989560;-0.219860;,
  0.000000;0.911510;,
  0.000000;0.000000;,
  1.000000;0.000000;,
  1.000000;0.911510;,
  1.000000;0.911510;,
  1.000000;1.000000;,
  0.000000;1.000000;,
  0.000000;0.911510;,
  0.000000;0.000000;,
  1.000000;0.000000;,
  -1.135590;0.558560;,
  -1.135590;0.625150;,
  -1.891790;0.625150;,
  -1.891790;0.558560;,
  -1.891790;-0.127290;,
  -1.135590;-0.127290;,
  0.000000;0.297960;,
  0.000000;0.000000;,
  1.000000;0.000000;,
  1.000000;0.297960;,
  1.000000;0.613420;,
  1.000000;1.000000;,
  0.000000;1.000000;,
  0.000000;0.613420;,
  -0.553950;-0.110780;,
  -0.553950;-2.292880;,
  0.649950;-2.292880;,
  0.649950;-0.110780;,
  0.314340;0.000000;,
  1.000000;0.000000;,
  1.000000;0.297960;,
  0.314340;0.297960;,
  0.685660;0.297960;,
  0.000000;0.297960;,
  0.000000;0.000000;,
  0.685660;0.000000;,
  0.314340;0.613420;,
  1.000000;0.613420;,
  1.000000;1.000000;,
  0.314340;1.000000;,
  0.685660;0.613420;,
  0.000000;0.613420;,
  -1.342740;-0.217170;,
  -1.342740;-0.441360;,
  0.721500;-0.439690;,
  0.721500;-0.190730;,
  0.000000;0.297960;,
  0.000000;0.000000;,
  1.000000;0.000000;,
  1.000000;0.297960;,
  0.721500;0.021850;,
  0.721500;0.312710;,
  -1.342740;0.311040;,
  -1.342740;0.020180;,
  1.000000;0.613420;,
  1.000000;1.000000;,
  0.000000;1.000000;,
  0.000000;0.613420;,
  1.000000;0.991270;,
  1.000000;1.000000;,
  0.000000;1.000000;,
  0.000000;0.991270;,
  -3.862560;-0.110780;,
  -3.862560;-2.292880;,
  -0.548960;-2.292880;,
  -0.548960;-0.110780;,
  1.000000;0.008730;,
  1.000000;1.000000;,
  0.000000;1.000000;,
  0.000000;0.008730;,
  0.000000;0.000000;,
  1.000000;0.000000;,
  0.008730;0.000000;,
  1.000000;0.000000;,
  1.000000;0.297960;,
  0.008730;0.297960;,
  0.991270;0.000000;,
  1.000000;0.000000;,
  1.000000;0.297960;,
  0.991270;0.297960;,
  -0.530400;0.558560;,
  -1.894210;0.558560;,
  -1.894210;0.334370;,
  -0.530400;0.334370;,
  1.000000;0.613420;,
  0.008730;0.613420;,
  -0.530400;1.086800;,
  -1.894210;1.086800;,
  -1.894210;0.795920;,
  -0.530400;0.795920;,
  0.991270;0.613420;,
  1.000000;0.613420;,
  1.000000;1.000000;,
  0.991270;1.000000;,
  0.000000;0.297960;,
  0.000000;0.000000;,
  1.000000;0.000000;,
  1.000000;0.297960;,
  1.000000;0.613420;,
  1.000000;1.000000;,
  0.000000;1.000000;,
  0.000000;0.613420;,
  -3.865230;0.886480;,
  -3.865230;-0.113900;,
  -2.661340;-0.113900;,
  -2.661340;0.886480;,
  0.000000;0.314340;,
  0.000000;0.000000;,
  1.000000;0.000000;,
  1.000000;0.314340;,
  0.092890;0.558560;,
  -0.532340;0.558560;,
  -0.532340;0.334370;,
  0.092890;0.334370;,
  0.092890;1.086800;,
  -0.532340;1.086800;,
  -0.532340;0.795920;,
  0.092890;0.795920;,
  0.008730;0.297960;,
  0.000000;0.297960;,
  0.000000;0.000000;,
  0.008730;0.000000;,
  0.008730;1.000000;,
  0.000000;1.000000;,
  0.000000;0.613420;,
  0.008730;0.613420;,
  0.685660;0.000000;,
  1.000000;0.000000;,
  1.000000;0.297960;,
  0.685660;0.297960;,
  0.685660;0.297960;,
  1.000000;0.297960;,
  1.000000;0.613420;,
  0.685660;0.613420;,
  0.685660;0.613420;,
  1.000000;0.613420;,
  1.000000;1.000000;,
  0.685660;1.000000;,
  0.000000;0.000000;,
  0.000000;0.000000;,
  0.000000;0.000000;,
  0.000000;0.000000;,
  0.000000;0.000000;,
  0.000000;0.000000;,
  0.000000;0.000000;,
  0.000000;0.000000;,
  0.000000;0.000000;,
  0.000000;0.000000;,
  -1.883200;-0.113900;,
  -1.169120;-0.113900;,
  -1.169120;0.886480;,
  -1.883200;0.886480;,
  -2.237720;-0.113900;,
  -1.883200;-0.113900;,
  -1.883200;0.886480;,
  -2.237720;0.886480;,
  -2.661340;-0.113900;,
  -2.237720;-0.113900;,
  -2.237720;0.886480;,
  -2.666320;0.867260;,
  0.000000;0.000000;,
  0.000000;0.000000;,
  -1.633420;-0.113900;,
  -1.633420;0.886480;,
  -1.883200;-0.113900;,
  1.469340;-0.439200;,
  1.469340;0.176840;,
  0.721500;-0.439690;,
  0.721500;0.176360;,
  0.721500;-0.439690;,
  0.000000;0.000000;,
  0.000000;0.000000;,
  -0.643760;-0.434660;,
  -0.643760;0.317740;,
  -1.393740;0.317130;,
  -1.393740;-0.435270;,
  -0.646870;0.026870;,
  -0.646870;-0.185710;,
  -0.003410;-0.185190;,
  -0.003410;0.027390;,
  -0.646870;-0.434660;,
  -0.379860;-0.434450;,
  -0.379860;-0.185490;,
  0.285830;0.318490;,
  0.285830;0.027630;,
  -0.159010;0.027270;,
  -1.539180;-0.415720;,
  -0.774080;-0.415100;,
  -0.774080;0.337290;,
  -1.539180;0.336670;,
  0.000000;0.000000;,
  1.000000;0.000000;,
  1.000000;1.000000;,
  0.000000;1.000000;,
  0.000000;0.000000;,
  1.000000;0.000000;,
  1.000000;1.000000;,
  0.000000;1.000000;,
  1.133810;0.335570;,
  1.932650;0.335570;,
  1.932650;1.088010;,
  1.133810;1.088010;,
  -3.860340;2.551950;,
  -2.632180;2.551950;,
  -2.632180;3.830100;,
  -3.860340;3.830100;,
  0.000000;0.000000;,
  1.000000;0.000000;,
  0.000000;1.000000;,
  -5.474420;-4.876650;,
  4.452930;-4.876650;,
  4.452930;5.050710;,
  -5.474420;5.050710;,
  0.351520;0.297960;,
  1.000000;0.297960;,
  1.000000;0.613420;,
  0.351520;0.613420;,
  -0.779110;1.558920;,
  -1.782660;-0.973840;,
  -0.779110;-0.973830;,
  -1.782660;1.558930;,
  2.070240;1.558920;,
  -0.779120;2.344310;,
  2.070240;2.344310;,
  2.070240;-2.162800;,
  2.070240;-0.973830;,
  -0.779120;-2.162800;,
  3.009990;-0.973840;,
  3.009990;1.558930;,
  3.009990;-2.162800;,
  3.009990;2.344310;,
  -1.782660;2.344310;,
  -1.782660;-2.162800;,
  0.000000;0.000000;,
  0.000000;0.000000;,
  0.000000;0.000000;,
  0.000000;0.000000;,
  0.000000;0.000000;,
  0.000000;0.000000;,
  0.000000;0.000000;,
  0.000000;0.000000;,
  0.000000;0.000000;,
  0.000000;0.000000;,
  0.000000;0.000000;,
  0.000000;0.000000;,
  0.000000;0.000000;,
  0.000000;0.000000;,
  0.000000;0.000000;,
  0.000000;0.000000;,
  0.000000;0.000000;,
  0.000000;0.000000;,
  0.000000;0.000000;,
  0.000000;0.000000;,
  0.000000;0.000000;,
  0.000000;0.000000;,
  0.000000;0.000000;,
  0.000000;0.000000;,
  0.000000;0.000000;,
  0.000000;0.000000;,
  0.000000;0.000000;,
  0.000000;0.000000;,
  0.000000;0.000000;,
  0.000000;0.000000;,
  0.000000;0.000000;,
  0.000000;0.000000;,
  0.000000;0.000000;,
  0.000000;0.000000;,
  0.000000;0.000000;,
  0.000000;0.000000;,
  0.000000;0.000000;,
  0.000000;0.000000;,
  0.000000;0.000000;,
  0.000000;0.000000;,
  0.000000;0.000000;,
  0.000000;0.000000;,
  0.000000;0.000000;,
  0.000000;0.000000;,
  0.000000;0.000000;,
  0.000000;0.000000;,
  0.000000;0.000000;,
  0.000000;0.000000;,
  0.000000;0.000000;,
  0.000000;0.000000;,
  0.000000;0.000000;,
  0.000000;0.000000;,
  0.000000;0.000000;,
  0.000000;0.000000;,
  0.000000;0.000000;,
  0.000000;0.000000;,
  0.000000;0.000000;,
  0.000000;0.000000;,
  4.083850;2.253820;,
  4.083850;2.721260;,
  -2.398760;2.721260;,
  -2.398760;2.253820;,
  0.122800;1.627070;,
  0.122800;1.745870;,
  -1.524800;1.745870;,
  -1.524800;1.627070;,
  -2.427740;1.745870;,
  -2.427740;1.627070;,
  -0.780140;1.627070;,
  -0.780140;1.745870;,
  1.601720;1.769970;,
  1.601720;1.881810;,
  0.050550;1.881810;,
  0.050550;1.769970;,
  26.203991;16.242350;,
  26.203880;16.242380;,
  22.981670;14.036070;,
  22.981840;14.036090;,
  12.111020;6.507440;,
  12.111020;6.065970;,
  14.629250;6.065970;,
  14.629250;6.587760;,
  14.629250;7.159410;,
  12.111020;7.084590;,
  17.147480;6.065970;,
  17.147480;6.634530;,
  17.147480;7.199910;,
  19.665720;6.065970;,
  19.665720;6.660160;,
  19.665720;7.218630;,
  22.183950;6.065970;,
  22.183950;6.507440;,
  22.183950;7.084590;,
  14.629250;5.460970;,
  12.111020;5.381400;,
  12.111020;4.894220;,
  14.629250;4.969110;,
  17.147480;5.508760;,
  17.147480;5.011260;,
  19.665720;5.536400;,
  19.665720;5.032490;,
  22.183950;5.381400;,
  22.183950;4.894220;,
  12.111020;4.365210;,
  12.111020;3.966410;,
  14.629250;3.966410;,
  14.629250;4.435020;,
  17.147480;3.966410;,
  17.147480;4.471050;,
  19.665720;3.966410;,
  19.665720;4.485310;,
  22.183950;3.966410;,
  22.183950;4.365210;,
  14.629250;3.434430;,
  12.111020;3.385650;,
  12.111020;2.756630;,
  14.629250;2.785210;,
  17.147480;3.457920;,
  17.147480;2.798970;,
  19.665720;3.463890;,
  19.665720;2.802460;,
  22.183950;3.385650;,
  22.183950;2.756630;,
  12.111020;2.314540;,
  12.111020;1.866860;,
  14.629250;1.866860;,
  14.629250;2.328920;,
  17.147480;1.866860;,
  17.147480;2.335840;,
  19.665720;1.866860;,
  19.665720;2.337600;,
  22.183950;1.866860;,
  22.183950;2.314540;,
  14.629250;7.666810;,
  14.629250;8.165520;,
  12.111020;8.165520;,
  12.111020;7.596860;,
  17.147480;7.701730;,
  17.147480;8.165520;,
  19.665720;7.714320;,
  19.665720;8.165520;,
  22.183950;7.596860;,
  22.183950;8.165520;,
  12.111020;8.677120;,
  14.629250;8.724920;,
  14.629250;9.266360;,
  12.111020;9.235370;,
  17.147480;8.746020;,
  17.147480;9.280040;,
  19.665720;8.750950;,
  19.665720;9.283240;,
  22.183950;8.677120;,
  22.183950;9.235370;,
  14.629250;9.754910;,
  14.629250;10.265070;,
  12.111020;10.265070;,
  12.111020;9.739080;,
  17.147480;9.761900;,
  17.147480;10.265070;,
  19.665720;9.763530;,
  19.665720;10.265070;,
  22.183950;9.739080;,
  22.183950;10.265070;,
  12.111020;6.507440;,
  12.111020;6.065970;,
  14.629250;6.065970;,
  14.629250;6.587760;,
  14.629250;7.159410;,
  12.111020;7.084590;,
  17.147480;6.065970;,
  17.147480;6.634530;,
  17.147480;7.199910;,
  19.665720;6.065970;,
  19.665720;6.660160;,
  19.665720;7.218630;,
  22.183950;6.065970;,
  22.183950;6.507440;,
  22.183950;7.084590;,
  14.629250;5.460970;,
  12.111020;5.381400;,
  12.111020;4.894220;,
  14.629250;4.969110;,
  17.147480;5.508760;,
  17.147480;5.011260;,
  19.665720;5.536400;,
  19.665720;5.032490;,
  22.183950;5.381400;,
  22.183950;4.894220;,
  12.111020;4.365210;,
  12.111020;3.966410;,
  14.629250;3.966410;,
  14.629250;4.435020;,
  17.147480;3.966410;,
  17.147480;4.471050;,
  19.665720;3.966410;,
  19.665720;4.485310;,
  22.183950;3.966410;,
  22.183950;4.365210;,
  14.629250;3.434430;,
  12.111020;3.385650;,
  12.111020;2.756630;,
  14.629250;2.785210;,
  17.147480;3.457920;,
  17.147480;2.798970;,
  19.665720;3.463890;,
  19.665720;2.802460;,
  22.183950;3.385650;,
  22.183950;2.756630;,
  12.111020;2.314540;,
  12.111020;1.866860;,
  14.629250;1.866860;,
  14.629250;2.328920;,
  17.147480;1.866860;,
  17.147480;2.335840;,
  19.665720;1.866860;,
  19.665720;2.337600;,
  22.183950;1.866860;,
  22.183950;2.314540;,
  14.629250;7.666810;,
  14.629250;8.165520;,
  12.111020;8.165520;,
  12.111020;7.596860;,
  17.147480;7.701730;,
  17.147480;8.165520;,
  19.665720;7.714320;,
  19.665720;8.165520;,
  22.183950;7.596860;,
  22.183950;8.165520;,
  12.111020;8.677120;,
  14.629250;8.724920;,
  14.629250;9.266360;,
  12.111020;9.235370;,
  17.147480;8.746020;,
  17.147480;9.280040;,
  19.665720;8.750950;,
  19.665720;9.283240;,
  22.183950;8.677120;,
  22.183950;9.235370;,
  14.629250;9.754910;,
  14.629250;10.265070;,
  12.111020;10.265070;,
  12.111020;9.739080;,
  17.147480;9.761900;,
  17.147480;10.265070;,
  19.665720;9.763530;,
  19.665720;10.265070;,
  22.183950;9.739080;,
  22.183950;10.265070;;
 }
 MeshVertexColors {
  544;
  0;1.000000;1.000000;1.000000;1.000000;,
  1;1.000000;1.000000;1.000000;1.000000;,
  2;1.000000;1.000000;1.000000;1.000000;,
  3;1.000000;1.000000;1.000000;1.000000;,
  4;1.000000;1.000000;1.000000;1.000000;,
  5;1.000000;1.000000;1.000000;1.000000;,
  6;1.000000;1.000000;1.000000;1.000000;,
  7;1.000000;1.000000;1.000000;1.000000;,
  8;1.000000;1.000000;1.000000;1.000000;,
  9;1.000000;1.000000;1.000000;1.000000;,
  10;1.000000;1.000000;1.000000;1.000000;,
  11;1.000000;1.000000;1.000000;1.000000;,
  12;1.000000;1.000000;1.000000;1.000000;,
  13;1.000000;1.000000;1.000000;1.000000;,
  14;1.000000;1.000000;1.000000;1.000000;,
  15;1.000000;1.000000;1.000000;1.000000;,
  16;1.000000;1.000000;1.000000;1.000000;,
  17;1.000000;1.000000;1.000000;1.000000;,
  18;1.000000;1.000000;1.000000;1.000000;,
  19;1.000000;1.000000;1.000000;1.000000;,
  20;1.000000;1.000000;1.000000;1.000000;,
  21;1.000000;1.000000;1.000000;1.000000;,
  22;1.000000;1.000000;1.000000;1.000000;,
  23;1.000000;1.000000;1.000000;1.000000;,
  24;1.000000;1.000000;1.000000;1.000000;,
  25;1.000000;1.000000;1.000000;1.000000;,
  26;1.000000;1.000000;1.000000;1.000000;,
  27;1.000000;1.000000;1.000000;1.000000;,
  28;1.000000;1.000000;1.000000;1.000000;,
  29;1.000000;1.000000;1.000000;1.000000;,
  30;1.000000;1.000000;1.000000;1.000000;,
  31;1.000000;1.000000;1.000000;1.000000;,
  32;1.000000;1.000000;1.000000;1.000000;,
  33;1.000000;1.000000;1.000000;1.000000;,
  34;1.000000;1.000000;1.000000;1.000000;,
  35;1.000000;1.000000;1.000000;1.000000;,
  36;1.000000;1.000000;1.000000;1.000000;,
  37;1.000000;1.000000;1.000000;1.000000;,
  38;1.000000;1.000000;1.000000;1.000000;,
  39;1.000000;1.000000;1.000000;1.000000;,
  40;1.000000;1.000000;1.000000;1.000000;,
  41;1.000000;1.000000;1.000000;1.000000;,
  42;1.000000;1.000000;1.000000;1.000000;,
  43;1.000000;1.000000;1.000000;1.000000;,
  44;1.000000;1.000000;1.000000;1.000000;,
  45;1.000000;1.000000;1.000000;1.000000;,
  46;1.000000;1.000000;1.000000;1.000000;,
  47;1.000000;1.000000;1.000000;1.000000;,
  48;1.000000;1.000000;1.000000;1.000000;,
  49;1.000000;1.000000;1.000000;1.000000;,
  50;1.000000;1.000000;1.000000;1.000000;,
  51;1.000000;1.000000;1.000000;1.000000;,
  52;1.000000;1.000000;1.000000;1.000000;,
  53;1.000000;1.000000;1.000000;1.000000;,
  54;1.000000;1.000000;1.000000;1.000000;,
  55;1.000000;1.000000;1.000000;1.000000;,
  56;1.000000;1.000000;1.000000;1.000000;,
  57;1.000000;1.000000;1.000000;1.000000;,
  58;1.000000;1.000000;1.000000;1.000000;,
  59;1.000000;1.000000;1.000000;1.000000;,
  60;1.000000;1.000000;1.000000;1.000000;,
  61;1.000000;1.000000;1.000000;1.000000;,
  62;1.000000;1.000000;1.000000;1.000000;,
  63;1.000000;1.000000;1.000000;1.000000;,
  64;1.000000;1.000000;1.000000;1.000000;,
  65;1.000000;1.000000;1.000000;1.000000;,
  66;1.000000;1.000000;1.000000;1.000000;,
  67;1.000000;1.000000;1.000000;1.000000;,
  68;1.000000;1.000000;1.000000;1.000000;,
  69;1.000000;1.000000;1.000000;1.000000;,
  70;1.000000;1.000000;1.000000;1.000000;,
  71;1.000000;1.000000;1.000000;1.000000;,
  72;1.000000;1.000000;1.000000;1.000000;,
  73;1.000000;1.000000;1.000000;1.000000;,
  74;1.000000;1.000000;1.000000;1.000000;,
  75;1.000000;1.000000;1.000000;1.000000;,
  76;1.000000;1.000000;1.000000;1.000000;,
  77;1.000000;1.000000;1.000000;1.000000;,
  78;1.000000;1.000000;1.000000;1.000000;,
  79;1.000000;1.000000;1.000000;1.000000;,
  80;1.000000;1.000000;1.000000;1.000000;,
  81;1.000000;1.000000;1.000000;1.000000;,
  82;1.000000;1.000000;1.000000;1.000000;,
  83;1.000000;1.000000;1.000000;1.000000;,
  84;1.000000;1.000000;1.000000;1.000000;,
  85;1.000000;1.000000;1.000000;1.000000;,
  86;1.000000;1.000000;1.000000;1.000000;,
  87;1.000000;1.000000;1.000000;1.000000;,
  88;1.000000;1.000000;1.000000;1.000000;,
  89;1.000000;1.000000;1.000000;1.000000;,
  90;1.000000;1.000000;1.000000;1.000000;,
  91;1.000000;1.000000;1.000000;1.000000;,
  92;1.000000;1.000000;1.000000;1.000000;,
  93;1.000000;1.000000;1.000000;1.000000;,
  94;1.000000;1.000000;1.000000;1.000000;,
  95;1.000000;1.000000;1.000000;1.000000;,
  96;1.000000;1.000000;1.000000;1.000000;,
  97;1.000000;1.000000;1.000000;1.000000;,
  98;1.000000;1.000000;1.000000;1.000000;,
  99;1.000000;1.000000;1.000000;1.000000;,
  100;1.000000;1.000000;1.000000;1.000000;,
  101;1.000000;1.000000;1.000000;1.000000;,
  102;1.000000;1.000000;1.000000;1.000000;,
  103;1.000000;1.000000;1.000000;1.000000;,
  104;1.000000;1.000000;1.000000;1.000000;,
  105;1.000000;1.000000;1.000000;1.000000;,
  106;1.000000;1.000000;1.000000;1.000000;,
  107;1.000000;1.000000;1.000000;1.000000;,
  108;1.000000;1.000000;1.000000;1.000000;,
  109;1.000000;1.000000;1.000000;1.000000;,
  110;1.000000;1.000000;1.000000;1.000000;,
  111;1.000000;1.000000;1.000000;1.000000;,
  112;1.000000;1.000000;1.000000;1.000000;,
  113;1.000000;1.000000;1.000000;1.000000;,
  114;1.000000;1.000000;1.000000;1.000000;,
  115;1.000000;1.000000;1.000000;1.000000;,
  116;1.000000;1.000000;1.000000;1.000000;,
  117;1.000000;1.000000;1.000000;1.000000;,
  118;1.000000;1.000000;1.000000;1.000000;,
  119;1.000000;1.000000;1.000000;1.000000;,
  120;1.000000;1.000000;1.000000;1.000000;,
  121;1.000000;1.000000;1.000000;1.000000;,
  122;1.000000;1.000000;1.000000;1.000000;,
  123;1.000000;1.000000;1.000000;1.000000;,
  124;1.000000;1.000000;1.000000;1.000000;,
  125;1.000000;1.000000;1.000000;1.000000;,
  126;1.000000;1.000000;1.000000;1.000000;,
  127;1.000000;1.000000;1.000000;1.000000;,
  128;1.000000;1.000000;1.000000;1.000000;,
  129;1.000000;1.000000;1.000000;1.000000;,
  130;1.000000;1.000000;1.000000;1.000000;,
  131;1.000000;1.000000;1.000000;1.000000;,
  132;1.000000;1.000000;1.000000;1.000000;,
  133;1.000000;1.000000;1.000000;1.000000;,
  134;1.000000;1.000000;1.000000;1.000000;,
  135;1.000000;1.000000;1.000000;1.000000;,
  136;1.000000;1.000000;1.000000;1.000000;,
  137;1.000000;1.000000;1.000000;1.000000;,
  138;1.000000;1.000000;1.000000;1.000000;,
  139;1.000000;1.000000;1.000000;1.000000;,
  140;1.000000;1.000000;1.000000;1.000000;,
  141;1.000000;1.000000;1.000000;1.000000;,
  142;1.000000;1.000000;1.000000;1.000000;,
  143;1.000000;1.000000;1.000000;1.000000;,
  144;1.000000;1.000000;1.000000;1.000000;,
  145;1.000000;1.000000;1.000000;1.000000;,
  146;1.000000;1.000000;1.000000;1.000000;,
  147;1.000000;1.000000;1.000000;1.000000;,
  148;1.000000;1.000000;1.000000;1.000000;,
  149;1.000000;1.000000;1.000000;1.000000;,
  150;1.000000;1.000000;1.000000;1.000000;,
  151;1.000000;1.000000;1.000000;1.000000;,
  152;1.000000;1.000000;1.000000;1.000000;,
  153;1.000000;1.000000;1.000000;1.000000;,
  154;1.000000;1.000000;1.000000;1.000000;,
  155;1.000000;1.000000;1.000000;1.000000;,
  156;1.000000;1.000000;1.000000;1.000000;,
  157;1.000000;1.000000;1.000000;1.000000;,
  158;1.000000;1.000000;1.000000;1.000000;,
  159;1.000000;1.000000;1.000000;1.000000;,
  160;1.000000;1.000000;1.000000;1.000000;,
  161;1.000000;1.000000;1.000000;1.000000;,
  162;1.000000;1.000000;1.000000;1.000000;,
  163;1.000000;1.000000;1.000000;1.000000;,
  164;1.000000;1.000000;1.000000;1.000000;,
  165;1.000000;1.000000;1.000000;1.000000;,
  166;1.000000;1.000000;1.000000;1.000000;,
  167;1.000000;1.000000;1.000000;1.000000;,
  168;1.000000;1.000000;1.000000;1.000000;,
  169;1.000000;1.000000;1.000000;1.000000;,
  170;1.000000;1.000000;1.000000;1.000000;,
  171;1.000000;1.000000;1.000000;1.000000;,
  172;1.000000;1.000000;1.000000;1.000000;,
  173;1.000000;1.000000;1.000000;1.000000;,
  174;1.000000;1.000000;1.000000;1.000000;,
  175;1.000000;1.000000;1.000000;1.000000;,
  176;1.000000;1.000000;1.000000;1.000000;,
  177;1.000000;1.000000;1.000000;1.000000;,
  178;1.000000;1.000000;1.000000;1.000000;,
  179;1.000000;1.000000;1.000000;1.000000;,
  180;1.000000;1.000000;1.000000;1.000000;,
  181;1.000000;1.000000;1.000000;1.000000;,
  182;1.000000;1.000000;1.000000;1.000000;,
  183;1.000000;1.000000;1.000000;1.000000;,
  184;1.000000;1.000000;1.000000;1.000000;,
  185;1.000000;1.000000;1.000000;1.000000;,
  186;1.000000;1.000000;1.000000;1.000000;,
  187;1.000000;1.000000;1.000000;1.000000;,
  188;1.000000;1.000000;1.000000;1.000000;,
  189;1.000000;1.000000;1.000000;1.000000;,
  190;1.000000;1.000000;1.000000;1.000000;,
  191;1.000000;1.000000;1.000000;1.000000;,
  192;1.000000;1.000000;1.000000;1.000000;,
  193;1.000000;1.000000;1.000000;1.000000;,
  194;1.000000;1.000000;1.000000;1.000000;,
  195;1.000000;1.000000;1.000000;1.000000;,
  196;1.000000;1.000000;1.000000;1.000000;,
  197;1.000000;1.000000;1.000000;1.000000;,
  198;1.000000;1.000000;1.000000;1.000000;,
  199;1.000000;1.000000;1.000000;1.000000;,
  200;1.000000;1.000000;1.000000;1.000000;,
  201;1.000000;1.000000;1.000000;1.000000;,
  202;1.000000;1.000000;1.000000;1.000000;,
  203;1.000000;1.000000;1.000000;1.000000;,
  204;1.000000;1.000000;1.000000;1.000000;,
  205;1.000000;1.000000;1.000000;1.000000;,
  206;1.000000;1.000000;1.000000;1.000000;,
  207;1.000000;1.000000;1.000000;1.000000;,
  208;1.000000;1.000000;1.000000;1.000000;,
  209;1.000000;1.000000;1.000000;1.000000;,
  210;1.000000;1.000000;1.000000;1.000000;,
  211;1.000000;1.000000;1.000000;1.000000;,
  212;1.000000;1.000000;1.000000;1.000000;,
  213;1.000000;1.000000;1.000000;1.000000;,
  214;1.000000;1.000000;1.000000;1.000000;,
  215;1.000000;1.000000;1.000000;1.000000;,
  216;1.000000;1.000000;1.000000;1.000000;,
  217;1.000000;1.000000;1.000000;1.000000;,
  218;1.000000;1.000000;1.000000;1.000000;,
  219;1.000000;1.000000;1.000000;1.000000;,
  220;1.000000;1.000000;1.000000;1.000000;,
  221;1.000000;1.000000;1.000000;1.000000;,
  222;1.000000;1.000000;1.000000;1.000000;,
  223;1.000000;1.000000;1.000000;1.000000;,
  224;1.000000;1.000000;1.000000;1.000000;,
  225;1.000000;1.000000;1.000000;1.000000;,
  226;1.000000;1.000000;1.000000;1.000000;,
  227;1.000000;1.000000;1.000000;1.000000;,
  228;1.000000;1.000000;1.000000;1.000000;,
  229;1.000000;1.000000;1.000000;1.000000;,
  230;1.000000;1.000000;1.000000;1.000000;,
  231;1.000000;1.000000;1.000000;1.000000;,
  232;1.000000;1.000000;1.000000;1.000000;,
  233;1.000000;1.000000;1.000000;1.000000;,
  234;1.000000;1.000000;1.000000;1.000000;,
  235;1.000000;1.000000;1.000000;1.000000;,
  236;1.000000;1.000000;1.000000;1.000000;,
  237;1.000000;1.000000;1.000000;1.000000;,
  238;1.000000;1.000000;1.000000;1.000000;,
  239;1.000000;1.000000;1.000000;1.000000;,
  240;1.000000;1.000000;1.000000;1.000000;,
  241;1.000000;1.000000;1.000000;1.000000;,
  242;1.000000;1.000000;1.000000;1.000000;,
  243;1.000000;1.000000;1.000000;1.000000;,
  244;1.000000;1.000000;1.000000;1.000000;,
  245;1.000000;1.000000;1.000000;1.000000;,
  246;1.000000;1.000000;1.000000;1.000000;,
  247;1.000000;1.000000;1.000000;1.000000;,
  248;1.000000;1.000000;1.000000;1.000000;,
  249;1.000000;1.000000;1.000000;1.000000;,
  250;1.000000;1.000000;1.000000;1.000000;,
  251;1.000000;1.000000;1.000000;1.000000;,
  252;1.000000;1.000000;1.000000;1.000000;,
  253;1.000000;1.000000;1.000000;1.000000;,
  254;1.000000;1.000000;1.000000;1.000000;,
  255;1.000000;1.000000;1.000000;1.000000;,
  256;1.000000;1.000000;1.000000;1.000000;,
  257;1.000000;1.000000;1.000000;1.000000;,
  258;1.000000;1.000000;1.000000;1.000000;,
  259;1.000000;1.000000;1.000000;1.000000;,
  260;1.000000;1.000000;1.000000;1.000000;,
  261;1.000000;1.000000;1.000000;1.000000;,
  262;1.000000;1.000000;1.000000;1.000000;,
  263;1.000000;1.000000;1.000000;1.000000;,
  264;1.000000;1.000000;1.000000;1.000000;,
  265;1.000000;1.000000;1.000000;1.000000;,
  266;1.000000;1.000000;1.000000;1.000000;,
  267;1.000000;1.000000;1.000000;1.000000;,
  268;1.000000;1.000000;1.000000;1.000000;,
  269;1.000000;1.000000;1.000000;1.000000;,
  270;1.000000;1.000000;1.000000;1.000000;,
  271;1.000000;1.000000;1.000000;1.000000;,
  272;1.000000;1.000000;1.000000;1.000000;,
  273;1.000000;1.000000;1.000000;1.000000;,
  274;1.000000;1.000000;1.000000;1.000000;,
  275;1.000000;1.000000;1.000000;1.000000;,
  276;1.000000;1.000000;1.000000;1.000000;,
  277;1.000000;1.000000;1.000000;1.000000;,
  278;1.000000;1.000000;1.000000;1.000000;,
  279;1.000000;1.000000;1.000000;1.000000;,
  280;1.000000;1.000000;1.000000;1.000000;,
  281;1.000000;1.000000;1.000000;1.000000;,
  282;1.000000;1.000000;1.000000;1.000000;,
  283;1.000000;1.000000;1.000000;1.000000;,
  284;1.000000;1.000000;1.000000;1.000000;,
  285;1.000000;1.000000;1.000000;1.000000;,
  286;1.000000;1.000000;1.000000;1.000000;,
  287;1.000000;1.000000;1.000000;1.000000;,
  288;1.000000;1.000000;1.000000;1.000000;,
  289;1.000000;1.000000;1.000000;1.000000;,
  290;1.000000;1.000000;1.000000;1.000000;,
  291;1.000000;1.000000;1.000000;1.000000;,
  292;1.000000;1.000000;1.000000;1.000000;,
  293;1.000000;1.000000;1.000000;1.000000;,
  294;1.000000;1.000000;1.000000;1.000000;,
  295;1.000000;1.000000;1.000000;1.000000;,
  296;1.000000;1.000000;1.000000;1.000000;,
  297;1.000000;1.000000;1.000000;1.000000;,
  298;1.000000;1.000000;1.000000;1.000000;,
  299;1.000000;1.000000;1.000000;1.000000;,
  300;1.000000;1.000000;1.000000;1.000000;,
  301;1.000000;1.000000;1.000000;1.000000;,
  302;1.000000;1.000000;1.000000;1.000000;,
  303;1.000000;1.000000;1.000000;1.000000;,
  304;1.000000;1.000000;1.000000;1.000000;,
  305;1.000000;1.000000;1.000000;1.000000;,
  306;1.000000;1.000000;1.000000;1.000000;,
  307;1.000000;1.000000;1.000000;1.000000;,
  308;1.000000;1.000000;1.000000;1.000000;,
  309;1.000000;1.000000;1.000000;1.000000;,
  310;1.000000;1.000000;1.000000;1.000000;,
  311;1.000000;1.000000;1.000000;1.000000;,
  312;1.000000;1.000000;1.000000;1.000000;,
  313;1.000000;1.000000;1.000000;1.000000;,
  314;1.000000;1.000000;1.000000;1.000000;,
  315;1.000000;1.000000;1.000000;1.000000;,
  316;1.000000;1.000000;1.000000;1.000000;,
  317;1.000000;1.000000;1.000000;1.000000;,
  318;1.000000;1.000000;1.000000;1.000000;,
  319;1.000000;1.000000;1.000000;1.000000;,
  320;1.000000;1.000000;1.000000;1.000000;,
  321;1.000000;1.000000;1.000000;1.000000;,
  322;1.000000;1.000000;1.000000;1.000000;,
  323;1.000000;1.000000;1.000000;1.000000;,
  324;1.000000;1.000000;1.000000;1.000000;,
  325;1.000000;1.000000;1.000000;1.000000;,
  326;1.000000;1.000000;1.000000;1.000000;,
  327;1.000000;1.000000;1.000000;1.000000;,
  328;1.000000;1.000000;1.000000;1.000000;,
  329;1.000000;1.000000;1.000000;1.000000;,
  330;1.000000;1.000000;1.000000;1.000000;,
  331;1.000000;1.000000;1.000000;1.000000;,
  332;1.000000;1.000000;1.000000;1.000000;,
  333;1.000000;1.000000;1.000000;1.000000;,
  334;1.000000;1.000000;1.000000;1.000000;,
  335;1.000000;1.000000;1.000000;1.000000;,
  336;1.000000;1.000000;1.000000;1.000000;,
  337;1.000000;1.000000;1.000000;1.000000;,
  338;1.000000;1.000000;1.000000;1.000000;,
  339;1.000000;1.000000;1.000000;1.000000;,
  340;1.000000;1.000000;1.000000;1.000000;,
  341;1.000000;1.000000;1.000000;1.000000;,
  342;1.000000;1.000000;1.000000;1.000000;,
  343;1.000000;1.000000;1.000000;1.000000;,
  344;1.000000;1.000000;1.000000;1.000000;,
  345;1.000000;1.000000;1.000000;1.000000;,
  346;1.000000;1.000000;1.000000;1.000000;,
  347;1.000000;1.000000;1.000000;1.000000;,
  348;1.000000;1.000000;1.000000;1.000000;,
  349;1.000000;1.000000;1.000000;1.000000;,
  350;1.000000;1.000000;1.000000;1.000000;,
  351;1.000000;1.000000;1.000000;1.000000;,
  352;1.000000;1.000000;1.000000;1.000000;,
  353;1.000000;1.000000;1.000000;1.000000;,
  354;1.000000;1.000000;1.000000;1.000000;,
  355;1.000000;1.000000;1.000000;1.000000;,
  356;1.000000;1.000000;1.000000;1.000000;,
  357;1.000000;1.000000;1.000000;1.000000;,
  358;1.000000;1.000000;1.000000;1.000000;,
  359;1.000000;1.000000;1.000000;1.000000;,
  360;1.000000;1.000000;1.000000;1.000000;,
  361;1.000000;1.000000;1.000000;1.000000;,
  362;1.000000;1.000000;1.000000;1.000000;,
  363;1.000000;1.000000;1.000000;1.000000;,
  364;1.000000;1.000000;1.000000;1.000000;,
  365;1.000000;1.000000;1.000000;1.000000;,
  366;1.000000;1.000000;1.000000;1.000000;,
  367;1.000000;1.000000;1.000000;1.000000;,
  368;1.000000;1.000000;1.000000;1.000000;,
  369;1.000000;1.000000;1.000000;1.000000;,
  370;1.000000;1.000000;1.000000;1.000000;,
  371;1.000000;1.000000;1.000000;1.000000;,
  372;1.000000;1.000000;1.000000;1.000000;,
  373;1.000000;1.000000;1.000000;1.000000;,
  374;1.000000;1.000000;1.000000;1.000000;,
  375;1.000000;1.000000;1.000000;1.000000;,
  376;1.000000;1.000000;1.000000;1.000000;,
  377;1.000000;1.000000;1.000000;1.000000;,
  378;1.000000;1.000000;1.000000;1.000000;,
  379;1.000000;1.000000;1.000000;1.000000;,
  380;1.000000;1.000000;1.000000;1.000000;,
  381;1.000000;1.000000;1.000000;1.000000;,
  382;1.000000;1.000000;1.000000;1.000000;,
  383;1.000000;1.000000;1.000000;1.000000;,
  384;1.000000;1.000000;1.000000;1.000000;,
  385;1.000000;1.000000;1.000000;1.000000;,
  386;1.000000;1.000000;1.000000;1.000000;,
  387;1.000000;1.000000;1.000000;1.000000;,
  388;1.000000;1.000000;1.000000;1.000000;,
  389;1.000000;1.000000;1.000000;1.000000;,
  390;1.000000;1.000000;1.000000;1.000000;,
  391;1.000000;1.000000;1.000000;1.000000;,
  392;1.000000;1.000000;1.000000;1.000000;,
  393;1.000000;1.000000;1.000000;1.000000;,
  394;1.000000;1.000000;1.000000;1.000000;,
  395;1.000000;1.000000;1.000000;1.000000;,
  396;1.000000;1.000000;1.000000;1.000000;,
  397;1.000000;1.000000;1.000000;1.000000;,
  398;1.000000;1.000000;1.000000;1.000000;,
  399;1.000000;1.000000;1.000000;1.000000;,
  400;1.000000;1.000000;1.000000;1.000000;,
  401;1.000000;1.000000;1.000000;1.000000;,
  402;1.000000;1.000000;1.000000;1.000000;,
  403;1.000000;1.000000;1.000000;1.000000;,
  404;1.000000;1.000000;1.000000;1.000000;,
  405;1.000000;1.000000;1.000000;1.000000;,
  406;1.000000;1.000000;1.000000;1.000000;,
  407;1.000000;1.000000;1.000000;1.000000;,
  408;1.000000;1.000000;1.000000;1.000000;,
  409;1.000000;1.000000;1.000000;1.000000;,
  410;1.000000;1.000000;1.000000;1.000000;,
  411;1.000000;1.000000;1.000000;1.000000;,
  412;1.000000;1.000000;1.000000;1.000000;,
  413;1.000000;1.000000;1.000000;1.000000;,
  414;1.000000;1.000000;1.000000;1.000000;,
  415;1.000000;1.000000;1.000000;1.000000;,
  416;1.000000;1.000000;1.000000;1.000000;,
  417;1.000000;1.000000;1.000000;1.000000;,
  418;1.000000;1.000000;1.000000;1.000000;,
  419;1.000000;1.000000;1.000000;1.000000;,
  420;1.000000;1.000000;1.000000;1.000000;,
  421;1.000000;1.000000;1.000000;1.000000;,
  422;1.000000;1.000000;1.000000;1.000000;,
  423;1.000000;1.000000;1.000000;1.000000;,
  424;1.000000;1.000000;1.000000;1.000000;,
  425;1.000000;1.000000;1.000000;1.000000;,
  426;1.000000;1.000000;1.000000;1.000000;,
  427;1.000000;1.000000;1.000000;1.000000;,
  428;1.000000;1.000000;1.000000;1.000000;,
  429;1.000000;1.000000;1.000000;1.000000;,
  430;1.000000;1.000000;1.000000;1.000000;,
  431;1.000000;1.000000;1.000000;1.000000;,
  432;1.000000;1.000000;1.000000;1.000000;,
  433;1.000000;1.000000;1.000000;1.000000;,
  434;1.000000;1.000000;1.000000;1.000000;,
  435;1.000000;1.000000;1.000000;1.000000;,
  436;1.000000;1.000000;1.000000;1.000000;,
  437;1.000000;1.000000;1.000000;1.000000;,
  438;1.000000;1.000000;1.000000;1.000000;,
  439;1.000000;1.000000;1.000000;1.000000;,
  440;1.000000;1.000000;1.000000;1.000000;,
  441;1.000000;1.000000;1.000000;1.000000;,
  442;1.000000;1.000000;1.000000;1.000000;,
  443;1.000000;1.000000;1.000000;1.000000;,
  444;1.000000;1.000000;1.000000;1.000000;,
  445;1.000000;1.000000;1.000000;1.000000;,
  446;1.000000;1.000000;1.000000;1.000000;,
  447;1.000000;1.000000;1.000000;1.000000;,
  448;1.000000;1.000000;1.000000;1.000000;,
  449;1.000000;1.000000;1.000000;1.000000;,
  450;1.000000;1.000000;1.000000;1.000000;,
  451;1.000000;1.000000;1.000000;1.000000;,
  452;1.000000;1.000000;1.000000;1.000000;,
  453;1.000000;1.000000;1.000000;1.000000;,
  454;1.000000;1.000000;1.000000;1.000000;,
  455;1.000000;1.000000;1.000000;1.000000;,
  456;1.000000;1.000000;1.000000;1.000000;,
  457;1.000000;1.000000;1.000000;1.000000;,
  458;1.000000;1.000000;1.000000;1.000000;,
  459;1.000000;1.000000;1.000000;1.000000;,
  460;1.000000;1.000000;1.000000;1.000000;,
  461;1.000000;1.000000;1.000000;1.000000;,
  462;1.000000;1.000000;1.000000;1.000000;,
  463;1.000000;1.000000;1.000000;1.000000;,
  464;1.000000;1.000000;1.000000;1.000000;,
  465;1.000000;1.000000;1.000000;1.000000;,
  466;1.000000;1.000000;1.000000;1.000000;,
  467;1.000000;1.000000;1.000000;1.000000;,
  468;1.000000;1.000000;1.000000;1.000000;,
  469;1.000000;1.000000;1.000000;1.000000;,
  470;1.000000;1.000000;1.000000;1.000000;,
  471;1.000000;1.000000;1.000000;1.000000;,
  472;1.000000;1.000000;1.000000;1.000000;,
  473;1.000000;1.000000;1.000000;1.000000;,
  474;1.000000;1.000000;1.000000;1.000000;,
  475;1.000000;1.000000;1.000000;1.000000;,
  476;1.000000;1.000000;1.000000;1.000000;,
  477;1.000000;1.000000;1.000000;1.000000;,
  478;1.000000;1.000000;1.000000;1.000000;,
  479;1.000000;1.000000;1.000000;1.000000;,
  480;1.000000;1.000000;1.000000;1.000000;,
  481;1.000000;1.000000;1.000000;1.000000;,
  482;1.000000;1.000000;1.000000;1.000000;,
  483;1.000000;1.000000;1.000000;1.000000;,
  484;1.000000;1.000000;1.000000;1.000000;,
  485;1.000000;1.000000;1.000000;1.000000;,
  486;1.000000;1.000000;1.000000;1.000000;,
  487;1.000000;1.000000;1.000000;1.000000;,
  488;1.000000;1.000000;1.000000;1.000000;,
  489;1.000000;1.000000;1.000000;1.000000;,
  490;1.000000;1.000000;1.000000;1.000000;,
  491;1.000000;1.000000;1.000000;1.000000;,
  492;1.000000;1.000000;1.000000;1.000000;,
  493;1.000000;1.000000;1.000000;1.000000;,
  494;1.000000;1.000000;1.000000;1.000000;,
  495;1.000000;1.000000;1.000000;1.000000;,
  496;1.000000;1.000000;1.000000;1.000000;,
  497;1.000000;1.000000;1.000000;1.000000;,
  498;1.000000;1.000000;1.000000;1.000000;,
  499;1.000000;1.000000;1.000000;1.000000;,
  500;1.000000;1.000000;1.000000;1.000000;,
  501;1.000000;1.000000;1.000000;1.000000;,
  502;1.000000;1.000000;1.000000;1.000000;,
  503;1.000000;1.000000;1.000000;1.000000;,
  504;1.000000;1.000000;1.000000;1.000000;,
  505;1.000000;1.000000;1.000000;1.000000;,
  506;1.000000;1.000000;1.000000;1.000000;,
  507;1.000000;1.000000;1.000000;1.000000;,
  508;1.000000;1.000000;1.000000;1.000000;,
  509;1.000000;1.000000;1.000000;1.000000;,
  510;1.000000;1.000000;1.000000;1.000000;,
  511;1.000000;1.000000;1.000000;1.000000;,
  512;1.000000;1.000000;1.000000;1.000000;,
  513;1.000000;1.000000;1.000000;1.000000;,
  514;1.000000;1.000000;1.000000;1.000000;,
  515;1.000000;1.000000;1.000000;1.000000;,
  516;1.000000;1.000000;1.000000;1.000000;,
  517;1.000000;1.000000;1.000000;1.000000;,
  518;1.000000;1.000000;1.000000;1.000000;,
  519;1.000000;1.000000;1.000000;1.000000;,
  520;1.000000;1.000000;1.000000;1.000000;,
  521;1.000000;1.000000;1.000000;1.000000;,
  522;1.000000;1.000000;1.000000;1.000000;,
  523;1.000000;1.000000;1.000000;1.000000;,
  524;1.000000;1.000000;1.000000;1.000000;,
  525;1.000000;1.000000;1.000000;1.000000;,
  526;1.000000;1.000000;1.000000;1.000000;,
  527;1.000000;1.000000;1.000000;1.000000;,
  528;1.000000;1.000000;1.000000;1.000000;,
  529;1.000000;1.000000;1.000000;1.000000;,
  530;1.000000;1.000000;1.000000;1.000000;,
  531;1.000000;1.000000;1.000000;1.000000;,
  532;1.000000;1.000000;1.000000;1.000000;,
  533;1.000000;1.000000;1.000000;1.000000;,
  534;1.000000;1.000000;1.000000;1.000000;,
  535;1.000000;1.000000;1.000000;1.000000;,
  536;1.000000;1.000000;1.000000;1.000000;,
  537;1.000000;1.000000;1.000000;1.000000;,
  538;1.000000;1.000000;1.000000;1.000000;,
  539;1.000000;1.000000;1.000000;1.000000;,
  540;1.000000;1.000000;1.000000;1.000000;,
  541;1.000000;1.000000;1.000000;1.000000;,
  542;1.000000;1.000000;1.000000;1.000000;,
  543;1.000000;1.000000;1.000000;1.000000;;
 }
}
