xof 0303txt 0032
template Vector {
 <3d82ab5e-62da-11cf-ab39-0020af71e433>
 FLOAT x;
 FLOAT y;
 FLOAT z;
}

template MeshFace {
 <3d82ab5f-62da-11cf-ab39-0020af71e433>
 DWORD nFaceVertexIndices;
 array DWORD faceVertexIndices[nFaceVertexIndices];
}

template Mesh {
 <3d82ab44-62da-11cf-ab39-0020af71e433>
 DWORD nVertices;
 array Vector vertices[nVertices];
 DWORD nFaces;
 array MeshFace faces[nFaces];
 [...]
}

template MeshNormals {
 <f6f23f43-7686-11cf-8f52-0040333594a3>
 DWORD nNormals;
 array Vector normals[nNormals];
 DWORD nFaceNormals;
 array MeshFace faceNormals[nFaceNormals];
}

template Coords2d {
 <f6f23f44-7686-11cf-8f52-0040333594a3>
 FLOAT u;
 FLOAT v;
}

template MeshTextureCoords {
 <f6f23f40-7686-11cf-8f52-0040333594a3>
 DWORD nTextureCoords;
 array Coords2d textureCoords[nTextureCoords];
}

template ColorRGBA {
 <35ff44e0-6c7c-11cf-8f52-0040333594a3>
 FLOAT red;
 FLOAT green;
 FLOAT blue;
 FLOAT alpha;
}

template ColorRGB {
 <d3e16e81-7835-11cf-8f52-0040333594a3>
 FLOAT red;
 FLOAT green;
 FLOAT blue;
}

template Material {
 <3d82ab4d-62da-11cf-ab39-0020af71e433>
 ColorRGBA faceColor;
 FLOAT power;
 ColorRGB specularColor;
 ColorRGB emissiveColor;
 [...]
}

template MeshMaterialList {
 <f6f23f42-7686-11cf-8f52-0040333594a3>
 DWORD nMaterials;
 DWORD nFaceIndexes;
 array DWORD faceIndexes[nFaceIndexes];
 [Material <3d82ab4d-62da-11cf-ab39-0020af71e433>]
}

template TextureFilename {
 <a42790e1-7810-11cf-8f52-0040333594a3>
 STRING filename;
}


Mesh {
 323;
 0.000000;249.999974;0.000000;,
 -16.746830;241.481446;-62.499994;,
 -0.000003;241.481446;-64.704755;,
 0.000000;249.999974;0.000000;,
 -32.352384;241.481446;-56.035962;,
 0.000000;249.999974;0.000000;,
 -45.753174;241.481446;-45.753174;,
 0.000000;249.999974;0.000000;,
 -56.035968;241.481446;-32.352378;,
 0.000000;249.999974;0.000000;,
 -62.499994;241.481446;-16.746830;,
 0.000000;249.999974;0.000000;,
 -64.704755;241.481446;-0.000010;,
 0.000000;249.999974;0.000000;,
 -62.500000;241.481446;16.746811;,
 0.000000;249.999974;0.000000;,
 -56.035974;241.481446;32.352365;,
 0.000000;249.999974;0.000000;,
 -45.753184;241.481446;45.753158;,
 0.000000;249.999974;0.000000;,
 -32.352397;241.481446;56.035955;,
 0.000000;249.999974;0.000000;,
 -16.746850;241.481446;62.499994;,
 0.000000;249.999974;0.000000;,
 -0.000030;241.481446;64.704755;,
 0.000000;249.999974;0.000000;,
 16.746790;241.481446;62.500006;,
 0.000000;249.999974;0.000000;,
 32.352346;241.481446;56.035987;,
 0.000000;249.999974;0.000000;,
 45.753142;241.481446;45.753200;,
 0.000000;249.999974;0.000000;,
 56.035942;241.481446;32.352416;,
 0.000000;249.999974;0.000000;,
 62.499987;241.481446;16.746869;,
 0.000000;249.999974;0.000000;,
 64.704755;241.481446;0.000050;,
 0.000000;249.999974;0.000000;,
 62.500013;241.481446;-16.746771;,
 0.000000;249.999974;0.000000;,
 56.035994;241.481446;-32.352330;,
 0.000000;249.999974;0.000000;,
 45.753216;241.481446;-45.753133;,
 0.000000;249.999974;0.000000;,
 32.352432;241.481446;-56.035936;,
 0.000000;249.999974;0.000000;,
 16.746888;241.481446;-62.499981;,
 0.000000;249.999974;0.000000;,
 -0.000003;241.481446;-64.704755;,
 -32.352390;216.506342;-120.740723;,
 -0.000005;216.506342;-124.999987;,
 -62.500006;216.506342;-108.253171;,
 -88.388346;216.506342;-88.388346;,
 -108.253171;216.506342;-62.500006;,
 -120.740723;216.506342;-32.352390;,
 -124.999987;216.506342;-0.000019;,
 -120.740736;216.506342;32.352352;,
 -108.253184;216.506342;62.499968;,
 -88.388365;216.506342;88.388314;,
 -62.500038;216.506342;108.253146;,
 -32.352429;216.506342;120.740710;,
 -0.000058;216.506342;124.999987;,
 32.352314;216.506342;120.740736;,
 62.499936;216.506342;108.253210;,
 88.388288;216.506342;88.388397;,
 108.253133;216.506342;62.500070;,
 120.740698;216.506342;32.352467;,
 124.999987;216.506342;0.000097;,
 120.740749;216.506342;-32.352275;,
 108.253222;216.506342;-62.499904;,
 88.388429;216.506342;-88.388262;,
 62.500102;216.506342;-108.253107;,
 32.352506;216.506342;-120.740698;,
 -0.000005;216.506342;-124.999987;,
 -45.753194;176.776678;-170.753165;,
 -0.000008;176.776678;-176.776691;,
 -88.388352;176.776678;-153.093094;,
 -124.999987;176.776678;-124.999987;,
 -153.093094;176.776678;-88.388352;,
 -170.753165;176.776678;-45.753190;,
 -176.776691;176.776678;-0.000027;,
 -170.753178;176.776678;45.753139;,
 -153.093120;176.776678;88.388307;,
 -125.000026;176.776678;124.999949;,
 -88.388397;176.776678;153.093069;,
 -45.753242;176.776678;170.753139;,
 -0.000082;176.776678;176.776691;,
 45.753085;176.776678;170.753190;,
 88.388250;176.776678;153.093158;,
 124.999910;176.776678;125.000077;,
 153.093030;176.776678;88.388442;,
 170.753126;176.776678;45.753296;,
 176.776691;176.776678;0.000138;,
 170.753203;176.776678;-45.753030;,
 153.093171;176.776678;-88.388205;,
 125.000115;176.776678;-124.999872;,
 88.388499;176.776678;-153.093005;,
 45.753350;176.776678;-170.753114;,
 -0.000008;176.776678;-176.776691;,
 -56.035987;124.999987;-209.129062;,
 -0.000009;124.999987;-216.506342;,
 -108.253184;124.999987;-187.499981;,
 -153.093094;124.999987;-153.093094;,
 -187.499981;124.999987;-108.253184;,
 -209.129062;124.999987;-56.035987;,
 -216.506342;124.999987;-0.000033;,
 -209.129075;124.999987;56.035923;,
 -187.500019;124.999987;108.253120;,
 -153.093146;124.999987;153.093043;,
 -108.253235;124.999987;187.499955;,
 -56.036051;124.999987;209.129050;,
 -0.000101;124.999987;216.506342;,
 56.035853;124.999987;209.129088;,
 108.253056;124.999987;187.500045;,
 153.093005;124.999987;153.093184;,
 187.499904;124.999987;108.253299;,
 209.129024;124.999987;56.036115;,
 216.506342;124.999987;0.000169;,
 209.129101;124.999987;-56.035789;,
 187.500070;124.999987;-108.253005;,
 153.093248;124.999987;-153.092954;,
 108.253363;124.999987;-187.499878;,
 56.036186;124.999987;-209.129011;,
 -0.000009;124.999987;-216.506342;,
 -62.500026;64.704755;-233.253171;,
 -0.000011;64.704755;-241.481446;,
 -120.740736;64.704755;-209.129062;,
 -170.753165;64.704755;-170.753165;,
 -209.129062;64.704755;-120.740736;,
 -233.253171;64.704755;-62.500019;,
 -241.481446;64.704755;-0.000036;,
 -233.253171;64.704755;62.499949;,
 -209.129088;64.704755;120.740672;,
 -170.753203;64.704755;170.753114;,
 -120.740800;64.704755;209.129011;,
 -62.500090;64.704755;233.253120;,
 -0.000112;64.704755;241.481446;,
 62.499872;64.704755;233.253197;,
 120.740595;64.704755;209.129139;,
 170.753050;64.704755;170.753267;,
 209.128986;64.704755;120.740864;,
 233.253120;64.704755;62.500166;,
 241.481446;64.704755;0.000188;,
 233.253197;64.704755;-62.499802;,
 209.129165;64.704755;-120.740531;,
 170.753331;64.704755;-170.753011;,
 120.740928;64.704755;-209.128934;,
 62.500243;64.704755;-233.253094;,
 -0.000011;64.704755;-241.481446;,
 -64.704781;0.000019;-241.481421;,
 -0.000011;0.000019;-249.999974;,
 -125.000013;0.000019;-216.506342;,
 -176.776691;0.000019;-176.776678;,
 -216.506342;0.000019;-125.000000;,
 -241.481421;0.000019;-64.704781;,
 -249.999974;0.000019;-0.000038;,
 -241.481472;0.000019;64.704704;,
 -216.506368;0.000019;124.999936;,
 -176.776730;0.000019;176.776627;,
 -125.000064;0.000019;216.506291;,
 -64.704858;0.000019;241.481421;,
 -0.000116;0.000019;249.999974;,
 64.704627;0.000019;241.481472;,
 124.999872;0.000019;216.506419;,
 176.776563;0.000019;176.776794;,
 216.506266;0.000019;125.000141;,
 241.481395;0.000019;64.704928;,
 249.999974;0.000019;0.000195;,
 241.481498;0.000019;-64.704550;,
 216.506445;0.000019;-124.999808;,
 176.776845;0.000019;-176.776525;,
 125.000205;0.000019;-216.506214;,
 64.705005;0.000019;-241.481370;,
 -0.000011;0.000019;-249.999974;,
 -62.500026;-64.704717;-233.253171;,
 -0.000011;-64.704717;-241.481446;,
 -120.740736;-64.704717;-209.129062;,
 -170.753178;-64.704717;-170.753165;,
 -209.129062;-64.704717;-120.740736;,
 -233.253171;-64.704717;-62.500026;,
 -241.481446;-64.704717;-0.000036;,
 -233.253171;-64.704717;62.499949;,
 -209.129101;-64.704717;120.740672;,
 -170.753216;-64.704717;170.753114;,
 -120.740800;-64.704717;209.129024;,
 -62.500096;-64.704717;233.253146;,
 -0.000112;-64.704717;241.481446;,
 62.499878;-64.704717;233.253197;,
 120.740608;-64.704717;209.129139;,
 170.753062;-64.704717;170.753267;,
 209.128986;-64.704717;120.740864;,
 233.253120;-64.704717;62.500166;,
 241.481446;-64.704717;0.000188;,
 233.253222;-64.704717;-62.499808;,
 209.129178;-64.704717;-120.740544;,
 170.753331;-64.704717;-170.753011;,
 120.740928;-64.704717;-209.128947;,
 62.500243;-64.704717;-233.253094;,
 -0.000011;-64.704717;-241.481446;,
 -56.035994;-124.999949;-209.129075;,
 -0.000009;-124.999949;-216.506368;,
 -108.253184;-124.999949;-187.500006;,
 -153.093107;-124.999949;-153.093107;,
 -187.500006;-124.999949;-108.253184;,
 -209.129075;-124.999949;-56.035987;,
 -216.506368;-124.999949;-0.000033;,
 -209.129088;-124.999949;56.035930;,
 -187.500032;-124.999949;108.253133;,
 -153.093158;-124.999949;153.093069;,
 -108.253248;-124.999949;187.499968;,
 -56.036058;-124.999949;209.129062;,
 -0.000101;-124.999949;216.506368;,
 56.035859;-124.999949;209.129101;,
 108.253069;-124.999949;187.500058;,
 153.093018;-124.999949;153.093197;,
 187.499930;-124.999949;108.253299;,
 209.129050;-124.999949;56.036122;,
 216.506368;-124.999949;0.000169;,
 209.129139;-124.999949;-56.035795;,
 187.500109;-124.999949;-108.253018;,
 153.093248;-124.999949;-153.092966;,
 108.253363;-124.999949;-187.499891;,
 56.036186;-124.999949;-209.129024;,
 -0.000009;-124.999949;-216.506368;,
 -45.753200;-176.776640;-170.753190;,
 -0.000008;-176.776640;-176.776717;,
 -88.388365;-176.776640;-153.093120;,
 -125.000026;-176.776640;-125.000026;,
 -153.093120;-176.776640;-88.388365;,
 -170.753190;-176.776640;-45.753200;,
 -176.776717;-176.776640;-0.000027;,
 -170.753203;-176.776640;45.753146;,
 -153.093158;-176.776640;88.388320;,
 -125.000064;-176.776640;124.999987;,
 -88.388410;-176.776640;153.093094;,
 -45.753254;-176.776640;170.753178;,
 -0.000082;-176.776640;176.776717;,
 45.753094;-176.776640;170.753216;,
 88.388275;-176.776640;153.093184;,
 124.999949;-176.776640;125.000102;,
 153.093069;-176.776640;88.388467;,
 170.753178;-176.776640;45.753309;,
 176.776717;-176.776640;0.000138;,
 170.753229;-176.776640;-45.753040;,
 153.093197;-176.776640;-88.388224;,
 125.000141;-176.776640;-124.999898;,
 88.388512;-176.776640;-153.093043;,
 45.753360;-176.776640;-170.753165;,
 -0.000008;-176.776640;-176.776717;,
 -32.352406;-216.506291;-120.740774;,
 -0.000005;-216.506291;-125.000051;,
 -62.500032;-216.506291;-108.253222;,
 -88.388384;-216.506291;-88.388384;,
 -108.253222;-216.506291;-62.500032;,
 -120.740774;-216.506291;-32.352406;,
 -125.000051;-216.506291;-0.000019;,
 -120.740787;-216.506291;32.352368;,
 -108.253235;-216.506291;62.500000;,
 -88.388410;-216.506291;88.388358;,
 -62.500064;-216.506291;108.253197;,
 -32.352445;-216.506291;120.740774;,
 -0.000058;-216.506291;125.000051;,
 32.352330;-216.506291;120.740800;,
 62.499968;-216.506291;108.253261;,
 88.388326;-216.506291;88.388435;,
 108.253184;-216.506291;62.500096;,
 120.740749;-216.506291;32.352483;,
 125.000051;-216.506291;0.000097;,
 120.740813;-216.506291;-32.352291;,
 108.253274;-216.506291;-62.499930;,
 88.388467;-216.506291;-88.388301;,
 62.500134;-216.506291;-108.253158;,
 32.352518;-216.506291;-120.740749;,
 -0.000005;-216.506291;-125.000051;,
 -16.746851;-241.481421;-62.500070;,
 -0.000003;-241.481421;-64.704832;,
 -32.352422;-241.481421;-56.036032;,
 -45.753232;-241.481421;-45.753229;,
 -56.036032;-241.481421;-32.352422;,
 -62.500070;-241.481421;-16.746850;,
 -64.704832;-241.481421;-0.000010;,
 -62.500083;-241.481421;16.746832;,
 -56.036038;-241.481421;32.352403;,
 -45.753242;-241.481421;45.753216;,
 -32.352435;-241.481421;56.036019;,
 -16.746870;-241.481421;62.500070;,
 -0.000030;-241.481421;64.704832;,
 16.746811;-241.481421;62.500083;,
 32.352387;-241.481421;56.036051;,
 45.753200;-241.481421;45.753258;,
 56.036013;-241.481421;32.352454;,
 62.500064;-241.481421;16.746890;,
 64.704832;-241.481421;0.000050;,
 62.500090;-241.481421;-16.746792;,
 56.036064;-241.481421;-32.352368;,
 45.753274;-241.481421;-45.753184;,
 32.352474;-241.481421;-56.036000;,
 16.746909;-241.481421;-62.500058;,
 -0.000003;-241.481421;-64.704832;,
 0.000000;-249.999974;0.000000;,
 0.000000;-249.999974;0.000000;,
 0.000000;-249.999974;0.000000;,
 0.000000;-249.999974;0.000000;,
 0.000000;-249.999974;0.000000;,
 0.000000;-249.999974;0.000000;,
 0.000000;-249.999974;0.000000;,
 0.000000;-249.999974;0.000000;,
 0.000000;-249.999974;0.000000;,
 0.000000;-249.999974;0.000000;,
 0.000000;-249.999974;0.000000;,
 0.000000;-249.999974;0.000000;,
 0.000000;-249.999974;0.000000;,
 0.000000;-249.999974;0.000000;,
 0.000000;-249.999974;0.000000;,
 0.000000;-249.999974;0.000000;,
 0.000000;-249.999974;0.000000;,
 0.000000;-249.999974;0.000000;,
 0.000000;-249.999974;0.000000;,
 0.000000;-249.999974;0.000000;,
 0.000000;-249.999974;0.000000;,
 0.000000;-249.999974;0.000000;,
 0.000000;-249.999974;0.000000;,
 0.000000;-249.999974;0.000000;;
 528;
 3;0,1,2;,
 3;3,4,1;,
 3;5,6,4;,
 3;7,8,6;,
 3;9,10,8;,
 3;11,12,10;,
 3;13,14,12;,
 3;15,16,14;,
 3;17,18,16;,
 3;19,20,18;,
 3;21,22,20;,
 3;23,24,22;,
 3;25,26,24;,
 3;27,28,26;,
 3;29,30,28;,
 3;31,32,30;,
 3;33,34,32;,
 3;35,36,34;,
 3;37,38,36;,
 3;39,40,38;,
 3;41,42,40;,
 3;43,44,42;,
 3;45,46,44;,
 3;47,48,46;,
 3;49,50,2;,
 3;2,1,49;,
 3;51,49,1;,
 3;1,4,51;,
 3;52,51,4;,
 3;4,6,52;,
 3;53,52,6;,
 3;6,8,53;,
 3;54,53,8;,
 3;8,10,54;,
 3;55,54,10;,
 3;10,12,55;,
 3;56,55,12;,
 3;12,14,56;,
 3;57,56,14;,
 3;14,16,57;,
 3;58,57,16;,
 3;16,18,58;,
 3;59,58,18;,
 3;18,20,59;,
 3;60,59,20;,
 3;20,22,60;,
 3;61,60,22;,
 3;22,24,61;,
 3;62,61,24;,
 3;24,26,62;,
 3;63,62,26;,
 3;26,28,63;,
 3;64,63,28;,
 3;28,30,64;,
 3;65,64,30;,
 3;30,32,65;,
 3;66,65,32;,
 3;32,34,66;,
 3;67,66,34;,
 3;34,36,67;,
 3;68,67,36;,
 3;36,38,68;,
 3;69,68,38;,
 3;38,40,69;,
 3;70,69,40;,
 3;40,42,70;,
 3;71,70,42;,
 3;42,44,71;,
 3;72,71,44;,
 3;44,46,72;,
 3;73,72,46;,
 3;46,48,73;,
 3;74,75,50;,
 3;50,49,74;,
 3;76,74,49;,
 3;49,51,76;,
 3;77,76,51;,
 3;51,52,77;,
 3;78,77,52;,
 3;52,53,78;,
 3;79,78,53;,
 3;53,54,79;,
 3;80,79,54;,
 3;54,55,80;,
 3;81,80,55;,
 3;55,56,81;,
 3;82,81,56;,
 3;56,57,82;,
 3;83,82,57;,
 3;57,58,83;,
 3;84,83,58;,
 3;58,59,84;,
 3;85,84,59;,
 3;59,60,85;,
 3;86,85,60;,
 3;60,61,86;,
 3;87,86,61;,
 3;61,62,87;,
 3;88,87,62;,
 3;62,63,88;,
 3;89,88,63;,
 3;63,64,89;,
 3;90,89,64;,
 3;64,65,90;,
 3;91,90,65;,
 3;65,66,91;,
 3;92,91,66;,
 3;66,67,92;,
 3;93,92,67;,
 3;67,68,93;,
 3;94,93,68;,
 3;68,69,94;,
 3;95,94,69;,
 3;69,70,95;,
 3;96,95,70;,
 3;70,71,96;,
 3;97,96,71;,
 3;71,72,97;,
 3;98,97,72;,
 3;72,73,98;,
 3;99,100,75;,
 3;75,74,99;,
 3;101,99,74;,
 3;74,76,101;,
 3;102,101,76;,
 3;76,77,102;,
 3;103,102,77;,
 3;77,78,103;,
 3;104,103,78;,
 3;78,79,104;,
 3;105,104,79;,
 3;79,80,105;,
 3;106,105,80;,
 3;80,81,106;,
 3;107,106,81;,
 3;81,82,107;,
 3;108,107,82;,
 3;82,83,108;,
 3;109,108,83;,
 3;83,84,109;,
 3;110,109,84;,
 3;84,85,110;,
 3;111,110,85;,
 3;85,86,111;,
 3;112,111,86;,
 3;86,87,112;,
 3;113,112,87;,
 3;87,88,113;,
 3;114,113,88;,
 3;88,89,114;,
 3;115,114,89;,
 3;89,90,115;,
 3;116,115,90;,
 3;90,91,116;,
 3;117,116,91;,
 3;91,92,117;,
 3;118,117,92;,
 3;92,93,118;,
 3;119,118,93;,
 3;93,94,119;,
 3;120,119,94;,
 3;94,95,120;,
 3;121,120,95;,
 3;95,96,121;,
 3;122,121,96;,
 3;96,97,122;,
 3;123,122,97;,
 3;97,98,123;,
 3;124,125,100;,
 3;100,99,124;,
 3;126,124,99;,
 3;99,101,126;,
 3;127,126,101;,
 3;101,102,127;,
 3;128,127,102;,
 3;102,103,128;,
 3;129,128,103;,
 3;103,104,129;,
 3;130,129,104;,
 3;104,105,130;,
 3;131,130,105;,
 3;105,106,131;,
 3;132,131,106;,
 3;106,107,132;,
 3;133,132,107;,
 3;107,108,133;,
 3;134,133,108;,
 3;108,109,134;,
 3;135,134,109;,
 3;109,110,135;,
 3;136,135,110;,
 3;110,111,136;,
 3;137,136,111;,
 3;111,112,137;,
 3;138,137,112;,
 3;112,113,138;,
 3;139,138,113;,
 3;113,114,139;,
 3;140,139,114;,
 3;114,115,140;,
 3;141,140,115;,
 3;115,116,141;,
 3;142,141,116;,
 3;116,117,142;,
 3;143,142,117;,
 3;117,118,143;,
 3;144,143,118;,
 3;118,119,144;,
 3;145,144,119;,
 3;119,120,145;,
 3;146,145,120;,
 3;120,121,146;,
 3;147,146,121;,
 3;121,122,147;,
 3;148,147,122;,
 3;122,123,148;,
 3;149,150,125;,
 3;125,124,149;,
 3;151,149,124;,
 3;124,126,151;,
 3;152,151,126;,
 3;126,127,152;,
 3;153,152,127;,
 3;127,128,153;,
 3;154,153,128;,
 3;128,129,154;,
 3;155,154,129;,
 3;129,130,155;,
 3;156,155,130;,
 3;130,131,156;,
 3;157,156,131;,
 3;131,132,157;,
 3;158,157,132;,
 3;132,133,158;,
 3;159,158,133;,
 3;133,134,159;,
 3;160,159,134;,
 3;134,135,160;,
 3;161,160,135;,
 3;135,136,161;,
 3;162,161,136;,
 3;136,137,162;,
 3;163,162,137;,
 3;137,138,163;,
 3;164,163,138;,
 3;138,139,164;,
 3;165,164,139;,
 3;139,140,165;,
 3;166,165,140;,
 3;140,141,166;,
 3;167,166,141;,
 3;141,142,167;,
 3;168,167,142;,
 3;142,143,168;,
 3;169,168,143;,
 3;143,144,169;,
 3;170,169,144;,
 3;144,145,170;,
 3;171,170,145;,
 3;145,146,171;,
 3;172,171,146;,
 3;146,147,172;,
 3;173,172,147;,
 3;147,148,173;,
 3;174,175,150;,
 3;150,149,174;,
 3;176,174,149;,
 3;149,151,176;,
 3;177,176,151;,
 3;151,152,177;,
 3;178,177,152;,
 3;152,153,178;,
 3;179,178,153;,
 3;153,154,179;,
 3;180,179,154;,
 3;154,155,180;,
 3;181,180,155;,
 3;155,156,181;,
 3;182,181,156;,
 3;156,157,182;,
 3;183,182,157;,
 3;157,158,183;,
 3;184,183,158;,
 3;158,159,184;,
 3;185,184,159;,
 3;159,160,185;,
 3;186,185,160;,
 3;160,161,186;,
 3;187,186,161;,
 3;161,162,187;,
 3;188,187,162;,
 3;162,163,188;,
 3;189,188,163;,
 3;163,164,189;,
 3;190,189,164;,
 3;164,165,190;,
 3;191,190,165;,
 3;165,166,191;,
 3;192,191,166;,
 3;166,167,192;,
 3;193,192,167;,
 3;167,168,193;,
 3;194,193,168;,
 3;168,169,194;,
 3;195,194,169;,
 3;169,170,195;,
 3;196,195,170;,
 3;170,171,196;,
 3;197,196,171;,
 3;171,172,197;,
 3;198,197,172;,
 3;172,173,198;,
 3;199,200,175;,
 3;175,174,199;,
 3;201,199,174;,
 3;174,176,201;,
 3;202,201,176;,
 3;176,177,202;,
 3;203,202,177;,
 3;177,178,203;,
 3;204,203,178;,
 3;178,179,204;,
 3;205,204,179;,
 3;179,180,205;,
 3;206,205,180;,
 3;180,181,206;,
 3;207,206,181;,
 3;181,182,207;,
 3;208,207,182;,
 3;182,183,208;,
 3;209,208,183;,
 3;183,184,209;,
 3;210,209,184;,
 3;184,185,210;,
 3;211,210,185;,
 3;185,186,211;,
 3;212,211,186;,
 3;186,187,212;,
 3;213,212,187;,
 3;187,188,213;,
 3;214,213,188;,
 3;188,189,214;,
 3;215,214,189;,
 3;189,190,215;,
 3;216,215,190;,
 3;190,191,216;,
 3;217,216,191;,
 3;191,192,217;,
 3;218,217,192;,
 3;192,193,218;,
 3;219,218,193;,
 3;193,194,219;,
 3;220,219,194;,
 3;194,195,220;,
 3;221,220,195;,
 3;195,196,221;,
 3;222,221,196;,
 3;196,197,222;,
 3;223,222,197;,
 3;197,198,223;,
 3;224,225,200;,
 3;200,199,224;,
 3;226,224,199;,
 3;199,201,226;,
 3;227,226,201;,
 3;201,202,227;,
 3;228,227,202;,
 3;202,203,228;,
 3;229,228,203;,
 3;203,204,229;,
 3;230,229,204;,
 3;204,205,230;,
 3;231,230,205;,
 3;205,206,231;,
 3;232,231,206;,
 3;206,207,232;,
 3;233,232,207;,
 3;207,208,233;,
 3;234,233,208;,
 3;208,209,234;,
 3;235,234,209;,
 3;209,210,235;,
 3;236,235,210;,
 3;210,211,236;,
 3;237,236,211;,
 3;211,212,237;,
 3;238,237,212;,
 3;212,213,238;,
 3;239,238,213;,
 3;213,214,239;,
 3;240,239,214;,
 3;214,215,240;,
 3;241,240,215;,
 3;215,216,241;,
 3;242,241,216;,
 3;216,217,242;,
 3;243,242,217;,
 3;217,218,243;,
 3;244,243,218;,
 3;218,219,244;,
 3;245,244,219;,
 3;219,220,245;,
 3;246,245,220;,
 3;220,221,246;,
 3;247,246,221;,
 3;221,222,247;,
 3;248,247,222;,
 3;222,223,248;,
 3;249,250,225;,
 3;225,224,249;,
 3;251,249,224;,
 3;224,226,251;,
 3;252,251,226;,
 3;226,227,252;,
 3;253,252,227;,
 3;227,228,253;,
 3;254,253,228;,
 3;228,229,254;,
 3;255,254,229;,
 3;229,230,255;,
 3;256,255,230;,
 3;230,231,256;,
 3;257,256,231;,
 3;231,232,257;,
 3;258,257,232;,
 3;232,233,258;,
 3;259,258,233;,
 3;233,234,259;,
 3;260,259,234;,
 3;234,235,260;,
 3;261,260,235;,
 3;235,236,261;,
 3;262,261,236;,
 3;236,237,262;,
 3;263,262,237;,
 3;237,238,263;,
 3;264,263,238;,
 3;238,239,264;,
 3;265,264,239;,
 3;239,240,265;,
 3;266,265,240;,
 3;240,241,266;,
 3;267,266,241;,
 3;241,242,267;,
 3;268,267,242;,
 3;242,243,268;,
 3;269,268,243;,
 3;243,244,269;,
 3;270,269,244;,
 3;244,245,270;,
 3;271,270,245;,
 3;245,246,271;,
 3;272,271,246;,
 3;246,247,272;,
 3;273,272,247;,
 3;247,248,273;,
 3;274,275,250;,
 3;250,249,274;,
 3;276,274,249;,
 3;249,251,276;,
 3;277,276,251;,
 3;251,252,277;,
 3;278,277,252;,
 3;252,253,278;,
 3;279,278,253;,
 3;253,254,279;,
 3;280,279,254;,
 3;254,255,280;,
 3;281,280,255;,
 3;255,256,281;,
 3;282,281,256;,
 3;256,257,282;,
 3;283,282,257;,
 3;257,258,283;,
 3;284,283,258;,
 3;258,259,284;,
 3;285,284,259;,
 3;259,260,285;,
 3;286,285,260;,
 3;260,261,286;,
 3;287,286,261;,
 3;261,262,287;,
 3;288,287,262;,
 3;262,263,288;,
 3;289,288,263;,
 3;263,264,289;,
 3;290,289,264;,
 3;264,265,290;,
 3;291,290,265;,
 3;265,266,291;,
 3;292,291,266;,
 3;266,267,292;,
 3;293,292,267;,
 3;267,268,293;,
 3;294,293,268;,
 3;268,269,294;,
 3;295,294,269;,
 3;269,270,295;,
 3;296,295,270;,
 3;270,271,296;,
 3;297,296,271;,
 3;271,272,297;,
 3;298,297,272;,
 3;272,273,298;,
 3;299,275,274;,
 3;300,274,276;,
 3;301,276,277;,
 3;302,277,278;,
 3;303,278,279;,
 3;304,279,280;,
 3;305,280,281;,
 3;306,281,282;,
 3;307,282,283;,
 3;308,283,284;,
 3;309,284,285;,
 3;310,285,286;,
 3;311,286,287;,
 3;312,287,288;,
 3;313,288,289;,
 3;314,289,290;,
 3;315,290,291;,
 3;316,291,292;,
 3;317,292,293;,
 3;318,293,294;,
 3;319,294,295;,
 3;320,295,296;,
 3;321,296,297;,
 3;322,297,298;;

 MeshNormals {
  323;
  0.000000;-1.000000;0.000000;,
  0.069599;-0.963166;0.259746;,
  0.000000;-0.963166;0.268909;,
  0.000000;-1.000000;0.000000;,
  0.134454;-0.963166;0.232882;,
  0.000000;-1.000000;0.000000;,
  0.190147;-0.963166;0.190147;,
  0.000000;-1.000000;0.000000;,
  0.232882;-0.963166;0.134454;,
  0.000000;-1.000000;0.000000;,
  0.259746;-0.963166;0.069599;,
  0.000000;-1.000000;0.000000;,
  0.268909;-0.963166;0.000000;,
  0.000000;-1.000000;0.000000;,
  0.259746;-0.963166;-0.069599;,
  0.000000;-1.000000;0.000000;,
  0.232882;-0.963166;-0.134454;,
  0.000000;-1.000000;0.000000;,
  0.190147;-0.963166;-0.190147;,
  0.000000;-1.000000;0.000000;,
  0.134454;-0.963166;-0.232882;,
  0.000000;-1.000000;0.000000;,
  0.069599;-0.963166;-0.259746;,
  0.000000;-1.000000;0.000000;,
  0.000000;-0.963166;-0.268909;,
  0.000000;-1.000000;0.000000;,
  -0.069599;-0.963166;-0.259746;,
  0.000000;-1.000000;0.000000;,
  -0.134454;-0.963166;-0.232882;,
  0.000000;-1.000000;0.000000;,
  -0.190147;-0.963166;-0.190147;,
  0.000000;-1.000000;0.000000;,
  -0.232882;-0.963166;-0.134454;,
  0.000000;-1.000000;0.000000;,
  -0.259746;-0.963166;-0.069599;,
  0.000000;-1.000000;0.000000;,
  -0.268909;-0.963166;0.000000;,
  0.000000;-1.000000;0.000000;,
  -0.259746;-0.963166;0.069598;,
  0.000000;-1.000000;0.000000;,
  -0.232882;-0.963166;0.134454;,
  0.000000;-1.000000;0.000000;,
  -0.190147;-0.963166;0.190147;,
  0.000000;-1.000000;0.000000;,
  -0.134455;-0.963166;0.232882;,
  0.000000;-1.000000;0.000000;,
  -0.069599;-0.963166;0.259746;,
  0.000000;-1.000000;0.000000;,
  0.000000;-0.963166;0.268909;,
  0.131497;-0.861319;0.490753;,
  0.000000;-0.861319;0.508065;,
  0.254033;-0.861319;0.439997;,
  0.359256;-0.861319;0.359256;,
  0.439997;-0.861319;0.254033;,
  0.490753;-0.861319;0.131497;,
  0.508065;-0.861319;0.000000;,
  0.490753;-0.861319;-0.131497;,
  0.439997;-0.861319;-0.254032;,
  0.359256;-0.861319;-0.359256;,
  0.254033;-0.861319;-0.439997;,
  0.131497;-0.861319;-0.490753;,
  0.000000;-0.861319;-0.508065;,
  -0.131497;-0.861319;-0.490753;,
  -0.254032;-0.861319;-0.439997;,
  -0.359256;-0.861319;-0.359256;,
  -0.439997;-0.861319;-0.254033;,
  -0.490753;-0.861319;-0.131497;,
  -0.508065;-0.861319;0.000000;,
  -0.490753;-0.861319;0.131496;,
  -0.439997;-0.861319;0.254032;,
  -0.359257;-0.861319;0.359256;,
  -0.254033;-0.861319;0.439997;,
  -0.131497;-0.861319;0.490753;,
  0.000000;-0.861319;0.508065;,
  0.184397;-0.701716;0.688180;,
  0.000000;-0.701716;0.712456;,
  0.356228;-0.701716;0.617005;,
  0.503783;-0.701716;0.503783;,
  0.617005;-0.701716;0.356228;,
  0.688180;-0.701716;0.184397;,
  0.712456;-0.701716;0.000000;,
  0.688180;-0.701716;-0.184397;,
  0.617005;-0.701716;-0.356228;,
  0.503783;-0.701716;-0.503783;,
  0.356228;-0.701716;-0.617005;,
  0.184398;-0.701716;-0.688180;,
  0.000000;-0.701716;-0.712456;,
  -0.184397;-0.701716;-0.688180;,
  -0.356228;-0.701716;-0.617006;,
  -0.503782;-0.701716;-0.503783;,
  -0.617005;-0.701716;-0.356229;,
  -0.688180;-0.701716;-0.184398;,
  -0.712456;-0.701716;-0.000001;,
  -0.688180;-0.701716;0.184397;,
  -0.617006;-0.701716;0.356228;,
  -0.503783;-0.701716;0.503782;,
  -0.356229;-0.701716;0.617005;,
  -0.184398;-0.701716;0.688180;,
  0.000000;-0.701716;0.712456;,
  0.224833;-0.495357;0.839090;,
  0.000000;-0.495357;0.868689;,
  0.434345;-0.495357;0.752307;,
  0.614256;-0.495357;0.614256;,
  0.752307;-0.495357;0.434345;,
  0.839090;-0.495357;0.224833;,
  0.868689;-0.495357;0.000000;,
  0.839090;-0.495357;-0.224833;,
  0.752307;-0.495357;-0.434345;,
  0.614256;-0.495357;-0.614256;,
  0.434345;-0.495357;-0.752307;,
  0.224834;-0.495357;-0.839089;,
  0.000000;-0.495357;-0.868689;,
  -0.224833;-0.495357;-0.839090;,
  -0.434344;-0.495357;-0.752307;,
  -0.614256;-0.495357;-0.614257;,
  -0.752307;-0.495357;-0.434345;,
  -0.839089;-0.495357;-0.224834;,
  -0.868689;-0.495357;-0.000001;,
  -0.839090;-0.495357;0.224833;,
  -0.752308;-0.495357;0.434344;,
  -0.614257;-0.495357;0.614256;,
  -0.434346;-0.495357;0.752307;,
  -0.224834;-0.495357;0.839089;,
  0.000000;-0.495357;0.868689;,
  0.250184;-0.256147;0.933700;,
  0.000000;-0.256147;0.966638;,
  0.483319;-0.256147;0.837133;,
  0.683516;-0.256147;0.683516;,
  0.837133;-0.256147;0.483319;,
  0.933700;-0.256147;0.250184;,
  0.966638;-0.256147;0.000000;,
  0.933700;-0.256147;-0.250184;,
  0.837133;-0.256147;-0.483319;,
  0.683516;-0.256147;-0.683516;,
  0.483319;-0.256147;-0.837133;,
  0.250185;-0.256147;-0.933700;,
  0.000000;-0.256147;-0.966638;,
  -0.250184;-0.256147;-0.933701;,
  -0.483318;-0.256147;-0.837133;,
  -0.683516;-0.256147;-0.683517;,
  -0.837133;-0.256147;-0.483319;,
  -0.933700;-0.256147;-0.250185;,
  -0.966638;-0.256147;-0.000001;,
  -0.933701;-0.256147;0.250184;,
  -0.837133;-0.256147;0.483318;,
  -0.683517;-0.256147;0.683515;,
  -0.483320;-0.256147;0.837132;,
  -0.250185;-0.256147;0.933700;,
  0.000000;-0.256147;0.966638;,
  0.258819;0.000000;0.965926;,
  0.000000;0.000000;1.000000;,
  0.500000;0.000000;0.866025;,
  0.707107;0.000000;0.707107;,
  0.866025;0.000000;0.500000;,
  0.965926;0.000000;0.258819;,
  1.000000;0.000000;0.000000;,
  0.965926;0.000000;-0.258819;,
  0.866026;0.000000;-0.500000;,
  0.707107;0.000000;-0.707107;,
  0.500000;0.000000;-0.866025;,
  0.258819;0.000000;-0.965926;,
  0.000001;0.000000;-1.000000;,
  -0.258819;0.000000;-0.965926;,
  -0.499999;0.000000;-0.866026;,
  -0.707106;0.000000;-0.707107;,
  -0.866025;0.000000;-0.500001;,
  -0.965926;0.000000;-0.258820;,
  -1.000000;0.000000;-0.000001;,
  -0.965926;0.000000;0.258818;,
  -0.866026;0.000000;0.499999;,
  -0.707107;0.000000;0.707106;,
  -0.500001;0.000000;0.866025;,
  -0.258820;0.000000;0.965926;,
  0.000000;0.000000;1.000000;,
  0.250184;0.256147;0.933700;,
  0.000000;0.256147;0.966638;,
  0.483319;0.256147;0.837133;,
  0.683516;0.256147;0.683516;,
  0.837133;0.256147;0.483319;,
  0.933700;0.256147;0.250184;,
  0.966638;0.256147;0.000000;,
  0.933701;0.256147;-0.250184;,
  0.837133;0.256147;-0.483319;,
  0.683516;0.256147;-0.683516;,
  0.483319;0.256147;-0.837133;,
  0.250185;0.256147;-0.933700;,
  0.000000;0.256147;-0.966638;,
  -0.250184;0.256147;-0.933701;,
  -0.483319;0.256147;-0.837133;,
  -0.683516;0.256147;-0.683517;,
  -0.837132;0.256147;-0.483320;,
  -0.933700;0.256147;-0.250185;,
  -0.966638;0.256147;-0.000001;,
  -0.933701;0.256147;0.250183;,
  -0.837133;0.256147;0.483318;,
  -0.683517;0.256147;0.683516;,
  -0.483320;0.256147;0.837132;,
  -0.250185;0.256147;0.933700;,
  0.000000;0.256147;0.966638;,
  0.224833;0.495357;0.839090;,
  0.000000;0.495357;0.868690;,
  0.434345;0.495357;0.752307;,
  0.614256;0.495357;0.614256;,
  0.752307;0.495357;0.434345;,
  0.839090;0.495357;0.224834;,
  0.868690;0.495357;0.000000;,
  0.839090;0.495357;-0.224833;,
  0.752307;0.495357;-0.434345;,
  0.614256;0.495357;-0.614256;,
  0.434345;0.495357;-0.752307;,
  0.224834;0.495357;-0.839090;,
  0.000000;0.495357;-0.868690;,
  -0.224833;0.495357;-0.839090;,
  -0.434344;0.495357;-0.752308;,
  -0.614256;0.495357;-0.614257;,
  -0.752307;0.495357;-0.434345;,
  -0.839089;0.495357;-0.224834;,
  -0.868690;0.495357;-0.000001;,
  -0.839090;0.495357;0.224833;,
  -0.752308;0.495357;0.434344;,
  -0.614257;0.495357;0.614256;,
  -0.434346;0.495357;0.752307;,
  -0.224834;0.495357;0.839090;,
  0.000000;0.495357;0.868690;,
  0.184397;0.701716;0.688180;,
  0.000000;0.701716;0.712456;,
  0.356228;0.701716;0.617005;,
  0.503783;0.701716;0.503783;,
  0.617005;0.701716;0.356228;,
  0.688180;0.701716;0.184397;,
  0.712456;0.701716;0.000000;,
  0.688180;0.701716;-0.184397;,
  0.617006;0.701716;-0.356228;,
  0.503783;0.701716;-0.503783;,
  0.356228;0.701716;-0.617005;,
  0.184398;0.701716;-0.688180;,
  0.000000;0.701716;-0.712457;,
  -0.184397;0.701716;-0.688180;,
  -0.356228;0.701716;-0.617006;,
  -0.503783;0.701716;-0.503783;,
  -0.617005;0.701716;-0.356229;,
  -0.688180;0.701716;-0.184398;,
  -0.712456;0.701716;0.000000;,
  -0.688180;0.701716;0.184397;,
  -0.617006;0.701716;0.356228;,
  -0.503783;0.701716;0.503782;,
  -0.356229;0.701716;0.617005;,
  -0.184398;0.701716;0.688180;,
  0.000000;0.701716;0.712456;,
  0.131497;0.861319;0.490753;,
  0.000000;0.861319;0.508065;,
  0.254033;0.861319;0.439997;,
  0.359256;0.861319;0.359256;,
  0.439997;0.861319;0.254033;,
  0.490753;0.861319;0.131497;,
  0.508065;0.861319;0.000000;,
  0.490753;0.861319;-0.131497;,
  0.439997;0.861319;-0.254032;,
  0.359256;0.861319;-0.359256;,
  0.254033;0.861319;-0.439997;,
  0.131497;0.861319;-0.490753;,
  0.000000;0.861319;-0.508065;,
  -0.131497;0.861319;-0.490753;,
  -0.254032;0.861319;-0.439997;,
  -0.359256;0.861319;-0.359257;,
  -0.439997;0.861319;-0.254033;,
  -0.490753;0.861319;-0.131497;,
  -0.508065;0.861319;0.000000;,
  -0.490753;0.861319;0.131497;,
  -0.439998;0.861319;0.254032;,
  -0.359257;0.861319;0.359256;,
  -0.254033;0.861319;0.439997;,
  -0.131497;0.861319;0.490753;,
  0.000000;0.861319;0.508065;,
  0.069599;0.963166;0.259746;,
  0.000000;0.963166;0.268909;,
  0.134454;0.963166;0.232882;,
  0.190147;0.963166;0.190147;,
  0.232882;0.963166;0.134454;,
  0.259746;0.963166;0.069599;,
  0.268909;0.963166;0.000000;,
  0.259746;0.963166;-0.069599;,
  0.232882;0.963166;-0.134454;,
  0.190147;0.963166;-0.190147;,
  0.134454;0.963166;-0.232882;,
  0.069599;0.963166;-0.259746;,
  0.000000;0.963166;-0.268909;,
  -0.069599;0.963166;-0.259746;,
  -0.134454;0.963166;-0.232882;,
  -0.190147;0.963166;-0.190147;,
  -0.232882;0.963166;-0.134455;,
  -0.259746;0.963166;-0.069599;,
  -0.268909;0.963166;0.000000;,
  -0.259746;0.963166;0.069598;,
  -0.232882;0.963166;0.134454;,
  -0.190147;0.963166;0.190147;,
  -0.134455;0.963166;0.232882;,
  -0.069599;0.963166;0.259746;,
  0.000000;0.963166;0.268909;,
  0.000000;1.000000;0.000000;,
  0.000000;1.000000;0.000000;,
  0.000000;1.000000;0.000000;,
  0.000000;1.000000;0.000000;,
  0.000000;1.000000;0.000000;,
  0.000000;1.000000;0.000000;,
  0.000000;1.000000;0.000000;,
  0.000000;1.000000;0.000000;,
  0.000000;1.000000;0.000000;,
  0.000000;1.000000;0.000000;,
  0.000000;1.000000;0.000000;,
  0.000000;1.000000;0.000000;,
  0.000000;1.000000;0.000000;,
  0.000000;1.000000;0.000000;,
  0.000000;1.000000;0.000000;,
  0.000000;1.000000;0.000000;,
  0.000000;1.000000;0.000000;,
  0.000000;1.000000;0.000000;,
  0.000000;1.000000;0.000000;,
  0.000000;1.000000;0.000000;,
  0.000000;1.000000;0.000000;,
  0.000000;1.000000;0.000000;,
  0.000000;1.000000;0.000000;,
  0.000000;1.000000;0.000000;;
  528;
  3;0,1,2;,
  3;3,4,1;,
  3;5,6,4;,
  3;7,8,6;,
  3;9,10,8;,
  3;11,12,10;,
  3;13,14,12;,
  3;15,16,14;,
  3;17,18,16;,
  3;19,20,18;,
  3;21,22,20;,
  3;23,24,22;,
  3;25,26,24;,
  3;27,28,26;,
  3;29,30,28;,
  3;31,32,30;,
  3;33,34,32;,
  3;35,36,34;,
  3;37,38,36;,
  3;39,40,38;,
  3;41,42,40;,
  3;43,44,42;,
  3;45,46,44;,
  3;47,48,46;,
  3;49,50,2;,
  3;2,1,49;,
  3;51,49,1;,
  3;1,4,51;,
  3;52,51,4;,
  3;4,6,52;,
  3;53,52,6;,
  3;6,8,53;,
  3;54,53,8;,
  3;8,10,54;,
  3;55,54,10;,
  3;10,12,55;,
  3;56,55,12;,
  3;12,14,56;,
  3;57,56,14;,
  3;14,16,57;,
  3;58,57,16;,
  3;16,18,58;,
  3;59,58,18;,
  3;18,20,59;,
  3;60,59,20;,
  3;20,22,60;,
  3;61,60,22;,
  3;22,24,61;,
  3;62,61,24;,
  3;24,26,62;,
  3;63,62,26;,
  3;26,28,63;,
  3;64,63,28;,
  3;28,30,64;,
  3;65,64,30;,
  3;30,32,65;,
  3;66,65,32;,
  3;32,34,66;,
  3;67,66,34;,
  3;34,36,67;,
  3;68,67,36;,
  3;36,38,68;,
  3;69,68,38;,
  3;38,40,69;,
  3;70,69,40;,
  3;40,42,70;,
  3;71,70,42;,
  3;42,44,71;,
  3;72,71,44;,
  3;44,46,72;,
  3;73,72,46;,
  3;46,48,73;,
  3;74,75,50;,
  3;50,49,74;,
  3;76,74,49;,
  3;49,51,76;,
  3;77,76,51;,
  3;51,52,77;,
  3;78,77,52;,
  3;52,53,78;,
  3;79,78,53;,
  3;53,54,79;,
  3;80,79,54;,
  3;54,55,80;,
  3;81,80,55;,
  3;55,56,81;,
  3;82,81,56;,
  3;56,57,82;,
  3;83,82,57;,
  3;57,58,83;,
  3;84,83,58;,
  3;58,59,84;,
  3;85,84,59;,
  3;59,60,85;,
  3;86,85,60;,
  3;60,61,86;,
  3;87,86,61;,
  3;61,62,87;,
  3;88,87,62;,
  3;62,63,88;,
  3;89,88,63;,
  3;63,64,89;,
  3;90,89,64;,
  3;64,65,90;,
  3;91,90,65;,
  3;65,66,91;,
  3;92,91,66;,
  3;66,67,92;,
  3;93,92,67;,
  3;67,68,93;,
  3;94,93,68;,
  3;68,69,94;,
  3;95,94,69;,
  3;69,70,95;,
  3;96,95,70;,
  3;70,71,96;,
  3;97,96,71;,
  3;71,72,97;,
  3;98,97,72;,
  3;72,73,98;,
  3;99,100,75;,
  3;75,74,99;,
  3;101,99,74;,
  3;74,76,101;,
  3;102,101,76;,
  3;76,77,102;,
  3;103,102,77;,
  3;77,78,103;,
  3;104,103,78;,
  3;78,79,104;,
  3;105,104,79;,
  3;79,80,105;,
  3;106,105,80;,
  3;80,81,106;,
  3;107,106,81;,
  3;81,82,107;,
  3;108,107,82;,
  3;82,83,108;,
  3;109,108,83;,
  3;83,84,109;,
  3;110,109,84;,
  3;84,85,110;,
  3;111,110,85;,
  3;85,86,111;,
  3;112,111,86;,
  3;86,87,112;,
  3;113,112,87;,
  3;87,88,113;,
  3;114,113,88;,
  3;88,89,114;,
  3;115,114,89;,
  3;89,90,115;,
  3;116,115,90;,
  3;90,91,116;,
  3;117,116,91;,
  3;91,92,117;,
  3;118,117,92;,
  3;92,93,118;,
  3;119,118,93;,
  3;93,94,119;,
  3;120,119,94;,
  3;94,95,120;,
  3;121,120,95;,
  3;95,96,121;,
  3;122,121,96;,
  3;96,97,122;,
  3;123,122,97;,
  3;97,98,123;,
  3;124,125,100;,
  3;100,99,124;,
  3;126,124,99;,
  3;99,101,126;,
  3;127,126,101;,
  3;101,102,127;,
  3;128,127,102;,
  3;102,103,128;,
  3;129,128,103;,
  3;103,104,129;,
  3;130,129,104;,
  3;104,105,130;,
  3;131,130,105;,
  3;105,106,131;,
  3;132,131,106;,
  3;106,107,132;,
  3;133,132,107;,
  3;107,108,133;,
  3;134,133,108;,
  3;108,109,134;,
  3;135,134,109;,
  3;109,110,135;,
  3;136,135,110;,
  3;110,111,136;,
  3;137,136,111;,
  3;111,112,137;,
  3;138,137,112;,
  3;112,113,138;,
  3;139,138,113;,
  3;113,114,139;,
  3;140,139,114;,
  3;114,115,140;,
  3;141,140,115;,
  3;115,116,141;,
  3;142,141,116;,
  3;116,117,142;,
  3;143,142,117;,
  3;117,118,143;,
  3;144,143,118;,
  3;118,119,144;,
  3;145,144,119;,
  3;119,120,145;,
  3;146,145,120;,
  3;120,121,146;,
  3;147,146,121;,
  3;121,122,147;,
  3;148,147,122;,
  3;122,123,148;,
  3;149,150,125;,
  3;125,124,149;,
  3;151,149,124;,
  3;124,126,151;,
  3;152,151,126;,
  3;126,127,152;,
  3;153,152,127;,
  3;127,128,153;,
  3;154,153,128;,
  3;128,129,154;,
  3;155,154,129;,
  3;129,130,155;,
  3;156,155,130;,
  3;130,131,156;,
  3;157,156,131;,
  3;131,132,157;,
  3;158,157,132;,
  3;132,133,158;,
  3;159,158,133;,
  3;133,134,159;,
  3;160,159,134;,
  3;134,135,160;,
  3;161,160,135;,
  3;135,136,161;,
  3;162,161,136;,
  3;136,137,162;,
  3;163,162,137;,
  3;137,138,163;,
  3;164,163,138;,
  3;138,139,164;,
  3;165,164,139;,
  3;139,140,165;,
  3;166,165,140;,
  3;140,141,166;,
  3;167,166,141;,
  3;141,142,167;,
  3;168,167,142;,
  3;142,143,168;,
  3;169,168,143;,
  3;143,144,169;,
  3;170,169,144;,
  3;144,145,170;,
  3;171,170,145;,
  3;145,146,171;,
  3;172,171,146;,
  3;146,147,172;,
  3;173,172,147;,
  3;147,148,173;,
  3;174,175,150;,
  3;150,149,174;,
  3;176,174,149;,
  3;149,151,176;,
  3;177,176,151;,
  3;151,152,177;,
  3;178,177,152;,
  3;152,153,178;,
  3;179,178,153;,
  3;153,154,179;,
  3;180,179,154;,
  3;154,155,180;,
  3;181,180,155;,
  3;155,156,181;,
  3;182,181,156;,
  3;156,157,182;,
  3;183,182,157;,
  3;157,158,183;,
  3;184,183,158;,
  3;158,159,184;,
  3;185,184,159;,
  3;159,160,185;,
  3;186,185,160;,
  3;160,161,186;,
  3;187,186,161;,
  3;161,162,187;,
  3;188,187,162;,
  3;162,163,188;,
  3;189,188,163;,
  3;163,164,189;,
  3;190,189,164;,
  3;164,165,190;,
  3;191,190,165;,
  3;165,166,191;,
  3;192,191,166;,
  3;166,167,192;,
  3;193,192,167;,
  3;167,168,193;,
  3;194,193,168;,
  3;168,169,194;,
  3;195,194,169;,
  3;169,170,195;,
  3;196,195,170;,
  3;170,171,196;,
  3;197,196,171;,
  3;171,172,197;,
  3;198,197,172;,
  3;172,173,198;,
  3;199,200,175;,
  3;175,174,199;,
  3;201,199,174;,
  3;174,176,201;,
  3;202,201,176;,
  3;176,177,202;,
  3;203,202,177;,
  3;177,178,203;,
  3;204,203,178;,
  3;178,179,204;,
  3;205,204,179;,
  3;179,180,205;,
  3;206,205,180;,
  3;180,181,206;,
  3;207,206,181;,
  3;181,182,207;,
  3;208,207,182;,
  3;182,183,208;,
  3;209,208,183;,
  3;183,184,209;,
  3;210,209,184;,
  3;184,185,210;,
  3;211,210,185;,
  3;185,186,211;,
  3;212,211,186;,
  3;186,187,212;,
  3;213,212,187;,
  3;187,188,213;,
  3;214,213,188;,
  3;188,189,214;,
  3;215,214,189;,
  3;189,190,215;,
  3;216,215,190;,
  3;190,191,216;,
  3;217,216,191;,
  3;191,192,217;,
  3;218,217,192;,
  3;192,193,218;,
  3;219,218,193;,
  3;193,194,219;,
  3;220,219,194;,
  3;194,195,220;,
  3;221,220,195;,
  3;195,196,221;,
  3;222,221,196;,
  3;196,197,222;,
  3;223,222,197;,
  3;197,198,223;,
  3;224,225,200;,
  3;200,199,224;,
  3;226,224,199;,
  3;199,201,226;,
  3;227,226,201;,
  3;201,202,227;,
  3;228,227,202;,
  3;202,203,228;,
  3;229,228,203;,
  3;203,204,229;,
  3;230,229,204;,
  3;204,205,230;,
  3;231,230,205;,
  3;205,206,231;,
  3;232,231,206;,
  3;206,207,232;,
  3;233,232,207;,
  3;207,208,233;,
  3;234,233,208;,
  3;208,209,234;,
  3;235,234,209;,
  3;209,210,235;,
  3;236,235,210;,
  3;210,211,236;,
  3;237,236,211;,
  3;211,212,237;,
  3;238,237,212;,
  3;212,213,238;,
  3;239,238,213;,
  3;213,214,239;,
  3;240,239,214;,
  3;214,215,240;,
  3;241,240,215;,
  3;215,216,241;,
  3;242,241,216;,
  3;216,217,242;,
  3;243,242,217;,
  3;217,218,243;,
  3;244,243,218;,
  3;218,219,244;,
  3;245,244,219;,
  3;219,220,245;,
  3;246,245,220;,
  3;220,221,246;,
  3;247,246,221;,
  3;221,222,247;,
  3;248,247,222;,
  3;222,223,248;,
  3;249,250,225;,
  3;225,224,249;,
  3;251,249,224;,
  3;224,226,251;,
  3;252,251,226;,
  3;226,227,252;,
  3;253,252,227;,
  3;227,228,253;,
  3;254,253,228;,
  3;228,229,254;,
  3;255,254,229;,
  3;229,230,255;,
  3;256,255,230;,
  3;230,231,256;,
  3;257,256,231;,
  3;231,232,257;,
  3;258,257,232;,
  3;232,233,258;,
  3;259,258,233;,
  3;233,234,259;,
  3;260,259,234;,
  3;234,235,260;,
  3;261,260,235;,
  3;235,236,261;,
  3;262,261,236;,
  3;236,237,262;,
  3;263,262,237;,
  3;237,238,263;,
  3;264,263,238;,
  3;238,239,264;,
  3;265,264,239;,
  3;239,240,265;,
  3;266,265,240;,
  3;240,241,266;,
  3;267,266,241;,
  3;241,242,267;,
  3;268,267,242;,
  3;242,243,268;,
  3;269,268,243;,
  3;243,244,269;,
  3;270,269,244;,
  3;244,245,270;,
  3;271,270,245;,
  3;245,246,271;,
  3;272,271,246;,
  3;246,247,272;,
  3;273,272,247;,
  3;247,248,273;,
  3;274,275,250;,
  3;250,249,274;,
  3;276,274,249;,
  3;249,251,276;,
  3;277,276,251;,
  3;251,252,277;,
  3;278,277,252;,
  3;252,253,278;,
  3;279,278,253;,
  3;253,254,279;,
  3;280,279,254;,
  3;254,255,280;,
  3;281,280,255;,
  3;255,256,281;,
  3;282,281,256;,
  3;256,257,282;,
  3;283,282,257;,
  3;257,258,283;,
  3;284,283,258;,
  3;258,259,284;,
  3;285,284,259;,
  3;259,260,285;,
  3;286,285,260;,
  3;260,261,286;,
  3;287,286,261;,
  3;261,262,287;,
  3;288,287,262;,
  3;262,263,288;,
  3;289,288,263;,
  3;263,264,289;,
  3;290,289,264;,
  3;264,265,290;,
  3;291,290,265;,
  3;265,266,291;,
  3;292,291,266;,
  3;266,267,292;,
  3;293,292,267;,
  3;267,268,293;,
  3;294,293,268;,
  3;268,269,294;,
  3;295,294,269;,
  3;269,270,295;,
  3;296,295,270;,
  3;270,271,296;,
  3;297,296,271;,
  3;271,272,297;,
  3;298,297,272;,
  3;272,273,298;,
  3;299,275,274;,
  3;300,274,276;,
  3;301,276,277;,
  3;302,277,278;,
  3;303,278,279;,
  3;304,279,280;,
  3;305,280,281;,
  3;306,281,282;,
  3;307,282,283;,
  3;308,283,284;,
  3;309,284,285;,
  3;310,285,286;,
  3;311,286,287;,
  3;312,287,288;,
  3;313,288,289;,
  3;314,289,290;,
  3;315,290,291;,
  3;316,291,292;,
  3;317,292,293;,
  3;318,293,294;,
  3;319,294,295;,
  3;320,295,296;,
  3;321,296,297;,
  3;322,297,298;;
 }

 MeshTextureCoords {
  323;
  0.000000;0.000851;,
  0.041667;0.010801;,
  0.000000;0.010801;,
  0.041667;0.000851;,
  0.083333;0.010801;,
  0.083333;0.000851;,
  0.125000;0.010801;,
  0.125000;0.000851;,
  0.166667;0.010801;,
  0.166667;0.000851;,
  0.208333;0.010801;,
  0.208333;0.000851;,
  0.250000;0.010801;,
  0.250000;0.000851;,
  0.291667;0.010801;,
  0.291667;0.000851;,
  0.333333;0.010801;,
  0.333333;0.000851;,
  0.375000;0.010801;,
  0.375000;0.000851;,
  0.416667;0.010801;,
  0.416667;0.000851;,
  0.458333;0.010801;,
  0.458333;0.000851;,
  0.500000;0.010801;,
  0.500000;0.000851;,
  0.541667;0.010801;,
  0.541667;0.000851;,
  0.583333;0.010801;,
  0.583333;0.000851;,
  0.625000;0.010801;,
  0.625000;0.000851;,
  0.666667;0.010801;,
  0.666667;0.000851;,
  0.708333;0.010801;,
  0.708333;0.000851;,
  0.750000;0.010801;,
  0.750000;0.000851;,
  0.791667;0.010801;,
  0.791667;0.000851;,
  0.833333;0.010801;,
  0.833333;0.000851;,
  0.875000;0.010801;,
  0.875000;0.000851;,
  0.916667;0.010801;,
  0.916667;0.000851;,
  0.958333;0.010801;,
  0.958333;0.000851;,
  1.000000;0.010801;,
  0.041667;0.028099;,
  0.000000;0.028099;,
  0.083333;0.028099;,
  0.125000;0.028099;,
  0.166667;0.028099;,
  0.208333;0.028099;,
  0.250000;0.028099;,
  0.291667;0.028099;,
  0.333333;0.028099;,
  0.375000;0.028099;,
  0.416667;0.028099;,
  0.458333;0.028099;,
  0.500000;0.028099;,
  0.541667;0.028099;,
  0.583333;0.028099;,
  0.625000;0.028099;,
  0.666667;0.028099;,
  0.708333;0.028099;,
  0.750000;0.028099;,
  0.791667;0.028099;,
  0.833333;0.028099;,
  0.875000;0.028099;,
  0.916667;0.028099;,
  0.958333;0.028099;,
  1.000000;0.028099;,
  0.041667;0.134560;,
  0.000000;0.134560;,
  0.083333;0.134560;,
  0.125000;0.134560;,
  0.166667;0.134560;,
  0.208333;0.134560;,
  0.250000;0.134560;,
  0.291667;0.134560;,
  0.333333;0.134560;,
  0.375000;0.134560;,
  0.416667;0.134560;,
  0.458333;0.134560;,
  0.500000;0.134560;,
  0.541667;0.134560;,
  0.583333;0.134560;,
  0.625000;0.134560;,
  0.666667;0.134560;,
  0.708333;0.134560;,
  0.750000;0.134560;,
  0.791667;0.134560;,
  0.833333;0.134560;,
  0.875000;0.134560;,
  0.916667;0.134560;,
  0.958333;0.134560;,
  1.000000;0.134560;,
  0.041667;0.241020;,
  0.000000;0.241020;,
  0.083333;0.241020;,
  0.125000;0.241020;,
  0.166667;0.241020;,
  0.208333;0.241020;,
  0.250000;0.241020;,
  0.291667;0.241020;,
  0.333333;0.241020;,
  0.375000;0.241020;,
  0.416667;0.241020;,
  0.458333;0.241020;,
  0.500000;0.241020;,
  0.541667;0.241020;,
  0.583333;0.241020;,
  0.625000;0.241020;,
  0.666667;0.241020;,
  0.708333;0.241020;,
  0.750000;0.241020;,
  0.791667;0.241020;,
  0.833333;0.241020;,
  0.875000;0.241020;,
  0.916667;0.241020;,
  0.958333;0.241020;,
  1.000000;0.241020;,
  0.041667;0.347481;,
  0.000000;0.347481;,
  0.083333;0.347481;,
  0.125000;0.347481;,
  0.166667;0.347481;,
  0.208333;0.347481;,
  0.250000;0.347481;,
  0.291667;0.347481;,
  0.333333;0.347481;,
  0.375000;0.347481;,
  0.416667;0.347481;,
  0.458333;0.347481;,
  0.500000;0.347481;,
  0.541667;0.347481;,
  0.583333;0.347481;,
  0.625000;0.347481;,
  0.666667;0.347481;,
  0.708333;0.347481;,
  0.750000;0.347481;,
  0.791667;0.347481;,
  0.833333;0.347481;,
  0.875000;0.347481;,
  0.916667;0.347481;,
  0.958333;0.347481;,
  1.000000;0.347481;,
  0.041667;0.453942;,
  0.000000;0.453942;,
  0.083333;0.453942;,
  0.125000;0.453942;,
  0.166667;0.453942;,
  0.208333;0.453942;,
  0.250000;0.453942;,
  0.291667;0.453942;,
  0.333333;0.453942;,
  0.375000;0.453942;,
  0.416667;0.453942;,
  0.458333;0.453942;,
  0.500000;0.453942;,
  0.541667;0.453942;,
  0.583333;0.453942;,
  0.625000;0.453942;,
  0.666667;0.453942;,
  0.708333;0.453942;,
  0.750000;0.453942;,
  0.791667;0.453942;,
  0.833333;0.453942;,
  0.875000;0.453942;,
  0.916667;0.453942;,
  0.958333;0.453942;,
  1.000000;0.453942;,
  0.041667;0.560403;,
  0.000000;0.560403;,
  0.083333;0.560403;,
  0.125000;0.560403;,
  0.166667;0.560403;,
  0.208333;0.560403;,
  0.250000;0.560403;,
  0.291667;0.560403;,
  0.333333;0.560403;,
  0.375000;0.560403;,
  0.416667;0.560403;,
  0.458333;0.560403;,
  0.500000;0.560403;,
  0.541667;0.560403;,
  0.583333;0.560403;,
  0.625000;0.560403;,
  0.666667;0.560403;,
  0.708333;0.560403;,
  0.750000;0.560403;,
  0.791667;0.560403;,
  0.833333;0.560403;,
  0.875000;0.560403;,
  0.916667;0.560403;,
  0.958333;0.560403;,
  1.000000;0.560403;,
  0.041667;0.666863;,
  0.000000;0.666863;,
  0.083333;0.666863;,
  0.125000;0.666863;,
  0.166667;0.666863;,
  0.208333;0.666863;,
  0.250000;0.666863;,
  0.291667;0.666863;,
  0.333333;0.666863;,
  0.375000;0.666863;,
  0.416667;0.666863;,
  0.458333;0.666863;,
  0.500000;0.666863;,
  0.541667;0.666863;,
  0.583333;0.666863;,
  0.625000;0.666863;,
  0.666667;0.666863;,
  0.708333;0.666863;,
  0.750000;0.666863;,
  0.791667;0.666863;,
  0.833333;0.666863;,
  0.875000;0.666863;,
  0.916667;0.666863;,
  0.958333;0.666863;,
  1.000000;0.666863;,
  0.041667;0.773324;,
  0.000000;0.773324;,
  0.083333;0.773324;,
  0.125000;0.773324;,
  0.166667;0.773324;,
  0.208333;0.773324;,
  0.250000;0.773324;,
  0.291667;0.773324;,
  0.333333;0.773324;,
  0.375000;0.773324;,
  0.416667;0.773324;,
  0.458333;0.773324;,
  0.500000;0.773324;,
  0.541667;0.773324;,
  0.583333;0.773324;,
  0.625000;0.773324;,
  0.666667;0.773324;,
  0.708333;0.773324;,
  0.750000;0.773324;,
  0.791667;0.773324;,
  0.833333;0.773324;,
  0.875000;0.773324;,
  0.916667;0.773324;,
  0.958333;0.773324;,
  1.000000;0.773324;,
  0.041667;0.879785;,
  0.000000;0.879785;,
  0.083333;0.879785;,
  0.125000;0.879785;,
  0.166667;0.879785;,
  0.208333;0.879785;,
  0.250000;0.879785;,
  0.291667;0.879785;,
  0.333333;0.879785;,
  0.375000;0.879785;,
  0.416667;0.879785;,
  0.458333;0.879785;,
  0.500000;0.879785;,
  0.541667;0.879785;,
  0.583333;0.879785;,
  0.625000;0.879785;,
  0.666667;0.879785;,
  0.708333;0.879785;,
  0.750000;0.879785;,
  0.791667;0.879785;,
  0.833333;0.879785;,
  0.875000;0.879785;,
  0.916667;0.879785;,
  0.958333;0.879785;,
  1.000000;0.879785;,
  0.041667;0.986245;,
  0.000000;0.986245;,
  0.083333;0.986245;,
  0.125000;0.986245;,
  0.166667;0.986245;,
  0.208333;0.986245;,
  0.250000;0.986245;,
  0.291667;0.986245;,
  0.333333;0.986245;,
  0.375000;0.986245;,
  0.416667;0.986245;,
  0.458333;0.986245;,
  0.500000;0.986245;,
  0.541667;0.986245;,
  0.583333;0.986245;,
  0.625000;0.986245;,
  0.666667;0.986245;,
  0.708333;0.986245;,
  0.750000;0.986245;,
  0.791667;0.986245;,
  0.833333;0.986245;,
  0.875000;0.986245;,
  0.916667;0.986245;,
  0.958333;0.986245;,
  1.000000;0.986245;,
  0.000000;0.998062;,
  0.041667;0.998062;,
  0.083333;0.998062;,
  0.125000;0.998062;,
  0.166667;0.998062;,
  0.208333;0.998062;,
  0.250000;0.998062;,
  0.291667;0.998062;,
  0.333333;0.998062;,
  0.375000;0.998062;,
  0.416667;0.998062;,
  0.458333;0.998062;,
  0.500000;0.998062;,
  0.541667;0.998062;,
  0.583333;0.998062;,
  0.625000;0.998062;,
  0.666667;0.998062;,
  0.708333;0.998062;,
  0.750000;0.998062;,
  0.791667;0.998062;,
  0.833333;0.998062;,
  0.875000;0.998062;,
  0.916667;0.998062;,
  0.958333;0.998062;;
 }

 MeshMaterialList {
  1;
  528;
  0,
  0,
  0,
  0,
  0,
  0,
  0,
  0,
  0,
  0,
  0,
  0,
  0,
  0,
  0,
  0,
  0,
  0,
  0,
  0,
  0,
  0,
  0,
  0,
  0,
  0,
  0,
  0,
  0,
  0,
  0,
  0,
  0,
  0,
  0,
  0,
  0,
  0,
  0,
  0,
  0,
  0,
  0,
  0,
  0,
  0,
  0,
  0,
  0,
  0,
  0,
  0,
  0,
  0,
  0,
  0,
  0,
  0,
  0,
  0,
  0,
  0,
  0,
  0,
  0,
  0,
  0,
  0,
  0,
  0,
  0,
  0,
  0,
  0,
  0,
  0,
  0,
  0,
  0,
  0,
  0,
  0,
  0,
  0,
  0,
  0,
  0,
  0,
  0,
  0,
  0,
  0,
  0,
  0,
  0,
  0,
  0,
  0,
  0,
  0,
  0,
  0,
  0,
  0,
  0,
  0,
  0,
  0,
  0,
  0,
  0,
  0,
  0,
  0,
  0,
  0,
  0,
  0,
  0,
  0,
  0,
  0,
  0,
  0,
  0,
  0,
  0,
  0,
  0,
  0,
  0,
  0,
  0,
  0,
  0,
  0,
  0,
  0,
  0,
  0,
  0,
  0,
  0,
  0,
  0,
  0,
  0,
  0,
  0,
  0,
  0,
  0,
  0,
  0,
  0,
  0,
  0,
  0,
  0,
  0,
  0,
  0,
  0,
  0,
  0,
  0,
  0,
  0,
  0,
  0,
  0,
  0,
  0,
  0,
  0,
  0,
  0,
  0,
  0,
  0,
  0,
  0,
  0,
  0,
  0,
  0,
  0,
  0,
  0,
  0,
  0,
  0,
  0,
  0,
  0,
  0,
  0,
  0,
  0,
  0,
  0,
  0,
  0,
  0,
  0,
  0,
  0,
  0,
  0,
  0,
  0,
  0,
  0,
  0,
  0,
  0,
  0,
  0,
  0,
  0,
  0,
  0,
  0,
  0,
  0,
  0,
  0,
  0,
  0,
  0,
  0,
  0,
  0,
  0,
  0,
  0,
  0,
  0,
  0,
  0,
  0,
  0,
  0,
  0,
  0,
  0,
  0,
  0,
  0,
  0,
  0,
  0,
  0,
  0,
  0,
  0,
  0,
  0,
  0,
  0,
  0,
  0,
  0,
  0,
  0,
  0,
  0,
  0,
  0,
  0,
  0,
  0,
  0,
  0,
  0,
  0,
  0,
  0,
  0,
  0,
  0,
  0,
  0,
  0,
  0,
  0,
  0,
  0,
  0,
  0,
  0,
  0,
  0,
  0,
  0,
  0,
  0,
  0,
  0,
  0,
  0,
  0,
  0,
  0,
  0,
  0,
  0,
  0,
  0,
  0,
  0,
  0,
  0,
  0,
  0,
  0,
  0,
  0,
  0,
  0,
  0,
  0,
  0,
  0,
  0,
  0,
  0,
  0,
  0,
  0,
  0,
  0,
  0,
  0,
  0,
  0,
  0,
  0,
  0,
  0,
  0,
  0,
  0,
  0,
  0,
  0,
  0,
  0,
  0,
  0,
  0,
  0,
  0,
  0,
  0,
  0,
  0,
  0,
  0,
  0,
  0,
  0,
  0,
  0,
  0,
  0,
  0,
  0,
  0,
  0,
  0,
  0,
  0,
  0,
  0,
  0,
  0,
  0,
  0,
  0,
  0,
  0,
  0,
  0,
  0,
  0,
  0,
  0,
  0,
  0,
  0,
  0,
  0,
  0,
  0,
  0,
  0,
  0,
  0,
  0,
  0,
  0,
  0,
  0,
  0,
  0,
  0,
  0,
  0,
  0,
  0,
  0,
  0,
  0,
  0,
  0,
  0,
  0,
  0,
  0,
  0,
  0,
  0,
  0,
  0,
  0,
  0,
  0,
  0,
  0,
  0,
  0,
  0,
  0,
  0,
  0,
  0,
  0,
  0,
  0,
  0,
  0,
  0,
  0,
  0,
  0,
  0,
  0,
  0,
  0,
  0,
  0,
  0,
  0,
  0,
  0,
  0,
  0,
  0,
  0,
  0,
  0,
  0,
  0,
  0,
  0,
  0,
  0,
  0,
  0,
  0,
  0,
  0,
  0,
  0,
  0,
  0,
  0,
  0,
  0,
  0,
  0,
  0,
  0,
  0,
  0,
  0,
  0,
  0,
  0,
  0,
  0,
  0,
  0,
  0,
  0,
  0,
  0,
  0,
  0,
  0,
  0,
  0,
  0,
  0,
  0,
  0,
  0,
  0,
  0,
  0,
  0,
  0,
  0,
  0,
  0,
  0,
  0,
  0,
  0,
  0,
  0,
  0,
  0,
  0,
  0,
  0,
  0;

  Material {
   1.000000;1.000000;1.000000;1.000000;;
   0.000000;
   0.000000;0.000000;0.000000;;
   1.000000;1.000000;1.000000;;

   TextureFilename {
    "sky_dome_15.bmp";
   }
  }
 }
}