xof 0302txt 0064
template Header {
 <3D82AB43-62DA-11cf-AB39-0020AF71E433>
 WORD major;
 WORD minor;
 DWORD flags;
}

template Vector {
 <3D82AB5E-62DA-11cf-AB39-0020AF71E433>
 FLOAT x;
 FLOAT y;
 FLOAT z;
}

template Coords2d {
 <F6F23F44-7686-11cf-8F52-0040333594A3>
 FLOAT u;
 FLOAT v;
}

template Matrix4x4 {
 <F6F23F45-7686-11cf-8F52-0040333594A3>
 array FLOAT matrix[16];
}

template ColorRGBA {
 <35FF44E0-6C7C-11cf-8F52-0040333594A3>
 FLOAT red;
 FLOAT green;
 FLOAT blue;
 FLOAT alpha;
}

template ColorRGB {
 <D3E16E81-7835-11cf-8F52-0040333594A3>
 FLOAT red;
 FLOAT green;
 FLOAT blue;
}

template IndexedColor {
 <1630B820-7842-11cf-8F52-0040333594A3>
 DWORD index;
 ColorRGBA indexColor;
}

template Boolean {
 <4885AE61-78E8-11cf-8F52-0040333594A3>
 WORD truefalse;
}

template Boolean2d {
 <4885AE63-78E8-11cf-8F52-0040333594A3>
 Boolean u;
 Boolean v;
}

template MaterialWrap {
 <4885AE60-78E8-11cf-8F52-0040333594A3>
 Boolean u;
 Boolean v;
}

template TextureFilename {
 <A42790E1-7810-11cf-8F52-0040333594A3>
 STRING filename;
}

template Material {
 <3D82AB4D-62DA-11cf-AB39-0020AF71E433>
 ColorRGBA faceColor;
 FLOAT power;
 ColorRGB specularColor;
 ColorRGB emissiveColor;
 [...]
}

template MeshFace {
 <3D82AB5F-62DA-11cf-AB39-0020AF71E433>
 DWORD nFaceVertexIndices;
 array DWORD faceVertexIndices[nFaceVertexIndices];
}

template MeshFaceWraps {
 <4885AE62-78E8-11cf-8F52-0040333594A3>
 DWORD nFaceWrapValues;
 Boolean2d faceWrapValues;
}

template MeshTextureCoords {
 <F6F23F40-7686-11cf-8F52-0040333594A3>
 DWORD nTextureCoords;
 array Coords2d textureCoords[nTextureCoords];
}

template MeshMaterialList {
 <F6F23F42-7686-11cf-8F52-0040333594A3>
 DWORD nMaterials;
 DWORD nFaceIndexes;
 array DWORD faceIndexes[nFaceIndexes];
 [Material]
}

template MeshNormals {
 <F6F23F43-7686-11cf-8F52-0040333594A3>
 DWORD nNormals;
 array Vector normals[nNormals];
 DWORD nFaceNormals;
 array MeshFace faceNormals[nFaceNormals];
}

template MeshVertexColors {
 <1630B821-7842-11cf-8F52-0040333594A3>
 DWORD nVertexColors;
 array IndexedColor vertexColors[nVertexColors];
}

template Mesh {
 <3D82AB44-62DA-11cf-AB39-0020AF71E433>
 DWORD nVertices;
 array Vector vertices[nVertices];
 DWORD nFaces;
 array MeshFace faces[nFaces];
 [...]
}

Header{
1;
0;
1;
}

Mesh {
 446;
 -4.14670;-5.00000;-2.50000;,
 -2.14670;-5.00000;-2.50000;,
 -2.14670;-5.00000;-4.50000;,
 -4.14670;-5.00000;-4.50000;,
 -4.14670;-5.00000;4.50000;,
 -2.14670;-5.00000;4.50000;,
 -2.14670;-5.00000;2.50000;,
 -4.14670;-5.00000;2.50000;,
 -2.14670;-5.00000;4.50000;,
 -0.14670;-5.00000;4.50000;,
 -0.14670;-5.00000;2.50000;,
 -2.14670;-5.00000;2.50000;,
 -2.14670;-5.00000;2.50000;,
 -0.14670;-5.00000;2.50000;,
 -0.14670;-5.00000;0.50000;,
 -2.14670;-5.00000;0.50000;,
 -2.14670;-5.00000;-0.50000;,
 -0.14670;-5.00000;-0.50000;,
 -0.14670;-5.00000;-2.50000;,
 -2.14670;-5.00000;-2.50000;,
 -2.14670;-5.00000;-2.50000;,
 -0.14670;-5.00000;-2.50000;,
 -0.14670;-5.00000;-4.50000;,
 -2.14670;-5.00000;-4.50000;,
 -3.14220;-5.00000;-1.58283;,
 -2.50392;-5.00000;-0.90313;,
 -2.40368;-5.00000;-0.69011;,
 -4.02899;-5.00000;-1.87097;,
 -4.26441;-5.00000;-1.87097;,
 -3.14220;-5.00000;1.58283;,
 -4.26441;-5.00000;1.87097;,
 -4.02898;-5.00000;1.87097;,
 -3.34850;-5.00000;-1.69625;,
 -3.56739;-5.00000;-1.78291;,
 -3.79542;-5.00000;-1.84146;,
 -2.63006;-5.00000;-1.10190;,
 -2.78013;-5.00000;-1.28330;,
 -2.95174;-5.00000;-1.44446;,
 -3.34850;-5.00000;1.69625;,
 -3.56739;-5.00000;1.78291;,
 -3.79542;-5.00000;1.84146;,
 -2.63006;-5.00000;1.10190;,
 -2.78012;-5.00000;1.28330;,
 -2.95174;-5.00000;1.44445;,
 -2.50391;-5.00000;0.90312;,
 -2.40368;-5.00000;0.69011;,
 -0.14670;-5.00000;2.50000;,
 1.85330;-5.00000;2.50000;,
 1.85330;-5.00000;0.50000;,
 -0.14670;-5.00000;0.50000;,
 -0.14670;-5.00000;-0.50000;,
 1.85330;-5.00000;-0.50000;,
 1.85330;-5.00000;-2.50000;,
 -0.14670;-5.00000;-2.50000;,
 -0.14670;-5.00000;-2.50000;,
 1.85330;-5.00000;-2.50000;,
 1.85330;-5.00000;-4.50000;,
 -0.14670;-5.00000;-4.50000;,
 -0.14670;-5.00000;4.50000;,
 1.85330;-5.00000;4.50000;,
 1.85330;-5.00000;2.50000;,
 -0.14670;-5.00000;2.50000;,
 3.35109;-5.00000;-2.00000;,
 3.35109;-5.00000;-4.50000;,
 3.35109;-5.00000;2.00000;,
 1.85330;-5.00000;2.50000;,
 1.85330;-5.00000;4.50000;,
 3.35109;-5.00000;4.50000;,
 -4.14670;0.00000;4.50000;,
 -4.14670;0.00000;2.50000;,
 -4.14670;0.00000;-4.50000;,
 -4.14670;0.00000;-2.50000;,
 6.91597;-5.00000;6.11472;,
 6.48087;-5.00000;6.06794;,
 6.17978;-5.00000;8.16211;,
 3.33878;-5.00000;-4.63300;,
 1.95329;-5.00000;-6.23194;,
 -0.14670;-5.00000;-4.50000;,
 3.33878;-5.00000;-4.63300;,
 5.03013;-5.00000;-7.91202;,
 -0.14670;-5.00000;-4.50000;,
 3.35109;-5.00000;-4.50000;,
 3.01851;-5.00000;4.33481;,
 3.33879;-5.00000;4.63301;,
 3.35109;-5.00000;4.50000;,
 4.80667;-5.00000;-5.57635;,
 5.21097;-5.00000;-5.74382;,
 11.98630;-5.00000;-4.01452;,
 12.26089;-5.00000;-3.67378;,
 13.95460;-5.00000;-4.94167;,
 13.46802;-5.00000;0.43735;,
 13.42124;-5.00000;0.87245;,
 15.51541;-5.00000;1.17355;,
 11.36782;-5.00000;4.63300;,
 11.02708;-5.00000;4.90759;,
 12.29497;-5.00000;6.60130;,
 1.85330;-5.00000;-0.50221;,
 1.96015;-5.00000;-0.50602;,
 1.85330;-5.00000;-2.50000;,
 2.06646;-5.00000;-0.51745;,
 2.17168;-5.00000;-0.53644;,
 2.27528;-5.00000;-0.56288;,
 2.37673;-5.00000;-0.59665;,
 2.47551;-5.00000;-0.63756;,
 2.57112;-5.00000;-0.68542;,
 2.66307;-5.00000;-0.73998;,
 2.75089;-5.00000;-0.80096;,
 2.83415;-5.00000;-0.86804;,
 2.91240;-5.00000;-0.94090;,
 2.98526;-5.00000;-1.01915;,
 3.05234;-5.00000;-1.10241;,
 3.11332;-5.00000;-1.19023;,
 3.16788;-5.00000;-1.28218;,
 3.21574;-5.00000;-1.37779;,
 3.25666;-5.00000;-1.47657;,
 3.29042;-5.00000;-1.57802;,
 3.31686;-5.00000;-1.68162;,
 3.33585;-5.00000;-1.78684;,
 3.34728;-5.00000;-1.89315;,
 1.85330;-5.00000;2.50000;,
 1.85330;-5.00000;0.50221;,
 3.34728;-5.00000;1.89315;,
 3.33585;-5.00000;1.78684;,
 3.31686;-5.00000;1.68162;,
 3.29042;-5.00000;1.57802;,
 3.25666;-5.00000;1.47657;,
 3.21574;-5.00000;1.37779;,
 3.16788;-5.00000;1.28218;,
 3.11332;-5.00000;1.19023;,
 3.05234;-5.00000;1.10241;,
 2.98526;-5.00000;1.01915;,
 2.91240;-5.00000;0.94090;,
 2.83415;-5.00000;0.86804;,
 2.75089;-5.00000;0.80096;,
 2.66307;-5.00000;0.73998;,
 2.57112;-5.00000;0.68542;,
 2.47551;-5.00000;0.63756;,
 2.37673;-5.00000;0.59665;,
 2.27528;-5.00000;0.56288;,
 2.17168;-5.00000;0.53644;,
 2.06646;-5.00000;0.51745;,
 1.96015;-5.00000;0.50602;,
 -8.14670;0.00000;4.50000;,
 -8.14670;0.00000;4.50000;,
 -10.14670;0.00000;2.50000;,
 -5.14670;0.00000;4.50000;,
 -6.14670;0.00000;4.50000;,
 -6.14670;0.00000;4.50000;,
 -6.14670;0.00000;4.50000;,
 -10.14670;0.00000;-2.50000;,
 -4.14670;0.00000;-2.50000;,
 -10.14670;0.00000;-4.50000;,
 -6.14670;0.00000;-4.50000;,
 -8.14670;0.00000;-4.50000;,
 -6.14670;0.00000;-4.50000;,
 -6.14670;0.00000;-4.50000;,
 -5.14670;0.00000;-4.50000;,
 -9.14670;0.00000;-4.50000;,
 -8.14670;0.00000;-4.50000;,
 6.05021;-5.00000;5.99024;,
 -0.14670;-5.00000;4.50000;,
 5.62619;-5.00000;5.88202;,
 5.21098;-5.00000;5.74382;,
 4.80668;-5.00000;5.57636;,
 4.41535;-5.00000;5.38048;,
 4.03900;-5.00000;5.15718;,
 3.67954;-5.00000;4.90760;,
 6.17978;-5.00000;8.16211;,
 10.66761;-5.00000;5.15717;,
 10.29126;-5.00000;5.38047;,
 9.89994;-5.00000;5.57635;,
 9.49564;-5.00000;5.74382;,
 9.08042;-5.00000;5.88202;,
 8.65640;-5.00000;5.99024;,
 8.22574;-5.00000;6.06794;,
 7.79064;-5.00000;6.11472;,
 7.35331;-5.00000;6.13034;,
 11.68810;-5.00000;4.33481;,
 11.98630;-5.00000;4.01452;,
 12.26089;-5.00000;3.67378;,
 12.51047;-5.00000;3.31432;,
 12.73377;-5.00000;2.93797;,
 12.92965;-5.00000;2.54664;,
 13.09712;-5.00000;2.14234;,
 13.23532;-5.00000;1.72713;,
 13.34354;-5.00000;1.30311;,
 15.51541;-5.00000;1.17355;,
 13.48364;-5.00000;-0.00000;,
 13.46802;-5.00000;-0.43733;,
 13.42124;-5.00000;-0.87244;,
 13.34355;-5.00000;-1.30310;,
 13.23532;-5.00000;-1.72712;,
 13.09712;-5.00000;-2.14233;,
 12.92965;-5.00000;-2.54664;,
 12.73377;-5.00000;-2.93796;,
 12.51047;-5.00000;-3.31431;,
 13.95460;-5.00000;-4.94167;,
 11.68811;-5.00000;-4.33481;,
 11.36782;-5.00000;-4.63300;,
 11.02708;-5.00000;-4.90759;,
 10.66761;-5.00000;-5.15717;,
 9.10613;-5.00000;-8.05760;,
 10.29126;-5.00000;-5.38047;,
 9.89994;-5.00000;-5.57635;,
 9.49564;-5.00000;-5.74382;,
 9.08042;-5.00000;-5.88202;,
 8.65640;-5.00000;-5.99024;,
 8.22574;-5.00000;-6.06794;,
 5.62619;-5.00000;-5.88202;,
 6.05021;-5.00000;-5.99024;,
 6.48086;-5.00000;-6.06794;,
 8.22574;-5.00000;-6.06794;,
 9.10613;-5.00000;-8.05760;,
 7.79064;-5.00000;-6.11472;,
 6.91597;-5.00000;-6.11472;,
 7.35330;-5.00000;-6.13034;,
 3.67953;-5.00000;-4.90759;,
 5.03013;-5.00000;-7.91202;,
 4.03899;-5.00000;-5.15717;,
 4.41534;-5.00000;-5.38047;,
 -4.14670;-2.00000;4.00000;,
 -3.14670;-2.00000;4.00000;,
 -3.14670;-2.00000;3.00000;,
 -4.14670;-2.00000;3.00000;,
 -4.14670;-2.00000;3.00000;,
 -3.14670;-2.00000;3.00000;,
 -4.14670;-2.50000;3.00000;,
 -4.14670;-2.00000;4.00000;,
 -4.14670;-2.50000;4.00000;,
 -3.14670;-2.00000;4.00000;,
 -3.14670;-2.00000;3.00000;,
 -3.14670;-2.00000;4.00000;,
 -10.14670;0.00000;1.00000;,
 -14.14670;0.00000;4.50000;,
 -10.14670;0.00000;4.50000;,
 -8.14670;0.00000;1.00000;,
 -10.14670;0.00000;1.00000;,
 -10.14670;0.00000;4.50000;,
 -8.14670;0.00000;4.50000;,
 -4.14670;0.00000;4.50000;,
 -4.14670;0.00000;1.00000;,
 -6.14670;0.00000;1.00000;,
 -6.14670;0.00000;4.50000;,
 -7.64670;-0.50000;4.50000;,
 -6.64670;-0.50000;4.50000;,
 -6.64670;-0.50000;1.00000;,
 -7.64670;-0.50000;1.00000;,
 -6.64670;-0.50000;0.50000;,
 -7.64670;-0.50000;0.50000;,
 -6.14670;0.00000;1.00000;,
 -6.64670;-0.50000;0.50000;,
 -6.14670;0.00000;4.50000;,
 -4.14670;0.00000;1.00000;,
 -4.14670;-0.50000;0.50000;,
 -6.64670;-0.50000;0.50000;,
 -6.14670;0.00000;1.00000;,
 -8.14670;0.00000;4.50000;,
 -8.14670;0.00000;1.00000;,
 -8.14670;0.00000;1.00000;,
 -10.14736;-0.50000;0.50000;,
 -10.14670;0.00000;1.00000;,
 -10.14670;0.00000;-1.00000;,
 -10.14670;0.00000;-4.50000;,
 -14.14670;0.00000;-4.50000;,
 -13.07638;0.00000;1.75524;,
 -12.56190;0.00000;1.49310;,
 -12.15360;0.00000;1.08480;,
 -13.64670;0.00000;1.84557;,
 -14.21701;0.00000;1.75525;,
 -14.73150;0.00000;1.49310;,
 -12.15360;0.00000;-1.08480;,
 -12.56190;0.00000;-1.49310;,
 -13.07638;0.00000;-1.75524;,
 -14.73150;0.00000;-1.49310;,
 -14.21701;0.00000;-1.75525;,
 -13.64670;0.00000;-1.84557;,
 -4.64670;-6.50000;0.50000;,
 -4.64670;-6.50000;-0.50000;,
 -4.64670;-0.50000;-0.50000;,
 -4.64670;-0.50000;0.50000;,
 -4.26441;-6.50000;-1.87097;,
 -4.14670;-6.50000;-0.50000;,
 -4.02899;-6.50000;-1.87097;,
 -4.02898;-6.50000;1.87097;,
 -4.14670;-6.50000;0.50000;,
 -4.26441;-6.50000;1.87097;,
 -4.14670;-6.50000;0.50000;,
 -4.14670;-5.00000;-0.50000;,
 -4.26441;-5.00000;-1.87097;,
 -4.26441;-5.00000;1.87097;,
 -4.14670;-5.00000;0.50000;,
 -4.02898;-5.00000;1.87097;,
 -4.02898;-6.50000;1.87097;,
 -4.02898;-5.00000;1.87097;,
 -3.79542;-5.00000;1.84146;,
 -3.79542;-6.50000;1.84146;,
 -3.79542;-5.00000;1.84146;,
 -3.56739;-5.00000;1.78291;,
 -3.56739;-6.50000;1.78291;,
 -4.02898;-5.00000;1.87097;,
 -4.26441;-5.00000;1.87097;,
 -3.56739;-5.00000;1.78291;,
 -3.34850;-5.00000;1.69625;,
 -3.34850;-6.50000;1.69625;,
 -3.34850;-5.00000;1.69625;,
 -3.14220;-5.00000;1.58283;,
 -3.14220;-6.50000;1.58283;,
 -3.14220;-5.00000;1.58283;,
 -2.95174;-5.00000;1.44445;,
 -2.95174;-6.50000;1.44445;,
 -2.95174;-5.00000;1.44445;,
 -2.78012;-5.00000;1.28330;,
 -2.78012;-6.50000;1.28330;,
 -2.78012;-5.00000;1.28330;,
 -2.63006;-5.00000;1.10190;,
 -2.63006;-6.50000;1.10190;,
 -2.63006;-5.00000;1.10190;,
 -2.50391;-5.00000;0.90312;,
 -2.50391;-6.50000;0.90312;,
 -2.50391;-5.00000;0.90312;,
 -2.40368;-5.00000;0.69011;,
 -2.40368;-6.50000;0.69011;,
 -2.40368;-5.00000;0.69011;,
 -2.14670;-5.00000;0.50000;,
 -2.14670;-6.50000;0.50000;,
 -3.79542;-6.50000;-1.84146;,
 -3.79542;-5.00000;-1.84146;,
 -4.02899;-5.00000;-1.87097;,
 -3.56739;-6.50000;-1.78291;,
 -3.56739;-5.00000;-1.78291;,
 -3.79542;-5.00000;-1.84146;,
 -3.34850;-6.50000;-1.69625;,
 -3.34850;-5.00000;-1.69625;,
 -3.56739;-5.00000;-1.78291;,
 -3.14220;-6.50000;-1.58283;,
 -3.14220;-5.00000;-1.58283;,
 -3.34850;-5.00000;-1.69625;,
 -2.95174;-6.50000;-1.44446;,
 -2.95174;-5.00000;-1.44446;,
 -3.14220;-5.00000;-1.58283;,
 -2.78013;-6.50000;-1.28330;,
 -2.78013;-5.00000;-1.28330;,
 -2.95174;-5.00000;-1.44446;,
 -2.63006;-6.50000;-1.10190;,
 -2.63006;-5.00000;-1.10190;,
 -2.78013;-5.00000;-1.28330;,
 -4.14670;-5.00000;0.50000;,
 -4.14670;-5.00000;2.50000;,
 -4.26441;-5.00000;1.87097;,
 -4.14670;-5.00000;-0.50000;,
 -4.26441;-5.00000;-1.87097;,
 -4.14670;-5.00000;-2.50000;,
 -2.50392;-6.50000;-0.90313;,
 -2.50392;-5.00000;-0.90313;,
 -2.63006;-5.00000;-1.10190;,
 -2.40368;-6.50000;-0.69011;,
 -2.40368;-5.00000;-0.69011;,
 -2.50392;-5.00000;-0.90313;,
 -2.14670;-6.50000;-0.50000;,
 -2.14670;-5.00000;-0.50000;,
 -2.40368;-5.00000;-0.69011;,
 1.85330;-6.50000;-0.50221;,
 1.85330;-5.00000;-0.50000;,
 -2.14670;-5.00000;-0.50000;,
 -2.14670;-5.00000;0.50000;,
 1.85330;-5.00000;0.50000;,
 1.85330;-6.50000;0.50000;,
 -4.64670;-0.50000;0.50000;,
 -4.14670;-0.50000;0.50000;,
 -4.14670;-0.50000;-0.50000;,
 -4.64670;-0.50000;-0.50000;,
 -4.14670;0.00000;2.50000;,
 -4.14670;-5.00000;2.50000;,
 -4.14670;-5.00000;0.50000;,
 -4.14670;-5.00000;-2.50000;,
 -4.14670;0.00000;-2.50000;,
 -4.14670;0.00000;2.50000;,
 -4.14670;0.00000;1.00000;,
 -10.14670;0.00000;-1.00000;,
 -4.14670;0.00000;-1.00000;,
 -4.14670;0.00000;-2.50000;,
 -10.14670;0.00000;-2.50000;,
 -4.14670;0.00000;-2.50000;,
 -10.14735;-0.50000;-0.50000;,
 -4.14670;-6.50000;-0.50000;,
 -4.02899;-6.50000;-1.87097;,
 -4.14670;-6.50000;0.50000;,
 -2.14670;-6.50000;0.50000;,
 -4.14670;-6.50000;-0.50000;,
 -0.14670;-6.50000;0.50000;,
 -0.14670;-6.50000;-0.50000;,
 -2.14670;-6.50000;-0.50000;,
 -10.14736;-0.50000;0.50000;,
 -8.64670;-0.50000;0.50000;,
 -6.64670;-0.50000;0.50000;,
 -4.26441;-5.00000;-1.87097;,
 -4.02899;-5.00000;-1.87097;,
 -3.79542;-5.00000;-1.84146;,
 -13.18317;0.00000;1.42658;,
 -12.56190;0.00000;1.49310;,
 -12.15360;0.00000;1.08480;,
 -13.18317;0.00000;1.42658;,
 -13.64670;0.00000;1.50000;,
 -13.07638;0.00000;1.75524;,
 -13.64670;0.00000;1.50000;,
 -13.64670;0.00000;1.84557;,
 -13.64670;0.00000;1.50000;,
 -14.11022;0.00000;1.42659;,
 -14.21701;0.00000;1.75525;,
 -14.11022;0.00000;1.42659;,
 -14.52837;0.00000;1.21353;,
 -14.73150;0.00000;1.49310;,
 -13.18317;0.00000;-1.42658;,
 -12.15360;0.00000;-1.08480;,
 -12.56190;0.00000;-1.49310;,
 -13.07638;0.00000;-1.75524;,
 -13.64670;0.00000;-1.50000;,
 -13.18317;0.00000;-1.42658;,
 -13.64670;0.00000;-1.50000;,
 -13.64670;0.00000;-1.84557;,
 -13.64670;0.00000;-1.50000;,
 -14.21701;0.00000;-1.75525;,
 -14.11022;0.00000;-1.42659;,
 -14.11022;0.00000;-1.42659;,
 -14.73150;0.00000;-1.49310;,
 -14.52837;0.00000;-1.21353;,
 -14.52837;0.00000;1.21353;,
 -14.86022;0.00000;0.88168;,
 -15.13980;0.00000;1.08480;,
 -14.73150;0.00000;1.49310;,
 -14.86022;0.00000;0.88168;,
 -15.07328;0.00000;0.46353;,
 -15.40194;0.00000;0.57031;,
 -15.07328;0.00000;0.46353;,
 -15.14670;0.00000;0.00000;,
 -15.49227;0.00000;0.00000;,
 -14.52837;0.00000;-1.21353;,
 -14.73150;0.00000;-1.49310;,
 -15.13980;0.00000;-1.08480;,
 -14.86022;0.00000;-0.88168;,
 -14.86022;0.00000;-0.88168;,
 -15.40194;0.00000;-0.57031;,
 -15.07328;0.00000;-0.46353;,
 -15.07328;0.00000;-0.46353;,
 -15.49227;0.00000;-0.00000;,
 -15.14670;0.00000;-0.00000;;
 
 287;
 4;0,1,2,3;,
 4;4,5,6,7;,
 4;8,9,10,11;,
 4;12,13,14,15;,
 4;16,17,18,19;,
 4;20,21,22,23;,
 3;0,24,1;,
 4;1,25,26,16;,
 3;27,0,28;,
 3;6,29,7;,
 3;30,7,31;,
 3;24,0,32;,
 3;32,0,33;,
 3;33,0,34;,
 3;0,27,34;,
 3;25,1,35;,
 3;35,1,36;,
 3;36,1,37;,
 3;1,24,37;,
 3;7,29,38;,
 3;38,39,7;,
 3;39,40,7;,
 3;40,31,7;,
 3;6,41,42;,
 3;42,43,6;,
 3;43,29,6;,
 3;6,15,41;,
 3;41,15,44;,
 3;15,45,44;,
 4;46,47,48,49;,
 4;50,51,52,53;,
 4;54,55,56,57;,
 4;58,59,60,61;,
 4;62,63,56,52;,
 4;64,65,66,67;,
 4;68,4,7,69;,
 4;0,3,70,71;,
 3;72,73,74;,
 3;75,76,77;,
 3;78,79,76;,
 3;80,81,78;,
 3;82,83,84;,
 3;79,85,86;,
 3;87,88,89;,
 3;90,91,92;,
 3;93,94,95;,
 3;74,9,4;,
 3;3,22,76;,
 3;96,97,98;,
 3;97,99,98;,
 3;99,100,98;,
 3;100,101,98;,
 3;101,102,98;,
 3;102,103,98;,
 3;103,104,98;,
 3;104,105,98;,
 3;105,106,98;,
 3;106,107,98;,
 3;107,108,98;,
 3;108,109,98;,
 3;109,110,98;,
 3;110,111,98;,
 3;111,112,98;,
 3;112,113,98;,
 3;113,114,98;,
 3;114,115,98;,
 3;115,116,98;,
 3;116,117,98;,
 3;117,118,98;,
 3;118,62,98;,
 3;119,64,120;,
 3;64,121,120;,
 3;121,122,120;,
 3;122,123,120;,
 3;123,124,120;,
 3;124,125,120;,
 3;125,126,120;,
 3;126,127,120;,
 3;127,128,120;,
 3;128,129,120;,
 3;129,130,120;,
 3;130,131,120;,
 3;131,132,120;,
 3;132,133,120;,
 3;133,134,120;,
 3;134,135,120;,
 3;135,136,120;,
 3;136,137,120;,
 3;137,138,120;,
 3;138,139,120;,
 3;139,140,120;,
 3;140,141,120;,
 3;142,143,144;,
 3;143,145,146;,
 3;146,147,143;,
 3;147,148,143;,
 3;148,68,143;,
 3;149,150,151;,
 3;150,70,152;,
 3;150,152,153;,
 3;152,154,153;,
 3;154,155,153;,
 3;155,156,153;,
 3;150,153,157;,
 3;153,158,157;,
 3;157,151,150;,
 3;74,73,159;,
 3;74,159,160;,
 3;159,161,160;,
 3;161,162,160;,
 3;162,163,160;,
 3;163,164,160;,
 3;164,165,160;,
 3;165,166,160;,
 3;166,83,160;,
 3;83,82,160;,
 3;167,95,72;,
 3;95,94,168;,
 3;168,169,95;,
 3;169,170,95;,
 3;170,171,95;,
 3;171,172,95;,
 3;172,173,95;,
 3;173,174,95;,
 3;174,175,95;,
 3;175,176,95;,
 3;176,72,95;,
 3;95,92,93;,
 3;93,92,177;,
 3;177,92,178;,
 3;178,92,179;,
 3;179,92,180;,
 3;180,92,181;,
 3;181,92,182;,
 3;182,92,183;,
 3;183,92,184;,
 3;184,92,185;,
 3;92,91,185;,
 3;186,89,90;,
 3;90,89,187;,
 3;187,89,188;,
 3;188,89,189;,
 3;189,89,190;,
 3;190,89,191;,
 3;191,89,192;,
 3;192,89,193;,
 3;193,89,194;,
 3;194,89,195;,
 3;89,88,195;,
 3;87,196,197;,
 3;197,196,198;,
 3;198,196,199;,
 3;199,196,200;,
 3;196,201,200;,
 3;200,201,202;,
 3;202,201,203;,
 3;203,201,204;,
 3;204,201,205;,
 3;205,201,206;,
 3;201,207,206;,
 3;86,208,79;,
 3;208,209,79;,
 3;209,210,79;,
 3;211,212,213;,
 3;210,214,79;,
 3;214,215,79;,
 3;213,212,215;,
 3;212,79,215;,
 3;78,216,217;,
 3;216,218,217;,
 3;218,219,217;,
 3;219,85,217;,
 4;220,221,222,223;,
 3;224,225,226;,
 3;227,228,229;,
 4;228,226,230,231;,
 3;232,233,234;,
 4;235,236,237,238;,
 4;239,240,241,242;,
 4;243,244,245,246;,
 4;246,245,247,248;,
 4;249,250,244,251;,
 4;252,253,254,255;,
 4;256,243,248,257;,
 4;258,248,259,260;,
 3;261,262,263;,
 3;233,232,264;,
 3;264,232,265;,
 3;232,266,265;,
 3;233,264,267;,
 3;233,267,268;,
 3;268,269,233;,
 3;261,263,270;,
 3;270,263,271;,
 3;263,272,271;,
 3;273,274,263;,
 3;272,263,275;,
 3;263,274,275;,
 4;276,277,278,279;,
 3;280,281,282;,
 3;283,284,285;,
 4;276,286,281,277;,
 4;287,281,280,288;,
 4;289,285,286,290;,
 3;285,291,292;,
 4;292,293,294,295;,
 4;295,296,297,298;,
 3;299,285,300;,
 4;298,301,302,303;,
 4;303,304,305,306;,
 4;306,307,308,309;,
 4;309,310,311,312;,
 4;312,313,314,315;,
 4;315,316,317,318;,
 4;318,319,320,321;,
 4;321,322,323,324;,
 4;282,325,326,327;,
 4;325,328,329,330;,
 4;328,331,332,333;,
 4;331,334,335,336;,
 4;334,337,338,339;,
 4;337,340,341,342;,
 4;340,343,344,345;,
 3;346,347,348;,
 3;349,350,351;,
 4;343,352,353,354;,
 4;352,355,356,357;,
 4;355,358,359,360;,
 4;361,362,363,358;,
 4;324,364,365,366;,
 4;286,276,367,368;,
 4;369,370,277,281;,
 4;371,372,373,368;,
 4;287,374,375,369;,
 3;376,368,377;,
 4;378,379,380,381;,
 3;382,379,369;,
 4;369,379,378,383;,
 3;358,355,384;,
 3;384,355,385;,
 3;355,352,385;,
 3;352,343,385;,
 3;343,340,385;,
 3;340,337,385;,
 3;337,334,385;,
 3;334,331,385;,
 3;331,328,385;,
 3;328,325,385;,
 3;292,295,286;,
 3;295,298,286;,
 3;298,303,286;,
 3;303,306,286;,
 3;306,309,286;,
 3;309,312,286;,
 3;312,315,286;,
 3;315,318,286;,
 3;318,321,286;,
 3;321,324,286;,
 3;386,387,388;,
 3;387,389,388;,
 3;389,366,388;,
 3;366,361,390;,
 3;366,390,391;,
 3;391,388,366;,
 3;392,393,383;,
 3;393,394,383;,
 3;394,367,383;,
 3;367,370,383;,
 3;280,282,395;,
 3;282,396,395;,
 3;396,397,395;,
 3;398,399,400;,
 4;399,401,402,403;,
 3;404,405,403;,
 4;406,407,408,405;,
 4;409,410,411,408;,
 3;412,413,414;,
 4;414,415,416,417;,
 3;418,415,419;,
 4;420,419,421,422;,
 4;423,421,424,425;,
 4;426,427,428,429;,
 4;430,431,432,428;,
 4;433,434,435,432;,
 4;436,437,438,439;,
 4;440,438,441,442;,
 4;443,441,444,445;;
 
 MeshMaterialList {
  1;
  287;
  0,
  0,
  0,
  0,
  0,
  0,
  0,
  0,
  0,
  0,
  0,
  0,
  0,
  0,
  0,
  0,
  0,
  0,
  0,
  0,
  0,
  0,
  0,
  0,
  0,
  0,
  0,
  0,
  0,
  0,
  0,
  0,
  0,
  0,
  0,
  0,
  0,
  0,
  0,
  0,
  0,
  0,
  0,
  0,
  0,
  0,
  0,
  0,
  0,
  0,
  0,
  0,
  0,
  0,
  0,
  0,
  0,
  0,
  0,
  0,
  0,
  0,
  0,
  0,
  0,
  0,
  0,
  0,
  0,
  0,
  0,
  0,
  0,
  0,
  0,
  0,
  0,
  0,
  0,
  0,
  0,
  0,
  0,
  0,
  0,
  0,
  0,
  0,
  0,
  0,
  0,
  0,
  0,
  0,
  0,
  0,
  0,
  0,
  0,
  0,
  0,
  0,
  0,
  0,
  0,
  0,
  0,
  0,
  0,
  0,
  0,
  0,
  0,
  0,
  0,
  0,
  0,
  0,
  0,
  0,
  0,
  0,
  0,
  0,
  0,
  0,
  0,
  0,
  0,
  0,
  0,
  0,
  0,
  0,
  0,
  0,
  0,
  0,
  0,
  0,
  0,
  0,
  0,
  0,
  0,
  0,
  0,
  0,
  0,
  0,
  0,
  0,
  0,
  0,
  0,
  0,
  0,
  0,
  0,
  0,
  0,
  0,
  0,
  0,
  0,
  0,
  0,
  0,
  0,
  0,
  0,
  0,
  0,
  0,
  0,
  0,
  0,
  0,
  0,
  0,
  0,
  0,
  0,
  0,
  0,
  0,
  0,
  0,
  0,
  0,
  0,
  0,
  0,
  0,
  0,
  0,
  0,
  0,
  0,
  0,
  0,
  0,
  0,
  0,
  0,
  0,
  0,
  0,
  0,
  0,
  0,
  0,
  0,
  0,
  0,
  0,
  0,
  0,
  0,
  0,
  0,
  0,
  0,
  0,
  0,
  0,
  0,
  0,
  0,
  0,
  0,
  0,
  0,
  0,
  0,
  0,
  0,
  0,
  0,
  0,
  0,
  0,
  0,
  0,
  0,
  0,
  0,
  0,
  0,
  0,
  0,
  0,
  0,
  0,
  0,
  0,
  0,
  0,
  0,
  0,
  0,
  0,
  0,
  0,
  0,
  0,
  0,
  0,
  0,
  0,
  0,
  0,
  0,
  0,
  0,
  0,
  0,
  0,
  0,
  0,
  0,
  0,
  0,
  0,
  0,
  0,
  0;;
  Material {
   0.800000;0.800000;0.800000;1.000000;;
   5.000000;
   0.000000;0.000000;0.000000;;
   0.000000;0.000000;0.000000;;
  }
 }
 MeshNormals {
  72;
  1.000000;0.000000;0.000000;,
  0.000000;0.000000;-0.000000;,
  0.000000;1.000000;0.000000;,
  0.000000;0.000000;1.000000;,
  0.000000;0.000000;-1.000000;,
  0.447214;-0.894427;-0.000000;,
  0.382683;0.923880;0.000000;,
  -0.382683;0.923880;0.000000;,
  0.270598;0.923880;-0.270598;,
  -0.707107;0.707107;0.000000;,
  0.000000;0.707107;-0.707107;,
  0.707107;0.707107;0.000000;,
  0.000000;1.000000;0.000000;,
  0.000000;0.000000;-1.000000;,
  0.000000;0.000000;1.000000;,
  1.000000;0.000000;0.000000;,
  -0.187381;0.000000;0.982287;,
  -0.309017;0.000000;0.951057;,
  -0.425780;0.000000;0.904827;,
  -0.535827;0.000000;0.844328;,
  -0.637424;0.000000;0.770513;,
  -0.728969;0.000000;0.684547;,
  -0.809017;0.000000;0.587785;,
  -0.876306;0.000000;0.481754;,
  -0.773253;0.000000;0.634098;,
  -0.312981;-0.000388;0.949759;,
  -0.313109;0.000000;-0.949717;,
  -0.773252;0.000000;-0.634099;,
  -0.876308;0.000000;-0.481752;,
  -0.809018;0.000000;-0.587784;,
  -0.728970;0.000000;-0.684546;,
  -0.637425;0.000000;-0.770512;,
  -0.535828;0.000000;-0.844327;,
  -0.425781;0.000000;-0.904826;,
  -0.309019;0.000000;-0.951056;,
  -0.187383;0.000000;-0.982287;,
  -0.062792;0.000000;-0.998027;,
  0.000276;-0.000736;1.000000;,
  0.000000;1.000000;0.000000;,
  0.000000;0.988904;0.148554;,
  0.996334;0.000000;-0.085546;,
  0.999083;0.000000;-0.042812;,
  0.996334;0.000000;0.085543;,
  -0.000001;0.000000;-1.000000;,
  -0.125334;0.000000;-0.992115;,
  -0.248692;0.000000;-0.968583;,
  -0.368126;0.000000;-0.929776;,
  -0.481756;0.000000;-0.876306;,
  -0.587786;0.000000;-0.809016;,
  -0.684548;0.000000;-0.728967;,
  -0.770514;0.000000;-0.637423;,
  -0.844329;0.000000;-0.535825;,
  -0.904828;0.000000;-0.425777;,
  -0.594731;0.000000;-0.803925;,
  0.000000;-1.000000;-0.000000;,
  -0.125333;0.000000;0.992115;,
  -0.248689;0.000000;0.968583;,
  -0.368125;0.000000;0.929776;,
  -0.481754;0.000000;0.876307;,
  -0.587785;0.000000;0.809017;,
  -0.684547;0.000000;0.728968;,
  -0.770513;0.000000;0.637424;,
  -0.844328;0.000000;0.535827;,
  -0.904827;0.000000;0.425780;,
  -0.594736;0.000000;0.803921;,
  0.000000;0.382683;0.923880;,
  0.000000;0.923880;0.382683;,
  -0.000001;0.000000;-1.000000;,
  -0.041851;0.000000;0.999124;,
  0.000000;1.000000;0.000000;,
  0.000000;1.000000;0.000000;,
  0.000000;1.000000;0.000000;;
  287;
  4;2,2,2,2;,
  4;2,2,2,2;,
  4;2,2,2,2;,
  4;2,2,2,2;,
  4;2,2,2,2;,
  4;2,2,2,2;,
  3;2,2,2;,
  4;2,2,2,2;,
  3;2,2,2;,
  3;2,2,2;,
  3;2,2,2;,
  3;2,2,2;,
  3;2,2,2;,
  3;2,2,2;,
  3;2,2,2;,
  3;2,2,2;,
  3;2,2,2;,
  3;2,2,2;,
  3;2,2,2;,
  3;2,2,2;,
  3;2,2,2;,
  3;2,2,2;,
  3;2,2,2;,
  3;2,2,2;,
  3;2,2,2;,
  3;2,2,2;,
  3;2,2,2;,
  3;2,2,2;,
  3;2,2,2;,
  4;2,2,2,2;,
  4;2,2,2,2;,
  4;2,2,2,2;,
  4;2,2,2,2;,
  4;2,2,2,2;,
  4;2,2,2,2;,
  4;0,0,0,0;,
  4;0,0,0,0;,
  3;2,2,2;,
  3;2,2,2;,
  3;2,2,2;,
  3;2,2,2;,
  3;2,2,2;,
  3;2,2,2;,
  3;2,2,2;,
  3;2,2,2;,
  3;2,2,2;,
  3;2,2,2;,
  3;2,2,2;,
  3;2,2,2;,
  3;2,2,2;,
  3;2,2,2;,
  3;2,2,2;,
  3;2,2,2;,
  3;2,2,2;,
  3;2,2,2;,
  3;2,2,2;,
  3;2,2,2;,
  3;2,2,2;,
  3;2,2,2;,
  3;2,2,2;,
  3;2,2,2;,
  3;2,2,2;,
  3;2,2,2;,
  3;2,2,2;,
  3;2,2,2;,
  3;2,2,2;,
  3;2,2,2;,
  3;2,2,2;,
  3;2,2,2;,
  3;2,2,2;,
  3;2,2,2;,
  3;2,2,2;,
  3;2,2,2;,
  3;2,2,2;,
  3;2,2,2;,
  3;2,2,2;,
  3;2,2,2;,
  3;2,2,2;,
  3;2,2,2;,
  3;2,2,2;,
  3;2,2,2;,
  3;2,2,2;,
  3;2,2,2;,
  3;2,2,2;,
  3;2,2,2;,
  3;2,2,2;,
  3;2,2,2;,
  3;2,2,2;,
  3;2,2,2;,
  3;2,2,2;,
  3;2,2,2;,
  3;2,2,2;,
  3;1,1,1;,
  3;1,1,1;,
  3;1,1,1;,
  3;1,1,1;,
  3;1,1,1;,
  3;2,2,2;,
  3;2,2,2;,
  3;2,2,2;,
  3;1,1,1;,
  3;1,1,1;,
  3;1,1,1;,
  3;2,2,2;,
  3;1,1,1;,
  3;2,2,2;,
  3;2,2,2;,
  3;2,2,2;,
  3;2,2,2;,
  3;2,2,2;,
  3;2,2,2;,
  3;2,2,2;,
  3;2,2,2;,
  3;2,2,2;,
  3;2,2,2;,
  3;2,2,2;,
  3;2,2,2;,
  3;2,2,2;,
  3;2,2,2;,
  3;2,2,2;,
  3;2,2,2;,
  3;2,2,2;,
  3;2,2,2;,
  3;2,2,2;,
  3;2,2,2;,
  3;2,2,2;,
  3;2,2,2;,
  3;2,2,2;,
  3;2,2,2;,
  3;2,2,2;,
  3;2,2,2;,
  3;2,2,2;,
  3;2,2,2;,
  3;2,2,2;,
  3;2,2,2;,
  3;2,2,2;,
  3;2,2,2;,
  3;2,2,2;,
  3;2,2,2;,
  3;2,2,2;,
  3;2,2,2;,
  3;2,2,2;,
  3;2,2,2;,
  3;2,2,2;,
  3;2,2,2;,
  3;2,2,2;,
  3;2,2,2;,
  3;2,2,2;,
  3;2,2,2;,
  3;2,2,2;,
  3;2,2,2;,
  3;2,2,2;,
  3;2,2,2;,
  3;2,2,2;,
  3;2,2,2;,
  3;2,2,2;,
  3;2,2,2;,
  3;2,2,2;,
  3;2,2,2;,
  3;2,2,2;,
  3;2,2,2;,
  3;2,2,2;,
  3;2,2,2;,
  3;2,2,2;,
  3;2,2,2;,
  3;2,2,2;,
  3;2,2,2;,
  3;2,2,2;,
  3;2,2,2;,
  3;2,2,2;,
  3;2,2,2;,
  3;2,2,2;,
  4;2,2,2,2;,
  3;4,4,4;,
  3;3,3,3;,
  4;5,5,5,5;,
  3;2,2,2;,
  4;2,2,2,2;,
  4;2,2,2,2;,
  4;6,7,2,2;,
  4;2,2,2,8;,
  4;9,9,7,9;,
  4;10,10,10,10;,
  4;11,6,8,11;,
  4;10,8,10,10;,
  3;2,2,2;,
  3;2,2,2;,
  3;2,2,2;,
  3;2,2,2;,
  3;2,2,2;,
  3;2,2,2;,
  3;2,2,2;,
  3;2,2,2;,
  3;2,2,2;,
  3;2,2,2;,
  3;2,2,2;,
  3;2,2,2;,
  3;2,2,2;,
  4;15,15,15,15;,
  3;12,12,12;,
  3;12,12,12;,
  4;12,12,12,12;,
  4;41,40,40,40;,
  4;42,42,42,42;,
  3;67,43,36;,
  4;36,44,44,35;,
  4;35,45,45,34;,
  3;43,67,43;,
  4;34,46,46,33;,
  4;33,47,47,32;,
  4;32,48,48,31;,
  4;31,49,49,30;,
  4;30,50,50,29;,
  4;29,51,51,28;,
  4;28,52,52,27;,
  4;27,53,53,26;,
  4;68,16,55,55;,
  4;16,17,56,56;,
  4;17,18,57,57;,
  4;18,19,58,58;,
  4;19,20,59,59;,
  4;20,21,60,60;,
  4;21,22,61,61;,
  3;54,54,54;,
  3;54,54,54;,
  4;22,23,62,62;,
  4;23,24,63,63;,
  4;24,25,64,64;,
  4;37,37,37,25;,
  4;26,13,13,13;,
  4;13,13,13,13;,
  4;65,14,14,14;,
  4;15,15,15,15;,
  4;41,15,15,15;,
  3;15,15,15;,
  4;66,66,12,12;,
  3;15,15,15;,
  4;65,66,66,39;,
  3;12,12,12;,
  3;12,12,12;,
  3;12,12,12;,
  3;12,12,12;,
  3;12,12,12;,
  3;12,12,12;,
  3;12,12,12;,
  3;12,12,12;,
  3;12,12,12;,
  3;12,12,12;,
  3;12,12,12;,
  3;12,12,12;,
  3;12,12,12;,
  3;12,12,12;,
  3;12,12,12;,
  3;12,12,12;,
  3;12,12,12;,
  3;12,12,12;,
  3;12,12,12;,
  3;12,12,12;,
  3;12,12,12;,
  3;12,12,12;,
  3;12,12,12;,
  3;12,12,12;,
  3;12,12,12;,
  3;12,12,12;,
  3;38,12,39;,
  3;12,12,39;,
  3;12,12,39;,
  3;12,12,39;,
  3;14,68,14;,
  3;68,14,14;,
  3;54,54,54;,
  3;70,69,70;,
  4;69,69,69,69;,
  3;70,69,69;,
  4;69,69,69,69;,
  4;69,69,69,69;,
  3;70,70,69;,
  4;69,69,69,69;,
  3;70,69,69;,
  4;69,69,69,69;,
  4;69,69,69,69;,
  4;71,71,71,71;,
  4;71,71,71,71;,
  4;71,71,71,71;,
  4;71,71,71,71;,
  4;71,71,71,71;,
  4;71,71,71,71;;
 }
 MeshTextureCoords {
  446;
  0.000000;0.000000;,
  1.000000;0.000000;,
  1.000000;1.000000;,
  0.000000;1.000000;,
  0.000000;0.000000;,
  1.000000;0.000000;,
  1.000000;1.000000;,
  0.000000;1.000000;,
  0.000000;0.000000;,
  1.000000;0.000000;,
  1.000000;1.000000;,
  0.000000;1.000000;,
  0.000000;0.000000;,
  1.000000;0.000000;,
  1.000000;1.000000;,
  0.000000;1.000000;,
  0.000000;0.000000;,
  1.000000;0.000000;,
  1.000000;1.000000;,
  0.000000;1.000000;,
  0.000000;0.000000;,
  1.000000;0.000000;,
  1.000000;1.000000;,
  0.000000;1.000000;,
  0.000000;0.000000;,
  0.000000;0.000000;,
  0.000000;0.000000;,
  0.000000;0.000000;,
  0.000000;0.000000;,
  0.000000;0.000000;,
  0.000000;0.000000;,
  0.000000;0.000000;,
  0.000000;0.000000;,
  0.000000;0.000000;,
  0.000000;0.000000;,
  0.000000;0.000000;,
  0.000000;0.000000;,
  0.000000;0.000000;,
  0.000000;0.000000;,
  0.000000;0.000000;,
  0.000000;0.000000;,
  0.000000;0.000000;,
  0.000000;0.000000;,
  0.000000;0.000000;,
  0.000000;0.000000;,
  0.000000;0.000000;,
  0.000000;0.000000;,
  1.000000;0.000000;,
  1.000000;1.000000;,
  0.000000;1.000000;,
  0.000000;0.000000;,
  1.000000;0.000000;,
  1.000000;1.000000;,
  0.000000;1.000000;,
  0.000000;0.000000;,
  1.000000;0.000000;,
  1.000000;1.000000;,
  0.000000;1.000000;,
  0.000000;0.000000;,
  1.000000;0.000000;,
  1.000000;1.000000;,
  0.000000;1.000000;,
  0.000000;0.500000;,
  0.000000;0.000000;,
  0.000000;0.500000;,
  1.000000;1.000000;,
  1.000000;1.000000;,
  0.000000;0.000000;,
  0.000000;0.000000;,
  1.000000;0.000000;,
  0.000000;0.000000;,
  1.000000;1.000000;,
  0.000000;0.000000;,
  0.000000;0.000000;,
  0.000000;0.000000;,
  0.000000;0.000000;,
  0.000000;0.000000;,
  0.000000;0.000000;,
  0.000000;0.000000;,
  0.000000;0.000000;,
  0.000000;0.000000;,
  0.000000;0.000000;,
  0.000000;0.000000;,
  0.000000;0.000000;,
  0.000000;0.000000;,
  0.000000;0.000000;,
  0.000000;0.000000;,
  0.000000;0.000000;,
  0.000000;0.000000;,
  0.000000;0.000000;,
  0.000000;0.000000;,
  0.000000;0.000000;,
  0.000000;0.000000;,
  0.000000;0.000000;,
  0.000000;0.000000;,
  0.000000;0.000000;,
  0.750000;0.500000;,
  0.761363;0.500000;,
  0.000000;0.000000;,
  0.772727;0.500000;,
  0.784090;0.500000;,
  0.795454;0.500000;,
  0.806818;0.500000;,
  0.818181;0.500000;,
  0.829545;0.500000;,
  0.840909;0.500000;,
  0.852272;0.500000;,
  0.863636;0.500000;,
  0.874999;0.500000;,
  0.886363;0.500000;,
  0.897727;0.500000;,
  0.909090;0.500000;,
  0.920454;0.500000;,
  0.931818;0.500000;,
  0.943181;0.500000;,
  0.954545;0.500000;,
  0.965908;0.500000;,
  0.977272;0.500000;,
  0.988636;0.500000;,
  0.000000;0.000000;,
  0.750000;0.500000;,
  0.988636;0.500000;,
  0.977272;0.500000;,
  0.965908;0.500000;,
  0.954545;0.500000;,
  0.943181;0.500000;,
  0.931818;0.500000;,
  0.920454;0.500000;,
  0.909090;0.500000;,
  0.897727;0.500000;,
  0.886363;0.500000;,
  0.874999;0.500000;,
  0.863636;0.500000;,
  0.852272;0.500000;,
  0.840909;0.500000;,
  0.829545;0.500000;,
  0.818181;0.500000;,
  0.806818;0.500000;,
  0.795454;0.500000;,
  0.784090;0.500000;,
  0.772727;0.500000;,
  0.761363;0.500000;,
  0.000000;0.000000;,
  0.000000;0.000000;,
  0.000000;0.000000;,
  0.000000;0.000000;,
  0.000000;0.000000;,
  0.000000;0.000000;,
  0.000000;0.000000;,
  0.000000;0.000000;,
  1.000000;0.000000;,
  0.000000;0.000000;,
  0.000000;0.000000;,
  0.000000;0.000000;,
  0.000000;0.000000;,
  0.000000;0.000000;,
  0.000000;0.000000;,
  0.000000;0.000000;,
  0.000000;0.000000;,
  0.000000;0.000000;,
  0.000000;0.000000;,
  0.000000;0.000000;,
  0.000000;0.000000;,
  0.000000;0.000000;,
  0.000000;0.000000;,
  0.000000;0.000000;,
  0.000000;0.000000;,
  0.000000;0.000000;,
  0.000000;0.000000;,
  0.000000;0.000000;,
  0.000000;0.000000;,
  0.000000;0.000000;,
  0.000000;0.000000;,
  0.000000;0.000000;,
  0.000000;0.000000;,
  0.000000;0.000000;,
  0.000000;0.000000;,
  0.000000;0.000000;,
  0.000000;0.000000;,
  0.000000;0.000000;,
  0.000000;0.000000;,
  0.000000;0.000000;,
  0.000000;0.000000;,
  0.000000;0.000000;,
  0.000000;0.000000;,
  0.000000;0.000000;,
  0.000000;0.000000;,
  0.000000;0.000000;,
  0.000000;0.000000;,
  0.000000;0.000000;,
  0.000000;0.000000;,
  0.000000;0.000000;,
  0.000000;0.000000;,
  0.000000;0.000000;,
  0.000000;0.000000;,
  0.000000;0.000000;,
  0.000000;0.000000;,
  0.000000;0.000000;,
  0.000000;0.000000;,
  0.000000;0.000000;,
  0.000000;0.000000;,
  0.000000;0.000000;,
  0.000000;0.000000;,
  0.000000;0.000000;,
  0.000000;0.000000;,
  0.000000;0.000000;,
  0.000000;0.000000;,
  0.000000;0.000000;,
  0.000000;0.000000;,
  0.000000;0.000000;,
  0.000000;0.000000;,
  0.000000;0.000000;,
  0.000000;0.000000;,
  0.000000;0.000000;,
  0.000000;0.000000;,
  0.000000;0.000000;,
  0.000000;0.000000;,
  0.000000;0.000000;,
  0.000000;0.000000;,
  0.000000;0.000000;,
  0.000000;0.000000;,
  1.000000;0.000000;,
  1.000000;1.000000;,
  0.000000;1.000000;,
  0.000000;0.000000;,
  0.000000;0.000000;,
  0.000000;1.000000;,
  0.000000;0.000000;,
  0.000000;0.000000;,
  0.000000;0.000000;,
  0.000000;0.000000;,
  0.000000;0.000000;,
  0.000000;0.000000;,
  0.000000;1.000000;,
  0.000000;0.000000;,
  0.000000;0.000000;,
  0.000000;0.000000;,
  0.000000;0.000000;,
  0.000000;0.000000;,
  0.000000;0.000000;,
  0.000000;0.000000;,
  0.000000;0.000000;,
  0.000000;0.000000;,
  0.000000;0.000000;,
  0.000000;0.000000;,
  0.000000;0.000000;,
  0.000000;0.000000;,
  0.000000;0.000000;,
  0.000000;0.000000;,
  0.000000;0.000000;,
  0.000000;0.000000;,
  0.000000;0.000000;,
  0.000000;0.000000;,
  0.000000;0.000000;,
  0.000000;0.000000;,
  0.000000;0.000000;,
  0.000000;0.000000;,
  0.000000;0.000000;,
  0.000000;0.000000;,
  0.000000;0.000000;,
  0.000000;0.000000;,
  0.000000;0.000000;,
  0.000000;0.000000;,
  0.000000;1.000000;,
  0.000000;0.000000;,
  0.000000;0.000000;,
  0.000000;0.000000;,
  0.000000;0.000000;,
  0.000000;0.000000;,
  0.000000;0.000000;,
  0.000000;0.000000;,
  0.000000;0.000000;,
  0.000000;0.000000;,
  0.000000;0.000000;,
  0.000000;0.000000;,
  0.000000;0.000000;,
  0.000000;0.000000;,
  0.000000;0.000000;,
  0.000000;0.000000;,
  0.000000;0.000000;,
  0.000000;0.000000;,
  0.000000;0.000000;,
  0.000000;0.000000;,
  0.000000;0.000000;,
  0.000000;0.000000;,
  0.000000;0.000000;,
  0.000000;0.000000;,
  0.000000;0.000000;,
  0.000000;0.000000;,
  0.000000;0.000000;,
  0.000000;0.000000;,
  0.000000;0.000000;,
  0.000000;0.000000;,
  0.000000;0.000000;,
  0.000000;0.000000;,
  0.000000;0.000000;,
  0.000000;0.000000;,
  0.000000;0.000000;,
  0.000000;0.000000;,
  0.000000;0.000000;,
  0.000000;0.000000;,
  0.000000;0.000000;,
  0.000000;0.000000;,
  0.000000;0.000000;,
  0.000000;0.000000;,
  0.000000;0.000000;,
  0.000000;0.000000;,
  0.000000;0.000000;,
  0.000000;0.000000;,
  0.000000;0.000000;,
  0.000000;0.000000;,
  0.000000;0.000000;,
  0.000000;0.000000;,
  0.000000;0.000000;,
  0.000000;0.000000;,
  0.000000;0.000000;,
  0.000000;0.000000;,
  0.000000;0.000000;,
  0.000000;0.000000;,
  0.000000;0.000000;,
  0.000000;0.000000;,
  0.000000;0.000000;,
  0.000000;0.000000;,
  0.000000;0.000000;,
  0.000000;0.000000;,
  0.000000;0.000000;,
  0.000000;0.000000;,
  0.000000;0.000000;,
  0.000000;0.000000;,
  0.000000;0.000000;,
  0.000000;0.000000;,
  0.000000;0.000000;,
  0.000000;0.000000;,
  0.000000;0.000000;,
  0.000000;0.000000;,
  0.000000;0.000000;,
  0.000000;0.000000;,
  0.000000;0.000000;,
  0.000000;0.000000;,
  0.000000;0.000000;,
  0.000000;0.000000;,
  0.000000;0.000000;,
  0.000000;0.000000;,
  0.000000;0.000000;,
  0.000000;0.000000;,
  0.000000;0.000000;,
  0.000000;0.000000;,
  0.000000;0.000000;,
  0.000000;0.000000;,
  0.000000;0.000000;,
  0.000000;0.000000;,
  0.000000;0.000000;,
  0.000000;0.000000;,
  0.000000;0.000000;,
  0.000000;0.000000;,
  0.000000;0.000000;,
  0.000000;0.000000;,
  0.000000;0.000000;,
  0.000000;0.000000;,
  0.000000;0.000000;,
  0.000000;0.000000;,
  0.000000;0.000000;,
  0.000000;0.000000;,
  0.000000;0.000000;,
  0.000000;0.000000;,
  0.000000;0.000000;,
  0.000000;0.000000;,
  0.000000;0.000000;,
  0.000000;0.000000;,
  0.000000;0.000000;,
  0.000000;0.000000;,
  0.000000;0.000000;,
  0.000000;0.000000;,
  0.000000;0.000000;,
  0.000000;0.000000;,
  0.000000;0.000000;,
  0.000000;0.000000;,
  0.000000;0.000000;,
  0.000000;0.000000;,
  0.000000;0.000000;,
  0.000000;0.000000;,
  0.000000;0.000000;,
  0.000000;0.000000;,
  0.000000;0.000000;,
  0.000000;0.000000;,
  0.000000;0.000000;,
  0.000000;0.000000;,
  0.000000;0.000000;,
  0.000000;0.000000;,
  0.000000;0.000000;,
  0.000000;0.000000;,
  0.000000;0.000000;,
  0.000000;0.000000;,
  0.000000;0.000000;,
  0.000000;0.000000;,
  0.000000;0.000000;,
  0.000000;0.000000;,
  0.000000;0.000000;,
  0.000000;0.000000;,
  0.850000;0.000000;,
  0.900000;0.000000;,
  0.000000;0.000000;,
  0.000000;0.000000;,
  0.800000;0.000000;,
  0.000000;0.000000;,
  0.750000;0.000000;,
  0.000000;0.000000;,
  0.000000;0.000000;,
  0.700000;0.000000;,
  0.000000;0.000000;,
  0.000000;0.000000;,
  0.650000;0.000000;,
  0.000000;0.000000;,
  0.900000;0.000000;,
  0.850000;0.000000;,
  0.800000;0.000000;,
  0.000000;0.000000;,
  0.000000;0.000000;,
  0.000000;0.000000;,
  0.750000;0.000000;,
  0.000000;0.000000;,
  0.700000;0.000000;,
  0.000000;0.000000;,
  0.000000;0.000000;,
  0.650000;0.000000;,
  0.000000;0.000000;,
  0.000000;0.000000;,
  0.000000;0.000000;,
  0.600000;0.000000;,
  0.650000;0.000000;,
  0.000000;0.000000;,
  0.000000;0.000000;,
  0.550000;0.000000;,
  0.000000;0.000000;,
  0.000000;0.000000;,
  0.500000;0.000000;,
  0.000000;0.000000;,
  0.650000;0.000000;,
  0.600000;0.000000;,
  0.000000;0.000000;,
  0.000000;0.000000;,
  0.550000;0.000000;,
  0.000000;0.000000;,
  0.000000;0.000000;,
  0.500000;0.000000;,
  0.000000;0.000000;;
 }
 MeshVertexColors {
  446;
  0;1.000000;1.000000;1.000000;1.000000;,
  1;1.000000;1.000000;1.000000;1.000000;,
  2;1.000000;1.000000;1.000000;1.000000;,
  3;1.000000;1.000000;1.000000;1.000000;,
  4;1.000000;1.000000;1.000000;1.000000;,
  5;1.000000;1.000000;1.000000;1.000000;,
  6;1.000000;1.000000;1.000000;1.000000;,
  7;1.000000;1.000000;1.000000;1.000000;,
  8;1.000000;1.000000;1.000000;1.000000;,
  9;1.000000;1.000000;1.000000;1.000000;,
  10;1.000000;1.000000;1.000000;1.000000;,
  11;1.000000;1.000000;1.000000;1.000000;,
  12;1.000000;1.000000;1.000000;1.000000;,
  13;1.000000;1.000000;1.000000;1.000000;,
  14;1.000000;1.000000;1.000000;1.000000;,
  15;1.000000;1.000000;1.000000;1.000000;,
  16;1.000000;1.000000;1.000000;1.000000;,
  17;1.000000;1.000000;1.000000;1.000000;,
  18;1.000000;1.000000;1.000000;1.000000;,
  19;1.000000;1.000000;1.000000;1.000000;,
  20;1.000000;1.000000;1.000000;1.000000;,
  21;1.000000;1.000000;1.000000;1.000000;,
  22;1.000000;1.000000;1.000000;1.000000;,
  23;1.000000;1.000000;1.000000;1.000000;,
  24;1.000000;1.000000;1.000000;1.000000;,
  25;1.000000;1.000000;1.000000;1.000000;,
  26;1.000000;1.000000;1.000000;1.000000;,
  27;1.000000;1.000000;1.000000;1.000000;,
  28;1.000000;1.000000;1.000000;1.000000;,
  29;1.000000;1.000000;1.000000;1.000000;,
  30;1.000000;1.000000;1.000000;1.000000;,
  31;1.000000;1.000000;1.000000;1.000000;,
  32;1.000000;1.000000;1.000000;1.000000;,
  33;1.000000;1.000000;1.000000;1.000000;,
  34;1.000000;1.000000;1.000000;1.000000;,
  35;1.000000;1.000000;1.000000;1.000000;,
  36;1.000000;1.000000;1.000000;1.000000;,
  37;1.000000;1.000000;1.000000;1.000000;,
  38;1.000000;1.000000;1.000000;1.000000;,
  39;1.000000;1.000000;1.000000;1.000000;,
  40;1.000000;1.000000;1.000000;1.000000;,
  41;1.000000;1.000000;1.000000;1.000000;,
  42;1.000000;1.000000;1.000000;1.000000;,
  43;1.000000;1.000000;1.000000;1.000000;,
  44;1.000000;1.000000;1.000000;1.000000;,
  45;1.000000;1.000000;1.000000;1.000000;,
  46;1.000000;1.000000;1.000000;1.000000;,
  47;1.000000;1.000000;1.000000;1.000000;,
  48;1.000000;1.000000;1.000000;1.000000;,
  49;1.000000;1.000000;1.000000;1.000000;,
  50;1.000000;1.000000;1.000000;1.000000;,
  51;1.000000;1.000000;1.000000;1.000000;,
  52;1.000000;1.000000;1.000000;1.000000;,
  53;1.000000;1.000000;1.000000;1.000000;,
  54;1.000000;1.000000;1.000000;1.000000;,
  55;1.000000;1.000000;1.000000;1.000000;,
  56;1.000000;1.000000;1.000000;1.000000;,
  57;1.000000;1.000000;1.000000;1.000000;,
  58;1.000000;1.000000;1.000000;1.000000;,
  59;1.000000;1.000000;1.000000;1.000000;,
  60;1.000000;1.000000;1.000000;1.000000;,
  61;1.000000;1.000000;1.000000;1.000000;,
  62;1.000000;1.000000;1.000000;1.000000;,
  63;1.000000;1.000000;1.000000;1.000000;,
  64;1.000000;1.000000;1.000000;1.000000;,
  65;1.000000;1.000000;1.000000;1.000000;,
  66;1.000000;1.000000;1.000000;1.000000;,
  67;1.000000;1.000000;1.000000;1.000000;,
  68;1.000000;1.000000;1.000000;1.000000;,
  69;1.000000;1.000000;1.000000;1.000000;,
  70;1.000000;1.000000;1.000000;1.000000;,
  71;1.000000;1.000000;1.000000;1.000000;,
  72;1.000000;1.000000;1.000000;1.000000;,
  73;1.000000;1.000000;1.000000;1.000000;,
  74;1.000000;1.000000;1.000000;1.000000;,
  75;1.000000;1.000000;1.000000;1.000000;,
  76;1.000000;1.000000;1.000000;1.000000;,
  77;1.000000;1.000000;1.000000;1.000000;,
  78;1.000000;1.000000;1.000000;1.000000;,
  79;1.000000;1.000000;1.000000;1.000000;,
  80;1.000000;1.000000;1.000000;1.000000;,
  81;1.000000;1.000000;1.000000;1.000000;,
  82;1.000000;1.000000;1.000000;1.000000;,
  83;1.000000;1.000000;1.000000;1.000000;,
  84;1.000000;1.000000;1.000000;1.000000;,
  85;1.000000;1.000000;1.000000;1.000000;,
  86;1.000000;1.000000;1.000000;1.000000;,
  87;1.000000;1.000000;1.000000;1.000000;,
  88;1.000000;1.000000;1.000000;1.000000;,
  89;1.000000;1.000000;1.000000;1.000000;,
  90;1.000000;1.000000;1.000000;1.000000;,
  91;1.000000;1.000000;1.000000;1.000000;,
  92;1.000000;1.000000;1.000000;1.000000;,
  93;1.000000;1.000000;1.000000;1.000000;,
  94;1.000000;1.000000;1.000000;1.000000;,
  95;1.000000;1.000000;1.000000;1.000000;,
  96;1.000000;1.000000;1.000000;1.000000;,
  97;1.000000;1.000000;1.000000;1.000000;,
  98;1.000000;1.000000;1.000000;1.000000;,
  99;1.000000;1.000000;1.000000;1.000000;,
  100;1.000000;1.000000;1.000000;1.000000;,
  101;1.000000;1.000000;1.000000;1.000000;,
  102;1.000000;1.000000;1.000000;1.000000;,
  103;1.000000;1.000000;1.000000;1.000000;,
  104;1.000000;1.000000;1.000000;1.000000;,
  105;1.000000;1.000000;1.000000;1.000000;,
  106;1.000000;1.000000;1.000000;1.000000;,
  107;1.000000;1.000000;1.000000;1.000000;,
  108;1.000000;1.000000;1.000000;1.000000;,
  109;1.000000;1.000000;1.000000;1.000000;,
  110;1.000000;1.000000;1.000000;1.000000;,
  111;1.000000;1.000000;1.000000;1.000000;,
  112;1.000000;1.000000;1.000000;1.000000;,
  113;1.000000;1.000000;1.000000;1.000000;,
  114;1.000000;1.000000;1.000000;1.000000;,
  115;1.000000;1.000000;1.000000;1.000000;,
  116;1.000000;1.000000;1.000000;1.000000;,
  117;1.000000;1.000000;1.000000;1.000000;,
  118;1.000000;1.000000;1.000000;1.000000;,
  119;1.000000;1.000000;1.000000;1.000000;,
  120;1.000000;1.000000;1.000000;1.000000;,
  121;1.000000;1.000000;1.000000;1.000000;,
  122;1.000000;1.000000;1.000000;1.000000;,
  123;1.000000;1.000000;1.000000;1.000000;,
  124;1.000000;1.000000;1.000000;1.000000;,
  125;1.000000;1.000000;1.000000;1.000000;,
  126;1.000000;1.000000;1.000000;1.000000;,
  127;1.000000;1.000000;1.000000;1.000000;,
  128;1.000000;1.000000;1.000000;1.000000;,
  129;1.000000;1.000000;1.000000;1.000000;,
  130;1.000000;1.000000;1.000000;1.000000;,
  131;1.000000;1.000000;1.000000;1.000000;,
  132;1.000000;1.000000;1.000000;1.000000;,
  133;1.000000;1.000000;1.000000;1.000000;,
  134;1.000000;1.000000;1.000000;1.000000;,
  135;1.000000;1.000000;1.000000;1.000000;,
  136;1.000000;1.000000;1.000000;1.000000;,
  137;1.000000;1.000000;1.000000;1.000000;,
  138;1.000000;1.000000;1.000000;1.000000;,
  139;1.000000;1.000000;1.000000;1.000000;,
  140;1.000000;1.000000;1.000000;1.000000;,
  141;1.000000;1.000000;1.000000;1.000000;,
  142;1.000000;1.000000;1.000000;1.000000;,
  143;1.000000;1.000000;1.000000;1.000000;,
  144;1.000000;1.000000;1.000000;1.000000;,
  145;1.000000;1.000000;1.000000;1.000000;,
  146;1.000000;1.000000;1.000000;1.000000;,
  147;1.000000;1.000000;1.000000;1.000000;,
  148;1.000000;1.000000;1.000000;1.000000;,
  149;1.000000;1.000000;1.000000;1.000000;,
  150;1.000000;1.000000;1.000000;1.000000;,
  151;1.000000;1.000000;1.000000;1.000000;,
  152;1.000000;1.000000;1.000000;1.000000;,
  153;1.000000;1.000000;1.000000;1.000000;,
  154;1.000000;1.000000;1.000000;1.000000;,
  155;1.000000;1.000000;1.000000;1.000000;,
  156;1.000000;1.000000;1.000000;1.000000;,
  157;1.000000;1.000000;1.000000;1.000000;,
  158;1.000000;1.000000;1.000000;1.000000;,
  159;1.000000;1.000000;1.000000;1.000000;,
  160;1.000000;1.000000;1.000000;1.000000;,
  161;1.000000;1.000000;1.000000;1.000000;,
  162;1.000000;1.000000;1.000000;1.000000;,
  163;1.000000;1.000000;1.000000;1.000000;,
  164;1.000000;1.000000;1.000000;1.000000;,
  165;1.000000;1.000000;1.000000;1.000000;,
  166;1.000000;1.000000;1.000000;1.000000;,
  167;1.000000;1.000000;1.000000;1.000000;,
  168;1.000000;1.000000;1.000000;1.000000;,
  169;1.000000;1.000000;1.000000;1.000000;,
  170;1.000000;1.000000;1.000000;1.000000;,
  171;1.000000;1.000000;1.000000;1.000000;,
  172;1.000000;1.000000;1.000000;1.000000;,
  173;1.000000;1.000000;1.000000;1.000000;,
  174;1.000000;1.000000;1.000000;1.000000;,
  175;1.000000;1.000000;1.000000;1.000000;,
  176;1.000000;1.000000;1.000000;1.000000;,
  177;1.000000;1.000000;1.000000;1.000000;,
  178;1.000000;1.000000;1.000000;1.000000;,
  179;1.000000;1.000000;1.000000;1.000000;,
  180;1.000000;1.000000;1.000000;1.000000;,
  181;1.000000;1.000000;1.000000;1.000000;,
  182;1.000000;1.000000;1.000000;1.000000;,
  183;1.000000;1.000000;1.000000;1.000000;,
  184;1.000000;1.000000;1.000000;1.000000;,
  185;1.000000;1.000000;1.000000;1.000000;,
  186;1.000000;1.000000;1.000000;1.000000;,
  187;1.000000;1.000000;1.000000;1.000000;,
  188;1.000000;1.000000;1.000000;1.000000;,
  189;1.000000;1.000000;1.000000;1.000000;,
  190;1.000000;1.000000;1.000000;1.000000;,
  191;1.000000;1.000000;1.000000;1.000000;,
  192;1.000000;1.000000;1.000000;1.000000;,
  193;1.000000;1.000000;1.000000;1.000000;,
  194;1.000000;1.000000;1.000000;1.000000;,
  195;1.000000;1.000000;1.000000;1.000000;,
  196;1.000000;1.000000;1.000000;1.000000;,
  197;1.000000;1.000000;1.000000;1.000000;,
  198;1.000000;1.000000;1.000000;1.000000;,
  199;1.000000;1.000000;1.000000;1.000000;,
  200;1.000000;1.000000;1.000000;1.000000;,
  201;1.000000;1.000000;1.000000;1.000000;,
  202;1.000000;1.000000;1.000000;1.000000;,
  203;1.000000;1.000000;1.000000;1.000000;,
  204;1.000000;1.000000;1.000000;1.000000;,
  205;1.000000;1.000000;1.000000;1.000000;,
  206;1.000000;1.000000;1.000000;1.000000;,
  207;1.000000;1.000000;1.000000;1.000000;,
  208;1.000000;1.000000;1.000000;1.000000;,
  209;1.000000;1.000000;1.000000;1.000000;,
  210;1.000000;1.000000;1.000000;1.000000;,
  211;1.000000;1.000000;1.000000;1.000000;,
  212;1.000000;1.000000;1.000000;1.000000;,
  213;1.000000;1.000000;1.000000;1.000000;,
  214;1.000000;1.000000;1.000000;1.000000;,
  215;1.000000;1.000000;1.000000;1.000000;,
  216;1.000000;1.000000;1.000000;1.000000;,
  217;1.000000;1.000000;1.000000;1.000000;,
  218;1.000000;1.000000;1.000000;1.000000;,
  219;1.000000;1.000000;1.000000;1.000000;,
  220;1.000000;1.000000;1.000000;1.000000;,
  221;1.000000;1.000000;1.000000;1.000000;,
  222;1.000000;1.000000;1.000000;1.000000;,
  223;1.000000;1.000000;1.000000;1.000000;,
  224;1.000000;1.000000;1.000000;1.000000;,
  225;1.000000;1.000000;1.000000;1.000000;,
  226;1.000000;1.000000;1.000000;1.000000;,
  227;1.000000;1.000000;1.000000;1.000000;,
  228;1.000000;1.000000;1.000000;1.000000;,
  229;1.000000;1.000000;1.000000;1.000000;,
  230;1.000000;1.000000;1.000000;1.000000;,
  231;1.000000;1.000000;1.000000;1.000000;,
  232;1.000000;1.000000;1.000000;1.000000;,
  233;1.000000;1.000000;1.000000;1.000000;,
  234;1.000000;1.000000;1.000000;1.000000;,
  235;1.000000;1.000000;1.000000;1.000000;,
  236;1.000000;1.000000;1.000000;1.000000;,
  237;1.000000;1.000000;1.000000;1.000000;,
  238;1.000000;1.000000;1.000000;1.000000;,
  239;1.000000;1.000000;1.000000;1.000000;,
  240;1.000000;1.000000;1.000000;1.000000;,
  241;1.000000;1.000000;1.000000;1.000000;,
  242;1.000000;1.000000;1.000000;1.000000;,
  243;1.000000;1.000000;1.000000;1.000000;,
  244;1.000000;1.000000;1.000000;1.000000;,
  245;1.000000;1.000000;1.000000;1.000000;,
  246;1.000000;1.000000;1.000000;1.000000;,
  247;1.000000;1.000000;1.000000;1.000000;,
  248;1.000000;1.000000;1.000000;1.000000;,
  249;1.000000;1.000000;1.000000;1.000000;,
  250;1.000000;1.000000;1.000000;1.000000;,
  251;1.000000;1.000000;1.000000;1.000000;,
  252;1.000000;1.000000;1.000000;1.000000;,
  253;1.000000;1.000000;1.000000;1.000000;,
  254;1.000000;1.000000;1.000000;1.000000;,
  255;1.000000;1.000000;1.000000;1.000000;,
  256;1.000000;1.000000;1.000000;1.000000;,
  257;1.000000;1.000000;1.000000;1.000000;,
  258;1.000000;1.000000;1.000000;1.000000;,
  259;1.000000;1.000000;1.000000;1.000000;,
  260;1.000000;1.000000;1.000000;1.000000;,
  261;1.000000;1.000000;1.000000;1.000000;,
  262;1.000000;1.000000;1.000000;1.000000;,
  263;1.000000;1.000000;1.000000;1.000000;,
  264;1.000000;1.000000;1.000000;1.000000;,
  265;1.000000;1.000000;1.000000;1.000000;,
  266;1.000000;1.000000;1.000000;1.000000;,
  267;1.000000;1.000000;1.000000;1.000000;,
  268;1.000000;1.000000;1.000000;1.000000;,
  269;1.000000;1.000000;1.000000;1.000000;,
  270;1.000000;1.000000;1.000000;1.000000;,
  271;1.000000;1.000000;1.000000;1.000000;,
  272;1.000000;1.000000;1.000000;1.000000;,
  273;1.000000;1.000000;1.000000;1.000000;,
  274;1.000000;1.000000;1.000000;1.000000;,
  275;1.000000;1.000000;1.000000;1.000000;,
  276;1.000000;1.000000;1.000000;1.000000;,
  277;1.000000;1.000000;1.000000;1.000000;,
  278;1.000000;1.000000;1.000000;1.000000;,
  279;1.000000;1.000000;1.000000;1.000000;,
  280;1.000000;1.000000;1.000000;1.000000;,
  281;1.000000;1.000000;1.000000;1.000000;,
  282;1.000000;1.000000;1.000000;1.000000;,
  283;1.000000;1.000000;1.000000;1.000000;,
  284;1.000000;1.000000;1.000000;1.000000;,
  285;1.000000;1.000000;1.000000;1.000000;,
  286;1.000000;1.000000;1.000000;1.000000;,
  287;1.000000;1.000000;1.000000;1.000000;,
  288;1.000000;1.000000;1.000000;1.000000;,
  289;1.000000;1.000000;1.000000;1.000000;,
  290;1.000000;1.000000;1.000000;1.000000;,
  291;1.000000;1.000000;1.000000;1.000000;,
  292;1.000000;1.000000;1.000000;1.000000;,
  293;1.000000;1.000000;1.000000;1.000000;,
  294;1.000000;1.000000;1.000000;1.000000;,
  295;1.000000;1.000000;1.000000;1.000000;,
  296;1.000000;1.000000;1.000000;1.000000;,
  297;1.000000;1.000000;1.000000;1.000000;,
  298;1.000000;1.000000;1.000000;1.000000;,
  299;1.000000;1.000000;1.000000;1.000000;,
  300;1.000000;1.000000;1.000000;1.000000;,
  301;1.000000;1.000000;1.000000;1.000000;,
  302;1.000000;1.000000;1.000000;1.000000;,
  303;1.000000;1.000000;1.000000;1.000000;,
  304;1.000000;1.000000;1.000000;1.000000;,
  305;1.000000;1.000000;1.000000;1.000000;,
  306;1.000000;1.000000;1.000000;1.000000;,
  307;1.000000;1.000000;1.000000;1.000000;,
  308;1.000000;1.000000;1.000000;1.000000;,
  309;1.000000;1.000000;1.000000;1.000000;,
  310;1.000000;1.000000;1.000000;1.000000;,
  311;1.000000;1.000000;1.000000;1.000000;,
  312;1.000000;1.000000;1.000000;1.000000;,
  313;1.000000;1.000000;1.000000;1.000000;,
  314;1.000000;1.000000;1.000000;1.000000;,
  315;1.000000;1.000000;1.000000;1.000000;,
  316;1.000000;1.000000;1.000000;1.000000;,
  317;1.000000;1.000000;1.000000;1.000000;,
  318;1.000000;1.000000;1.000000;1.000000;,
  319;1.000000;1.000000;1.000000;1.000000;,
  320;1.000000;1.000000;1.000000;1.000000;,
  321;1.000000;1.000000;1.000000;1.000000;,
  322;1.000000;1.000000;1.000000;1.000000;,
  323;1.000000;1.000000;1.000000;1.000000;,
  324;1.000000;1.000000;1.000000;1.000000;,
  325;1.000000;1.000000;1.000000;1.000000;,
  326;1.000000;1.000000;1.000000;1.000000;,
  327;1.000000;1.000000;1.000000;1.000000;,
  328;1.000000;1.000000;1.000000;1.000000;,
  329;1.000000;1.000000;1.000000;1.000000;,
  330;1.000000;1.000000;1.000000;1.000000;,
  331;1.000000;1.000000;1.000000;1.000000;,
  332;1.000000;1.000000;1.000000;1.000000;,
  333;1.000000;1.000000;1.000000;1.000000;,
  334;1.000000;1.000000;1.000000;1.000000;,
  335;1.000000;1.000000;1.000000;1.000000;,
  336;1.000000;1.000000;1.000000;1.000000;,
  337;1.000000;1.000000;1.000000;1.000000;,
  338;1.000000;1.000000;1.000000;1.000000;,
  339;1.000000;1.000000;1.000000;1.000000;,
  340;1.000000;1.000000;1.000000;1.000000;,
  341;1.000000;1.000000;1.000000;1.000000;,
  342;1.000000;1.000000;1.000000;1.000000;,
  343;1.000000;1.000000;1.000000;1.000000;,
  344;1.000000;1.000000;1.000000;1.000000;,
  345;1.000000;1.000000;1.000000;1.000000;,
  346;1.000000;1.000000;1.000000;1.000000;,
  347;1.000000;1.000000;1.000000;1.000000;,
  348;1.000000;1.000000;1.000000;1.000000;,
  349;1.000000;1.000000;1.000000;1.000000;,
  350;1.000000;1.000000;1.000000;1.000000;,
  351;1.000000;1.000000;1.000000;1.000000;,
  352;1.000000;1.000000;1.000000;1.000000;,
  353;1.000000;1.000000;1.000000;1.000000;,
  354;1.000000;1.000000;1.000000;1.000000;,
  355;1.000000;1.000000;1.000000;1.000000;,
  356;1.000000;1.000000;1.000000;1.000000;,
  357;1.000000;1.000000;1.000000;1.000000;,
  358;1.000000;1.000000;1.000000;1.000000;,
  359;1.000000;1.000000;1.000000;1.000000;,
  360;1.000000;1.000000;1.000000;1.000000;,
  361;1.000000;1.000000;1.000000;1.000000;,
  362;1.000000;1.000000;1.000000;1.000000;,
  363;1.000000;1.000000;1.000000;1.000000;,
  364;1.000000;1.000000;1.000000;1.000000;,
  365;1.000000;1.000000;1.000000;1.000000;,
  366;1.000000;1.000000;1.000000;1.000000;,
  367;1.000000;1.000000;1.000000;1.000000;,
  368;1.000000;1.000000;1.000000;1.000000;,
  369;1.000000;1.000000;1.000000;1.000000;,
  370;1.000000;1.000000;1.000000;1.000000;,
  371;1.000000;1.000000;1.000000;1.000000;,
  372;1.000000;1.000000;1.000000;1.000000;,
  373;1.000000;1.000000;1.000000;1.000000;,
  374;1.000000;1.000000;1.000000;1.000000;,
  375;1.000000;1.000000;1.000000;1.000000;,
  376;1.000000;1.000000;1.000000;1.000000;,
  377;1.000000;1.000000;1.000000;1.000000;,
  378;1.000000;1.000000;1.000000;1.000000;,
  379;1.000000;1.000000;1.000000;1.000000;,
  380;1.000000;1.000000;1.000000;1.000000;,
  381;1.000000;1.000000;1.000000;1.000000;,
  382;1.000000;1.000000;1.000000;1.000000;,
  383;1.000000;1.000000;1.000000;1.000000;,
  384;1.000000;1.000000;1.000000;1.000000;,
  385;1.000000;1.000000;1.000000;1.000000;,
  386;1.000000;1.000000;1.000000;1.000000;,
  387;1.000000;1.000000;1.000000;1.000000;,
  388;1.000000;1.000000;1.000000;1.000000;,
  389;1.000000;1.000000;1.000000;1.000000;,
  390;1.000000;1.000000;1.000000;1.000000;,
  391;1.000000;1.000000;1.000000;1.000000;,
  392;1.000000;1.000000;1.000000;1.000000;,
  393;1.000000;1.000000;1.000000;1.000000;,
  394;1.000000;1.000000;1.000000;1.000000;,
  395;1.000000;1.000000;1.000000;1.000000;,
  396;1.000000;1.000000;1.000000;1.000000;,
  397;1.000000;1.000000;1.000000;1.000000;,
  398;1.000000;1.000000;1.000000;1.000000;,
  399;1.000000;1.000000;1.000000;1.000000;,
  400;1.000000;1.000000;1.000000;1.000000;,
  401;1.000000;1.000000;1.000000;1.000000;,
  402;1.000000;1.000000;1.000000;1.000000;,
  403;1.000000;1.000000;1.000000;1.000000;,
  404;1.000000;1.000000;1.000000;1.000000;,
  405;1.000000;1.000000;1.000000;1.000000;,
  406;1.000000;1.000000;1.000000;1.000000;,
  407;1.000000;1.000000;1.000000;1.000000;,
  408;1.000000;1.000000;1.000000;1.000000;,
  409;1.000000;1.000000;1.000000;1.000000;,
  410;1.000000;1.000000;1.000000;1.000000;,
  411;1.000000;1.000000;1.000000;1.000000;,
  412;1.000000;1.000000;1.000000;1.000000;,
  413;1.000000;1.000000;1.000000;1.000000;,
  414;1.000000;1.000000;1.000000;1.000000;,
  415;1.000000;1.000000;1.000000;1.000000;,
  416;1.000000;1.000000;1.000000;1.000000;,
  417;1.000000;1.000000;1.000000;1.000000;,
  418;1.000000;1.000000;1.000000;1.000000;,
  419;1.000000;1.000000;1.000000;1.000000;,
  420;1.000000;1.000000;1.000000;1.000000;,
  421;1.000000;1.000000;1.000000;1.000000;,
  422;1.000000;1.000000;1.000000;1.000000;,
  423;1.000000;1.000000;1.000000;1.000000;,
  424;1.000000;1.000000;1.000000;1.000000;,
  425;1.000000;1.000000;1.000000;1.000000;,
  426;1.000000;1.000000;1.000000;1.000000;,
  427;1.000000;1.000000;1.000000;1.000000;,
  428;1.000000;1.000000;1.000000;1.000000;,
  429;1.000000;1.000000;1.000000;1.000000;,
  430;1.000000;1.000000;1.000000;1.000000;,
  431;1.000000;1.000000;1.000000;1.000000;,
  432;1.000000;1.000000;1.000000;1.000000;,
  433;1.000000;1.000000;1.000000;1.000000;,
  434;1.000000;1.000000;1.000000;1.000000;,
  435;1.000000;1.000000;1.000000;1.000000;,
  436;1.000000;1.000000;1.000000;1.000000;,
  437;1.000000;1.000000;1.000000;1.000000;,
  438;1.000000;1.000000;1.000000;1.000000;,
  439;1.000000;1.000000;1.000000;1.000000;,
  440;1.000000;1.000000;1.000000;1.000000;,
  441;1.000000;1.000000;1.000000;1.000000;,
  442;1.000000;1.000000;1.000000;1.000000;,
  443;1.000000;1.000000;1.000000;1.000000;,
  444;1.000000;1.000000;1.000000;1.000000;,
  445;1.000000;1.000000;1.000000;1.000000;;
 }
}
