xof 0302txt 0064
template Header {
 <3D82AB43-62DA-11cf-AB39-0020AF71E433>
 WORD major;
 WORD minor;
 DWORD flags;
}

template Vector {
 <3D82AB5E-62DA-11cf-AB39-0020AF71E433>
 FLOAT x;
 FLOAT y;
 FLOAT z;
}

template Coords2d {
 <F6F23F44-7686-11cf-8F52-0040333594A3>
 FLOAT u;
 FLOAT v;
}

template Matrix4x4 {
 <F6F23F45-7686-11cf-8F52-0040333594A3>
 array FLOAT matrix[16];
}

template ColorRGBA {
 <35FF44E0-6C7C-11cf-8F52-0040333594A3>
 FLOAT red;
 FLOAT green;
 FLOAT blue;
 FLOAT alpha;
}

template ColorRGB {
 <D3E16E81-7835-11cf-8F52-0040333594A3>
 FLOAT red;
 FLOAT green;
 FLOAT blue;
}

template IndexedColor {
 <1630B820-7842-11cf-8F52-0040333594A3>
 DWORD index;
 ColorRGBA indexColor;
}

template Boolean {
 <4885AE61-78E8-11cf-8F52-0040333594A3>
 WORD truefalse;
}

template Boolean2d {
 <4885AE63-78E8-11cf-8F52-0040333594A3>
 Boolean u;
 Boolean v;
}

template MaterialWrap {
 <4885AE60-78E8-11cf-8F52-0040333594A3>
 Boolean u;
 Boolean v;
}

template TextureFilename {
 <A42790E1-7810-11cf-8F52-0040333594A3>
 STRING filename;
}

template Material {
 <3D82AB4D-62DA-11cf-AB39-0020AF71E433>
 ColorRGBA faceColor;
 FLOAT power;
 ColorRGB specularColor;
 ColorRGB emissiveColor;
 [...]
}

template MeshFace {
 <3D82AB5F-62DA-11cf-AB39-0020AF71E433>
 DWORD nFaceVertexIndices;
 array DWORD faceVertexIndices[nFaceVertexIndices];
}

template MeshFaceWraps {
 <4885AE62-78E8-11cf-8F52-0040333594A3>
 DWORD nFaceWrapValues;
 Boolean2d faceWrapValues;
}

template MeshTextureCoords {
 <F6F23F40-7686-11cf-8F52-0040333594A3>
 DWORD nTextureCoords;
 array Coords2d textureCoords[nTextureCoords];
}

template MeshMaterialList {
 <F6F23F42-7686-11cf-8F52-0040333594A3>
 DWORD nMaterials;
 DWORD nFaceIndexes;
 array DWORD faceIndexes[nFaceIndexes];
 [Material]
}

template MeshNormals {
 <F6F23F43-7686-11cf-8F52-0040333594A3>
 DWORD nNormals;
 array Vector normals[nNormals];
 DWORD nFaceNormals;
 array MeshFace faceNormals[nFaceNormals];
}

template MeshVertexColors {
 <1630B821-7842-11cf-8F52-0040333594A3>
 DWORD nVertexColors;
 array IndexedColor vertexColors[nVertexColors];
}

template Mesh {
 <3D82AB44-62DA-11cf-AB39-0020AF71E433>
 DWORD nVertices;
 array Vector vertices[nVertices];
 DWORD nFaces;
 array MeshFace faces[nFaces];
 [...]
}

Header{
1;
0;
1;
}

Mesh {
 70;
 12.25000;7.83864;-3.50000;,
 -15.75000;7.83864;-3.50000;,
 -15.75000;23.98776;-3.50000;,
 -15.75000;23.98776;-3.50000;,
 12.25000;23.97500;-3.50000;,
 12.25000;7.83864;-3.50000;,
 12.25000;7.83864;-35.00000;,
 12.25000;23.97500;-35.00000;,
 12.25000;7.83864;-3.50000;,
 -35.00000;7.83864;-35.00000;,
 -35.00000;23.97500;-35.00000;,
 12.25000;7.83864;-35.00000;,
 -35.00000;7.83864;-35.00000;,
 -34.79085;7.84000;-3.50000;,
 -34.79085;23.98776;-3.50000;,
 -28.00000;7.83864;-12.25000;,
 -28.00000;23.97500;-12.25000;,
 -17.78133;7.83864;-12.25000;,
 -17.78133;23.97500;-12.25000;,
 -17.78133;7.83864;-12.25000;,
 -17.78133;7.83864;-12.25000;,
 -17.78133;23.97500;-22.75000;,
 -17.78133;7.83864;-22.75000;,
 -28.00000;7.83864;-22.75000;,
 -28.00000;23.97500;-22.75000;,
 -9.03754;0.00000;-16.25706;,
 -17.78133;7.83864;-22.75000;,
 -28.00000;7.83864;-22.75000;,
 -28.00000;7.83864;-12.25000;,
 -17.05256;7.83864;-26.18661;,
 -17.05256;23.97500;-26.18661;,
 -14.11821;7.83864;-22.75000;,
 -14.11821;23.97500;-22.75000;,
 -14.11821;7.83864;-22.75000;,
 -14.11821;7.83864;-22.75000;,
 -14.11821;23.97500;-12.25000;,
 -14.11821;7.83864;-12.25000;,
 -14.13184;7.83864;-12.25000;,
 -14.13184;23.97500;-12.25000;,
 -9.03754;7.83864;-7.00000;,
 -9.03754;23.97500;-7.00000;,
 -9.03754;7.83864;-7.00000;,
 8.96000;23.97500;-7.00000;,
 8.96000;7.83864;-7.00000;,
 8.96000;7.83864;-7.00000;,
 -9.03754;7.83864;-7.00000;,
 8.96000;7.83864;-7.00000;,
 8.96142;23.97500;-26.13371;,
 8.96142;7.83861;-26.13371;,
 -17.05256;7.83864;-26.18661;,
 -17.05256;7.83864;-26.18661;,
 8.96142;7.83864;-26.13360;,
 12.25000;0.00000;-3.50000;,
 21.00000;0.00000;-3.50000;,
 21.00000;23.97500;-3.50000;,
 21.00000;0.00000;-3.50000;,
 21.00000;0.00000;-3.50000;,
 20.38542;23.97500;29.08952;,
 20.38542;-0.04056;29.08952;,
 7.27001;23.97500;14.00000;,
 7.27001;0.00000;14.00000;,
 20.81762;0.00000;14.06948;,
 20.81762;0.00000;14.06948;,
 20.81762;23.97500;14.06948;,
 -15.68337;23.98776;14.99817;,
 -15.75000;0.00000;14.00000;,
 7.14027;0.00000;14.00000;,
 12.25000;0.00000;-3.50000;,
 12.25000;23.97500;14.06948;,
 12.25000;0.00000;14.06948;;
 
 27;
 3;0,1,2;,
 3;3,4,5;,
 4;6,7,4,8;,
 4;9,10,7,11;,
 4;12,13,14,10;,
 3;15,16,17;,
 3;16,18,19;,
 4;20,18,21,22;,
 4;23,24,25,26;,
 4;27,28,16,24;,
 3;29,30,31;,
 3;30,32,33;,
 4;34,32,35,36;,
 3;37,38,39;,
 3;35,40,41;,
 3;40,42,43;,
 3;44,45,40;,
 4;46,42,47,48;,
 3;47,30,49;,
 3;50,51,47;,
 3;52,4,53;,
 3;4,54,55;,
 4;56,54,57,58;,
 3;59,60,61;,
 3;62,63,59;,
 4;59,64,65,66;,
 4;67,4,68,69;;
 
 MeshMaterialList {
  15;
  27;
  13,
  13,
  13,
  13,
  13,
  13,
  13,
  13,
  13,
  13,
  13,
  13,
  13,
  13,
  13,
  13,
  13,
  13,
  13,
  13,
  13,
  13,
  13,
  13,
  13,
  13,
  13;;
  Material {
   0.800000;0.800000;0.800000;1.000000;;
   5.000000;
   0.000000;0.000000;0.000000;;
   0.000000;0.000000;0.000000;;
   TextureFilename {
    "Data\\Graphics\\XFileTexture\\Wall.png";
   }
  }
  Material {
   0.800000;0.800000;0.800000;1.000000;;
   5.000000;
   0.000000;0.000000;0.000000;;
   0.000000;0.000000;0.000000;;
   TextureFilename {
    "Data\\Graphics\\XFileTexture\\world_mori-kareki.png";
   }
  }
  Material {
   0.800000;0.800000;0.800000;1.000000;;
   5.000000;
   0.000000;0.000000;0.000000;;
   0.000000;0.000000;0.000000;;
   TextureFilename {
    "Data\\Graphics\\XFileTexture\\yuka.png";
   }
  }
  Material {
   0.800000;0.800000;0.800000;1.000000;;
   5.000000;
   0.000000;0.000000;0.000000;;
   0.000000;0.000000;0.000000;;
   TextureFilename {
    "Data\\Graphics\\XFileTexture\\ground3.png";
   }
  }
  Material {
   0.800000;0.800000;0.800000;1.000000;;
   5.000000;
   0.000000;0.000000;0.000000;;
   0.000000;0.000000;0.000000;;
   TextureFilename {
    "Data\\Graphics\\XFileTexture\\oahe.png";
   }
  }
  Material {
   0.800000;0.800000;0.800000;1.000000;;
   5.000000;
   0.000000;0.000000;0.000000;;
   0.000000;0.000000;0.000000;;
  }
  Material {
   0.000000;0.000000;0.000000;1.000000;;
   5.000000;
   0.000000;0.000000;0.000000;;
   0.000000;0.000000;0.000000;;
  }
  Material {
   0.800000;0.800000;0.800000;0.000000;;
   5.000000;
   0.000000;0.000000;0.000000;;
   0.000000;0.000000;0.000000;;
  }
  Material {
   0.800000;0.800000;0.800000;1.000000;;
   5.000000;
   0.000000;0.000000;0.000000;;
   0.000000;0.000000;0.000000;;
  }
  Material {
   0.000000;0.000000;0.000000;0.000000;;
   0.000000;
   0.000000;0.000000;0.000000;;
   0.000000;0.000000;0.000000;;
  }
  Material {
   0.800000;0.800000;0.800000;1.000000;;
   5.000000;
   0.000000;0.000000;0.000000;;
   0.000000;0.000000;0.000000;;
   TextureFilename {
    "Data\\Graphics\\XFileTexture\\puente.png";
   }
  }
  Material {
   0.800000;0.800000;0.800000;0.714000;;
   5.000000;
   0.000000;0.000000;0.000000;;
   0.000000;0.000000;0.000000;;
   TextureFilename {
    "Data\\Graphics\\XFileTexture\\Water.png";
   }
  }
  Material {
   0.000000;0.000000;0.000000;0.760000;;
   5.000000;
   0.000000;0.000000;0.000000;;
   0.000000;0.000000;0.000000;;
  }
  Material {
   0.800000;0.800000;0.800000;0.000000;;
   5.000000;
   0.000000;0.000000;0.000000;;
   0.000000;0.000000;0.000000;;
  }
  Material {
   1.000000;1.000000;1.000000;1.000000;;
   0.000000;
   0.000000;0.000000;0.000000;;
   0.000000;0.000000;0.000000;;
  }
 }
 MeshNormals {
  19;
  0.000000;0.000000;-1.000000;,
  1.000000;0.000000;0.000000;,
  -0.999978;0.000000;0.006640;,
  -1.000000;0.000000;0.000000;,
  0.446517;0.282766;-0.848920;,
  0.760491;0.000000;-0.649348;,
  0.938214;0.000000;-0.346055;,
  0.926984;0.000000;-0.375100;,
  0.717668;0.000000;-0.696385;,
  0.718600;0.000000;-0.695423;,
  0.257603;0.000000;-0.966251;,
  -1.000000;0.000000;-0.000074;,
  -0.002033;0.000000;0.999998;,
  -0.002038;0.000006;0.999998;,
  0.999822;0.000000;0.018855;,
  -0.005128;0.000000;0.999987;,
  0.003826;-0.006972;0.999968;,
  0.021733;-0.020915;0.999545;,
  -0.002036;0.000003;0.999998;;
  27;
  3;0,0,0;,
  3;0,0,0;,
  4;1,1,1,1;,
  4;0,0,0,0;,
  4;2,2,2,2;,
  3;0,0,0;,
  3;0,0,0;,
  4;3,3,3,3;,
  4;4,4,4,4;,
  4;3,3,3,3;,
  3;5,5,5;,
  3;5,6,5;,
  4;1,6,7,1;,
  3;8,8,8;,
  3;7,10,9;,
  3;10,0,0;,
  3;0,0,10;,
  4;11,11,11,11;,
  3;18,12,12;,
  3;13,13,18;,
  3;0,0,0;,
  3;0,0,0;,
  4;14,14,14,14;,
  3;16,15,15;,
  3;15,15,16;,
  4;16,17,17,17;,
  4;1,1,1,1;;
 }
 MeshTextureCoords {
  70;
  0.000000;0.000000;,
  0.000000;0.000000;,
  0.000000;0.000000;,
  0.000000;0.000000;,
  0.000000;0.000000;,
  0.000000;0.000000;,
  0.000000;0.000000;,
  0.000000;0.000000;,
  0.000000;0.000000;,
  0.000000;0.000000;,
  0.000000;0.000000;,
  0.000000;0.000000;,
  0.000000;0.000000;,
  0.000000;0.000000;,
  0.000000;0.000000;,
  0.000000;0.000000;,
  0.000000;0.000000;,
  0.000000;0.000000;,
  0.000000;0.000000;,
  0.000000;0.000000;,
  0.000000;0.000000;,
  0.000000;0.000000;,
  0.000000;0.000000;,
  0.000000;0.000000;,
  0.000000;0.000000;,
  0.000000;0.000000;,
  0.000000;0.000000;,
  0.000000;0.000000;,
  0.000000;0.000000;,
  0.000000;0.000000;,
  0.000000;0.000000;,
  0.000000;0.000000;,
  0.000000;0.000000;,
  0.000000;0.000000;,
  0.000000;0.000000;,
  0.000000;0.000000;,
  0.000000;0.000000;,
  0.000000;0.000000;,
  0.000000;0.000000;,
  0.000000;0.000000;,
  0.000000;0.000000;,
  0.000000;0.000000;,
  0.000000;0.000000;,
  0.000000;0.000000;,
  0.000000;0.000000;,
  0.000000;0.000000;,
  0.000000;0.000000;,
  0.000000;0.000000;,
  0.000000;0.000000;,
  0.000000;0.000000;,
  0.000000;0.000000;,
  0.000000;0.000000;,
  0.000000;0.000000;,
  0.000000;0.000000;,
  0.000000;0.000000;,
  0.000000;0.000000;,
  0.000000;0.000000;,
  0.000000;0.000000;,
  0.000000;0.000000;,
  0.000000;0.000000;,
  0.000000;0.000000;,
  0.000000;0.000000;,
  0.000000;0.000000;,
  0.000000;0.000000;,
  0.000000;0.000000;,
  0.000000;0.000000;,
  0.000000;0.000000;,
  0.000000;0.000000;,
  0.000000;0.000000;,
  0.000000;0.000000;;
 }
 MeshVertexColors {
  70;
  0;1.000000;1.000000;1.000000;1.000000;,
  1;1.000000;1.000000;1.000000;1.000000;,
  2;1.000000;1.000000;1.000000;1.000000;,
  3;1.000000;1.000000;1.000000;1.000000;,
  4;1.000000;1.000000;1.000000;1.000000;,
  5;1.000000;1.000000;1.000000;1.000000;,
  6;1.000000;1.000000;1.000000;1.000000;,
  7;1.000000;1.000000;1.000000;1.000000;,
  8;1.000000;1.000000;1.000000;1.000000;,
  9;1.000000;1.000000;1.000000;1.000000;,
  10;1.000000;1.000000;1.000000;1.000000;,
  11;1.000000;1.000000;1.000000;1.000000;,
  12;1.000000;1.000000;1.000000;1.000000;,
  13;1.000000;1.000000;1.000000;1.000000;,
  14;1.000000;1.000000;1.000000;1.000000;,
  15;1.000000;1.000000;1.000000;1.000000;,
  16;1.000000;1.000000;1.000000;1.000000;,
  17;1.000000;1.000000;1.000000;1.000000;,
  18;1.000000;1.000000;1.000000;1.000000;,
  19;1.000000;1.000000;1.000000;1.000000;,
  20;1.000000;1.000000;1.000000;1.000000;,
  21;1.000000;1.000000;1.000000;1.000000;,
  22;1.000000;1.000000;1.000000;1.000000;,
  23;1.000000;1.000000;1.000000;1.000000;,
  24;1.000000;1.000000;1.000000;1.000000;,
  25;1.000000;1.000000;1.000000;1.000000;,
  26;1.000000;1.000000;1.000000;1.000000;,
  27;1.000000;1.000000;1.000000;1.000000;,
  28;1.000000;1.000000;1.000000;1.000000;,
  29;1.000000;1.000000;1.000000;1.000000;,
  30;1.000000;1.000000;1.000000;1.000000;,
  31;1.000000;1.000000;1.000000;1.000000;,
  32;1.000000;1.000000;1.000000;1.000000;,
  33;1.000000;1.000000;1.000000;1.000000;,
  34;1.000000;1.000000;1.000000;1.000000;,
  35;1.000000;1.000000;1.000000;1.000000;,
  36;1.000000;1.000000;1.000000;1.000000;,
  37;1.000000;1.000000;1.000000;1.000000;,
  38;1.000000;1.000000;1.000000;1.000000;,
  39;1.000000;1.000000;1.000000;1.000000;,
  40;1.000000;1.000000;1.000000;1.000000;,
  41;1.000000;1.000000;1.000000;1.000000;,
  42;1.000000;1.000000;1.000000;1.000000;,
  43;1.000000;1.000000;1.000000;1.000000;,
  44;1.000000;1.000000;1.000000;1.000000;,
  45;1.000000;1.000000;1.000000;1.000000;,
  46;1.000000;1.000000;1.000000;1.000000;,
  47;1.000000;1.000000;1.000000;1.000000;,
  48;1.000000;1.000000;1.000000;1.000000;,
  49;1.000000;1.000000;1.000000;1.000000;,
  50;1.000000;1.000000;1.000000;1.000000;,
  51;1.000000;1.000000;1.000000;1.000000;,
  52;1.000000;1.000000;1.000000;1.000000;,
  53;1.000000;1.000000;1.000000;1.000000;,
  54;1.000000;1.000000;1.000000;1.000000;,
  55;1.000000;1.000000;1.000000;1.000000;,
  56;1.000000;1.000000;1.000000;1.000000;,
  57;1.000000;1.000000;1.000000;1.000000;,
  58;1.000000;1.000000;1.000000;1.000000;,
  59;1.000000;1.000000;1.000000;1.000000;,
  60;1.000000;1.000000;1.000000;1.000000;,
  61;1.000000;1.000000;1.000000;1.000000;,
  62;1.000000;1.000000;1.000000;1.000000;,
  63;1.000000;1.000000;1.000000;1.000000;,
  64;1.000000;1.000000;1.000000;1.000000;,
  65;1.000000;1.000000;1.000000;1.000000;,
  66;1.000000;1.000000;1.000000;1.000000;,
  67;1.000000;1.000000;1.000000;1.000000;,
  68;1.000000;1.000000;1.000000;1.000000;,
  69;1.000000;1.000000;1.000000;1.000000;;
 }
}
