xof 0302txt 0064
template Header {
 <3D82AB43-62DA-11cf-AB39-0020AF71E433>
 WORD major;
 WORD minor;
 DWORD flags;
}

template Vector {
 <3D82AB5E-62DA-11cf-AB39-0020AF71E433>
 FLOAT x;
 FLOAT y;
 FLOAT z;
}

template Coords2d {
 <F6F23F44-7686-11cf-8F52-0040333594A3>
 FLOAT u;
 FLOAT v;
}

template Matrix4x4 {
 <F6F23F45-7686-11cf-8F52-0040333594A3>
 array FLOAT matrix[16];
}

template ColorRGBA {
 <35FF44E0-6C7C-11cf-8F52-0040333594A3>
 FLOAT red;
 FLOAT green;
 FLOAT blue;
 FLOAT alpha;
}

template ColorRGB {
 <D3E16E81-7835-11cf-8F52-0040333594A3>
 FLOAT red;
 FLOAT green;
 FLOAT blue;
}

template IndexedColor {
 <1630B820-7842-11cf-8F52-0040333594A3>
 DWORD index;
 ColorRGBA indexColor;
}

template Boolean {
 <4885AE61-78E8-11cf-8F52-0040333594A3>
 WORD truefalse;
}

template Boolean2d {
 <4885AE63-78E8-11cf-8F52-0040333594A3>
 Boolean u;
 Boolean v;
}

template MaterialWrap {
 <4885AE60-78E8-11cf-8F52-0040333594A3>
 Boolean u;
 Boolean v;
}

template TextureFilename {
 <A42790E1-7810-11cf-8F52-0040333594A3>
 STRING filename;
}

template Material {
 <3D82AB4D-62DA-11cf-AB39-0020AF71E433>
 ColorRGBA faceColor;
 FLOAT power;
 ColorRGB specularColor;
 ColorRGB emissiveColor;
 [...]
}

template MeshFace {
 <3D82AB5F-62DA-11cf-AB39-0020AF71E433>
 DWORD nFaceVertexIndices;
 array DWORD faceVertexIndices[nFaceVertexIndices];
}

template MeshFaceWraps {
 <4885AE62-78E8-11cf-8F52-0040333594A3>
 DWORD nFaceWrapValues;
 Boolean2d faceWrapValues;
}

template MeshTextureCoords {
 <F6F23F40-7686-11cf-8F52-0040333594A3>
 DWORD nTextureCoords;
 array Coords2d textureCoords[nTextureCoords];
}

template MeshMaterialList {
 <F6F23F42-7686-11cf-8F52-0040333594A3>
 DWORD nMaterials;
 DWORD nFaceIndexes;
 array DWORD faceIndexes[nFaceIndexes];
 [Material]
}

template MeshNormals {
 <F6F23F43-7686-11cf-8F52-0040333594A3>
 DWORD nNormals;
 array Vector normals[nNormals];
 DWORD nFaceNormals;
 array MeshFace faceNormals[nFaceNormals];
}

template MeshVertexColors {
 <1630B821-7842-11cf-8F52-0040333594A3>
 DWORD nVertexColors;
 array IndexedColor vertexColors[nVertexColors];
}

template Mesh {
 <3D82AB44-62DA-11cf-AB39-0020AF71E433>
 DWORD nVertices;
 array Vector vertices[nVertices];
 DWORD nFaces;
 array MeshFace faces[nFaces];
 [...]
}

Header{
1;
0;
1;
}

Mesh {
 324;
 7.00000;0.00000;7.00000;,
 7.00000;3.50000;7.00000;,
 7.00000;0.00000;10.50000;,
 7.00000;3.50000;7.00000;,
 7.00000;3.50000;10.50000;,
 7.00000;0.00000;10.50000;,
 3.50000;0.00000;7.00000;,
 3.50000;3.50000;7.00000;,
 7.00000;3.50000;7.00000;,
 7.00000;0.00000;7.00000;,
 3.50000;0.00000;10.50000;,
 3.50000;3.50000;10.50000;,
 3.50000;0.00000;7.00000;,
 3.50000;3.50000;10.50000;,
 3.50000;3.50000;7.00000;,
 3.50000;0.00000;7.00000;,
 7.00000;3.50000;7.00000;,
 3.50000;3.50000;7.00000;,
 3.50000;3.50000;14.00000;,
 7.00000;3.50000;14.00000;,
 3.50000;3.50000;10.50000;,
 3.50000;5.25000;14.00000;,
 3.50000;5.25000;14.00000;,
 3.50000;3.50000;14.00000;,
 3.50000;5.25000;14.00000;,
 3.50000;5.25000;10.50000;,
 -8.05000;7.00000;7.00000;,
 -8.05000;7.00000;7.00000;,
 -8.05000;7.00000;7.00000;,
 -8.05000;7.00000;9.01250;,
 -8.05000;7.00000;8.75000;,
 -8.05000;7.00000;10.50000;,
 -8.05000;0.00000;10.50000;,
 -8.05000;0.00000;8.75000;,
 -8.05000;7.00000;10.50000;,
 -8.05000;7.00000;8.75000;,
 -11.55000;7.00000;8.75000;,
 -11.55000;7.00000;10.50000;,
 -11.55000;0.00000;8.75000;,
 -11.55000;0.00000;10.50000;,
 -11.55000;7.00000;10.50000;,
 -11.55000;7.00000;8.75000;,
 -8.05000;0.00000;10.50000;,
 -8.05000;7.00000;10.50000;,
 -11.55000;7.00000;10.50000;,
 -11.55000;0.00000;10.50000;,
 7.00000;3.50000;14.00000;,
 7.00000;0.00000;14.00000;,
 7.00000;0.00000;10.50000;,
 7.00000;3.50000;10.50000;,
 12.25000;0.00000;14.00000;,
 21.00000;0.00000;-3.50000;,
 12.25000;0.00000;-3.50000;,
 21.00000;0.00000;14.00000;,
 -15.75000;0.00000;14.00000;,
 21.00000;0.00000;28.00000;,
 -15.75000;0.00000;28.00000;,
 35.00000;0.00000;-3.50000;,
 35.00000;0.00000;28.00000;,
 35.00000;0.00000;42.00000;,
 -15.75000;0.00000;42.00000;,
 -35.00000;0.00000;14.00000;,
 -35.00000;0.00000;42.00000;,
 -15.75000;0.00000;14.00000;,
 -15.75000;17.50000;14.00000;,
 -19.25000;17.50000;14.00000;,
 -19.25000;0.00000;14.00000;,
 -35.00000;17.50000;14.00000;,
 -35.00000;0.00000;14.00000;,
 35.00000;0.00000;-35.00000;,
 12.25000;0.00000;-35.00000;,
 -5.25000;0.00000;14.00000;,
 0.00000;0.00000;14.00000;,
 0.00000;7.00000;14.00000;,
 -5.25000;7.00000;14.00000;,
 3.50000;0.00000;14.00000;,
 3.50000;5.25000;14.00000;,
 0.00000;5.25000;14.00000;,
 7.00000;3.50000;14.00000;,
 3.50000;3.50000;14.00000;,
 0.00000;5.25000;14.00000;,
 3.50000;5.25000;14.00000;,
 3.50000;5.25000;10.50000;,
 0.00000;5.25000;10.50000;,
 0.00000;5.25000;10.50000;,
 0.00000;7.00000;14.00000;,
 0.00000;5.25000;14.00000;,
 0.00000;7.00000;10.50000;,
 0.00000;5.25000;10.50000;,
 0.00000;5.25000;10.50000;,
 3.50000;5.25000;10.50000;,
 3.50000;0.00000;10.50000;,
 3.50000;0.00000;10.50000;,
 0.00000;0.00000;10.50000;,
 0.00000;5.25000;10.50000;,
 0.00000;0.00000;10.50000;,
 -1.75000;7.00000;10.50000;,
 0.00000;7.00000;10.50000;,
 0.00000;7.00000;10.50000;,
 -1.75000;0.00000;7.00000;,
 -1.75000;0.00000;7.00000;,
 -1.75000;7.00000;7.00000;,
 -1.75000;7.00000;10.50000;,
 -1.75000;7.00000;10.50000;,
 -1.75000;0.00000;10.50000;,
 -1.75000;0.00000;7.00000;,
 -1.75000;0.00000;7.00000;,
 0.00000;0.00000;10.50000;,
 -1.75000;0.00000;10.50000;,
 -1.75000;7.00000;10.50000;,
 -1.75000;7.00000;10.50000;,
 -5.25000;7.00000;7.00000;,
 -5.25000;7.00000;14.00000;,
 -1.75000;7.00000;14.00000;,
 -1.75000;7.00000;7.00000;,
 -1.75000;7.00000;7.00000;,
 -1.75000;7.00000;7.00000;,
 -5.25000;0.00000;7.00000;,
 -5.25000;7.00000;7.00000;,
 -1.75000;7.00000;7.00000;,
 -1.75000;0.00000;7.00000;,
 -5.25000;0.00000;7.00000;,
 -5.25000;0.00000;7.00000;,
 -5.25000;0.00000;14.00000;,
 -5.25000;7.00000;14.00000;,
 -5.25000;7.00000;7.00000;,
 12.25000;0.00000;0.00000;,
 8.75000;0.00000;0.00000;,
 8.75000;0.00000;0.00000;,
 3.50000;0.00000;3.50000;,
 3.50000;0.00000;7.00000;,
 3.50000;1.75000;7.00000;,
 3.50000;1.75000;3.50000;,
 3.50000;0.00000;3.50000;,
 3.50000;1.75000;3.50000;,
 7.00000;1.75000;3.50000;,
 7.00000;0.00000;3.50000;,
 7.00000;0.00000;7.00000;,
 7.00000;0.00000;3.50000;,
 7.00000;1.75000;3.50000;,
 7.00000;1.75000;7.00000;,
 7.00000;1.75000;3.50000;,
 3.50000;1.75000;3.50000;,
 3.50000;1.75000;7.00000;,
 7.00000;1.75000;7.00000;,
 -15.75000;0.00000;14.00000;,
 12.25000;0.00000;14.00000;,
 12.25000;0.00000;-3.50000;,
 -15.75000;0.00000;-3.50000;,
 -8.05000;0.00000;8.75000;,
 -11.55000;0.00000;8.75000;,
 -11.55000;7.00000;8.75000;,
 -8.05000;7.00000;8.75000;,
 -15.75000;17.50000;-3.50000;,
 -15.75000;17.50000;14.00000;,
 -15.75000;0.00000;14.00000;,
 -15.75000;0.00000;-3.50000;,
 -12.25000;14.00000;3.50000;,
 -12.25000;14.00000;0.00000;,
 -15.75000;14.00000;0.00000;,
 -15.75000;14.00000;3.50000;,
 -13.12500;12.25000;0.00000;,
 -15.75000;12.25000;0.00000;,
 -15.75000;14.00000;0.00000;,
 -12.25000;14.00000;0.00000;,
 -12.25000;14.00000;0.00000;,
 -12.25000;14.00000;3.50000;,
 -13.12500;12.25000;3.50000;,
 -13.12500;12.25000;0.00000;,
 -15.75000;12.25000;3.50000;,
 -13.12500;12.25000;3.50000;,
 -12.25000;14.00000;3.50000;,
 -15.75000;14.00000;3.50000;,
 -13.12500;12.25000;3.50000;,
 -15.75000;12.25000;3.50000;,
 -15.75000;12.25000;0.00000;,
 -13.12500;12.25000;0.00000;,
 -12.25000;3.50000;-3.50000;,
 -15.75000;3.50000;-3.50000;,
 -15.75000;3.50000;0.00000;,
 -12.25000;3.50000;0.00000;,
 -12.25000;0.00000;0.00000;,
 -12.25000;0.00000;-3.50000;,
 -12.25000;3.50000;-3.50000;,
 -12.25000;3.50000;0.00000;,
 -12.25000;3.50000;0.00000;,
 -15.75000;3.50000;0.00000;,
 -15.75000;0.00000;0.00000;,
 -12.25000;0.00000;0.00000;,
 1.75000;0.00000;-19.25000;,
 1.75000;0.00000;-19.25000;,
 -1.75000;0.00000;-19.25000;,
 -1.75000;0.00000;-19.25000;,
 1.75000;0.00000;-5.25000;,
 -1.75000;0.00000;-5.25000;,
 -1.75000;0.00000;-3.50000;,
 1.75000;0.00000;-3.50000;,
 1.75000;0.00000;-7.00000;,
 -1.75000;0.00000;-7.00000;,
 1.75000;5.25000;-7.00000;,
 -1.75000;5.25000;-7.00000;,
 -1.75000;7.83864;-7.00000;,
 1.75000;7.83864;-7.00000;,
 -1.75000;5.25000;-3.50000;,
 1.75000;5.25000;-3.50000;,
 1.75000;7.83864;-3.50000;,
 -1.75000;7.83864;-3.50000;,
 0.00000;7.00000;10.50000;,
 -1.75000;7.00000;10.50000;,
 -1.75000;7.00000;14.00000;,
 0.00000;7.00000;14.00000;,
 -10.50000;0.00000;-12.25000;,
 -10.50000;0.00000;-22.75000;,
 -28.00000;0.00000;-22.75000;,
 -28.00000;0.00000;-12.25000;,
 -10.50000;0.00000;-12.25000;,
 1.75000;0.00000;-19.25000;,
 -1.75000;0.00000;-19.25000;,
 -1.75000;0.00000;-7.00000;,
 1.75000;0.00000;-7.00000;,
 -10.50000;0.00000;-19.25000;,
 -10.50000;0.00000;-15.75000;,
 -1.75000;0.00000;-15.75000;,
 -1.75000;0.00000;-19.25000;,
 -10.50000;7.83864;-3.50000;,
 -10.50000;7.83864;-12.25000;,
 -28.00000;7.83864;-12.25000;,
 -15.75000;7.83864;-3.50000;,
 -1.75000;7.83864;-15.75000;,
 -10.50000;7.83864;-15.75000;,
 -1.75000;7.83864;-3.50000;,
 1.75000;7.83864;-7.00000;,
 -1.75000;7.83864;-7.00000;,
 -1.75000;7.83864;-3.50000;,
 1.75000;7.83864;-3.50000;,
 12.25000;7.83864;-3.50000;,
 12.25000;7.83864;-35.00000;,
 1.75000;7.83864;-24.50000;,
 1.75000;7.83864;-3.50000;,
 1.75000;7.83864;-19.25000;,
 1.75000;7.83864;-35.00000;,
 -10.50000;7.83864;-35.00000;,
 -10.50000;7.83864;-19.25000;,
 12.25000;7.83864;-35.00000;,
 -10.50000;7.83864;-22.75000;,
 -10.50000;7.83864;-35.00000;,
 -28.00000;7.83864;-35.00000;,
 -28.00000;7.83864;-22.75000;,
 -28.00000;7.83864;-22.75000;,
 -28.00000;7.83864;-12.25000;,
 -28.00000;0.00000;-12.25000;,
 -28.00000;0.00000;-12.25000;,
 -28.00000;0.00000;-22.75000;,
 -28.00000;0.00000;-22.75000;,
 -10.50000;0.00000;-22.75000;,
 -10.50000;7.83864;-22.75000;,
 -10.50000;0.00000;-15.75000;,
 -10.50000;0.00000;-12.25000;,
 -10.50000;7.83864;-12.25000;,
 -10.50000;7.83864;-15.75000;,
 -28.00000;0.00000;-12.25000;,
 -28.00000;7.83864;-12.25000;,
 -10.50000;0.00000;-12.25000;,
 -1.75000;0.00000;-15.75000;,
 -10.50000;0.00000;-15.75000;,
 -1.75000;7.83864;-15.75000;,
 1.75000;0.00000;-19.25000;,
 1.75000;7.83864;-19.25000;,
 -10.50000;7.83864;-19.25000;,
 -10.50000;0.00000;-19.25000;,
 -1.75000;0.00000;-15.75000;,
 -1.75000;7.83864;-7.00000;,
 -1.75000;0.00000;-7.00000;,
 1.75000;7.83864;-7.00000;,
 1.75000;0.00000;-19.25000;,
 1.75000;0.00000;-7.00000;,
 -10.50000;0.00000;-22.75000;,
 -10.50000;0.00000;-19.25000;,
 12.25000;0.00000;-35.00000;,
 12.25000;7.83864;-35.00000;,
 12.25000;7.83864;-3.50000;,
 12.25000;0.00000;-3.50000;,
 12.25000;0.00000;-3.50000;,
 1.75000;7.83864;-3.50000;,
 1.75000;0.00000;-3.50000;,
 -15.75000;7.83864;-3.50000;,
 -15.75000;0.00000;-3.50000;,
 -1.75000;0.00000;-3.50000;,
 -1.75000;7.83864;-3.50000;,
 -15.75000;17.50000;-3.50000;,
 -35.00000;17.50000;-3.50000;,
 -35.00000;17.50000;14.00000;,
 -15.75000;17.50000;14.00000;,
 -15.75000;7.83864;-3.50000;,
 -28.00000;7.83864;-12.25000;,
 -35.00000;17.50000;-3.50000;,
 -15.75000;17.50000;-3.50000;,
 -35.00000;7.83864;-35.00000;,
 -35.00000;7.83864;-12.25000;,
 -35.00000;7.83864;-12.25000;,
 1.05000;0.00000;-3.50000;,
 1.75000;1.75000;-3.50000;,
 1.05000;2.16159;-3.50000;,
 1.75000;0.00000;-3.50000;,
 -1.05000;2.16159;-3.50000;,
 -1.75000;1.75000;-3.50000;,
 -1.75000;0.00000;-3.50000;,
 -1.05000;0.00000;-3.50000;,
 -1.05000;0.00000;-7.00000;,
 -1.75000;0.00000;-7.00000;,
 -1.75000;1.75000;-7.00000;,
 -1.05000;2.16159;-7.00000;,
 1.75000;0.00000;-7.00000;,
 1.05000;0.00000;-7.00000;,
 1.05000;2.16159;-7.00000;,
 1.75000;1.75000;-7.00000;,
 1.75000;5.25000;-3.50000;,
 -1.75000;5.25000;-3.50000;,
 -1.75000;5.25000;-3.50000;,
 -1.75000;5.25000;-3.50000;,
 -1.75000;5.25000;-7.00000;,
 1.75000;5.25000;-7.00000;,
 1.75000;5.25000;-7.00000;,
 1.75000;5.25000;-7.00000;;
 
 108;
 3;0,1,2;,
 3;3,4,5;,
 4;6,7,8,9;,
 3;10,11,12;,
 3;13,14,15;,
 4;16,17,18,19;,
 4;20,21,22,23;,
 4;24,20,25,22;,
 4;26,27,28,29;,
 4;30,31,32,33;,
 4;34,35,36,37;,
 4;38,39,40,41;,
 4;42,43,44,45;,
 4;46,47,48,49;,
 3;50,51,52;,
 3;50,53,51;,
 3;54,55,53;,
 3;54,56,55;,
 3;55,57,51;,
 3;55,58,57;,
 3;56,59,58;,
 3;56,60,59;,
 3;54,61,60;,
 3;61,62,60;,
 3;63,64,65;,
 3;65,66,63;,
 4;65,67,68,66;,
 4;57,69,70,52;,
 4;71,72,73,74;,
 4;72,75,76,77;,
 4;75,47,78,79;,
 4;80,81,82,83;,
 3;84,85,86;,
 3;84,87,85;,
 4;88,89,90,91;,
 3;92,93,94;,
 4;95,96,97,98;,
 4;99,100,101,102;,
 4;103,104,105,106;,
 4;107,108,109,110;,
 4;111,112,113,114;,
 4;115,116,117,118;,
 3;119,120,121;,
 4;122,123,124,125;,
 3;126,127,128;,
 4;129,130,131,132;,
 4;133,134,135,136;,
 4;137,138,139,140;,
 4;141,142,143,144;,
 4;145,146,147,148;,
 4;149,150,151,152;,
 4;153,154,155,156;,
 4;157,158,159,160;,
 4;161,162,163,164;,
 4;165,166,167,168;,
 4;169,170,171,172;,
 4;173,174,175,176;,
 4;177,178,179,180;,
 4;181,182,183,184;,
 4;185,186,187,188;,
 4;189,190,191,192;,
 4;193,194,195,196;,
 4;193,197,198,194;,
 4;199,200,201,202;,
 4;203,204,205,206;,
 4;207,208,209,210;,
 3;211,212,213;,
 3;213,214,215;,
 4;216,217,218,219;,
 4;220,221,222,223;,
 4;224,225,226,227;,
 4;228,229,224,230;,
 4;231,232,233,234;,
 4;235,236,237,238;,
 4;239,240,241,242;,
 3;243,240,237;,
 4;244,245,246,247;,
 3;248,249,250;,
 3;251,252,248;,
 4;248,253,254,255;,
 4;256,257,258,259;,
 4;260,261,258,262;,
 4;263,264,259,265;,
 4;266,267,268,269;,
 4;270,265,271,272;,
 4;273,267,274,275;,
 4;276,277,268,255;,
 4;278,279,280,281;,
 4;282,280,283,284;,
 4;285,286,287,288;,
 4;289,290,291,292;,
 4;293,294,295,296;,
 4;246,297,298,226;,
 3;294,299,295;,
 3;300,301,302;,
 3;300,303,301;,
 4;304,305,306,307;,
 4;308,309,310,311;,
 4;312,313,314,315;,
 4;307,308,311,304;,
 4;300,302,314,313;,
 4;311,314,302,304;,
 4;302,301,316,317;,
 3;318,305,304;,
 3;319,304,302;,
 4;311,310,320,321;,
 3;315,314,322;,
 3;314,311,323;;
 
 MeshMaterialList {
  15;
  108;
  4,
  4,
  4,
  4,
  4,
  3,
  4,
  4,
  14,
  4,
  3,
  4,
  4,
  4,
  3,
  3,
  3,
  3,
  3,
  3,
  3,
  3,
  3,
  3,
  5,
  5,
  5,
  3,
  3,
  3,
  3,
  3,
  5,
  5,
  4,
  4,
  4,
  4,
  4,
  4,
  3,
  4,
  4,
  4,
  14,
  4,
  4,
  4,
  3,
  3,
  4,
  0,
  2,
  0,
  0,
  0,
  0,
  3,
  4,
  4,
  14,
  3,
  3,
  0,
  0,
  3,
  3,
  3,
  3,
  3,
  3,
  3,
  3,
  3,
  3,
  3,
  3,
  7,
  7,
  7,
  7,
  7,
  7,
  7,
  7,
  7,
  7,
  7,
  7,
  7,
  3,
  7,
  3,
  7,
  5,
  5,
  5,
  5,
  5,
  5,
  5,
  5,
  5,
  5,
  5,
  5,
  5,
  5;;
  Material {
   0.800000;0.800000;0.800000;1.000000;;
   5.000000;
   0.000000;0.000000;0.000000;;
   0.000000;0.000000;0.000000;;
   TextureFilename {
    "Date\\Graphics\\XFileTexture\\Wall.png";
   }
  }
  Material {
   0.800000;0.800000;0.800000;1.000000;;
   5.000000;
   0.000000;0.000000;0.000000;;
   0.000000;0.000000;0.000000;;
   TextureFilename {
    "Date\\Graphics\\XFileTexture\\world_mori-kareki.png";
   }
  }
  Material {
   0.800000;0.800000;0.800000;1.000000;;
   5.000000;
   0.000000;0.000000;0.000000;;
   0.000000;0.000000;0.000000;;
   TextureFilename {
    "Date\\Graphics\\XFileTexture\\yuka.png";
   }
  }
  Material {
   0.800000;0.800000;0.800000;1.000000;;
   5.000000;
   0.000000;0.000000;0.000000;;
   0.000000;0.000000;0.000000;;
   TextureFilename {
    "Date\\Graphics\\XFileTexture\\ground3.png";
   }
  }
  Material {
   0.800000;0.800000;0.800000;1.000000;;
   5.000000;
   0.000000;0.000000;0.000000;;
   0.000000;0.000000;0.000000;;
   TextureFilename {
    "Date\\Graphics\\XFileTexture\\oahe.png";
   }
  }
  Material {
   0.800000;0.800000;0.800000;1.000000;;
   5.000000;
   0.000000;0.000000;0.000000;;
   0.000000;0.000000;0.000000;;
  }
  Material {
   0.800000;0.800000;0.800000;1.000000;;
   5.000000;
   0.000000;0.000000;0.000000;;
   0.000000;0.000000;0.000000;;
  }
  Material {
   0.800000;0.800000;0.800000;1.000000;;
   5.000000;
   0.000000;0.000000;0.000000;;
   0.000000;0.000000;0.000000;;
  }
  Material {
   0.800000;0.800000;0.800000;1.000000;;
   5.000000;
   0.000000;0.000000;0.000000;;
   0.000000;0.000000;0.000000;;
  }
  Material {
   0.800000;0.800000;0.800000;1.000000;;
   5.000000;
   0.000000;0.000000;0.000000;;
   0.000000;0.000000;0.000000;;
  }
  Material {
   0.800000;0.800000;0.800000;1.000000;;
   5.000000;
   0.000000;0.000000;0.000000;;
   0.000000;0.000000;0.000000;;
  }
  Material {
   0.800000;0.800000;0.800000;1.000000;;
   5.000000;
   0.000000;0.000000;0.000000;;
   0.000000;0.000000;0.000000;;
  }
  Material {
   0.712000;0.420000;0.084800;1.000000;;
   5.000000;
   0.000000;0.000000;0.000000;;
   0.186900;0.110250;0.022260;;
  }
  Material {
   0.248000;0.800000;0.269600;1.000000;;
   5.000000;
   0.000000;0.000000;0.000000;;
   0.077500;0.250000;0.084250;;
  }
  Material {
   1.000000;1.000000;1.000000;1.000000;;
   0.000000;
   0.000000;0.000000;0.000000;;
   0.000000;0.000000;0.000000;;
  }
 }
 MeshNormals {
  41;
  1.000000;0.000000;0.000000;,
  0.000000;0.000000;-1.000000;,
  -1.000000;0.000000;0.000000;,
  0.000000;1.000000;0.000000;,
  0.000000;0.000000;0.000000;,
  0.000000;0.000000;1.000000;,
  0.000000;1.000000;0.000000;,
  1.000000;0.000000;0.000000;,
  0.000000;0.000000;-1.000000;,
  -1.000000;0.000000;0.000000;,
  0.000000;0.000000;0.000000;,
  0.000000;0.000000;-1.000000;,
  1.000000;0.000000;0.000000;,
  0.000000;1.000000;0.000000;,
  0.000000;0.000000;1.000000;,
  0.000000;0.000000;-1.000000;,
  0.894427;-0.447214;-0.000000;,
  0.000000;-1.000000;0.000000;,
  0.000000;1.000000;0.000000;,
  1.000000;0.000000;0.000000;,
  0.000000;0.000000;1.000000;,
  0.000000;0.000000;0.000000;,
  0.000000;1.000000;0.000000;,
  0.000000;0.000000;-1.000000;,
  0.000000;0.000000;1.000000;,
  0.000000;1.000000;0.000000;,
  0.000000;1.000000;0.000000;,
  0.000000;1.000000;0.000000;,
  0.000000;0.963594;-0.267368;,
  0.000000;1.000000;0.000000;,
  1.000000;0.000000;0.000000;,
  0.000000;-0.000000;1.000000;,
  -1.000000;0.000000;0.000000;,
  0.000000;0.000000;-1.000000;,
  0.000000;0.914134;-0.405411;,
  0.324604;0.374891;-0.868383;,
  0.000000;0.000000;1.000000;,
  0.000000;0.000000;-1.000000;,
  1.000000;0.000000;0.000000;,
  -1.000000;0.000000;0.000000;,
  0.000000;-1.000000;-0.000000;;
  108;
  3;0,0,0;,
  3;0,0,0;,
  4;1,1,1,1;,
  3;2,2,2;,
  3;2,2,2;,
  4;3,3,3,3;,
  4;0,0,0,0;,
  4;0,0,0,0;,
  4;4,4,4,4;,
  4;0,0,0,0;,
  4;3,3,3,3;,
  4;2,2,2,2;,
  4;5,5,5,5;,
  4;0,0,0,0;,
  3;3,3,3;,
  3;3,3,3;,
  3;3,3,3;,
  3;3,3,3;,
  3;3,3,3;,
  3;3,3,3;,
  3;3,3,3;,
  3;3,3,3;,
  3;3,3,3;,
  3;3,3,3;,
  3;5,5,5;,
  3;5,5,5;,
  4;5,5,5,5;,
  4;3,3,3,3;,
  4;5,5,5,5;,
  4;5,5,5,5;,
  4;5,5,5,5;,
  4;6,6,6,6;,
  3;7,7,7;,
  3;7,7,7;,
  4;8,8,8,8;,
  3;8,8,8;,
  4;8,8,8,8;,
  4;7,7,7,7;,
  4;7,7,7,7;,
  4;8,8,8,8;,
  4;6,6,6,6;,
  4;8,8,8,8;,
  3;8,8,8;,
  4;9,9,9,9;,
  3;10,10,10;,
  4;9,9,9,9;,
  4;8,8,8,8;,
  4;7,7,7,7;,
  4;6,6,6,6;,
  4;6,6,6,6;,
  4;11,11,11,11;,
  4;12,12,12,12;,
  4;13,13,13,13;,
  4;15,15,15,15;,
  4;16,16,16,16;,
  4;14,14,14,14;,
  4;17,17,17,17;,
  4;18,18,18,18;,
  4;19,19,19,19;,
  4;20,20,20,20;,
  4;21,21,21,21;,
  4;22,22,22,22;,
  4;22,22,22,22;,
  4;23,23,23,23;,
  4;24,24,24,24;,
  4;25,25,25,25;,
  3;26,26,26;,
  3;26,26,26;,
  4;27,27,27,27;,
  4;27,27,27,27;,
  4;29,29,28,29;,
  4;29,29,29,29;,
  4;29,29,29,29;,
  4;29,29,29,29;,
  4;29,29,29,29;,
  3;29,29,29;,
  4;29,29,29,29;,
  3;30,30,30;,
  3;30,30,30;,
  4;31,31,31,31;,
  4;32,32,32,32;,
  4;33,33,33,33;,
  4;33,33,33,33;,
  4;31,31,31,31;,
  4;30,30,30,30;,
  4;32,32,32,32;,
  4;32,32,32,32;,
  4;30,30,30,30;,
  4;31,31,31,31;,
  4;31,31,31,31;,
  4;29,34,29,29;,
  4;35,35,35,35;,
  4;29,29,34,28;,
  3;28,34,34;,
  3;36,36,36;,
  3;36,36,36;,
  4;36,36,36,36;,
  4;37,37,37,37;,
  4;37,37,37,37;,
  4;38,38,38,38;,
  4;39,39,39,39;,
  4;40,40,40,40;,
  4;36,36,36,36;,
  3;36,36,36;,
  3;36,36,36;,
  4;37,37,37,37;,
  3;37,37,37;,
  3;37,37,37;;
 }
 MeshTextureCoords {
  324;
  0.069570;0.978830;,
  0.069570;-0.043430;,
  1.091840;0.978930;,
  -0.044920;0.013820;,
  0.977350;0.013920;,
  0.977350;1.036170;,
  2.279120;0.042000;,
  2.279120;-0.885170;,
  2.897050;-0.884550;,
  2.897050;0.042620;,
  0.089880;0.876290;,
  0.089880;-0.084950;,
  0.995800;1.013380;,
  0.078110;-0.023210;,
  0.984040;0.113880;,
  0.984040;1.075120;,
  1.569230;-0.729150;,
  -0.240520;-0.729150;,
  -0.240520;-4.618490;,
  1.569230;-4.618490;,
  -15.298500;2.301870;,
  -15.298500;1.629230;,
  -15.298500;1.629230;,
  -15.298500;1.629230;,
  -15.298500;1.629230;,
  -15.298500;2.301870;,
  0.360380;0.786310;,
  0.360380;0.786310;,
  0.360380;0.786310;,
  0.360380;0.786310;,
  0.118650;-0.464880;,
  0.628580;-0.444890;,
  0.628580;1.241680;,
  0.118650;1.221700;,
  -6.212740;-2.673820;,
  -6.212740;-1.701480;,
  -8.022500;-1.701480;,
  -8.022500;-2.673820;,
  0.790970;0.847890;,
  0.378890;0.838000;,
  0.378890;0.228880;,
  0.790970;0.238770;,
  0.281590;0.977730;,
  -0.019970;-0.156860;,
  0.701640;-0.046140;,
  1.289860;0.798920;,
  1.040740;-0.000290;,
  1.040740;1.021960;,
  0.018470;1.021860;,
  0.018470;-0.000390;,
  4.283870;-4.618490;,
  8.808270;5.104860;,
  4.283870;5.104860;,
  8.808270;-4.618490;,
  -10.194200;-4.618490;,
  8.808270;-12.397200;,
  -10.194200;-12.397200;,
  16.047300;5.104860;,
  16.047300;-12.397200;,
  16.047300;-20.175800;,
  -10.194200;-20.175800;,
  -20.147900;-4.618490;,
  -20.147900;-20.175800;,
  0.000000;0.000000;,
  0.000000;0.000000;,
  0.000000;0.000000;,
  0.000000;0.000000;,
  0.000000;0.000000;,
  0.000000;0.000000;,
  16.047300;22.606899;,
  4.283870;22.606899;,
  0.000000;0.000000;,
  0.000000;0.000000;,
  0.000000;0.000000;,
  0.000000;0.000000;,
  0.000000;0.000000;,
  1.050150;0.307620;,
  0.000000;0.000000;,
  -5.370100;-6.060230;,
  -6.483300;-6.060230;,
  -2.050290;-4.618490;,
  -0.240520;-4.618490;,
  -0.240520;-2.673820;,
  -2.050290;-2.673820;,
  0.022980;0.582720;,
  1.045250;0.071690;,
  1.045250;0.582820;,
  0.022980;0.071590;,
  0.240840;0.087860;,
  0.240840;0.087860;,
  0.759650;0.088180;,
  0.759650;0.821990;,
  0.968280;1.035280;,
  0.319990;1.034820;,
  0.319990;0.010970;,
  0.626720;0.779670;,
  0.119070;-0.013760;,
  0.626720;-0.013630;,
  0.626720;-0.013630;,
  0.032120;0.964050;,
  0.032120;0.964050;,
  0.032120;-0.003680;,
  1.006690;-0.003630;,
  1.020330;-0.030730;,
  1.020330;0.937000;,
  0.045770;0.936950;,
  0.045770;0.936950;,
  0.636510;0.720920;,
  0.128860;0.720790;,
  0.128860;-0.072510;,
  0.128860;-0.072510;,
  -4.764930;-0.729150;,
  -4.764930;-4.618490;,
  -2.955170;-4.618490;,
  -2.955170;-0.729150;,
  0.849090;0.023720;,
  0.849090;0.023720;,
  0.180270;1.024930;,
  0.180270;0.023390;,
  0.831880;-0.014150;,
  0.831880;0.987390;,
  0.163050;0.987060;,
  0.850310;0.984880;,
  0.041110;0.995280;,
  0.041110;0.078390;,
  0.850310;0.067990;,
  0.602200;0.797820;,
  0.602200;0.797820;,
  0.602200;0.797820;,
  1.231180;1.169430;,
  -0.091540;0.894910;,
  -0.091540;0.134300;,
  1.231180;0.408810;,
  0.088160;0.938940;,
  0.088160;0.020060;,
  0.987950;0.021290;,
  0.987950;0.940170;,
  1.014140;1.036070;,
  -0.008130;1.035970;,
  -0.008130;0.524850;,
  1.014140;0.524950;,
  1.569230;1.215520;,
  -0.240520;1.215520;,
  -0.240520;-0.729150;,
  1.569230;-0.729150;,
  -10.194200;-4.618490;,
  4.283870;-4.618490;,
  4.283870;5.104860;,
  -10.194200;5.104860;,
  0.859300;0.924740;,
  0.065520;0.924430;,
  0.065520;0.011260;,
  0.859300;0.011560;,
  -0.482760;-0.507690;,
  1.465710;-0.496340;,
  1.465710;1.319010;,
  -0.482760;1.307660;,
  1.018450;1.114850;,
  0.021540;1.103990;,
  0.030720;-0.075090;,
  1.027620;-0.064240;,
  -5.222150;-4.907940;,
  -6.812890;-6.531470;,
  -6.812890;-7.626870;,
  -4.691900;-5.462160;,
  -0.405260;0.227700;,
  1.252860;0.266840;,
  1.291260;0.870220;,
  -0.366860;0.831070;,
  -9.204650;-2.504210;,
  -10.623200;-2.287910;,
  -11.096000;-3.667550;,
  -9.204650;-3.955960;,
  -6.850450;2.237170;,
  -6.843640;3.878720;,
  -10.669400;3.883910;,
  -10.676200;2.242370;,
  -8.384450;5.104860;,
  -10.194200;5.104860;,
  -10.194200;3.160190;,
  -8.384450;3.160190;,
  -6.331160;-1.844210;,
  -7.353430;-1.844310;,
  -7.353430;-2.866570;,
  -6.331160;-2.866460;,
  0.204380;0.127910;,
  0.980330;0.105180;,
  0.980330;0.923330;,
  0.204380;0.946060;,
  0.617560;0.859240;,
  0.617560;0.859240;,
  0.617560;0.859240;,
  0.617560;0.859240;,
  -1.145410;6.077200;,
  -2.955170;6.077200;,
  -2.955170;5.104860;,
  -1.145410;5.104860;,
  -1.145410;7.049530;,
  -2.955170;7.049530;,
  0.605020;0.852710;,
  0.218890;0.848510;,
  0.218890;-0.288180;,
  0.605020;-0.283990;,
  0.087960;0.742440;,
  -0.296340;0.741260;,
  -0.296340;-0.575380;,
  0.087960;-0.574200;,
  -2.050290;-2.673820;,
  -2.955170;-2.673820;,
  -2.955170;-4.618490;,
  -2.050290;-4.618490;,
  -7.479570;9.966540;,
  -7.479570;15.800500;,
  -16.528400;15.800500;,
  -16.528400;9.966540;,
  -7.479570;9.966540;,
  -1.145410;13.855900;,
  -2.955170;13.855900;,
  -2.955170;7.049530;,
  -1.145410;7.049530;,
  -7.479570;13.855900;,
  -7.479570;11.911200;,
  -2.955170;11.911200;,
  -2.955170;13.855900;,
  -7.479570;5.104860;,
  -7.479570;9.966540;,
  -16.528400;9.966540;,
  -10.194200;5.104860;,
  -2.955170;11.911200;,
  -7.479570;11.911200;,
  -2.955170;5.104860;,
  -1.145410;7.049530;,
  -2.955170;7.049530;,
  -2.955170;5.104860;,
  -1.145410;5.104860;,
  4.283870;5.104860;,
  4.283870;22.606899;,
  -1.145410;16.772900;,
  -1.145410;5.104860;,
  -1.145410;13.855900;,
  -1.145410;22.606899;,
  -7.479570;22.606899;,
  -7.479570;13.855900;,
  4.283870;22.606899;,
  -7.479570;15.800500;,
  -7.479570;22.606899;,
  -16.528400;22.606899;,
  -16.528400;15.800500;,
  -7.843420;8.055680;,
  0.000000;0.000000;,
  0.000000;0.000000;,
  0.000000;0.000000;,
  0.000000;0.000000;,
  0.000000;0.000000;,
  0.000000;0.000000;,
  -3.124740;8.055680;,
  0.000000;0.000000;,
  0.000000;0.000000;,
  -3.124740;4.557260;,
  -3.124740;5.723400;,
  0.000000;0.000000;,
  0.000000;0.000000;,
  0.000000;0.000000;,
  0.000000;0.000000;,
  0.000000;0.000000;,
  -0.765400;5.723400;,
  0.000000;0.000000;,
  0.178340;6.889540;,
  -3.124740;6.889540;,
  0.000000;0.000000;,
  0.000000;0.000000;,
  0.000000;0.000000;,
  0.000000;0.000000;,
  0.000000;0.000000;,
  0.000000;0.000000;,
  0.000000;0.000000;,
  0.000000;0.000000;,
  0.000000;0.000000;,
  0.000000;0.000000;,
  3.009550;12.137200;,
  3.009550;1.641920;,
  0.000000;0.000000;,
  0.000000;0.000000;,
  0.000000;0.000000;,
  0.000000;0.000000;,
  0.000000;0.000000;,
  0.000000;0.000000;,
  0.000000;0.000000;,
  0.000000;0.000000;,
  -10.194200;5.104860;,
  -20.147900;5.104860;,
  -20.147900;-4.618490;,
  -10.194200;-4.618490;,
  -4.540340;1.641920;,
  -7.843420;4.557260;,
  0.000000;0.000000;,
  0.000000;0.000000;,
  -20.147900;22.606899;,
  -20.147900;9.966540;,
  0.000000;0.000000;,
  0.000000;0.000000;,
  0.000000;0.000000;,
  0.000000;0.000000;,
  0.000000;0.000000;,
  0.000000;0.000000;,
  0.000000;0.000000;,
  0.000000;0.000000;,
  0.000000;0.000000;,
  0.000000;0.000000;,
  0.000000;0.000000;,
  0.000000;0.000000;,
  0.000000;0.000000;,
  0.000000;0.000000;,
  0.000000;0.000000;,
  0.000000;0.000000;,
  0.000000;0.000000;,
  0.000000;0.000000;,
  0.000000;0.000000;,
  0.000000;0.000000;,
  0.000000;0.000000;,
  0.000000;0.000000;,
  0.000000;0.000000;,
  0.000000;0.000000;,
  0.000000;0.000000;;
 }
 MeshVertexColors {
  324;
  0;1.000000;1.000000;1.000000;1.000000;,
  1;1.000000;1.000000;1.000000;1.000000;,
  2;1.000000;1.000000;1.000000;1.000000;,
  3;1.000000;1.000000;1.000000;1.000000;,
  4;1.000000;1.000000;1.000000;1.000000;,
  5;1.000000;1.000000;1.000000;1.000000;,
  6;1.000000;1.000000;1.000000;1.000000;,
  7;1.000000;1.000000;1.000000;1.000000;,
  8;1.000000;1.000000;1.000000;1.000000;,
  9;1.000000;1.000000;1.000000;1.000000;,
  10;1.000000;1.000000;1.000000;1.000000;,
  11;1.000000;1.000000;1.000000;1.000000;,
  12;1.000000;1.000000;1.000000;1.000000;,
  13;1.000000;1.000000;1.000000;1.000000;,
  14;1.000000;1.000000;1.000000;1.000000;,
  15;1.000000;1.000000;1.000000;1.000000;,
  16;1.000000;1.000000;1.000000;1.000000;,
  17;1.000000;1.000000;1.000000;1.000000;,
  18;1.000000;1.000000;1.000000;1.000000;,
  19;1.000000;1.000000;1.000000;1.000000;,
  20;1.000000;1.000000;1.000000;1.000000;,
  21;1.000000;1.000000;1.000000;1.000000;,
  22;1.000000;1.000000;1.000000;1.000000;,
  23;1.000000;1.000000;1.000000;1.000000;,
  24;1.000000;1.000000;1.000000;1.000000;,
  25;1.000000;1.000000;1.000000;1.000000;,
  26;1.000000;1.000000;1.000000;1.000000;,
  27;1.000000;1.000000;1.000000;1.000000;,
  28;1.000000;1.000000;1.000000;1.000000;,
  29;1.000000;1.000000;1.000000;1.000000;,
  30;1.000000;1.000000;1.000000;1.000000;,
  31;1.000000;1.000000;1.000000;1.000000;,
  32;1.000000;1.000000;1.000000;1.000000;,
  33;1.000000;1.000000;1.000000;1.000000;,
  34;1.000000;1.000000;1.000000;1.000000;,
  35;1.000000;1.000000;1.000000;1.000000;,
  36;1.000000;1.000000;1.000000;1.000000;,
  37;1.000000;1.000000;1.000000;1.000000;,
  38;1.000000;1.000000;1.000000;1.000000;,
  39;1.000000;1.000000;1.000000;1.000000;,
  40;1.000000;1.000000;1.000000;1.000000;,
  41;1.000000;1.000000;1.000000;1.000000;,
  42;1.000000;1.000000;1.000000;1.000000;,
  43;1.000000;1.000000;1.000000;1.000000;,
  44;1.000000;1.000000;1.000000;1.000000;,
  45;1.000000;1.000000;1.000000;1.000000;,
  46;1.000000;1.000000;1.000000;1.000000;,
  47;1.000000;1.000000;1.000000;1.000000;,
  48;1.000000;1.000000;1.000000;1.000000;,
  49;1.000000;1.000000;1.000000;1.000000;,
  50;1.000000;1.000000;1.000000;1.000000;,
  51;1.000000;1.000000;1.000000;1.000000;,
  52;1.000000;1.000000;1.000000;1.000000;,
  53;1.000000;1.000000;1.000000;1.000000;,
  54;1.000000;1.000000;1.000000;1.000000;,
  55;1.000000;1.000000;1.000000;1.000000;,
  56;1.000000;1.000000;1.000000;1.000000;,
  57;1.000000;1.000000;1.000000;1.000000;,
  58;1.000000;1.000000;1.000000;1.000000;,
  59;1.000000;1.000000;1.000000;1.000000;,
  60;1.000000;1.000000;1.000000;1.000000;,
  61;1.000000;1.000000;1.000000;1.000000;,
  62;1.000000;1.000000;1.000000;1.000000;,
  63;1.000000;1.000000;1.000000;1.000000;,
  64;1.000000;1.000000;1.000000;1.000000;,
  65;1.000000;1.000000;1.000000;1.000000;,
  66;1.000000;1.000000;1.000000;1.000000;,
  67;1.000000;1.000000;1.000000;1.000000;,
  68;1.000000;1.000000;1.000000;1.000000;,
  69;1.000000;1.000000;1.000000;1.000000;,
  70;1.000000;1.000000;1.000000;1.000000;,
  71;1.000000;1.000000;1.000000;1.000000;,
  72;1.000000;1.000000;1.000000;1.000000;,
  73;1.000000;1.000000;1.000000;1.000000;,
  74;1.000000;1.000000;1.000000;1.000000;,
  75;1.000000;1.000000;1.000000;1.000000;,
  76;1.000000;1.000000;1.000000;1.000000;,
  77;1.000000;1.000000;1.000000;1.000000;,
  78;1.000000;1.000000;1.000000;1.000000;,
  79;1.000000;1.000000;1.000000;1.000000;,
  80;1.000000;1.000000;1.000000;1.000000;,
  81;1.000000;1.000000;1.000000;1.000000;,
  82;1.000000;1.000000;1.000000;1.000000;,
  83;1.000000;1.000000;1.000000;1.000000;,
  84;1.000000;1.000000;1.000000;1.000000;,
  85;1.000000;1.000000;1.000000;1.000000;,
  86;1.000000;1.000000;1.000000;1.000000;,
  87;1.000000;1.000000;1.000000;1.000000;,
  88;1.000000;1.000000;1.000000;1.000000;,
  89;1.000000;1.000000;1.000000;1.000000;,
  90;1.000000;1.000000;1.000000;1.000000;,
  91;1.000000;1.000000;1.000000;1.000000;,
  92;1.000000;1.000000;1.000000;1.000000;,
  93;1.000000;1.000000;1.000000;1.000000;,
  94;1.000000;1.000000;1.000000;1.000000;,
  95;1.000000;1.000000;1.000000;1.000000;,
  96;1.000000;1.000000;1.000000;1.000000;,
  97;1.000000;1.000000;1.000000;1.000000;,
  98;1.000000;1.000000;1.000000;1.000000;,
  99;1.000000;1.000000;1.000000;1.000000;,
  100;1.000000;1.000000;1.000000;1.000000;,
  101;1.000000;1.000000;1.000000;1.000000;,
  102;1.000000;1.000000;1.000000;1.000000;,
  103;1.000000;1.000000;1.000000;1.000000;,
  104;1.000000;1.000000;1.000000;1.000000;,
  105;1.000000;1.000000;1.000000;1.000000;,
  106;1.000000;1.000000;1.000000;1.000000;,
  107;1.000000;1.000000;1.000000;1.000000;,
  108;1.000000;1.000000;1.000000;1.000000;,
  109;1.000000;1.000000;1.000000;1.000000;,
  110;1.000000;1.000000;1.000000;1.000000;,
  111;1.000000;1.000000;1.000000;1.000000;,
  112;1.000000;1.000000;1.000000;1.000000;,
  113;1.000000;1.000000;1.000000;1.000000;,
  114;1.000000;1.000000;1.000000;1.000000;,
  115;1.000000;1.000000;1.000000;1.000000;,
  116;1.000000;1.000000;1.000000;1.000000;,
  117;1.000000;1.000000;1.000000;1.000000;,
  118;1.000000;1.000000;1.000000;1.000000;,
  119;1.000000;1.000000;1.000000;1.000000;,
  120;1.000000;1.000000;1.000000;1.000000;,
  121;1.000000;1.000000;1.000000;1.000000;,
  122;1.000000;1.000000;1.000000;1.000000;,
  123;1.000000;1.000000;1.000000;1.000000;,
  124;1.000000;1.000000;1.000000;1.000000;,
  125;1.000000;1.000000;1.000000;1.000000;,
  126;1.000000;1.000000;1.000000;1.000000;,
  127;1.000000;1.000000;1.000000;1.000000;,
  128;1.000000;1.000000;1.000000;1.000000;,
  129;1.000000;1.000000;1.000000;1.000000;,
  130;1.000000;1.000000;1.000000;1.000000;,
  131;1.000000;1.000000;1.000000;1.000000;,
  132;1.000000;1.000000;1.000000;1.000000;,
  133;1.000000;1.000000;1.000000;1.000000;,
  134;1.000000;1.000000;1.000000;1.000000;,
  135;1.000000;1.000000;1.000000;1.000000;,
  136;1.000000;1.000000;1.000000;1.000000;,
  137;1.000000;1.000000;1.000000;1.000000;,
  138;1.000000;1.000000;1.000000;1.000000;,
  139;1.000000;1.000000;1.000000;1.000000;,
  140;1.000000;1.000000;1.000000;1.000000;,
  141;1.000000;1.000000;1.000000;1.000000;,
  142;1.000000;1.000000;1.000000;1.000000;,
  143;1.000000;1.000000;1.000000;1.000000;,
  144;1.000000;1.000000;1.000000;1.000000;,
  145;1.000000;1.000000;1.000000;1.000000;,
  146;1.000000;1.000000;1.000000;1.000000;,
  147;1.000000;1.000000;1.000000;1.000000;,
  148;1.000000;1.000000;1.000000;1.000000;,
  149;1.000000;1.000000;1.000000;1.000000;,
  150;1.000000;1.000000;1.000000;1.000000;,
  151;1.000000;1.000000;1.000000;1.000000;,
  152;1.000000;1.000000;1.000000;1.000000;,
  153;1.000000;1.000000;1.000000;1.000000;,
  154;1.000000;1.000000;1.000000;1.000000;,
  155;1.000000;1.000000;1.000000;1.000000;,
  156;1.000000;1.000000;1.000000;1.000000;,
  157;1.000000;1.000000;1.000000;1.000000;,
  158;1.000000;1.000000;1.000000;1.000000;,
  159;1.000000;1.000000;1.000000;1.000000;,
  160;1.000000;1.000000;1.000000;1.000000;,
  161;1.000000;1.000000;1.000000;1.000000;,
  162;1.000000;1.000000;1.000000;1.000000;,
  163;1.000000;1.000000;1.000000;1.000000;,
  164;1.000000;1.000000;1.000000;1.000000;,
  165;1.000000;1.000000;1.000000;1.000000;,
  166;1.000000;1.000000;1.000000;1.000000;,
  167;1.000000;1.000000;1.000000;1.000000;,
  168;1.000000;1.000000;1.000000;1.000000;,
  169;1.000000;1.000000;1.000000;1.000000;,
  170;1.000000;1.000000;1.000000;1.000000;,
  171;1.000000;1.000000;1.000000;1.000000;,
  172;1.000000;1.000000;1.000000;1.000000;,
  173;1.000000;1.000000;1.000000;1.000000;,
  174;1.000000;1.000000;1.000000;1.000000;,
  175;1.000000;1.000000;1.000000;1.000000;,
  176;1.000000;1.000000;1.000000;1.000000;,
  177;1.000000;1.000000;1.000000;1.000000;,
  178;1.000000;1.000000;1.000000;1.000000;,
  179;1.000000;1.000000;1.000000;1.000000;,
  180;1.000000;1.000000;1.000000;1.000000;,
  181;1.000000;1.000000;1.000000;1.000000;,
  182;1.000000;1.000000;1.000000;1.000000;,
  183;1.000000;1.000000;1.000000;1.000000;,
  184;1.000000;1.000000;1.000000;1.000000;,
  185;1.000000;1.000000;1.000000;1.000000;,
  186;1.000000;1.000000;1.000000;1.000000;,
  187;1.000000;1.000000;1.000000;1.000000;,
  188;1.000000;1.000000;1.000000;1.000000;,
  189;1.000000;1.000000;1.000000;1.000000;,
  190;1.000000;1.000000;1.000000;1.000000;,
  191;1.000000;1.000000;1.000000;1.000000;,
  192;1.000000;1.000000;1.000000;1.000000;,
  193;1.000000;1.000000;1.000000;1.000000;,
  194;1.000000;1.000000;1.000000;1.000000;,
  195;1.000000;1.000000;1.000000;1.000000;,
  196;1.000000;1.000000;1.000000;1.000000;,
  197;1.000000;1.000000;1.000000;1.000000;,
  198;1.000000;1.000000;1.000000;1.000000;,
  199;1.000000;1.000000;1.000000;1.000000;,
  200;1.000000;1.000000;1.000000;1.000000;,
  201;1.000000;1.000000;1.000000;1.000000;,
  202;1.000000;1.000000;1.000000;1.000000;,
  203;1.000000;1.000000;1.000000;1.000000;,
  204;1.000000;1.000000;1.000000;1.000000;,
  205;1.000000;1.000000;1.000000;1.000000;,
  206;1.000000;1.000000;1.000000;1.000000;,
  207;1.000000;1.000000;1.000000;1.000000;,
  208;1.000000;1.000000;1.000000;1.000000;,
  209;1.000000;1.000000;1.000000;1.000000;,
  210;1.000000;1.000000;1.000000;1.000000;,
  211;1.000000;1.000000;1.000000;1.000000;,
  212;1.000000;1.000000;1.000000;1.000000;,
  213;1.000000;1.000000;1.000000;1.000000;,
  214;1.000000;1.000000;1.000000;1.000000;,
  215;1.000000;1.000000;1.000000;1.000000;,
  216;1.000000;1.000000;1.000000;1.000000;,
  217;1.000000;1.000000;1.000000;1.000000;,
  218;1.000000;1.000000;1.000000;1.000000;,
  219;1.000000;1.000000;1.000000;1.000000;,
  220;1.000000;1.000000;1.000000;1.000000;,
  221;1.000000;1.000000;1.000000;1.000000;,
  222;1.000000;1.000000;1.000000;1.000000;,
  223;1.000000;1.000000;1.000000;1.000000;,
  224;1.000000;1.000000;1.000000;1.000000;,
  225;1.000000;1.000000;1.000000;1.000000;,
  226;1.000000;1.000000;1.000000;1.000000;,
  227;1.000000;1.000000;1.000000;1.000000;,
  228;1.000000;1.000000;1.000000;1.000000;,
  229;1.000000;1.000000;1.000000;1.000000;,
  230;1.000000;1.000000;1.000000;1.000000;,
  231;1.000000;1.000000;1.000000;1.000000;,
  232;1.000000;1.000000;1.000000;1.000000;,
  233;1.000000;1.000000;1.000000;1.000000;,
  234;1.000000;1.000000;1.000000;1.000000;,
  235;1.000000;1.000000;1.000000;1.000000;,
  236;1.000000;1.000000;1.000000;1.000000;,
  237;1.000000;1.000000;1.000000;1.000000;,
  238;1.000000;1.000000;1.000000;1.000000;,
  239;1.000000;1.000000;1.000000;1.000000;,
  240;1.000000;1.000000;1.000000;1.000000;,
  241;1.000000;1.000000;1.000000;1.000000;,
  242;1.000000;1.000000;1.000000;1.000000;,
  243;1.000000;1.000000;1.000000;1.000000;,
  244;1.000000;1.000000;1.000000;1.000000;,
  245;1.000000;1.000000;1.000000;1.000000;,
  246;1.000000;1.000000;1.000000;1.000000;,
  247;1.000000;1.000000;1.000000;1.000000;,
  248;1.000000;1.000000;1.000000;1.000000;,
  249;1.000000;1.000000;1.000000;1.000000;,
  250;1.000000;1.000000;1.000000;1.000000;,
  251;1.000000;1.000000;1.000000;1.000000;,
  252;1.000000;1.000000;1.000000;1.000000;,
  253;1.000000;1.000000;1.000000;1.000000;,
  254;1.000000;1.000000;1.000000;1.000000;,
  255;1.000000;1.000000;1.000000;1.000000;,
  256;1.000000;1.000000;1.000000;1.000000;,
  257;1.000000;1.000000;1.000000;1.000000;,
  258;1.000000;1.000000;1.000000;1.000000;,
  259;1.000000;1.000000;1.000000;1.000000;,
  260;1.000000;1.000000;1.000000;1.000000;,
  261;1.000000;1.000000;1.000000;1.000000;,
  262;1.000000;1.000000;1.000000;1.000000;,
  263;1.000000;1.000000;1.000000;1.000000;,
  264;1.000000;1.000000;1.000000;1.000000;,
  265;1.000000;1.000000;1.000000;1.000000;,
  266;1.000000;1.000000;1.000000;1.000000;,
  267;1.000000;1.000000;1.000000;1.000000;,
  268;1.000000;1.000000;1.000000;1.000000;,
  269;1.000000;1.000000;1.000000;1.000000;,
  270;1.000000;1.000000;1.000000;1.000000;,
  271;1.000000;1.000000;1.000000;1.000000;,
  272;1.000000;1.000000;1.000000;1.000000;,
  273;1.000000;1.000000;1.000000;1.000000;,
  274;1.000000;1.000000;1.000000;1.000000;,
  275;1.000000;1.000000;1.000000;1.000000;,
  276;1.000000;1.000000;1.000000;1.000000;,
  277;1.000000;1.000000;1.000000;1.000000;,
  278;1.000000;1.000000;1.000000;1.000000;,
  279;1.000000;1.000000;1.000000;1.000000;,
  280;1.000000;1.000000;1.000000;1.000000;,
  281;1.000000;1.000000;1.000000;1.000000;,
  282;1.000000;1.000000;1.000000;1.000000;,
  283;1.000000;1.000000;1.000000;1.000000;,
  284;1.000000;1.000000;1.000000;1.000000;,
  285;1.000000;1.000000;1.000000;1.000000;,
  286;1.000000;1.000000;1.000000;1.000000;,
  287;1.000000;1.000000;1.000000;1.000000;,
  288;1.000000;1.000000;1.000000;1.000000;,
  289;1.000000;1.000000;1.000000;1.000000;,
  290;1.000000;1.000000;1.000000;1.000000;,
  291;1.000000;1.000000;1.000000;1.000000;,
  292;1.000000;1.000000;1.000000;1.000000;,
  293;1.000000;1.000000;1.000000;1.000000;,
  294;1.000000;1.000000;1.000000;1.000000;,
  295;1.000000;1.000000;1.000000;1.000000;,
  296;1.000000;1.000000;1.000000;1.000000;,
  297;1.000000;1.000000;1.000000;1.000000;,
  298;1.000000;1.000000;1.000000;1.000000;,
  299;1.000000;1.000000;1.000000;1.000000;,
  300;1.000000;1.000000;1.000000;1.000000;,
  301;1.000000;1.000000;1.000000;1.000000;,
  302;1.000000;1.000000;1.000000;1.000000;,
  303;1.000000;1.000000;1.000000;1.000000;,
  304;1.000000;1.000000;1.000000;1.000000;,
  305;1.000000;1.000000;1.000000;1.000000;,
  306;1.000000;1.000000;1.000000;1.000000;,
  307;1.000000;1.000000;1.000000;1.000000;,
  308;1.000000;1.000000;1.000000;1.000000;,
  309;1.000000;1.000000;1.000000;1.000000;,
  310;1.000000;1.000000;1.000000;1.000000;,
  311;1.000000;1.000000;1.000000;1.000000;,
  312;1.000000;1.000000;1.000000;1.000000;,
  313;1.000000;1.000000;1.000000;1.000000;,
  314;1.000000;1.000000;1.000000;1.000000;,
  315;1.000000;1.000000;1.000000;1.000000;,
  316;1.000000;1.000000;1.000000;1.000000;,
  317;1.000000;1.000000;1.000000;1.000000;,
  318;1.000000;1.000000;1.000000;1.000000;,
  319;1.000000;1.000000;1.000000;1.000000;,
  320;1.000000;1.000000;1.000000;1.000000;,
  321;1.000000;1.000000;1.000000;1.000000;,
  322;1.000000;1.000000;1.000000;1.000000;,
  323;1.000000;1.000000;1.000000;1.000000;;
 }
}
