xof 0302txt 0064
template Header {
 <3D82AB43-62DA-11cf-AB39-0020AF71E433>
 WORD major;
 WORD minor;
 DWORD flags;
}

template Vector {
 <3D82AB5E-62DA-11cf-AB39-0020AF71E433>
 FLOAT x;
 FLOAT y;
 FLOAT z;
}

template Coords2d {
 <F6F23F44-7686-11cf-8F52-0040333594A3>
 FLOAT u;
 FLOAT v;
}

template Matrix4x4 {
 <F6F23F45-7686-11cf-8F52-0040333594A3>
 array FLOAT matrix[16];
}

template ColorRGBA {
 <35FF44E0-6C7C-11cf-8F52-0040333594A3>
 FLOAT red;
 FLOAT green;
 FLOAT blue;
 FLOAT alpha;
}

template ColorRGB {
 <D3E16E81-7835-11cf-8F52-0040333594A3>
 FLOAT red;
 FLOAT green;
 FLOAT blue;
}

template IndexedColor {
 <1630B820-7842-11cf-8F52-0040333594A3>
 DWORD index;
 ColorRGBA indexColor;
}

template Boolean {
 <4885AE61-78E8-11cf-8F52-0040333594A3>
 WORD truefalse;
}

template Boolean2d {
 <4885AE63-78E8-11cf-8F52-0040333594A3>
 Boolean u;
 Boolean v;
}

template MaterialWrap {
 <4885AE60-78E8-11cf-8F52-0040333594A3>
 Boolean u;
 Boolean v;
}

template TextureFilename {
 <A42790E1-7810-11cf-8F52-0040333594A3>
 STRING filename;
}

template Material {
 <3D82AB4D-62DA-11cf-AB39-0020AF71E433>
 ColorRGBA faceColor;
 FLOAT power;
 ColorRGB specularColor;
 ColorRGB emissiveColor;
 [...]
}

template MeshFace {
 <3D82AB5F-62DA-11cf-AB39-0020AF71E433>
 DWORD nFaceVertexIndices;
 array DWORD faceVertexIndices[nFaceVertexIndices];
}

template MeshFaceWraps {
 <4885AE62-78E8-11cf-8F52-0040333594A3>
 DWORD nFaceWrapValues;
 Boolean2d faceWrapValues;
}

template MeshTextureCoords {
 <F6F23F40-7686-11cf-8F52-0040333594A3>
 DWORD nTextureCoords;
 array Coords2d textureCoords[nTextureCoords];
}

template MeshMaterialList {
 <F6F23F42-7686-11cf-8F52-0040333594A3>
 DWORD nMaterials;
 DWORD nFaceIndexes;
 array DWORD faceIndexes[nFaceIndexes];
 [Material]
}

template MeshNormals {
 <F6F23F43-7686-11cf-8F52-0040333594A3>
 DWORD nNormals;
 array Vector normals[nNormals];
 DWORD nFaceNormals;
 array MeshFace faceNormals[nFaceNormals];
}

template MeshVertexColors {
 <1630B821-7842-11cf-8F52-0040333594A3>
 DWORD nVertexColors;
 array IndexedColor vertexColors[nVertexColors];
}

template Mesh {
 <3D82AB44-62DA-11cf-AB39-0020AF71E433>
 DWORD nVertices;
 array Vector vertices[nVertices];
 DWORD nFaces;
 array MeshFace faces[nFaces];
 [...]
}

Header{
1;
0;
1;
}

Mesh {
 142;
 -17.70265;0.00000;17.70265;,
 17.70265;0.00000;17.70265;,
 17.70265;0.00000;-17.70265;,
 -17.70265;0.00000;-17.70265;,
 -0.93994;1.65248;-13.36814;,
 0.93994;1.65248;-13.36814;,
 0.93994;1.65248;-17.00474;,
 -0.93994;1.65248;-17.00474;,
 -0.93994;0.95248;-17.70474;,
 0.93994;0.95248;-17.70474;,
 0.93994;0.17357;-17.70474;,
 -0.93994;0.17357;-17.70474;,
 -0.93994;-0.52643;-17.00474;,
 0.93994;-0.52643;-17.00474;,
 0.93994;-0.52643;-13.36814;,
 -0.93994;-0.52643;-13.36814;,
 -0.93994;0.17357;-12.66814;,
 0.93994;0.17357;-12.66814;,
 0.93994;0.95248;-12.66814;,
 -0.93994;0.95248;-12.66814;,
 1.63994;0.95248;-13.36814;,
 1.63994;0.17357;-13.36814;,
 1.63994;0.17357;-17.00474;,
 1.63994;0.95248;-17.00474;,
 -1.63994;0.17357;-13.36814;,
 -1.63994;0.95248;-13.36814;,
 -1.63994;0.95248;-17.00474;,
 -1.63994;0.17357;-17.00474;,
 -0.93994;1.65248;-17.00474;,
 0.93994;1.65248;-17.00474;,
 0.93994;1.59920;-17.27262;,
 -0.93994;1.59920;-17.27262;,
 0.93994;1.44746;-17.49972;,
 -0.93994;1.44746;-17.49972;,
 0.93994;1.22036;-17.65146;,
 -0.93994;1.22036;-17.65146;,
 0.93994;0.95248;-17.70474;,
 -0.93994;-0.47314;-17.27262;,
 0.93994;-0.47314;-17.27262;,
 0.93994;-0.52643;-17.00474;,
 -0.93994;-0.32140;-17.49972;,
 0.93994;-0.32140;-17.49972;,
 -0.93994;-0.09431;-17.65146;,
 0.93994;-0.09431;-17.65146;,
 -0.93994;0.17357;-17.70474;,
 0.93994;0.17357;-17.70474;,
 -0.93994;1.59920;-13.10026;,
 0.93994;1.59920;-13.10026;,
 0.93994;1.65248;-13.36814;,
 -0.93994;1.44746;-12.87316;,
 0.93994;1.44746;-12.87316;,
 -0.93994;1.22036;-12.72142;,
 0.93994;1.22036;-12.72142;,
 -0.93994;0.95248;-12.66814;,
 0.93994;0.95248;-12.66814;,
 -0.93994;-0.52643;-13.36814;,
 0.93994;-0.52643;-13.36814;,
 0.93994;-0.47314;-13.10026;,
 -0.93994;-0.47314;-13.10026;,
 0.93994;-0.32140;-12.87316;,
 -0.93994;-0.32140;-12.87316;,
 0.93994;-0.09431;-12.72142;,
 -0.93994;-0.09431;-12.72142;,
 0.93994;0.17357;-12.66814;,
 1.20781;1.59920;-13.36814;,
 1.20781;1.59920;-17.00474;,
 1.43491;1.44746;-13.36814;,
 1.43491;1.44746;-17.00474;,
 1.58665;1.22036;-13.36814;,
 1.58665;1.22036;-17.00474;,
 1.63994;0.95248;-17.00474;,
 1.20781;-0.47314;-17.00474;,
 1.20781;-0.47314;-13.36814;,
 1.43491;-0.32140;-17.00474;,
 1.43491;-0.32140;-13.36814;,
 1.58665;-0.09431;-17.00474;,
 1.58665;-0.09431;-13.36814;,
 1.63994;0.17357;-17.00474;,
 1.63994;0.17357;-13.36814;,
 -1.20781;1.59920;-17.00474;,
 -1.20781;1.59920;-13.36814;,
 -1.43491;1.44746;-17.00474;,
 -1.43491;1.44746;-13.36814;,
 -1.58665;1.22036;-17.00474;,
 -1.58665;1.22036;-13.36814;,
 -1.63994;0.95248;-17.00474;,
 -1.63994;0.95248;-13.36814;,
 -1.20781;-0.47314;-13.36814;,
 -1.20781;-0.47314;-17.00474;,
 -1.43491;-0.32140;-13.36814;,
 -1.43491;-0.32140;-17.00474;,
 -1.58665;-0.09431;-13.36814;,
 -1.58665;-0.09431;-17.00474;,
 -1.63994;0.17357;-17.00474;,
 1.20781;0.95248;-17.65146;,
 1.20781;0.17357;-17.65146;,
 1.43491;0.95248;-17.49972;,
 1.43491;0.17357;-17.49972;,
 1.58665;0.95248;-17.27262;,
 1.58665;0.17357;-17.27262;,
 1.20781;0.17357;-12.72142;,
 1.20781;0.95248;-12.72142;,
 1.43491;0.17357;-12.87316;,
 1.43491;0.95248;-12.87316;,
 1.58665;0.17357;-13.10026;,
 1.58665;0.95248;-13.10026;,
 -1.20781;0.17357;-17.65146;,
 -1.20781;0.95248;-17.65146;,
 -1.43491;0.17357;-17.49972;,
 -1.43491;0.95248;-17.49972;,
 -1.58665;0.17357;-17.27262;,
 -1.58665;0.95248;-17.27262;,
 -1.20781;0.95248;-12.72142;,
 -1.20781;0.17357;-12.72142;,
 -1.43491;0.95248;-12.87316;,
 -1.43491;0.17357;-12.87316;,
 -1.58665;0.95248;-13.10026;,
 -1.58665;0.17357;-13.10026;,
 1.28994;1.44746;-17.35474;,
 1.50001;1.22036;-17.32810;,
 1.26329;1.22036;-17.56481;,
 -1.28994;1.44746;-17.35474;,
 -1.50001;1.22036;-17.32810;,
 -1.26329;1.22036;-17.56481;,
 1.28994;-0.32140;-17.35474;,
 1.50001;-0.09431;-17.32810;,
 1.26329;-0.09431;-17.56481;,
 1.28994;1.44746;-13.01814;,
 1.50001;1.22036;-13.04478;,
 1.26329;1.22036;-12.80806;,
 -1.28994;-0.32140;-17.35474;,
 -1.50001;-0.09431;-17.32810;,
 -1.26329;-0.09431;-17.56481;,
 1.28994;-0.32140;-13.01814;,
 1.50001;-0.09431;-13.04478;,
 1.26329;-0.09431;-12.80806;,
 -1.28994;1.44746;-13.01814;,
 -1.50001;1.22036;-13.04478;,
 -1.26329;1.22036;-12.80806;,
 -1.28994;-0.32140;-13.01814;,
 -1.50001;-0.09431;-13.04478;,
 -1.26329;-0.09431;-12.80806;;
 
 183;
 4;0,1,2,3;,
 4;4,5,6,7;,
 4;8,9,10,11;,
 4;12,13,14,15;,
 4;16,17,18,19;,
 4;20,21,22,23;,
 4;24,25,26,27;,
 4;28,29,30,31;,
 4;31,30,32,33;,
 4;33,32,34,35;,
 4;35,34,36,8;,
 4;37,38,39,12;,
 4;40,41,38,37;,
 4;42,43,41,40;,
 4;44,45,43,42;,
 4;46,47,48,4;,
 4;49,50,47,46;,
 4;51,52,50,49;,
 4;53,54,52,51;,
 4;55,56,57,58;,
 4;58,57,59,60;,
 4;60,59,61,62;,
 4;62,61,63,16;,
 4;29,48,64,65;,
 4;65,64,66,67;,
 4;67,66,68,69;,
 4;69,68,20,70;,
 4;56,39,71,72;,
 4;72,71,73,74;,
 4;74,73,75,76;,
 4;76,75,77,78;,
 4;4,28,79,80;,
 4;80,79,81,82;,
 4;82,81,83,84;,
 4;84,83,85,86;,
 4;12,55,87,88;,
 4;88,87,89,90;,
 4;90,89,91,92;,
 4;92,91,24,93;,
 4;45,36,94,95;,
 4;95,94,96,97;,
 4;97,96,98,99;,
 4;99,98,70,77;,
 4;54,63,100,101;,
 4;101,100,102,103;,
 4;103,102,104,105;,
 4;105,104,78,20;,
 4;8,44,106,107;,
 4;107,106,108,109;,
 4;109,108,110,111;,
 4;111,110,93,85;,
 4;16,53,112,113;,
 4;113,112,114,115;,
 4;115,114,116,117;,
 4;117,116,86,24;,
 3;29,65,30;,
 3;65,67,118;,
 3;118,30,65;,
 3;30,118,32;,
 3;67,69,119;,
 3;119,118,67;,
 3;118,119,120;,
 3;120,32,118;,
 3;32,120,34;,
 3;69,70,98;,
 3;98,119,69;,
 3;119,98,96;,
 3;96,120,119;,
 3;120,96,94;,
 3;94,34,120;,
 3;34,94,36;,
 3;31,79,28;,
 3;121,81,79;,
 3;79,31,121;,
 3;33,121,31;,
 3;122,83,81;,
 3;81,121,122;,
 3;123,122,121;,
 3;121,33,123;,
 3;35,123,33;,
 3;111,85,83;,
 3;83,122,111;,
 3;109,111,122;,
 3;122,123,109;,
 3;107,109,123;,
 3;123,35,107;,
 3;8,107,35;,
 3;38,71,39;,
 3;124,73,71;,
 3;71,38,124;,
 3;41,124,38;,
 3;125,75,73;,
 3;73,124,125;,
 3;126,125,124;,
 3;124,41,126;,
 3;43,126,41;,
 3;99,77,75;,
 3;75,125,99;,
 3;97,99,125;,
 3;125,126,97;,
 3;95,97,126;,
 3;126,43,95;,
 3;45,95,43;,
 3;47,64,48;,
 3;127,66,64;,
 3;64,47,127;,
 3;50,127,47;,
 3;128,68,66;,
 3;66,127,128;,
 3;129,128,127;,
 3;127,50,129;,
 3;52,129,50;,
 3;105,20,68;,
 3;68,128,105;,
 3;103,105,128;,
 3;128,129,103;,
 3;101,103,129;,
 3;129,52,101;,
 3;54,101,52;,
 3;12,88,37;,
 3;88,90,130;,
 3;130,37,88;,
 3;37,130,40;,
 3;90,92,131;,
 3;131,130,90;,
 3;130,131,132;,
 3;132,40,130;,
 3;40,132,42;,
 3;92,93,110;,
 3;110,131,92;,
 3;131,110,108;,
 3;108,132,131;,
 3;132,108,106;,
 3;106,42,132;,
 3;42,106,44;,
 3;56,72,57;,
 3;72,74,133;,
 3;133,57,72;,
 3;57,133,59;,
 3;74,76,134;,
 3;134,133,74;,
 3;133,134,135;,
 3;135,59,133;,
 3;59,135,61;,
 3;76,78,104;,
 3;104,134,76;,
 3;134,104,102;,
 3;102,135,134;,
 3;135,102,100;,
 3;100,61,135;,
 3;61,100,63;,
 3;4,80,46;,
 3;80,82,136;,
 3;136,46,80;,
 3;46,136,49;,
 3;82,84,137;,
 3;137,136,82;,
 3;136,137,138;,
 3;138,49,136;,
 3;49,138,51;,
 3;84,86,116;,
 3;116,137,84;,
 3;137,116,114;,
 3;114,138,137;,
 3;138,114,112;,
 3;112,51,138;,
 3;51,112,53;,
 3;58,87,55;,
 3;139,89,87;,
 3;87,58,139;,
 3;60,139,58;,
 3;140,91,89;,
 3;89,139,140;,
 3;141,140,139;,
 3;139,60,141;,
 3;62,141,60;,
 3;117,24,91;,
 3;91,140,117;,
 3;115,117,140;,
 3;140,141,115;,
 3;113,115,141;,
 3;141,62,113;,
 3;16,113,62;;
 
 MeshMaterialList {
  2;
  183;
  0,
  1,
  1,
  1,
  1,
  1,
  1,
  1,
  1,
  1,
  1,
  1,
  1,
  1,
  1,
  1,
  1,
  1,
  1,
  1,
  1,
  1,
  1,
  1,
  1,
  1,
  1,
  1,
  1,
  1,
  1,
  1,
  1,
  1,
  1,
  1,
  1,
  1,
  1,
  1,
  1,
  1,
  1,
  1,
  1,
  1,
  1,
  1,
  1,
  1,
  1,
  1,
  1,
  1,
  1,
  1,
  1,
  1,
  1,
  1,
  1,
  1,
  1,
  1,
  1,
  1,
  1,
  1,
  1,
  1,
  1,
  1,
  1,
  1,
  1,
  1,
  1,
  1,
  1,
  1,
  1,
  1,
  1,
  1,
  1,
  1,
  1,
  1,
  1,
  1,
  1,
  1,
  1,
  1,
  1,
  1,
  1,
  1,
  1,
  1,
  1,
  1,
  1,
  1,
  1,
  1,
  1,
  1,
  1,
  1,
  1,
  1,
  1,
  1,
  1,
  1,
  1,
  1,
  1,
  1,
  1,
  1,
  1,
  1,
  1,
  1,
  1,
  1,
  1,
  1,
  1,
  1,
  1,
  1,
  1,
  1,
  1,
  1,
  1,
  1,
  1,
  1,
  1,
  1,
  1,
  1,
  1,
  1,
  1,
  1,
  1,
  1,
  1,
  1,
  1,
  1,
  1,
  1,
  1,
  1,
  1,
  1,
  1,
  1,
  1,
  1,
  1,
  1,
  1,
  1,
  1,
  1,
  1,
  1,
  1,
  1,
  1,
  1,
  1,
  1,
  1,
  1,
  1;;
  Material {
   0.800000;0.800000;0.800000;1.000000;;
   5.000000;
   0.000000;0.000000;0.000000;;
   0.000000;0.000000;0.000000;;
  }
  Material {
   1.000000;1.000000;1.000000;1.000000;;
   0.000000;
   0.000000;0.000000;0.000000;;
   0.000000;0.000000;0.000000;;
  }
 }
 MeshNormals {
  121;
  0.000000;1.000000;0.000000;,
  -0.097567;0.990435;0.097567;,
  0.097567;0.990435;0.097567;,
  -0.097567;0.990435;-0.097567;,
  0.097567;0.990435;-0.097567;,
  -0.097566;0.097566;-0.990435;,
  0.097566;0.097566;-0.990435;,
  -0.097566;-0.097566;-0.990435;,
  0.097566;-0.097566;-0.990435;,
  -0.097567;-0.990435;-0.097567;,
  0.097567;-0.990435;-0.097567;,
  -0.097567;-0.990435;0.097567;,
  0.097567;-0.990435;0.097567;,
  -0.097566;-0.097566;0.990435;,
  0.097566;-0.097566;0.990435;,
  -0.097566;0.097566;0.990435;,
  0.097566;0.097566;0.990435;,
  0.990435;0.097567;0.097567;,
  0.990435;-0.097567;0.097567;,
  0.990435;0.097567;-0.097567;,
  0.990435;-0.097567;-0.097567;,
  -0.990435;-0.097567;0.097567;,
  -0.990435;0.097567;0.097567;,
  -0.990435;-0.097567;-0.097567;,
  -0.990435;0.097567;-0.097567;,
  -0.149549;0.917630;-0.368227;,
  0.149549;0.917630;-0.368227;,
  -0.151337;0.689777;-0.708029;,
  0.151337;0.689777;-0.708029;,
  -0.134930;0.354966;-0.925091;,
  0.134930;0.354966;-0.925091;,
  -0.149549;-0.917630;-0.368227;,
  0.149549;-0.917630;-0.368227;,
  -0.151337;-0.689777;-0.708029;,
  0.151337;-0.689777;-0.708029;,
  -0.134930;-0.354967;-0.925091;,
  0.134930;-0.354967;-0.925091;,
  -0.149548;0.917629;0.368228;,
  0.149548;0.917629;0.368228;,
  -0.151336;0.689777;0.708029;,
  0.151336;0.689777;0.708029;,
  -0.134932;0.354968;0.925090;,
  0.134932;0.354968;0.925090;,
  -0.149548;-0.917629;0.368228;,
  0.149548;-0.917629;0.368228;,
  -0.151336;-0.689777;0.708029;,
  0.151336;-0.689777;0.708029;,
  -0.134932;-0.354968;0.925090;,
  0.134932;-0.354968;0.925090;,
  0.368227;0.917630;0.149548;,
  0.368227;0.917630;-0.149548;,
  0.708029;0.689777;0.151336;,
  0.708029;0.689777;-0.151336;,
  0.925090;0.354967;0.134931;,
  0.925090;0.354967;-0.134931;,
  0.368227;-0.917630;0.149548;,
  0.368227;-0.917630;-0.149548;,
  0.708029;-0.689777;0.151336;,
  0.708029;-0.689777;-0.151336;,
  0.925090;-0.354967;0.134931;,
  0.925090;-0.354967;-0.134931;,
  -0.368227;0.917630;0.149548;,
  -0.368227;0.917630;-0.149548;,
  -0.708029;0.689777;0.151336;,
  -0.708029;0.689777;-0.151336;,
  -0.925090;0.354967;0.134931;,
  -0.925090;0.354967;-0.134931;,
  -0.368227;-0.917630;0.149548;,
  -0.368227;-0.917630;-0.149548;,
  -0.708029;-0.689777;0.151336;,
  -0.708029;-0.689777;-0.151336;,
  -0.925090;-0.354967;0.134931;,
  -0.925090;-0.354967;-0.134931;,
  0.356108;-0.121467;-0.926516;,
  0.356108;0.121467;-0.926516;,
  0.702218;-0.117390;-0.702218;,
  0.702218;0.117390;-0.702218;,
  0.926516;-0.121467;-0.356109;,
  0.926516;0.121467;-0.356109;,
  0.356110;-0.121468;0.926516;,
  0.356110;0.121468;0.926516;,
  0.702218;-0.117390;0.702218;,
  0.702218;0.117390;0.702218;,
  0.926516;-0.121467;0.356110;,
  0.926516;0.121467;0.356110;,
  -0.356108;-0.121467;-0.926516;,
  -0.356108;0.121467;-0.926516;,
  -0.702218;-0.117390;-0.702218;,
  -0.702218;0.117390;-0.702218;,
  -0.926516;-0.121467;-0.356109;,
  -0.926516;0.121467;-0.356109;,
  -0.356110;-0.121468;0.926516;,
  -0.356110;0.121468;0.926516;,
  -0.702218;-0.117390;0.702218;,
  -0.702218;0.117390;0.702218;,
  -0.926516;-0.121467;0.356110;,
  -0.926516;0.121467;0.356110;,
  0.472233;0.744307;-0.472232;,
  0.794181;0.405799;-0.452331;,
  0.452332;0.405799;-0.794181;,
  -0.472233;0.744307;-0.472232;,
  -0.794181;0.405799;-0.452331;,
  -0.452332;0.405799;-0.794181;,
  0.472233;-0.744307;-0.472232;,
  0.794181;-0.405799;-0.452331;,
  0.452332;-0.405799;-0.794181;,
  0.472232;0.744307;0.472233;,
  0.794181;0.405799;0.452332;,
  0.452332;0.405799;0.794181;,
  -0.472233;-0.744307;-0.472232;,
  -0.794181;-0.405799;-0.452331;,
  -0.452332;-0.405799;-0.794181;,
  0.472232;-0.744307;0.472233;,
  0.794181;-0.405799;0.452332;,
  0.452332;-0.405799;0.794180;,
  -0.472232;0.744307;0.472233;,
  -0.794181;0.405799;0.452332;,
  -0.452332;0.405799;0.794181;,
  -0.472232;-0.744307;0.472233;,
  -0.794181;-0.405799;0.452332;,
  -0.452332;-0.405799;0.794180;;
  183;
  4;0,0,0,0;,
  4;1,2,4,3;,
  4;5,6,8,7;,
  4;9,10,12,11;,
  4;13,14,16,15;,
  4;17,18,20,19;,
  4;21,22,24,23;,
  4;3,4,26,25;,
  4;25,26,28,27;,
  4;27,28,30,29;,
  4;29,30,6,5;,
  4;31,32,10,9;,
  4;33,34,32,31;,
  4;35,36,34,33;,
  4;7,8,36,35;,
  4;37,38,2,1;,
  4;39,40,38,37;,
  4;41,42,40,39;,
  4;15,16,42,41;,
  4;11,12,44,43;,
  4;43,44,46,45;,
  4;45,46,48,47;,
  4;47,48,14,13;,
  4;4,2,49,50;,
  4;50,49,51,52;,
  4;52,51,53,54;,
  4;54,53,17,19;,
  4;12,10,56,55;,
  4;55,56,58,57;,
  4;57,58,60,59;,
  4;59,60,20,18;,
  4;1,3,62,61;,
  4;61,62,64,63;,
  4;63,64,66,65;,
  4;65,66,24,22;,
  4;9,11,67,68;,
  4;68,67,69,70;,
  4;70,69,71,72;,
  4;72,71,21,23;,
  4;8,6,74,73;,
  4;73,74,76,75;,
  4;75,76,78,77;,
  4;77,78,19,20;,
  4;16,14,79,80;,
  4;80,79,81,82;,
  4;82,81,83,84;,
  4;84,83,18,17;,
  4;5,7,85,86;,
  4;86,85,87,88;,
  4;88,87,89,90;,
  4;90,89,23,24;,
  4;13,15,92,91;,
  4;91,92,94,93;,
  4;93,94,96,95;,
  4;95,96,22,21;,
  3;4,50,26;,
  3;50,52,97;,
  3;97,26,50;,
  3;26,97,28;,
  3;52,54,98;,
  3;98,97,52;,
  3;97,98,99;,
  3;99,28,97;,
  3;28,99,30;,
  3;54,19,78;,
  3;78,98,54;,
  3;98,78,76;,
  3;76,99,98;,
  3;99,76,74;,
  3;74,30,99;,
  3;30,74,6;,
  3;25,62,3;,
  3;100,64,62;,
  3;62,25,100;,
  3;27,100,25;,
  3;101,66,64;,
  3;64,100,101;,
  3;102,101,100;,
  3;100,27,102;,
  3;29,102,27;,
  3;90,24,66;,
  3;66,101,90;,
  3;88,90,101;,
  3;101,102,88;,
  3;86,88,102;,
  3;102,29,86;,
  3;5,86,29;,
  3;32,56,10;,
  3;103,58,56;,
  3;56,32,103;,
  3;34,103,32;,
  3;104,60,58;,
  3;58,103,104;,
  3;105,104,103;,
  3;103,34,105;,
  3;36,105,34;,
  3;77,20,60;,
  3;60,104,77;,
  3;75,77,104;,
  3;104,105,75;,
  3;73,75,105;,
  3;105,36,73;,
  3;8,73,36;,
  3;38,49,2;,
  3;106,51,49;,
  3;49,38,106;,
  3;40,106,38;,
  3;107,53,51;,
  3;51,106,107;,
  3;108,107,106;,
  3;106,40,108;,
  3;42,108,40;,
  3;84,17,53;,
  3;53,107,84;,
  3;82,84,107;,
  3;107,108,82;,
  3;80,82,108;,
  3;108,42,80;,
  3;16,80,42;,
  3;9,68,31;,
  3;68,70,109;,
  3;109,31,68;,
  3;31,109,33;,
  3;70,72,110;,
  3;110,109,70;,
  3;109,110,111;,
  3;111,33,109;,
  3;33,111,35;,
  3;72,23,89;,
  3;89,110,72;,
  3;110,89,87;,
  3;87,111,110;,
  3;111,87,85;,
  3;85,35,111;,
  3;35,85,7;,
  3;12,55,44;,
  3;55,57,112;,
  3;112,44,55;,
  3;44,112,46;,
  3;57,59,113;,
  3;113,112,57;,
  3;112,113,114;,
  3;114,46,112;,
  3;46,114,48;,
  3;59,18,83;,
  3;83,113,59;,
  3;113,83,81;,
  3;81,114,113;,
  3;114,81,79;,
  3;79,48,114;,
  3;48,79,14;,
  3;1,61,37;,
  3;61,63,115;,
  3;115,37,61;,
  3;37,115,39;,
  3;63,65,116;,
  3;116,115,63;,
  3;115,116,117;,
  3;117,39,115;,
  3;39,117,41;,
  3;65,22,96;,
  3;96,116,65;,
  3;116,96,94;,
  3;94,117,116;,
  3;117,94,92;,
  3;92,41,117;,
  3;41,92,15;,
  3;43,67,11;,
  3;118,69,67;,
  3;67,43,118;,
  3;45,118,43;,
  3;119,71,69;,
  3;69,118,119;,
  3;120,119,118;,
  3;118,45,120;,
  3;47,120,45;,
  3;95,21,71;,
  3;71,119,95;,
  3;93,95,119;,
  3;119,120,93;,
  3;91,93,120;,
  3;120,47,91;,
  3;13,91,47;;
 }
 MeshTextureCoords {
  142;
  0.000000;0.000000;,
  1.000000;0.000000;,
  1.000000;1.000000;,
  0.000000;1.000000;,
  0.000000;0.000000;,
  1.000000;0.000000;,
  1.000000;1.000000;,
  0.000000;1.000000;,
  0.000000;0.000000;,
  1.000000;0.000000;,
  1.000000;1.000000;,
  0.000000;1.000000;,
  0.000000;0.000000;,
  1.000000;0.000000;,
  1.000000;1.000000;,
  0.000000;1.000000;,
  0.000000;0.000000;,
  1.000000;0.000000;,
  1.000000;1.000000;,
  0.000000;1.000000;,
  0.000000;0.000000;,
  1.000000;0.000000;,
  1.000000;1.000000;,
  0.000000;1.000000;,
  0.000000;0.000000;,
  1.000000;0.000000;,
  1.000000;1.000000;,
  0.000000;1.000000;,
  0.000000;0.000000;,
  0.000000;0.000000;,
  0.000000;0.000000;,
  0.000000;0.000000;,
  0.000000;0.000000;,
  0.000000;0.000000;,
  0.000000;0.000000;,
  0.000000;0.000000;,
  0.000000;0.000000;,
  0.000000;0.000000;,
  0.000000;0.000000;,
  0.000000;0.000000;,
  0.000000;0.000000;,
  0.000000;0.000000;,
  0.000000;0.000000;,
  0.000000;0.000000;,
  0.000000;0.000000;,
  0.000000;0.000000;,
  0.000000;0.000000;,
  0.000000;0.000000;,
  0.000000;0.000000;,
  0.000000;0.000000;,
  0.000000;0.000000;,
  0.000000;0.000000;,
  0.000000;0.000000;,
  0.000000;0.000000;,
  0.000000;0.000000;,
  0.000000;0.000000;,
  0.000000;0.000000;,
  0.000000;0.000000;,
  0.000000;0.000000;,
  0.000000;0.000000;,
  0.000000;0.000000;,
  0.000000;0.000000;,
  0.000000;0.000000;,
  0.000000;0.000000;,
  0.000000;0.000000;,
  0.000000;0.000000;,
  0.000000;0.000000;,
  0.000000;0.000000;,
  0.000000;0.000000;,
  0.000000;0.000000;,
  0.000000;0.000000;,
  0.000000;0.000000;,
  0.000000;0.000000;,
  0.000000;0.000000;,
  0.000000;0.000000;,
  0.000000;0.000000;,
  0.000000;0.000000;,
  0.000000;0.000000;,
  0.000000;0.000000;,
  0.000000;0.000000;,
  0.000000;0.000000;,
  0.000000;0.000000;,
  0.000000;0.000000;,
  0.000000;0.000000;,
  0.000000;0.000000;,
  0.000000;0.000000;,
  0.000000;0.000000;,
  0.000000;0.000000;,
  0.000000;0.000000;,
  0.000000;0.000000;,
  0.000000;0.000000;,
  0.000000;0.000000;,
  0.000000;0.000000;,
  0.000000;0.000000;,
  0.000000;0.000000;,
  0.000000;0.000000;,
  0.000000;0.000000;,
  0.000000;0.000000;,
  0.000000;0.000000;,
  0.000000;0.000000;,
  0.000000;0.000000;,
  0.000000;0.000000;,
  0.000000;0.000000;,
  0.000000;0.000000;,
  0.000000;0.000000;,
  0.000000;0.000000;,
  0.000000;0.000000;,
  0.000000;0.000000;,
  0.000000;0.000000;,
  0.000000;0.000000;,
  0.000000;0.000000;,
  0.000000;0.000000;,
  0.000000;0.000000;,
  0.000000;0.000000;,
  0.000000;0.000000;,
  0.000000;0.000000;,
  0.000000;0.000000;,
  0.000000;0.000000;,
  0.000000;0.000000;,
  0.000000;0.000000;,
  0.000000;0.000000;,
  0.000000;0.000000;,
  0.000000;0.000000;,
  0.000000;0.000000;,
  0.000000;0.000000;,
  0.000000;0.000000;,
  0.000000;0.000000;,
  0.000000;0.000000;,
  0.000000;0.000000;,
  0.000000;0.000000;,
  0.000000;0.000000;,
  0.000000;0.000000;,
  0.000000;0.000000;,
  0.000000;0.000000;,
  0.000000;0.000000;,
  0.000000;0.000000;,
  0.000000;0.000000;,
  0.000000;0.000000;,
  0.000000;0.000000;,
  0.000000;0.000000;,
  0.000000;0.000000;,
  0.000000;0.000000;;
 }
 MeshVertexColors {
  142;
  0;1.000000;1.000000;1.000000;1.000000;,
  1;1.000000;1.000000;1.000000;1.000000;,
  2;1.000000;1.000000;1.000000;1.000000;,
  3;1.000000;1.000000;1.000000;1.000000;,
  4;1.000000;1.000000;1.000000;1.000000;,
  5;1.000000;1.000000;1.000000;1.000000;,
  6;1.000000;1.000000;1.000000;1.000000;,
  7;1.000000;1.000000;1.000000;1.000000;,
  8;1.000000;1.000000;1.000000;1.000000;,
  9;1.000000;1.000000;1.000000;1.000000;,
  10;1.000000;1.000000;1.000000;1.000000;,
  11;1.000000;1.000000;1.000000;1.000000;,
  12;1.000000;1.000000;1.000000;1.000000;,
  13;1.000000;1.000000;1.000000;1.000000;,
  14;1.000000;1.000000;1.000000;1.000000;,
  15;1.000000;1.000000;1.000000;1.000000;,
  16;1.000000;1.000000;1.000000;1.000000;,
  17;1.000000;1.000000;1.000000;1.000000;,
  18;1.000000;1.000000;1.000000;1.000000;,
  19;1.000000;1.000000;1.000000;1.000000;,
  20;1.000000;1.000000;1.000000;1.000000;,
  21;1.000000;1.000000;1.000000;1.000000;,
  22;1.000000;1.000000;1.000000;1.000000;,
  23;1.000000;1.000000;1.000000;1.000000;,
  24;1.000000;1.000000;1.000000;1.000000;,
  25;1.000000;1.000000;1.000000;1.000000;,
  26;1.000000;1.000000;1.000000;1.000000;,
  27;1.000000;1.000000;1.000000;1.000000;,
  28;1.000000;1.000000;1.000000;1.000000;,
  29;1.000000;1.000000;1.000000;1.000000;,
  30;1.000000;1.000000;1.000000;1.000000;,
  31;1.000000;1.000000;1.000000;1.000000;,
  32;1.000000;1.000000;1.000000;1.000000;,
  33;1.000000;1.000000;1.000000;1.000000;,
  34;1.000000;1.000000;1.000000;1.000000;,
  35;1.000000;1.000000;1.000000;1.000000;,
  36;1.000000;1.000000;1.000000;1.000000;,
  37;1.000000;1.000000;1.000000;1.000000;,
  38;1.000000;1.000000;1.000000;1.000000;,
  39;1.000000;1.000000;1.000000;1.000000;,
  40;1.000000;1.000000;1.000000;1.000000;,
  41;1.000000;1.000000;1.000000;1.000000;,
  42;1.000000;1.000000;1.000000;1.000000;,
  43;1.000000;1.000000;1.000000;1.000000;,
  44;1.000000;1.000000;1.000000;1.000000;,
  45;1.000000;1.000000;1.000000;1.000000;,
  46;1.000000;1.000000;1.000000;1.000000;,
  47;1.000000;1.000000;1.000000;1.000000;,
  48;1.000000;1.000000;1.000000;1.000000;,
  49;1.000000;1.000000;1.000000;1.000000;,
  50;1.000000;1.000000;1.000000;1.000000;,
  51;1.000000;1.000000;1.000000;1.000000;,
  52;1.000000;1.000000;1.000000;1.000000;,
  53;1.000000;1.000000;1.000000;1.000000;,
  54;1.000000;1.000000;1.000000;1.000000;,
  55;1.000000;1.000000;1.000000;1.000000;,
  56;1.000000;1.000000;1.000000;1.000000;,
  57;1.000000;1.000000;1.000000;1.000000;,
  58;1.000000;1.000000;1.000000;1.000000;,
  59;1.000000;1.000000;1.000000;1.000000;,
  60;1.000000;1.000000;1.000000;1.000000;,
  61;1.000000;1.000000;1.000000;1.000000;,
  62;1.000000;1.000000;1.000000;1.000000;,
  63;1.000000;1.000000;1.000000;1.000000;,
  64;1.000000;1.000000;1.000000;1.000000;,
  65;1.000000;1.000000;1.000000;1.000000;,
  66;1.000000;1.000000;1.000000;1.000000;,
  67;1.000000;1.000000;1.000000;1.000000;,
  68;1.000000;1.000000;1.000000;1.000000;,
  69;1.000000;1.000000;1.000000;1.000000;,
  70;1.000000;1.000000;1.000000;1.000000;,
  71;1.000000;1.000000;1.000000;1.000000;,
  72;1.000000;1.000000;1.000000;1.000000;,
  73;1.000000;1.000000;1.000000;1.000000;,
  74;1.000000;1.000000;1.000000;1.000000;,
  75;1.000000;1.000000;1.000000;1.000000;,
  76;1.000000;1.000000;1.000000;1.000000;,
  77;1.000000;1.000000;1.000000;1.000000;,
  78;1.000000;1.000000;1.000000;1.000000;,
  79;1.000000;1.000000;1.000000;1.000000;,
  80;1.000000;1.000000;1.000000;1.000000;,
  81;1.000000;1.000000;1.000000;1.000000;,
  82;1.000000;1.000000;1.000000;1.000000;,
  83;1.000000;1.000000;1.000000;1.000000;,
  84;1.000000;1.000000;1.000000;1.000000;,
  85;1.000000;1.000000;1.000000;1.000000;,
  86;1.000000;1.000000;1.000000;1.000000;,
  87;1.000000;1.000000;1.000000;1.000000;,
  88;1.000000;1.000000;1.000000;1.000000;,
  89;1.000000;1.000000;1.000000;1.000000;,
  90;1.000000;1.000000;1.000000;1.000000;,
  91;1.000000;1.000000;1.000000;1.000000;,
  92;1.000000;1.000000;1.000000;1.000000;,
  93;1.000000;1.000000;1.000000;1.000000;,
  94;1.000000;1.000000;1.000000;1.000000;,
  95;1.000000;1.000000;1.000000;1.000000;,
  96;1.000000;1.000000;1.000000;1.000000;,
  97;1.000000;1.000000;1.000000;1.000000;,
  98;1.000000;1.000000;1.000000;1.000000;,
  99;1.000000;1.000000;1.000000;1.000000;,
  100;1.000000;1.000000;1.000000;1.000000;,
  101;1.000000;1.000000;1.000000;1.000000;,
  102;1.000000;1.000000;1.000000;1.000000;,
  103;1.000000;1.000000;1.000000;1.000000;,
  104;1.000000;1.000000;1.000000;1.000000;,
  105;1.000000;1.000000;1.000000;1.000000;,
  106;1.000000;1.000000;1.000000;1.000000;,
  107;1.000000;1.000000;1.000000;1.000000;,
  108;1.000000;1.000000;1.000000;1.000000;,
  109;1.000000;1.000000;1.000000;1.000000;,
  110;1.000000;1.000000;1.000000;1.000000;,
  111;1.000000;1.000000;1.000000;1.000000;,
  112;1.000000;1.000000;1.000000;1.000000;,
  113;1.000000;1.000000;1.000000;1.000000;,
  114;1.000000;1.000000;1.000000;1.000000;,
  115;1.000000;1.000000;1.000000;1.000000;,
  116;1.000000;1.000000;1.000000;1.000000;,
  117;1.000000;1.000000;1.000000;1.000000;,
  118;1.000000;1.000000;1.000000;1.000000;,
  119;1.000000;1.000000;1.000000;1.000000;,
  120;1.000000;1.000000;1.000000;1.000000;,
  121;1.000000;1.000000;1.000000;1.000000;,
  122;1.000000;1.000000;1.000000;1.000000;,
  123;1.000000;1.000000;1.000000;1.000000;,
  124;1.000000;1.000000;1.000000;1.000000;,
  125;1.000000;1.000000;1.000000;1.000000;,
  126;1.000000;1.000000;1.000000;1.000000;,
  127;1.000000;1.000000;1.000000;1.000000;,
  128;1.000000;1.000000;1.000000;1.000000;,
  129;1.000000;1.000000;1.000000;1.000000;,
  130;1.000000;1.000000;1.000000;1.000000;,
  131;1.000000;1.000000;1.000000;1.000000;,
  132;1.000000;1.000000;1.000000;1.000000;,
  133;1.000000;1.000000;1.000000;1.000000;,
  134;1.000000;1.000000;1.000000;1.000000;,
  135;1.000000;1.000000;1.000000;1.000000;,
  136;1.000000;1.000000;1.000000;1.000000;,
  137;1.000000;1.000000;1.000000;1.000000;,
  138;1.000000;1.000000;1.000000;1.000000;,
  139;1.000000;1.000000;1.000000;1.000000;,
  140;1.000000;1.000000;1.000000;1.000000;,
  141;1.000000;1.000000;1.000000;1.000000;;
 }
}
