xof 0302txt 0064
template Header {
 <3D82AB43-62DA-11cf-AB39-0020AF71E433>
 WORD major;
 WORD minor;
 DWORD flags;
}

template Vector {
 <3D82AB5E-62DA-11cf-AB39-0020AF71E433>
 FLOAT x;
 FLOAT y;
 FLOAT z;
}

template Coords2d {
 <F6F23F44-7686-11cf-8F52-0040333594A3>
 FLOAT u;
 FLOAT v;
}

template Matrix4x4 {
 <F6F23F45-7686-11cf-8F52-0040333594A3>
 array FLOAT matrix[16];
}

template ColorRGBA {
 <35FF44E0-6C7C-11cf-8F52-0040333594A3>
 FLOAT red;
 FLOAT green;
 FLOAT blue;
 FLOAT alpha;
}

template ColorRGB {
 <D3E16E81-7835-11cf-8F52-0040333594A3>
 FLOAT red;
 FLOAT green;
 FLOAT blue;
}

template IndexedColor {
 <1630B820-7842-11cf-8F52-0040333594A3>
 DWORD index;
 ColorRGBA indexColor;
}

template Boolean {
 <4885AE61-78E8-11cf-8F52-0040333594A3>
 WORD truefalse;
}

template Boolean2d {
 <4885AE63-78E8-11cf-8F52-0040333594A3>
 Boolean u;
 Boolean v;
}

template MaterialWrap {
 <4885AE60-78E8-11cf-8F52-0040333594A3>
 Boolean u;
 Boolean v;
}

template TextureFilename {
 <A42790E1-7810-11cf-8F52-0040333594A3>
 STRING filename;
}

template Material {
 <3D82AB4D-62DA-11cf-AB39-0020AF71E433>
 ColorRGBA faceColor;
 FLOAT power;
 ColorRGB specularColor;
 ColorRGB emissiveColor;
 [...]
}

template MeshFace {
 <3D82AB5F-62DA-11cf-AB39-0020AF71E433>
 DWORD nFaceVertexIndices;
 array DWORD faceVertexIndices[nFaceVertexIndices];
}

template MeshFaceWraps {
 <4885AE62-78E8-11cf-8F52-0040333594A3>
 DWORD nFaceWrapValues;
 Boolean2d faceWrapValues;
}

template MeshTextureCoords {
 <F6F23F40-7686-11cf-8F52-0040333594A3>
 DWORD nTextureCoords;
 array Coords2d textureCoords[nTextureCoords];
}

template MeshMaterialList {
 <F6F23F42-7686-11cf-8F52-0040333594A3>
 DWORD nMaterials;
 DWORD nFaceIndexes;
 array DWORD faceIndexes[nFaceIndexes];
 [Material]
}

template MeshNormals {
 <F6F23F43-7686-11cf-8F52-0040333594A3>
 DWORD nNormals;
 array Vector normals[nNormals];
 DWORD nFaceNormals;
 array MeshFace faceNormals[nFaceNormals];
}

template MeshVertexColors {
 <1630B821-7842-11cf-8F52-0040333594A3>
 DWORD nVertexColors;
 array IndexedColor vertexColors[nVertexColors];
}

template Mesh {
 <3D82AB44-62DA-11cf-AB39-0020AF71E433>
 DWORD nVertices;
 array Vector vertices[nVertices];
 DWORD nFaces;
 array MeshFace faces[nFaces];
 [...]
}

Header{
1;
0;
1;
}

Mesh {
 379;
 -22.53971;7.83864;-30.18893;,
 -22.53971;7.83864;-35.00000;,
 -25.44462;7.83864;-35.00000;,
 8.96142;0.00000;-30.12419;,
 -5.26329;0.00000;-30.12419;,
 -5.26328;0.00000;-26.50919;,
 8.96142;0.00000;-26.13360;,
 -7.28754;-1.75000;-16.25706;,
 -7.28754;-1.75000;-18.63750;,
 -9.03754;-1.75000;-18.63750;,
 -9.03754;-1.75000;-16.25706;,
 -0.01480;0.00000;-20.87514;,
 3.48520;0.00000;-20.87514;,
 3.48520;0.00000;-26.15724;,
 -0.01480;0.00000;-26.15724;,
 -3.27459;0.00000;-22.74867;,
 -1.50725;0.00000;-22.74867;,
 -1.50725;0.00000;-24.45977;,
 -3.27459;0.00000;-24.45977;,
 -7.10514;0.00000;-22.74867;,
 -5.33782;0.00000;-22.74867;,
 -5.33782;0.00000;-24.45977;,
 -7.10514;0.00000;-24.45977;,
 -28.00000;0.00000;-19.25000;,
 -31.50000;0.00000;-19.25000;,
 -31.50000;0.00000;-15.75000;,
 -28.00000;0.00000;-15.75000;,
 -25.44462;0.00000;-22.75000;,
 -28.00000;0.00000;-22.75000;,
 -25.44462;0.00000;-21.21677;,
 -14.13184;7.83864;-12.25000;,
 -28.00000;7.83864;-12.25000;,
 -22.36384;7.83864;-8.22417;,
 -14.11821;0.00000;-15.67448;,
 -14.11821;0.00000;-22.75000;,
 -17.78133;0.00000;-22.75000;,
 -17.78134;0.00000;-18.37941;,
 -14.11821;0.00000;-12.25000;,
 -14.11821;0.00000;-15.67448;,
 -17.78133;0.00000;-12.25000;,
 -14.11821;0.00000;-15.67448;,
 -17.78134;0.00000;-18.37941;,
 -17.78133;0.00000;-12.25000;,
 -9.03754;0.00000;-22.75000;,
 -9.03754;0.00000;-26.18000;,
 -17.05270;0.00000;-26.18665;,
 -10.50000;0.00000;-27.30000;,
 -17.05270;0.00000;-26.18665;,
 -1.75000;7.00000;14.00000;,
 -1.75000;7.00000;10.50000;,
 -1.75000;6.65000;7.35000;,
 -2.10000;7.00000;7.35000;,
 3.85000;1.75000;3.85000;,
 3.50000;1.40000;3.85000;,
 3.50000;1.75000;7.00000;,
 3.85000;1.40000;3.50000;,
 6.65000;1.75000;3.85000;,
 6.65000;1.40000;3.50000;,
 7.00000;1.75000;7.00000;,
 7.00000;1.40000;3.85000;,
 6.65000;3.15000;7.00000;,
 7.00000;2.90251;7.24749;,
 7.00000;0.00000;7.00000;,
 6.65000;3.50000;7.35000;,
 6.65000;3.15000;7.00000;,
 3.85000;3.15000;7.00000;,
 3.85000;3.50000;7.35000;,
 3.50000;3.50000;14.00000;,
 6.65000;3.50000;13.65000;,
 6.65000;3.15000;14.00000;,
 6.65000;3.50000;13.65000;,
 3.50000;3.50000;14.00000;,
 7.00000;0.00000;14.00000;,
 7.00000;3.15000;13.65000;,
 0.00000;5.25000;10.50000;,
 3.15000;5.25000;10.85000;,
 3.15000;4.90000;10.50000;,
 0.00000;5.25000;14.00000;,
 3.11135;5.25000;13.65214;,
 3.15000;5.25000;10.85000;,
 0.00000;5.25000;10.50000;,
 0.00000;5.25000;14.00000;,
 3.15000;4.90000;14.00000;,
 3.11135;5.25000;13.65214;,
 3.50000;4.86135;13.65214;,
 3.50000;3.50000;10.50000;,
 3.50000;4.90000;10.85000;,
 3.50000;4.90000;10.85000;,
 3.50000;4.86135;13.65214;,
 -0.35000;7.00000;10.85000;,
 -1.75000;7.00000;10.50000;,
 -1.75000;7.00000;14.00000;,
 -0.35000;7.00000;13.65000;,
 -1.75000;7.00000;10.50000;,
 -0.35000;7.00000;10.85000;,
 0.00000;6.65000;10.85000;,
 -0.35000;6.65000;10.50000;,
 0.00000;6.65000;13.65000;,
 0.00000;6.65000;10.85000;,
 -0.35000;6.65000;14.00000;,
 0.00000;0.00000;14.00000;,
 0.00000;6.65000;13.65000;,
 -0.35000;7.00000;13.65000;,
 -4.90000;7.00000;7.35000;,
 -4.90000;7.00000;13.65000;,
 -1.75000;7.00000;14.00000;,
 -2.10000;7.00000;7.35000;,
 -5.25000;6.65000;13.65000;,
 -5.25000;6.65000;7.35000;,
 -4.90000;6.65000;7.00000;,
 -2.10000;6.65000;7.00000;,
 -5.25000;0.00000;7.00000;,
 -2.10000;6.65000;7.00000;,
 -1.75000;6.65000;7.35000;,
 -1.75000;0.00000;7.00000;,
 -1.75000;7.00000;14.00000;,
 -4.55089;6.97506;14.00000;,
 -4.55089;6.97506;14.00000;,
 -4.90089;6.62506;14.00000;,
 -4.90000;7.00000;13.65000;,
 -5.25000;6.65000;13.65000;,
 -5.25000;0.00000;14.00000;,
 0.00000;0.00000;10.50000;,
 3.50000;3.50000;10.50000;,
 3.50000;3.15000;7.35000;,
 7.00000;3.15000;13.65000;,
 7.00000;3.15000;10.85000;,
 6.65000;3.50000;13.65000;,
 6.65000;3.50000;7.35000;,
 7.00000;3.15000;10.15000;,
 7.00000;3.25251;7.59749;,
 -1.75000;6.65000;7.35000;,
 1.75000;0.00000;-5.25000;,
 -1.75000;0.00000;-5.25000;,
 -1.75000;0.00000;-3.50000;,
 1.75000;0.00000;-3.50000;,
 1.75000;0.00000;-5.25000;,
 1.75000;0.00000;-7.00000;,
 -1.75000;0.00000;-7.00000;,
 -1.75000;0.00000;-5.25000;,
 -1.75000;0.00000;-12.28209;,
 -1.75000;0.00000;-7.00000;,
 1.75000;0.00000;-7.00000;,
 1.75000;0.00000;-12.28209;,
 -10.88978;3.50000;-4.86983;,
 -17.11978;3.50000;-4.86983;,
 -17.11978;3.50000;1.36017;,
 -11.36671;3.50000;0.86232;,
 -11.36671;3.50000;0.86232;,
 -11.08115;3.50000;0.51602;,
 -10.88978;3.50000;-4.86983;,
 -10.88978;3.50000;0.11417;,
 -10.88978;3.50000;-0.50883;,
 -10.86797;3.50000;-0.19422;,
 -17.11978;3.50000;1.36017;,
 -12.75878;3.50000;1.36017;,
 -11.36671;3.50000;0.86232;,
 -11.72211;3.50000;1.16006;,
 -12.44409;3.50000;1.38223;,
 -12.13578;3.50000;1.36017;,
 -12.75878;3.50000;1.36017;,
 -11.72211;3.50000;1.16006;,
 -12.60000;18.48841;13.58022;,
 -12.60000;18.48841;10.78022;,
 -15.75000;18.48841;10.43022;,
 -15.75000;18.48841;13.93022;,
 -12.40652;18.17536;10.78022;,
 -12.40652;18.17536;13.58022;,
 -12.75652;18.17536;10.43022;,
 -12.75652;18.17536;13.93022;,
 -12.60000;9.39824;4.57713;,
 -12.60000;9.39824;1.77713;,
 -15.75000;9.39824;1.42713;,
 -15.75000;9.39824;4.92713;,
 -12.40652;9.08519;1.77713;,
 -12.40652;9.08519;4.57713;,
 -12.75652;9.08519;1.42713;,
 -12.75652;9.08519;4.92713;,
 -12.60000;13.77506;8.97162;,
 -12.60000;13.77506;6.17162;,
 -15.75000;13.77506;5.82162;,
 -15.75000;13.77506;9.32162;,
 -12.40652;13.46201;6.17162;,
 -12.40652;13.46201;8.97162;,
 -12.75652;13.46201;5.82162;,
 -12.75652;13.46201;9.32162;,
 12.25000;0.00000;14.00000;,
 21.00000;0.00000;-3.50000;,
 12.25000;0.00000;-3.50000;,
 21.00000;0.00000;14.00000;,
 -15.75000;0.00000;14.00000;,
 21.00000;0.00000;28.00000;,
 48.58426;0.00000;35.29853;,
 57.11423;0.00000;18.55754;,
 35.00000;0.00000;-35.00000;,
 60.05347;0.00000;0.00000;,
 0.00000;0.00000;60.05347;,
 18.55754;0.00000;57.11423;,
 -18.55754;0.00000;57.11423;,
 35.29853;0.00000;48.58426;,
 -15.75000;0.00000;14.00000;,
 12.25000;0.00000;14.00000;,
 12.25000;0.00000;-3.50000;,
 -15.75000;0.00000;-3.50000;,
 -15.75000;0.00000;14.00000;,
 -15.75000;0.00000;28.00000;,
 21.00000;0.00000;28.00000;,
 35.00000;0.00000;-3.50000;,
 21.00000;0.00000;-3.50000;,
 35.00000;0.00000;28.00000;,
 35.00000;0.00000;42.00000;,
 -15.75000;0.00000;42.00000;,
 -35.29853;0.00000;48.58426;,
 -34.79085;0.00000;15.54085;,
 -35.29853;0.00000;-48.58426;,
 -48.58426;0.00000;-35.29853;,
 35.29853;0.00000;48.58426;,
 48.58426;0.00000;35.29853;,
 35.00000;0.00000;42.00000;,
 35.00000;0.00000;-35.00000;,
 60.05347;0.00000;0.00000;,
 57.11423;0.00000;-18.55754;,
 48.58426;0.00000;-35.29853;,
 35.29853;0.00000;-48.58426;,
 -18.55754;0.00000;57.11423;,
 -35.29853;0.00000;48.58426;,
 35.00000;0.00000;42.00000;,
 -35.00000;0.00000;42.00000;,
 -48.58426;0.00000;-35.29853;,
 -48.58426;0.00000;35.29853;,
 -57.11423;0.00000;18.55754;,
 -60.05347;0.00000;0.00000;,
 -57.11423;0.00000;-18.55754;,
 35.00000;0.00000;-35.00000;,
 -35.29853;0.00000;-48.58426;,
 18.55754;0.00000;-57.11423;,
 -18.55754;0.00000;-57.11423;,
 18.55754;0.00000;-57.11423;,
 0.00000;0.00000;-60.05347;,
 -18.55754;0.00000;-57.11423;,
 12.25000;0.00000;-3.50000;,
 12.25000;0.00000;-12.28209;,
 35.00000;0.00000;-35.00000;,
 12.25000;0.00000;-15.75921;,
 12.25000;0.00000;-19.26312;,
 12.25000;0.00000;-35.00000;,
 -15.75000;23.98776;-3.50000;,
 -34.79085;23.98776;-3.50000;,
 -34.79085;23.98776;19.74887;,
 -17.20766;23.98776;18.22730;,
 -34.79085;23.98776;19.74887;,
 -21.46226;23.98776;19.74887;,
 -17.20766;23.98776;18.22730;,
 -35.00000;0.00000;42.00000;,
 -15.75000;0.00000;42.00000;,
 -21.46226;0.00000;15.54085;,
 -34.79085;0.00000;15.54085;,
 -16.33491;0.00000;12.96088;,
 -15.75000;0.00000;42.00000;,
 -15.75000;0.00000;11.73268;,
 -15.75000;0.00000;42.00000;,
 -17.20766;0.00000;14.01928;,
 -15.75000;0.00000;42.00000;,
 -18.29389;0.00000;14.92925;,
 -19.55817;0.00000;15.54085;,
 -20.50050;0.00000;15.60828;,
 -21.46226;0.00000;15.54085;,
 8.96142;7.83864;-21.78554;,
 10.82432;7.83864;-26.50919;,
 8.96142;7.83864;-26.13360;,
 8.96142;7.83864;-19.26313;,
 12.25000;7.83864;-19.26313;,
 12.25000;7.83864;-26.50919;,
 12.25000;7.83864;-15.75921;,
 8.96000;7.83864;-15.75921;,
 8.96000;7.83864;-7.00000;,
 12.25000;7.83864;-7.00000;,
 12.25000;7.83864;-15.75921;,
 12.25000;7.83864;-19.26313;,
 8.96142;7.83864;-19.26313;,
 -17.78133;0.00000;-12.25000;,
 -17.78134;0.00000;-18.37941;,
 -28.00000;0.00000;-22.75000;,
 -28.00000;0.00000;-12.25000;,
 -28.00000;7.83864;-35.00000;,
 -35.00000;7.83864;-35.00000;,
 -35.00000;7.83864;-12.25000;,
 -28.00000;7.83864;-12.25000;,
 -25.44462;7.83864;-35.00000;,
 -25.44465;7.83860;-30.18890;,
 -22.53971;7.83864;-30.18893;,
 -25.44462;7.83864;-22.75000;,
 -22.53971;7.83864;-22.75000;,
 -22.53971;7.83864;-26.18661;,
 -25.44462;0.00000;-22.75000;,
 -25.44462;0.00000;-21.21677;,
 -17.78134;0.00000;-18.37941;,
 -17.78133;0.00000;-22.75000;,
 -25.44462;7.83864;-35.00000;,
 -28.00000;7.83864;-35.00000;,
 -28.00000;7.83864;-22.75000;,
 -25.44462;7.83864;-22.75000;,
 -35.29853;0.00000;48.58426;,
 -35.00000;0.00000;42.00000;,
 -34.79085;0.00000;15.54085;,
 8.96142;7.83861;-26.13371;,
 12.25000;7.83864;-26.50919;,
 12.25000;7.83864;-30.12419;,
 8.96142;7.83864;-30.12419;,
 8.96142;7.83864;-30.12419;,
 12.25000;7.83864;-30.12419;,
 12.25000;7.83864;-35.00000;,
 8.96142;7.83864;-31.71142;,
 8.96142;7.83864;-31.71142;,
 12.25000;7.83864;-35.00000;,
 1.75000;7.83864;-35.00000;,
 -17.78133;7.83864;-12.25000;,
 -14.11821;7.83864;-12.25000;,
 -14.11821;7.83861;-16.25706;,
 -14.11821;7.83861;-18.63750;,
 -14.11821;7.83864;-21.49498;,
 -17.78133;7.83864;-22.75000;,
 -17.78145;7.83860;-18.63750;,
 -17.78145;7.83860;-16.25706;,
 -14.11821;7.83861;-16.25706;,
 -14.11821;7.83861;-16.25706;,
 -17.78145;7.83860;-16.25706;,
 -17.78133;7.83864;-12.25000;,
 1.75000;7.83864;-7.00000;,
 -1.75000;7.83864;-7.00000;,
 -1.75000;7.83864;-3.50000;,
 1.75000;7.83864;-3.50000;,
 -1.75000;7.83864;-3.50000;,
 -1.75000;7.83864;-7.00000;,
 -9.03754;7.83864;-7.00000;,
 -10.50000;7.83864;-3.50000;,
 12.25000;7.83864;-3.50000;,
 12.25000;7.83864;-7.00000;,
 1.75000;7.83864;-7.00000;,
 1.75000;7.83864;-3.50000;,
 -15.75000;7.83864;-3.50000;,
 -28.00000;7.83864;-12.25000;,
 -35.00000;7.83883;-12.25000;,
 -34.79085;7.84000;-3.50000;,
 -10.50000;7.83864;-3.50000;,
 -9.03754;7.83864;-7.00000;,
 -22.36384;7.83864;-8.22417;,
 -15.75000;7.83864;-3.50000;,
 -14.11821;7.83864;-22.75000;,
 -17.78133;7.83864;-22.75000;,
 -17.05256;7.83864;-26.18661;,
 -14.11821;7.83864;-12.25000;,
 -9.03754;0.00000;-22.75000;,
 -17.05270;0.00000;-26.18665;,
 -14.11821;0.00000;-22.75000;,
 -14.11821;0.00000;-16.25706;,
 -9.03754;0.00000;-18.63750;,
 -14.11821;0.00000;-18.63750;,
 -9.03754;0.00000;-16.25706;,
 -9.03754;0.00000;-22.75000;,
 -9.03754;0.00000;-7.00000;,
 -14.11821;0.00000;-12.25000;,
 -22.53971;7.83864;-35.00000;,
 -17.20766;23.98776;18.22730;,
 -16.33489;23.98776;17.16890;,
 -15.75000;23.98776;-3.50000;,
 -15.75000;23.98776;15.94069;,
 -15.75000;23.98776;14.03660;,
 -20.50050;23.98776;19.81629;,
 -19.55817;23.98776;19.74887;,
 -21.46226;23.98776;19.74887;,
 -19.55817;23.98776;19.74887;,
 -18.29388;23.98776;19.13727;,
 -21.46226;23.98776;19.74887;,
 -17.20766;23.98776;18.22730;,
 -8.15500;7.00000;10.39500;,
 -8.15500;7.00000;8.85500;,
 -11.44500;7.00000;8.85500;,
 -11.44500;7.00000;10.39500;;
 
 176;
 3;0,1,2;,
 4;3,4,5,6;,
 4;7,8,9,10;,
 4;11,12,13,14;,
 4;15,16,17,18;,
 4;19,20,21,22;,
 4;23,24,25,26;,
 3;27,28,29;,
 3;30,31,32;,
 4;33,34,35,36;,
 3;37,38,39;,
 3;40,41,42;,
 3;43,44,45;,
 3;46,47,44;,
 4;48,49,50,51;,
 3;52,53,54;,
 3;52,55,53;,
 4;56,57,55,52;,
 3;58,59,56;,
 4;56,52,54,58;,
 3;60,61,62;,
 4;63,64,65,66;,
 4;63,66,67,68;,
 3;69,70,71;,
 3;72,73,69;,
 3;74,75,76;,
 4;77,78,79,80;,
 3;81,82,83;,
 4;84,83,82,71;,
 4;85,76,75,86;,
 4;87,79,78,88;,
 4;89,90,91,92;,
 4;93,94,95,96;,
 4;92,97,98,89;,
 4;99,100,101,102;,
 4;103,104,105,106;,
 4;107,104,103,108;,
 4;109,103,106,110;,
 3;109,108,103;,
 3;111,108,109;,
 3;112,113,114;,
 4;99,102,115,116;,
 3;105,104,117;,
 4;118,116,119,120;,
 3;120,121,118;,
 4;74,122,96,95;,
 3;67,66,123;,
 3;123,66,124;,
 3;66,65,124;,
 3;69,73,70;,
 3;125,126,127;,
 3;127,126,128;,
 3;126,129,128;,
 3;129,130,128;,
 3;130,61,128;,
 3;61,60,128;,
 3;131,110,106;,
 4;132,133,134,135;,
 4;136,137,138,139;,
 4;140,141,142,143;,
 4;144,145,146,147;,
 3;148,149,150;,
 3;149,151,152;,
 3;151,153,152;,
 3;152,150,149;,
 3;154,155,156;,
 3;155,157,156;,
 3;158,159,160;,
 3;159,161,160;,
 4;162,163,164,165;,
 4;166,163,162,167;,
 3;164,163,168;,
 3;169,162,165;,
 3;169,167,162;,
 3;166,168,163;,
 4;170,171,172,173;,
 4;174,171,170,175;,
 3;172,171,176;,
 3;177,170,173;,
 3;177,175,170;,
 3;174,176,171;,
 4;178,179,180,181;,
 4;182,179,178,183;,
 3;180,179,184;,
 3;185,178,181;,
 3;185,183,178;,
 3;182,184,179;,
 3;186,187,188;,
 3;186,189,187;,
 3;190,191,189;,
 3;192,193,194;,
 3;193,195,194;,
 3;196,197,198;,
 3;197,199,198;,
 4;200,201,202,203;,
 3;204,205,206;,
 3;206,207,208;,
 3;206,209,207;,
 3;205,210,209;,
 3;205,211,210;,
 4;212,213,214,215;,
 3;216,217,218;,
 3;218,217,219;,
 3;220,221,219;,
 3;221,222,219;,
 3;222,223,219;,
 3;224,216,225;,
 3;216,226,225;,
 3;226,227,225;,
 3;225,228,229;,
 3;229,228,230;,
 3;230,228,231;,
 3;228,232,231;,
 3;233,223,228;,
 3;228,223,234;,
 3;223,235,234;,
 3;234,235,236;,
 3;237,238,239;,
 3;240,207,241;,
 3;207,242,241;,
 3;241,242,243;,
 3;243,242,244;,
 3;242,245,244;,
 4;246,247,248,249;,
 3;250,251,252;,
 4;253,254,255,256;,
 3;257,258,259;,
 3;260,257,261;,
 3;262,261,263;,
 3;263,264,262;,
 3;264,265,262;,
 3;265,266,262;,
 3;267,268,269;,
 3;270,271,267;,
 3;271,272,267;,
 3;272,268,267;,
 4;273,274,275,276;,
 4;274,277,278,279;,
 4;280,281,282,283;,
 4;284,285,286,287;,
 3;288,289,290;,
 4;289,291,292,293;,
 3;293,290,289;,
 4;294,295,296,297;,
 4;298,299,300,301;,
 3;302,303,304;,
 4;305,306,307,308;,
 4;309,310,311,312;,
 3;313,314,315;,
 3;316,317,318;,
 4;319,320,321,322;,
 4;322,323,324,319;,
 3;325,326,327;,
 4;328,329,330,331;,
 4;332,333,334,335;,
 4;336,337,338,339;,
 4;340,341,342,343;,
 4;344,345,346,347;,
 3;320,348,349;,
 4;348,350,293,292;,
 3;345,351,346;,
 3;352,353,354;,
 3;355,356,357;,
 3;355,358,356;,
 4;356,359,354,357;,
 4;360,358,355,361;,
 3;269,312,293;,
 3;293,312,362;,
 3;312,315,362;,
 3;363,364,365;,
 3;364,366,367;,
 3;367,365,364;,
 3;368,369,370;,
 3;371,372,373;,
 3;373,372,374;,
 4;375,376,377,378;;
 
 MeshMaterialList {
  14;
  176;
  3,
  3,
  3,
  3,
  3,
  3,
  6,
  3,
  3,
  3,
  3,
  3,
  3,
  3,
  3,
  3,
  3,
  3,
  3,
  3,
  4,
  3,
  3,
  4,
  4,
  4,
  3,
  4,
  4,
  4,
  3,
  3,
  4,
  3,
  4,
  3,
  3,
  3,
  3,
  4,
  4,
  4,
  3,
  4,
  4,
  4,
  3,
  3,
  3,
  4,
  4,
  4,
  4,
  4,
  4,
  4,
  3,
  3,
  3,
  3,
  3,
  3,
  3,
  3,
  3,
  3,
  3,
  3,
  3,
  2,
  2,
  2,
  2,
  2,
  2,
  2,
  2,
  2,
  2,
  2,
  2,
  2,
  2,
  2,
  2,
  2,
  2,
  3,
  3,
  3,
  3,
  3,
  3,
  3,
  3,
  3,
  3,
  3,
  3,
  3,
  3,
  3,
  3,
  3,
  3,
  3,
  3,
  3,
  3,
  3,
  3,
  3,
  3,
  3,
  3,
  3,
  3,
  3,
  3,
  3,
  3,
  3,
  3,
  3,
  3,
  3,
  3,
  3,
  3,
  3,
  3,
  3,
  3,
  3,
  3,
  3,
  3,
  3,
  3,
  3,
  3,
  3,
  3,
  3,
  3,
  3,
  3,
  3,
  3,
  3,
  3,
  3,
  3,
  3,
  3,
  3,
  3,
  3,
  3,
  3,
  3,
  3,
  3,
  3,
  3,
  3,
  3,
  3,
  3,
  3,
  3,
  3,
  4,
  3,
  3,
  3;;
  Material {
   0.800000;0.800000;0.800000;1.000000;;
   5.000000;
   0.000000;0.000000;0.000000;;
   0.000000;0.000000;0.000000;;
   TextureFilename {
    "Data\\Graphics\\XFileTexture\\Wall.png";
   }
  }
  Material {
   0.800000;0.800000;0.800000;1.000000;;
   5.000000;
   0.000000;0.000000;0.000000;;
   0.000000;0.000000;0.000000;;
   TextureFilename {
    "Data\\Graphics\\XFileTexture\\world_mori-kareki.png";
   }
  }
  Material {
   0.800000;0.800000;0.800000;1.000000;;
   5.000000;
   0.000000;0.000000;0.000000;;
   0.000000;0.000000;0.000000;;
   TextureFilename {
    "Data\\Graphics\\XFileTexture\\yuka.png";
   }
  }
  Material {
   0.800000;0.800000;0.800000;1.000000;;
   5.000000;
   0.000000;0.000000;0.000000;;
   0.000000;0.000000;0.000000;;
   TextureFilename {
    "Data\\Graphics\\XFileTexture\\ground3.png";
   }
  }
  Material {
   0.800000;0.800000;0.800000;1.000000;;
   5.000000;
   0.000000;0.000000;0.000000;;
   0.000000;0.000000;0.000000;;
   TextureFilename {
    "Data\\Graphics\\XFileTexture\\oahe.png";
   }
  }
  Material {
   0.800000;0.800000;0.800000;1.000000;;
   5.000000;
   0.000000;0.000000;0.000000;;
   0.000000;0.000000;0.000000;;
  }
  Material {
   0.000000;0.000000;0.000000;1.000000;;
   5.000000;
   0.000000;0.000000;0.000000;;
   0.000000;0.000000;0.000000;;
  }
  Material {
   0.800000;0.800000;0.800000;0.000000;;
   5.000000;
   0.000000;0.000000;0.000000;;
   0.000000;0.000000;0.000000;;
  }
  Material {
   0.800000;0.800000;0.800000;1.000000;;
   5.000000;
   0.000000;0.000000;0.000000;;
   0.000000;0.000000;0.000000;;
  }
  Material {
   0.000000;0.000000;0.000000;0.000000;;
   0.000000;
   0.000000;0.000000;0.000000;;
   0.000000;0.000000;0.000000;;
  }
  Material {
   0.800000;0.800000;0.800000;1.000000;;
   5.000000;
   0.000000;0.000000;0.000000;;
   0.000000;0.000000;0.000000;;
   TextureFilename {
    "Data\\Graphics\\XFileTexture\\puente.png";
   }
  }
  Material {
   0.800000;0.800000;0.800000;0.714000;;
   5.000000;
   0.000000;0.000000;0.000000;;
   0.000000;0.000000;0.000000;;
   TextureFilename {
    "Data\\Graphics\\XFileTexture\\Water.png";
   }
  }
  Material {
   0.000000;0.000000;0.000000;0.760000;;
   5.000000;
   0.000000;0.000000;0.000000;;
   0.000000;0.000000;0.000000;;
  }
  Material {
   1.000000;1.000000;1.000000;1.000000;;
   0.000000;
   0.000000;0.000000;0.000000;;
   0.000000;0.000000;0.000000;;
  }
 }
 MeshNormals {
  87;
  0.000000;1.000000;0.000000;,
  0.000000;1.000000;0.000000;,
  0.381751;0.923292;-0.042417;,
  0.607412;0.067490;-0.791515;,
  0.652596;0.385015;-0.652596;,
  0.215969;0.897045;0.385575;,
  0.704934;0.078326;0.704934;,
  0.669787;0.320578;0.669787;,
  -0.706188;0.037213;0.707045;,
  0.078567;0.707106;0.702729;,
  0.042417;0.923292;-0.381751;,
  0.385015;0.652596;-0.652596;,
  -0.004441;0.999191;0.039968;,
  0.706618;0.037190;-0.706618;,
  0.378038;0.094509;-0.920953;,
  -0.706618;0.037190;-0.706618;,
  -0.381751;0.923292;-0.042417;,
  -0.664975;0.664975;-0.340025;,
  -0.302905;0.673887;-0.673887;,
  0.000000;0.707107;-0.707107;,
  0.704934;0.704934;-0.078326;,
  0.267748;0.916141;-0.298323;,
  -0.363589;0.847636;-0.386414;,
  0.696037;0.367531;-0.616809;,
  0.669657;0.700588;-0.246446;,
  0.637121;0.770583;0.016683;,
  0.484966;0.470236;-0.737351;,
  0.544342;0.794629;-0.268805;,
  -0.291003;0.905356;-0.309271;,
  0.467626;0.835107;0.289692;,
  0.728411;0.498980;0.469506;,
  0.707107;0.707107;0.000000;,
  0.491880;0.491880;0.718407;,
  0.420264;0.817449;-0.393897;,
  0.731533;0.587569;-0.345864;,
  0.387109;0.577257;-0.718972;,
  0.396519;0.586177;0.706519;,
  0.423015;0.817857;0.390087;,
  0.733255;0.588714;0.340225;,
  0.402671;0.368066;0.838083;,
  0.407383;0.880216;-0.243431;,
  0.454453;0.743024;0.491311;,
  0.565774;0.559637;-0.605563;,
  0.746661;0.557292;0.363212;,
  0.401247;0.392861;-0.827442;,
  -0.367001;0.854763;-0.367001;,
  -0.358018;0.913980;0.190954;,
  0.215137;0.851254;-0.478625;,
  -0.729970;0.483018;0.483567;,
  -0.733935;0.487176;-0.473286;,
  0.669787;0.320578;-0.669787;,
  0.473286;0.487176;-0.733935;,
  -0.473286;0.487176;-0.733935;,
  -0.661188;0.312996;0.681809;,
  -0.253563;0.508700;0.822758;,
  0.040867;0.929004;0.367807;,
  0.040868;0.929004;-0.367805;,
  0.468677;0.789492;0.396288;,
  0.468677;0.789493;-0.396286;,
  0.383353;0.596610;-0.705051;,
  0.798362;0.493424;-0.345182;,
  0.798362;0.493424;0.345184;,
  0.383352;0.596608;0.705054;,
  0.040868;0.929002;0.367811;,
  0.040868;0.929002;-0.367811;,
  0.468680;0.789489;0.396291;,
  0.468680;0.789489;-0.396291;,
  0.383353;0.596602;-0.705058;,
  0.798365;0.493417;-0.345185;,
  0.798365;0.493417;0.345185;,
  0.383353;0.596602;0.705058;,
  -0.000004;1.000000;0.000003;,
  -0.000014;1.000000;0.000004;,
  -0.000014;1.000000;0.000009;,
  -0.000011;1.000000;0.000002;,
  -0.000003;1.000000;-0.000003;,
  -0.000002;1.000000;-0.000001;,
  -0.000004;1.000000;-0.000001;,
  0.000000;1.000000;-0.000007;,
  -0.000004;1.000000;-0.000010;,
  -0.000004;1.000000;0.000010;,
  -0.000004;1.000000;0.000005;,
  -0.000002;1.000000;0.000005;,
  -0.000004;1.000000;-0.000005;,
  0.000049;1.000000;-0.000117;,
  0.094509;0.378038;0.920953;,
  -0.008875;0.996766;0.079871;;
  176;
  3;0,0,0;,
  4;0,0,0,0;,
  4;0,0,0,0;,
  4;0,0,0,0;,
  4;0,0,0,0;,
  4;0,0,0,0;,
  4;0,0,0,0;,
  3;0,0,0;,
  3;0,0,0;,
  4;0,0,0,0;,
  3;0,0,0;,
  3;0,0,0;,
  3;0,0,0;,
  3;1,0,0;,
  4;2,2,2,2;,
  3;22,17,16;,
  3;22,18,17;,
  4;21,19,18,22;,
  3;2,20,21;,
  4;21,22,16,2;,
  3;26,23,3;,
  4;27,26,18,28;,
  4;27,28,5,29;,
  3;32,29,5;,
  3;6,30,32;,
  3;10,33,35;,
  4;0,37,33,10;,
  3;9,36,37;,
  4;38,37,36,5;,
  4;4,35,33,34;,
  4;34,33,37,38;,
  4;40,0,0,41;,
  4;11,40,42,44;,
  4;41,43,42,40;,
  4;39,7,43,41;,
  4;45,46,12,47;,
  4;48,46,45,49;,
  4;52,45,47,51;,
  3;52,49,45;,
  3;15,49,52;,
  3;51,50,13;,
  4;39,41,85,54;,
  3;12,46,86;,
  4;53,54,46,48;,
  3;48,8,53;,
  4;14,14,44,42;,
  3;5,28,16;,
  3;16,28,17;,
  3;28,18,17;,
  3;32,30,29;,
  3;30,31,29;,
  3;29,31,27;,
  3;31,25,27;,
  3;25,24,27;,
  3;24,23,27;,
  3;23,26,27;,
  3;50,51,47;,
  4;0,0,0,0;,
  4;0,0,0,0;,
  4;0,0,0,0;,
  4;0,0,0,0;,
  3;0,0,0;,
  3;0,0,0;,
  3;0,0,0;,
  3;0,0,0;,
  3;0,0,0;,
  3;0,0,0;,
  3;0,0,0;,
  3;0,0,0;,
  4;57,58,56,55;,
  4;60,58,57,61;,
  3;56,58,59;,
  3;62,57,55;,
  3;62,61,57;,
  3;60,59,58;,
  4;65,66,64,63;,
  4;68,66,65,69;,
  3;64,66,67;,
  3;70,65,63;,
  3;70,69,65;,
  3;68,67,66;,
  4;65,66,64,63;,
  4;68,66,65,69;,
  3;64,66,67;,
  3;70,65,63;,
  3;70,69,65;,
  3;68,67,66;,
  3;0,0,0;,
  3;0,0,0;,
  3;1,1,0;,
  3;1,0,0;,
  3;0,0,0;,
  3;0,0,0;,
  3;0,0,0;,
  4;0,0,0,0;,
  3;1,0,0;,
  3;0,0,0;,
  3;0,0,0;,
  3;0,0,0;,
  3;0,0,0;,
  4;0,0,0,0;,
  3;0,0,0;,
  3;0,0,0;,
  3;0,0,0;,
  3;0,0,0;,
  3;0,0,0;,
  3;0,0,0;,
  3;0,0,0;,
  3;0,0,0;,
  3;0,0,0;,
  3;0,0,0;,
  3;0,0,0;,
  3;0,0,0;,
  3;0,0,0;,
  3;0,0,0;,
  3;0,0,0;,
  3;0,0,0;,
  3;0,0,0;,
  3;1,0,0;,
  3;0,0,0;,
  3;0,0,0;,
  3;0,0,0;,
  3;0,0,0;,
  4;0,0,0,0;,
  3;0,0,0;,
  4;0,0,0,0;,
  3;0,1,1;,
  3;1,0,0;,
  3;0,0,0;,
  3;0,0,0;,
  3;0,0,0;,
  3;0,0,0;,
  3;0,0,0;,
  3;0,0,0;,
  3;0,0,0;,
  3;0,0,0;,
  4;0,0,0,0;,
  4;0,0,0,0;,
  4;0,0,0,0;,
  4;0,0,0,0;,
  3;73,74,72;,
  4;74,75,76,77;,
  3;77,72,74;,
  4;0,0,0,0;,
  4;0,0,0,0;,
  3;0,0,0;,
  4;71,71,71,71;,
  4;0,0,0,0;,
  3;0,0,0;,
  3;78,78,78;,
  4;81,82,80,81;,
  4;81,83,83,81;,
  3;83,83,79;,
  4;0,0,0,0;,
  4;0,0,0,0;,
  4;0,0,0,0;,
  4;84,84,84,84;,
  4;0,0,0,0;,
  3;82,0,0;,
  4;0,0,77,76;,
  3;0,0,0;,
  3;0,0,0;,
  3;0,0,0;,
  3;0,0,0;,
  4;0,0,0,0;,
  4;0,0,0,0;,
  3;0,0,77;,
  3;77,0,0;,
  3;0,0,0;,
  3;0,0,0;,
  3;0,0,0;,
  3;0,0,0;,
  3;0,0,0;,
  3;0,0,0;,
  3;0,0,0;,
  4;0,0,0,0;;
 }
 MeshTextureCoords {
  379;
  -1.832170;-10.955300;,
  -1.832170;-5.461640;,
  -2.518750;-5.461640;,
  5.613310;-11.029200;,
  2.251220;-11.029200;,
  2.251220;-15.157100;,
  5.613310;-15.157100;,
  0.000000;0.000000;,
  0.000000;0.000000;,
  0.000000;0.000000;,
  0.000000;0.000000;,
  3.081600;-37.434101;,
  3.908850;-37.434101;,
  3.908850;-31.402599;,
  3.081600;-31.402599;,
  3.081600;-37.434101;,
  3.908850;-37.434101;,
  3.908850;-31.402599;,
  3.081600;-31.402599;,
  3.081600;-37.434101;,
  3.908850;-37.434101;,
  3.908850;-31.402599;,
  3.081600;-31.402599;,
  -3.122730;-23.446100;,
  -3.949980;-23.446100;,
  -3.949980;-27.442699;,
  -3.122730;-27.442699;,
  -15.207100;15.800500;,
  -16.528400;15.800500;,
  -15.207100;14.948600;,
  -13.708400;6.526260;,
  -17.447599;6.526260;,
  -15.520100;5.149480;,
  -0.535250;-26.949900;,
  -0.535250;-19.449600;,
  -1.401040;-19.449600;,
  -1.401040;-24.440201;,
  -13.703700;6.526260;,
  -13.703700;7.870800;,
  -14.956400;6.526260;,
  -0.535250;-26.949900;,
  -1.401040;-24.440201;,
  -1.401040;-31.439199;,
  0.000000;0.000000;,
  0.000000;0.000000;,
  -5.197780;0.529200;,
  0.000000;0.000000;,
  -1.541400;1.040930;,
  3.081600;-61.413399;,
  3.081600;-57.416801;,
  3.081600;-53.819901;,
  2.998880;-53.819901;,
  4.405200;-49.823399;,
  4.322470;-49.823399;,
  4.322470;-53.420300;,
  4.405200;-49.423698;,
  5.066990;-49.823399;,
  5.066990;-49.423698;,
  5.149720;-53.420300;,
  5.149720;-49.823399;,
  1.421570;0.627110;,
  1.443670;0.659620;,
  1.421570;1.040930;,
  5.066990;-53.819901;,
  5.066990;-53.420300;,
  4.405200;-53.420300;,
  4.405200;-53.819901;,
  4.322470;-61.413399;,
  5.066990;-61.013699;,
  -3.210260;0.636920;,
  -3.210260;0.573980;,
  -2.643720;0.573980;,
  -3.273210;1.203460;,
  -3.273210;0.636920;,
  1.734060;0.351220;,
  1.765310;0.351220;,
  1.734060;0.397200;,
  3.495230;-61.413399;,
  4.230610;-61.016201;,
  4.239750;-57.816502;,
  3.495230;-57.416801;,
  -2.014230;0.259230;,
  -2.580770;0.322180;,
  -2.573820;0.259230;,
  -2.643720;0.329130;,
  1.734060;0.581130;,
  1.765310;0.397200;,
  4.322470;-57.816502;,
  4.322470;-61.016201;,
  3.412510;-57.816502;,
  3.081600;-57.416801;,
  3.081600;-61.413399;,
  3.412510;-61.013699;,
  1.734060;0.121320;,
  1.765310;0.121320;,
  1.765310;0.167300;,
  1.734060;0.167300;,
  3.495230;-61.013699;,
  3.495230;-57.816502;,
  -1.951280;0.007440;,
  -2.014230;1.203460;,
  -2.014230;0.007440;,
  -1.951280;-0.055510;,
  2.337080;-53.819901;,
  2.337080;-61.013699;,
  3.081600;-61.413399;,
  2.998880;-53.819901;,
  2.254360;-61.013699;,
  2.254360;-53.819901;,
  2.337080;-53.420300;,
  2.998880;-53.420300;,
  2.254360;-53.420300;,
  1.421570;0.167300;,
  1.452820;0.167300;,
  1.421570;1.040930;,
  -1.699490;-0.055510;,
  -1.195730;-0.051030;,
  2.419600;-61.413399;,
  -1.132790;0.011920;,
  -1.132950;-0.055510;,
  -1.070000;0.007440;,
  -1.070000;1.203460;,
  1.734060;1.040930;,
  4.322470;-57.416801;,
  4.322470;-53.819901;,
  2.015300;0.627110;,
  1.765310;0.627110;,
  2.015300;0.581130;,
  1.452820;0.581130;,
  1.702810;0.627110;,
  1.474920;0.613640;,
  3.081600;-53.819901;,
  -1.145410;6.077200;,
  -2.955170;6.077200;,
  -2.955170;5.104860;,
  -1.145410;5.104860;,
  3.908850;-39.432301;,
  3.908850;-37.434101;,
  3.081600;-37.434101;,
  3.081600;-39.432301;,
  3.081600;-31.402599;,
  3.081600;-37.434101;,
  3.908850;-37.434101;,
  3.908850;-31.402599;,
  0.921370;-39.866501;,
  -0.551130;-39.866501;,
  -0.551130;-46.980301;,
  0.808640;-46.411800;,
  0.808640;-46.411800;,
  0.876140;-46.016399;,
  0.921370;-39.866501;,
  0.921370;-45.557499;,
  0.921370;-44.846199;,
  0.926520;-45.205399;,
  -0.551130;-46.980301;,
  0.479620;-46.980301;,
  0.808640;-46.411800;,
  0.724640;-46.751801;,
  0.554000;-47.005501;,
  0.626870;-46.980301;,
  0.479620;-46.980301;,
  0.724640;-46.751801;,
  1.000390;0.090490;,
  0.997470;0.891840;,
  -0.039370;0.989150;,
  -0.035720;-0.012530;,
  1.061130;0.892010;,
  1.064050;0.090670;,
  0.945600;0.991860;,
  0.949250;-0.009820;,
  1.000390;0.090490;,
  0.997470;0.891840;,
  -0.039370;0.989150;,
  -0.035720;-0.012530;,
  1.061130;0.892010;,
  1.064050;0.090670;,
  0.945600;0.991860;,
  0.949250;-0.009820;,
  1.000390;0.090490;,
  0.997470;0.891840;,
  -0.039370;0.989150;,
  -0.035720;-0.012530;,
  1.061130;0.892010;,
  1.064050;0.090670;,
  0.945600;0.991860;,
  0.949250;-0.009820;,
  6.390590;-61.413399;,
  8.458700;-41.430599;,
  6.390590;-41.430599;,
  8.458700;-61.413399;,
  -0.227370;-61.413399;,
  8.458700;-77.399597;,
  14.978400;-85.733597;,
  16.994499;-66.617500;,
  11.767700;-5.461640;,
  17.689199;-45.427200;,
  3.495230;-114.000999;,
  7.881410;-110.643997;,
  -0.890960;-110.643997;,
  11.838200;-100.903999;,
  -0.227370;-61.413399;,
  6.390590;-61.413399;,
  6.390590;-41.430599;,
  -0.227370;-41.430599;,
  -0.227370;-61.413399;,
  -0.227370;-77.399597;,
  8.458700;-77.399597;,
  11.767700;-41.430599;,
  8.458700;-41.430599;,
  11.767700;-77.399597;,
  11.767700;-93.385803;,
  -0.227370;-93.385803;,
  -19.943600;-14.278300;,
  -19.770000;-2.977840;,
  -19.943600;18.952101;,
  -24.487101;14.408600;,
  11.838200;-100.903999;,
  14.978400;-85.733597;,
  11.767700;-93.385803;,
  11.767700;-5.461640;,
  17.689199;-45.427200;,
  16.994499;-24.236799;,
  14.978400;-5.120780;,
  11.838200;10.049800;,
  -0.890960;-110.643997;,
  -4.847780;-100.903999;,
  11.767700;-93.385803;,
  -4.777220;-93.385803;,
  -7.987950;-5.120780;,
  -7.987950;-85.733597;,
  -10.004100;-66.617500;,
  -10.698800;-45.427200;,
  -10.004100;-24.236799;,
  11.767700;-5.461640;,
  -4.847780;10.049800;,
  7.881410;19.790001;,
  -0.890960;19.790001;,
  -1.525530;21.869200;,
  -7.871960;22.874399;,
  -14.218400;21.869200;,
  6.390590;-41.430599;,
  6.390590;-31.402599;,
  11.767700;-5.461640;,
  6.390590;-27.432199;,
  6.390590;-23.431200;,
  6.390590;-5.461640;,
  -0.227370;-41.430599;,
  -4.727790;-41.430599;,
  -4.727790;-63.172798;,
  -0.571910;-61.435398;,
  -4.727790;-63.172798;,
  -1.577500;-63.172798;,
  -0.571910;-61.435398;,
  -4.777220;-93.385803;,
  -0.227370;-93.385803;,
  -1.577500;-63.172798;,
  -4.727790;-63.172798;,
  -0.365620;-60.226799;,
  -0.227370;-93.385803;,
  -0.227370;-58.824402;,
  -0.227370;-93.385803;,
  -0.571910;-61.435398;,
  -0.227370;-93.385803;,
  -0.828640;-62.474499;,
  -1.127460;-63.172798;,
  -1.350190;-63.249802;,
  -1.577500;-63.172798;,
  5.613310;-20.550900;,
  6.053620;-15.157100;,
  5.613310;-15.157100;,
  5.613310;-23.431101;,
  6.390590;-23.431101;,
  6.390590;-15.157100;,
  6.390590;-27.432199;,
  5.612980;-27.432199;,
  5.612980;-37.434101;,
  6.390590;-37.434101;,
  6.390590;-27.432199;,
  6.390590;-23.431101;,
  5.613310;-23.431101;,
  -1.401040;-31.439199;,
  -1.401040;-24.440201;,
  -3.122730;-19.449600;,
  -3.122730;-31.439199;,
  -3.122730;-5.461640;,
  -4.777220;-5.461640;,
  -4.777220;-31.439199;,
  -3.122730;-31.439199;,
  -2.518750;-5.461640;,
  -2.518760;-10.955300;,
  -1.832170;-10.955300;,
  -2.518750;-19.449600;,
  -1.832170;-19.449600;,
  -1.832170;-15.525500;,
  -2.518750;-19.449600;,
  -2.518750;-21.200399;,
  -1.401040;-24.440201;,
  -1.401040;-19.449600;,
  -2.518750;-5.461640;,
  -3.122730;-5.461640;,
  -3.122730;-19.449600;,
  -2.518750;-19.449600;,
  -4.847780;-100.903999;,
  -4.777220;-93.385803;,
  -4.727790;-63.172798;,
  5.613310;-15.157000;,
  6.390590;-15.157100;,
  6.390590;-11.029200;,
  5.613310;-11.029200;,
  5.613310;-11.029200;,
  6.390590;-11.029200;,
  6.390590;-5.461640;,
  5.613310;-9.216790;,
  5.613310;-9.216790;,
  6.390590;-5.461640;,
  3.908850;-5.461640;,
  -0.355300;-0.458340;,
  1.213360;-0.435630;,
  1.198370;1.734020;,
  -0.535250;-23.446100;,
  -0.535250;-20.882700;,
  -1.401040;-19.449600;,
  -1.401070;-23.446100;,
  -1.401070;-27.442699;,
  -0.535250;-27.442699;,
  1.198370;1.734020;,
  -0.370340;1.711310;,
  -0.355300;-0.458340;,
  3.908850;-37.434101;,
  3.081600;-37.434101;,
  3.081600;-41.430599;,
  3.908850;-41.430599;,
  3.081600;-41.430599;,
  3.081600;-37.434101;,
  1.013500;-37.434101;,
  1.013500;-41.430599;,
  6.390590;-41.430599;,
  6.390590;-37.434101;,
  3.908850;-37.434101;,
  3.908850;-41.430599;,
  0.000000;0.000000;,
  0.000000;0.000000;,
  0.000000;0.000000;,
  0.000000;0.000000;,
  1.873220;-0.040280;,
  -4.206690;-0.656390;,
  -15.520100;5.149480;,
  0.818470;-0.206350;,
  -1.234570;0.011140;,
  1.711570;-0.206350;,
  -5.197760;-0.656390;,
  -0.297110;0.011140;,
  0.000000;0.000000;,
  -5.197780;0.529200;,
  -0.535250;-19.449600;,
  -0.609590;1.040930;,
  0.000000;0.000000;,
  1.052740;1.203460;,
  0.000000;0.000000;,
  0.000000;0.000000;,
  0.000000;0.000000;,
  -13.703700;6.526260;,
  -1.832170;-5.461640;,
  -0.571910;-61.435398;,
  -0.365620;-60.226799;,
  -0.227370;-41.430599;,
  -0.227370;-58.824402;,
  -0.227370;-56.650200;,
  0.000000;0.000000;,
  0.000000;0.000000;,
  0.000000;0.000000;,
  -1.127460;-63.172798;,
  -0.828640;-62.474499;,
  -1.577500;-63.172798;,
  -0.571910;-61.435398;,
  1.567750;-57.296902;,
  1.567750;-55.538502;,
  0.790140;-55.538502;,
  0.790140;-57.296902;;
 }
 MeshVertexColors {
  379;
  0;1.000000;1.000000;1.000000;1.000000;,
  1;1.000000;1.000000;1.000000;1.000000;,
  2;1.000000;1.000000;1.000000;1.000000;,
  3;1.000000;1.000000;1.000000;1.000000;,
  4;1.000000;1.000000;1.000000;1.000000;,
  5;1.000000;1.000000;1.000000;1.000000;,
  6;1.000000;1.000000;1.000000;1.000000;,
  7;1.000000;1.000000;1.000000;1.000000;,
  8;1.000000;1.000000;1.000000;1.000000;,
  9;1.000000;1.000000;1.000000;1.000000;,
  10;1.000000;1.000000;1.000000;1.000000;,
  11;1.000000;1.000000;1.000000;1.000000;,
  12;1.000000;1.000000;1.000000;1.000000;,
  13;1.000000;1.000000;1.000000;1.000000;,
  14;1.000000;1.000000;1.000000;1.000000;,
  15;1.000000;1.000000;1.000000;1.000000;,
  16;1.000000;1.000000;1.000000;1.000000;,
  17;1.000000;1.000000;1.000000;1.000000;,
  18;1.000000;1.000000;1.000000;1.000000;,
  19;1.000000;1.000000;1.000000;1.000000;,
  20;1.000000;1.000000;1.000000;1.000000;,
  21;1.000000;1.000000;1.000000;1.000000;,
  22;1.000000;1.000000;1.000000;1.000000;,
  23;1.000000;1.000000;1.000000;1.000000;,
  24;1.000000;1.000000;1.000000;1.000000;,
  25;1.000000;1.000000;1.000000;1.000000;,
  26;1.000000;1.000000;1.000000;1.000000;,
  27;1.000000;1.000000;1.000000;1.000000;,
  28;1.000000;1.000000;1.000000;1.000000;,
  29;1.000000;1.000000;1.000000;1.000000;,
  30;1.000000;1.000000;1.000000;1.000000;,
  31;1.000000;1.000000;1.000000;1.000000;,
  32;1.000000;1.000000;1.000000;1.000000;,
  33;1.000000;1.000000;1.000000;1.000000;,
  34;1.000000;1.000000;1.000000;1.000000;,
  35;1.000000;1.000000;1.000000;1.000000;,
  36;1.000000;1.000000;1.000000;1.000000;,
  37;1.000000;1.000000;1.000000;1.000000;,
  38;1.000000;1.000000;1.000000;1.000000;,
  39;1.000000;1.000000;1.000000;1.000000;,
  40;1.000000;1.000000;1.000000;1.000000;,
  41;1.000000;1.000000;1.000000;1.000000;,
  42;1.000000;1.000000;1.000000;1.000000;,
  43;1.000000;1.000000;1.000000;1.000000;,
  44;1.000000;1.000000;1.000000;1.000000;,
  45;1.000000;1.000000;1.000000;1.000000;,
  46;1.000000;1.000000;1.000000;1.000000;,
  47;1.000000;1.000000;1.000000;1.000000;,
  48;1.000000;1.000000;1.000000;1.000000;,
  49;1.000000;1.000000;1.000000;1.000000;,
  50;1.000000;1.000000;1.000000;1.000000;,
  51;1.000000;1.000000;1.000000;1.000000;,
  52;1.000000;1.000000;1.000000;1.000000;,
  53;1.000000;1.000000;1.000000;1.000000;,
  54;1.000000;1.000000;1.000000;1.000000;,
  55;1.000000;1.000000;1.000000;1.000000;,
  56;1.000000;1.000000;1.000000;1.000000;,
  57;1.000000;1.000000;1.000000;1.000000;,
  58;1.000000;1.000000;1.000000;1.000000;,
  59;1.000000;1.000000;1.000000;1.000000;,
  60;1.000000;1.000000;1.000000;1.000000;,
  61;1.000000;1.000000;1.000000;1.000000;,
  62;1.000000;1.000000;1.000000;1.000000;,
  63;1.000000;1.000000;1.000000;1.000000;,
  64;1.000000;1.000000;1.000000;1.000000;,
  65;1.000000;1.000000;1.000000;1.000000;,
  66;1.000000;1.000000;1.000000;1.000000;,
  67;1.000000;1.000000;1.000000;1.000000;,
  68;1.000000;1.000000;1.000000;1.000000;,
  69;1.000000;1.000000;1.000000;1.000000;,
  70;1.000000;1.000000;1.000000;1.000000;,
  71;1.000000;1.000000;1.000000;1.000000;,
  72;1.000000;1.000000;1.000000;1.000000;,
  73;1.000000;1.000000;1.000000;1.000000;,
  74;1.000000;1.000000;1.000000;1.000000;,
  75;1.000000;1.000000;1.000000;1.000000;,
  76;1.000000;1.000000;1.000000;1.000000;,
  77;1.000000;1.000000;1.000000;1.000000;,
  78;1.000000;1.000000;1.000000;1.000000;,
  79;1.000000;1.000000;1.000000;1.000000;,
  80;1.000000;1.000000;1.000000;1.000000;,
  81;1.000000;1.000000;1.000000;1.000000;,
  82;1.000000;1.000000;1.000000;1.000000;,
  83;1.000000;1.000000;1.000000;1.000000;,
  84;1.000000;1.000000;1.000000;1.000000;,
  85;1.000000;1.000000;1.000000;1.000000;,
  86;1.000000;1.000000;1.000000;1.000000;,
  87;1.000000;1.000000;1.000000;1.000000;,
  88;1.000000;1.000000;1.000000;1.000000;,
  89;1.000000;1.000000;1.000000;1.000000;,
  90;1.000000;1.000000;1.000000;1.000000;,
  91;1.000000;1.000000;1.000000;1.000000;,
  92;1.000000;1.000000;1.000000;1.000000;,
  93;1.000000;1.000000;1.000000;1.000000;,
  94;1.000000;1.000000;1.000000;1.000000;,
  95;1.000000;1.000000;1.000000;1.000000;,
  96;1.000000;1.000000;1.000000;1.000000;,
  97;1.000000;1.000000;1.000000;1.000000;,
  98;1.000000;1.000000;1.000000;1.000000;,
  99;1.000000;1.000000;1.000000;1.000000;,
  100;1.000000;1.000000;1.000000;1.000000;,
  101;1.000000;1.000000;1.000000;1.000000;,
  102;1.000000;1.000000;1.000000;1.000000;,
  103;1.000000;1.000000;1.000000;1.000000;,
  104;1.000000;1.000000;1.000000;1.000000;,
  105;1.000000;1.000000;1.000000;1.000000;,
  106;1.000000;1.000000;1.000000;1.000000;,
  107;1.000000;1.000000;1.000000;1.000000;,
  108;1.000000;1.000000;1.000000;1.000000;,
  109;1.000000;1.000000;1.000000;1.000000;,
  110;1.000000;1.000000;1.000000;1.000000;,
  111;1.000000;1.000000;1.000000;1.000000;,
  112;1.000000;1.000000;1.000000;1.000000;,
  113;1.000000;1.000000;1.000000;1.000000;,
  114;1.000000;1.000000;1.000000;1.000000;,
  115;1.000000;1.000000;1.000000;1.000000;,
  116;1.000000;1.000000;1.000000;1.000000;,
  117;1.000000;1.000000;1.000000;1.000000;,
  118;1.000000;1.000000;1.000000;1.000000;,
  119;1.000000;1.000000;1.000000;1.000000;,
  120;1.000000;1.000000;1.000000;1.000000;,
  121;1.000000;1.000000;1.000000;1.000000;,
  122;1.000000;1.000000;1.000000;1.000000;,
  123;1.000000;1.000000;1.000000;1.000000;,
  124;1.000000;1.000000;1.000000;1.000000;,
  125;1.000000;1.000000;1.000000;1.000000;,
  126;1.000000;1.000000;1.000000;1.000000;,
  127;1.000000;1.000000;1.000000;1.000000;,
  128;1.000000;1.000000;1.000000;1.000000;,
  129;1.000000;1.000000;1.000000;1.000000;,
  130;1.000000;1.000000;1.000000;1.000000;,
  131;1.000000;1.000000;1.000000;1.000000;,
  132;1.000000;1.000000;1.000000;1.000000;,
  133;1.000000;1.000000;1.000000;1.000000;,
  134;1.000000;1.000000;1.000000;1.000000;,
  135;1.000000;1.000000;1.000000;1.000000;,
  136;1.000000;1.000000;1.000000;1.000000;,
  137;1.000000;1.000000;1.000000;1.000000;,
  138;1.000000;1.000000;1.000000;1.000000;,
  139;1.000000;1.000000;1.000000;1.000000;,
  140;1.000000;1.000000;1.000000;1.000000;,
  141;1.000000;1.000000;1.000000;1.000000;,
  142;1.000000;1.000000;1.000000;1.000000;,
  143;1.000000;1.000000;1.000000;1.000000;,
  144;1.000000;1.000000;1.000000;1.000000;,
  145;1.000000;1.000000;1.000000;1.000000;,
  146;1.000000;1.000000;1.000000;1.000000;,
  147;1.000000;1.000000;1.000000;1.000000;,
  148;1.000000;1.000000;1.000000;1.000000;,
  149;1.000000;1.000000;1.000000;1.000000;,
  150;1.000000;1.000000;1.000000;1.000000;,
  151;1.000000;1.000000;1.000000;1.000000;,
  152;1.000000;1.000000;1.000000;1.000000;,
  153;1.000000;1.000000;1.000000;1.000000;,
  154;1.000000;1.000000;1.000000;1.000000;,
  155;1.000000;1.000000;1.000000;1.000000;,
  156;1.000000;1.000000;1.000000;1.000000;,
  157;1.000000;1.000000;1.000000;1.000000;,
  158;1.000000;1.000000;1.000000;1.000000;,
  159;1.000000;1.000000;1.000000;1.000000;,
  160;1.000000;1.000000;1.000000;1.000000;,
  161;1.000000;1.000000;1.000000;1.000000;,
  162;1.000000;1.000000;1.000000;1.000000;,
  163;1.000000;1.000000;1.000000;1.000000;,
  164;1.000000;1.000000;1.000000;1.000000;,
  165;1.000000;1.000000;1.000000;1.000000;,
  166;1.000000;1.000000;1.000000;1.000000;,
  167;1.000000;1.000000;1.000000;1.000000;,
  168;1.000000;1.000000;1.000000;1.000000;,
  169;1.000000;1.000000;1.000000;1.000000;,
  170;1.000000;1.000000;1.000000;1.000000;,
  171;1.000000;1.000000;1.000000;1.000000;,
  172;1.000000;1.000000;1.000000;1.000000;,
  173;1.000000;1.000000;1.000000;1.000000;,
  174;1.000000;1.000000;1.000000;1.000000;,
  175;1.000000;1.000000;1.000000;1.000000;,
  176;1.000000;1.000000;1.000000;1.000000;,
  177;1.000000;1.000000;1.000000;1.000000;,
  178;1.000000;1.000000;1.000000;1.000000;,
  179;1.000000;1.000000;1.000000;1.000000;,
  180;1.000000;1.000000;1.000000;1.000000;,
  181;1.000000;1.000000;1.000000;1.000000;,
  182;1.000000;1.000000;1.000000;1.000000;,
  183;1.000000;1.000000;1.000000;1.000000;,
  184;1.000000;1.000000;1.000000;1.000000;,
  185;1.000000;1.000000;1.000000;1.000000;,
  186;1.000000;1.000000;1.000000;1.000000;,
  187;1.000000;1.000000;1.000000;1.000000;,
  188;1.000000;1.000000;1.000000;1.000000;,
  189;1.000000;1.000000;1.000000;1.000000;,
  190;1.000000;1.000000;1.000000;1.000000;,
  191;1.000000;1.000000;1.000000;1.000000;,
  192;1.000000;1.000000;1.000000;1.000000;,
  193;1.000000;1.000000;1.000000;1.000000;,
  194;1.000000;1.000000;1.000000;1.000000;,
  195;1.000000;1.000000;1.000000;1.000000;,
  196;1.000000;1.000000;1.000000;1.000000;,
  197;1.000000;1.000000;1.000000;1.000000;,
  198;1.000000;1.000000;1.000000;1.000000;,
  199;1.000000;1.000000;1.000000;1.000000;,
  200;1.000000;1.000000;1.000000;1.000000;,
  201;1.000000;1.000000;1.000000;1.000000;,
  202;1.000000;1.000000;1.000000;1.000000;,
  203;1.000000;1.000000;1.000000;1.000000;,
  204;1.000000;1.000000;1.000000;1.000000;,
  205;1.000000;1.000000;1.000000;1.000000;,
  206;1.000000;1.000000;1.000000;1.000000;,
  207;1.000000;1.000000;1.000000;1.000000;,
  208;1.000000;1.000000;1.000000;1.000000;,
  209;1.000000;1.000000;1.000000;1.000000;,
  210;1.000000;1.000000;1.000000;1.000000;,
  211;1.000000;1.000000;1.000000;1.000000;,
  212;1.000000;1.000000;1.000000;1.000000;,
  213;1.000000;1.000000;1.000000;1.000000;,
  214;1.000000;1.000000;1.000000;1.000000;,
  215;1.000000;1.000000;1.000000;1.000000;,
  216;1.000000;1.000000;1.000000;1.000000;,
  217;1.000000;1.000000;1.000000;1.000000;,
  218;1.000000;1.000000;1.000000;1.000000;,
  219;1.000000;1.000000;1.000000;1.000000;,
  220;1.000000;1.000000;1.000000;1.000000;,
  221;1.000000;1.000000;1.000000;1.000000;,
  222;1.000000;1.000000;1.000000;1.000000;,
  223;1.000000;1.000000;1.000000;1.000000;,
  224;1.000000;1.000000;1.000000;1.000000;,
  225;1.000000;1.000000;1.000000;1.000000;,
  226;1.000000;1.000000;1.000000;1.000000;,
  227;1.000000;1.000000;1.000000;1.000000;,
  228;1.000000;1.000000;1.000000;1.000000;,
  229;1.000000;1.000000;1.000000;1.000000;,
  230;1.000000;1.000000;1.000000;1.000000;,
  231;1.000000;1.000000;1.000000;1.000000;,
  232;1.000000;1.000000;1.000000;1.000000;,
  233;1.000000;1.000000;1.000000;1.000000;,
  234;1.000000;1.000000;1.000000;1.000000;,
  235;1.000000;1.000000;1.000000;1.000000;,
  236;1.000000;1.000000;1.000000;1.000000;,
  237;1.000000;1.000000;1.000000;1.000000;,
  238;1.000000;1.000000;1.000000;1.000000;,
  239;1.000000;1.000000;1.000000;1.000000;,
  240;1.000000;1.000000;1.000000;1.000000;,
  241;1.000000;1.000000;1.000000;1.000000;,
  242;1.000000;1.000000;1.000000;1.000000;,
  243;1.000000;1.000000;1.000000;1.000000;,
  244;1.000000;1.000000;1.000000;1.000000;,
  245;1.000000;1.000000;1.000000;1.000000;,
  246;1.000000;1.000000;1.000000;1.000000;,
  247;1.000000;1.000000;1.000000;1.000000;,
  248;1.000000;1.000000;1.000000;1.000000;,
  249;1.000000;1.000000;1.000000;1.000000;,
  250;1.000000;1.000000;1.000000;1.000000;,
  251;1.000000;1.000000;1.000000;1.000000;,
  252;1.000000;1.000000;1.000000;1.000000;,
  253;1.000000;1.000000;1.000000;1.000000;,
  254;1.000000;1.000000;1.000000;1.000000;,
  255;1.000000;1.000000;1.000000;1.000000;,
  256;1.000000;1.000000;1.000000;1.000000;,
  257;1.000000;1.000000;1.000000;1.000000;,
  258;1.000000;1.000000;1.000000;1.000000;,
  259;1.000000;1.000000;1.000000;1.000000;,
  260;1.000000;1.000000;1.000000;1.000000;,
  261;1.000000;1.000000;1.000000;1.000000;,
  262;1.000000;1.000000;1.000000;1.000000;,
  263;1.000000;1.000000;1.000000;1.000000;,
  264;1.000000;1.000000;1.000000;1.000000;,
  265;1.000000;1.000000;1.000000;1.000000;,
  266;1.000000;1.000000;1.000000;1.000000;,
  267;1.000000;1.000000;1.000000;1.000000;,
  268;1.000000;1.000000;1.000000;1.000000;,
  269;1.000000;1.000000;1.000000;1.000000;,
  270;1.000000;1.000000;1.000000;1.000000;,
  271;1.000000;1.000000;1.000000;1.000000;,
  272;1.000000;1.000000;1.000000;1.000000;,
  273;1.000000;1.000000;1.000000;1.000000;,
  274;1.000000;1.000000;1.000000;1.000000;,
  275;1.000000;1.000000;1.000000;1.000000;,
  276;1.000000;1.000000;1.000000;1.000000;,
  277;1.000000;1.000000;1.000000;1.000000;,
  278;1.000000;1.000000;1.000000;1.000000;,
  279;1.000000;1.000000;1.000000;1.000000;,
  280;1.000000;1.000000;1.000000;1.000000;,
  281;1.000000;1.000000;1.000000;1.000000;,
  282;1.000000;1.000000;1.000000;1.000000;,
  283;1.000000;1.000000;1.000000;1.000000;,
  284;1.000000;1.000000;1.000000;1.000000;,
  285;1.000000;1.000000;1.000000;1.000000;,
  286;1.000000;1.000000;1.000000;1.000000;,
  287;1.000000;1.000000;1.000000;1.000000;,
  288;1.000000;1.000000;1.000000;1.000000;,
  289;1.000000;1.000000;1.000000;1.000000;,
  290;1.000000;1.000000;1.000000;1.000000;,
  291;1.000000;1.000000;1.000000;1.000000;,
  292;1.000000;1.000000;1.000000;1.000000;,
  293;1.000000;1.000000;1.000000;1.000000;,
  294;1.000000;1.000000;1.000000;1.000000;,
  295;1.000000;1.000000;1.000000;1.000000;,
  296;1.000000;1.000000;1.000000;1.000000;,
  297;1.000000;1.000000;1.000000;1.000000;,
  298;1.000000;1.000000;1.000000;1.000000;,
  299;1.000000;1.000000;1.000000;1.000000;,
  300;1.000000;1.000000;1.000000;1.000000;,
  301;1.000000;1.000000;1.000000;1.000000;,
  302;1.000000;1.000000;1.000000;1.000000;,
  303;1.000000;1.000000;1.000000;1.000000;,
  304;1.000000;1.000000;1.000000;1.000000;,
  305;1.000000;1.000000;1.000000;1.000000;,
  306;1.000000;1.000000;1.000000;1.000000;,
  307;1.000000;1.000000;1.000000;1.000000;,
  308;1.000000;1.000000;1.000000;1.000000;,
  309;1.000000;1.000000;1.000000;1.000000;,
  310;1.000000;1.000000;1.000000;1.000000;,
  311;1.000000;1.000000;1.000000;1.000000;,
  312;1.000000;1.000000;1.000000;1.000000;,
  313;1.000000;1.000000;1.000000;1.000000;,
  314;1.000000;1.000000;1.000000;1.000000;,
  315;1.000000;1.000000;1.000000;1.000000;,
  316;1.000000;1.000000;1.000000;1.000000;,
  317;1.000000;1.000000;1.000000;1.000000;,
  318;1.000000;1.000000;1.000000;1.000000;,
  319;1.000000;1.000000;1.000000;1.000000;,
  320;1.000000;1.000000;1.000000;1.000000;,
  321;1.000000;1.000000;1.000000;1.000000;,
  322;1.000000;1.000000;1.000000;1.000000;,
  323;1.000000;1.000000;1.000000;1.000000;,
  324;1.000000;1.000000;1.000000;1.000000;,
  325;1.000000;1.000000;1.000000;1.000000;,
  326;1.000000;1.000000;1.000000;1.000000;,
  327;1.000000;1.000000;1.000000;1.000000;,
  328;1.000000;1.000000;1.000000;1.000000;,
  329;1.000000;1.000000;1.000000;1.000000;,
  330;1.000000;1.000000;1.000000;1.000000;,
  331;1.000000;1.000000;1.000000;1.000000;,
  332;1.000000;1.000000;1.000000;1.000000;,
  333;1.000000;1.000000;1.000000;1.000000;,
  334;1.000000;1.000000;1.000000;1.000000;,
  335;1.000000;1.000000;1.000000;1.000000;,
  336;1.000000;1.000000;1.000000;1.000000;,
  337;1.000000;1.000000;1.000000;1.000000;,
  338;1.000000;1.000000;1.000000;1.000000;,
  339;1.000000;1.000000;1.000000;1.000000;,
  340;1.000000;1.000000;1.000000;1.000000;,
  341;1.000000;1.000000;1.000000;1.000000;,
  342;1.000000;1.000000;1.000000;1.000000;,
  343;1.000000;1.000000;1.000000;1.000000;,
  344;1.000000;1.000000;1.000000;1.000000;,
  345;1.000000;1.000000;1.000000;1.000000;,
  346;1.000000;1.000000;1.000000;1.000000;,
  347;1.000000;1.000000;1.000000;1.000000;,
  348;1.000000;1.000000;1.000000;1.000000;,
  349;1.000000;1.000000;1.000000;1.000000;,
  350;1.000000;1.000000;1.000000;1.000000;,
  351;1.000000;1.000000;1.000000;1.000000;,
  352;1.000000;1.000000;1.000000;1.000000;,
  353;1.000000;1.000000;1.000000;1.000000;,
  354;1.000000;1.000000;1.000000;1.000000;,
  355;1.000000;1.000000;1.000000;1.000000;,
  356;1.000000;1.000000;1.000000;1.000000;,
  357;1.000000;1.000000;1.000000;1.000000;,
  358;1.000000;1.000000;1.000000;1.000000;,
  359;1.000000;1.000000;1.000000;1.000000;,
  360;1.000000;1.000000;1.000000;1.000000;,
  361;1.000000;1.000000;1.000000;1.000000;,
  362;1.000000;1.000000;1.000000;1.000000;,
  363;1.000000;1.000000;1.000000;1.000000;,
  364;1.000000;1.000000;1.000000;1.000000;,
  365;1.000000;1.000000;1.000000;1.000000;,
  366;1.000000;1.000000;1.000000;1.000000;,
  367;1.000000;1.000000;1.000000;1.000000;,
  368;1.000000;1.000000;1.000000;1.000000;,
  369;1.000000;1.000000;1.000000;1.000000;,
  370;1.000000;1.000000;1.000000;1.000000;,
  371;1.000000;1.000000;1.000000;1.000000;,
  372;1.000000;1.000000;1.000000;1.000000;,
  373;1.000000;1.000000;1.000000;1.000000;,
  374;1.000000;1.000000;1.000000;1.000000;,
  375;1.000000;1.000000;1.000000;1.000000;,
  376;1.000000;1.000000;1.000000;1.000000;,
  377;1.000000;1.000000;1.000000;1.000000;,
  378;1.000000;1.000000;1.000000;1.000000;;
 }
}
