xof 0302txt 0064
template Header {
 <3D82AB43-62DA-11cf-AB39-0020AF71E433>
 WORD major;
 WORD minor;
 DWORD flags;
}

template Vector {
 <3D82AB5E-62DA-11cf-AB39-0020AF71E433>
 FLOAT x;
 FLOAT y;
 FLOAT z;
}

template Coords2d {
 <F6F23F44-7686-11cf-8F52-0040333594A3>
 FLOAT u;
 FLOAT v;
}

template Matrix4x4 {
 <F6F23F45-7686-11cf-8F52-0040333594A3>
 array FLOAT matrix[16];
}

template ColorRGBA {
 <35FF44E0-6C7C-11cf-8F52-0040333594A3>
 FLOAT red;
 FLOAT green;
 FLOAT blue;
 FLOAT alpha;
}

template ColorRGB {
 <D3E16E81-7835-11cf-8F52-0040333594A3>
 FLOAT red;
 FLOAT green;
 FLOAT blue;
}

template IndexedColor {
 <1630B820-7842-11cf-8F52-0040333594A3>
 DWORD index;
 ColorRGBA indexColor;
}

template Boolean {
 <4885AE61-78E8-11cf-8F52-0040333594A3>
 WORD truefalse;
}

template Boolean2d {
 <4885AE63-78E8-11cf-8F52-0040333594A3>
 Boolean u;
 Boolean v;
}

template MaterialWrap {
 <4885AE60-78E8-11cf-8F52-0040333594A3>
 Boolean u;
 Boolean v;
}

template TextureFilename {
 <A42790E1-7810-11cf-8F52-0040333594A3>
 STRING filename;
}

template Material {
 <3D82AB4D-62DA-11cf-AB39-0020AF71E433>
 ColorRGBA faceColor;
 FLOAT power;
 ColorRGB specularColor;
 ColorRGB emissiveColor;
 [...]
}

template MeshFace {
 <3D82AB5F-62DA-11cf-AB39-0020AF71E433>
 DWORD nFaceVertexIndices;
 array DWORD faceVertexIndices[nFaceVertexIndices];
}

template MeshFaceWraps {
 <4885AE62-78E8-11cf-8F52-0040333594A3>
 DWORD nFaceWrapValues;
 Boolean2d faceWrapValues;
}

template MeshTextureCoords {
 <F6F23F40-7686-11cf-8F52-0040333594A3>
 DWORD nTextureCoords;
 array Coords2d textureCoords[nTextureCoords];
}

template MeshMaterialList {
 <F6F23F42-7686-11cf-8F52-0040333594A3>
 DWORD nMaterials;
 DWORD nFaceIndexes;
 array DWORD faceIndexes[nFaceIndexes];
 [Material]
}

template MeshNormals {
 <F6F23F43-7686-11cf-8F52-0040333594A3>
 DWORD nNormals;
 array Vector normals[nNormals];
 DWORD nFaceNormals;
 array MeshFace faceNormals[nFaceNormals];
}

template MeshVertexColors {
 <1630B821-7842-11cf-8F52-0040333594A3>
 DWORD nVertexColors;
 array IndexedColor vertexColors[nVertexColors];
}

template Mesh {
 <3D82AB44-62DA-11cf-AB39-0020AF71E433>
 DWORD nVertices;
 array Vector vertices[nVertices];
 DWORD nFaces;
 array MeshFace faces[nFaces];
 [...]
}

Header{
1;
0;
1;
}

Mesh {
 585;
 -1.27849;4.72316;4.98506;,
 -1.27082;3.53425;-0.73081;,
 2.00106;3.55049;-0.61354;,
 1.32107;4.73501;5.18619;,
 3.84307;4.12024;-3.37287;,
 0.64050;2.93133;0.66200;,
 -1.60747;2.94756;-2.34566;,
 2.11740;4.13208;-5.83885;,
 2.44989;3.65042;-5.55477;,
 -1.04376;2.40874;-1.95473;,
 -0.17298;4.85696;0.56158;,
 3.18927;5.63160;-3.63280;,
 2.63765;5.47896;-4.62127;,
 -1.00499;4.89400;-0.99110;,
 0.47581;2.22912;0.51516;,
 3.88874;3.38458;-3.46849;,
 3.29128;1.99262;5.68373;,
 -0.67191;0.57695;1.07713;,
 2.04157;0.59628;-2.45968;,
 5.52215;2.00672;2.96051;,
 5.27210;1.43319;3.47529;,
 1.70298;-0.04530;-1.59164;,
 -0.61967;2.86986;-0.15144;,
 3.50191;3.79224;4.68702;,
 4.40342;3.61049;3.80612;,
 0.79820;2.91396;-1.48329;,
 -0.54229;-0.25919;0.82184;,
 3.38362;1.11665;5.74744;,
 2.15708;1.31452;-5.04499;,
 1.07991;1.62511;0.00328;,
 -1.69550;1.34935;-1.01908;,
 -0.02781;1.06990;-5.94376;,
 0.32728;0.67729;-5.72800;,
 -1.12494;0.89700;-0.82432;,
 0.41647;3.33234;-0.37529;,
 1.56192;2.61936;-5.46576;,
 0.79434;2.36925;-5.83935;,
 -0.76271;3.16555;-1.08481;,
 0.90224;1.03263;0.24802;,
 2.15953;0.67369;-4.85980;,
 -0.45116;-0.98785;-6.01607;,
 1.38816;-0.67726;-1.33284;,
 -1.22638;-0.95302;0.22632;,
 -2.55865;-1.23247;-4.85902;,
 -0.42639;0.67969;5.64771;,
 1.75285;0.31170;0.09901;,
 -1.34486;0.63842;-1.74829;,
 -2.92335;0.96951;4.27683;,
 -2.12895;-0.56997;5.00013;,
 -0.55795;-1.51342;-0.76420;,
 1.74717;1.01368;-0.29450;,
 -0.30921;1.43893;5.48583;,
 1.19674;3.88970;-1.92411;,
 1.14477;3.60582;-2.14157;,
 2.08422;4.01965;-3.58166;,
 2.08422;4.01965;-3.58166;,
 0.91973;4.07018;-2.21360;,
 1.19674;3.88970;-1.92411;,
 0.92009;3.70109;-2.40263;,
 0.91973;4.07018;-2.21360;,
 2.08422;4.01965;-3.58166;,
 1.14477;3.60582;-2.14157;,
 0.92009;3.70109;-2.40263;,
 2.08422;4.01965;-3.58166;,
 0.75282;3.34218;-1.30204;,
 0.54217;3.28138;-1.62387;,
 0.75282;3.34218;-1.30204;,
 0.69045;3.65047;-1.22979;,
 1.19674;3.88970;-1.92411;,
 0.41891;3.66363;-1.59765;,
 0.69045;3.65047;-1.22979;,
 0.54217;3.28138;-1.62387;,
 1.79053;1.71811;1.77930;,
 1.99247;1.38009;1.68985;,
 3.39640;1.87284;3.02785;,
 3.39640;1.87284;3.02785;,
 2.04856;1.93301;1.34770;,
 1.79053;1.71811;1.77930;,
 2.22645;1.49353;1.33841;,
 2.04856;1.93301;1.34770;,
 3.39640;1.87284;3.02785;,
 1.99247;1.38009;1.68985;,
 2.22645;1.49353;1.33841;,
 3.39640;1.87284;3.02785;,
 1.44293;1.44893;0.62653;,
 1.47401;0.99377;0.81053;,
 1.47401;0.99377;0.81053;,
 0.61492;1.81031;-2.52817;,
 0.49971;1.53603;-2.55172;,
 0.72699;1.44636;-4.24362;,
 0.72699;1.44636;-4.24362;,
 0.30091;1.94211;-2.66274;,
 0.61492;1.81031;-2.52817;,
 0.23596;1.59483;-2.66060;,
 0.30091;1.94211;-2.66274;,
 0.72699;1.44636;-4.24362;,
 0.49971;1.53603;-2.55172;,
 0.23596;1.59483;-2.66060;,
 0.72699;1.44636;-4.24362;,
 -0.12397;4.90312;-0.69515;,
 -0.17836;5.02555;-0.37312;,
 -0.22701;4.83026;-0.43978;,
 -0.07174;5.17289;-0.55364;,
 -0.17836;5.02555;-0.37312;,
 -0.12397;4.90312;-0.69515;,
 -0.70299;4.90902;-0.73532;,
 -0.60060;4.95683;-1.01769;,
 -0.60060;4.95683;-1.01769;,
 -0.53223;5.18306;-0.98017;,
 -0.63653;5.18885;-0.62910;,
 -0.07174;5.17289;-0.55364;,
 -0.53223;5.18306;-0.98017;,
 -0.17836;5.02555;-0.37312;,
 -0.70299;4.90902;-0.73532;,
 -0.17836;5.02555;-0.37312;,
 -0.63653;5.18885;-0.62910;,
 -0.22701;4.83026;-0.43978;,
 -0.28697;-0.49206;-2.83928;,
 -0.38561;-0.76634;-2.76041;,
 -1.10220;-0.85600;-4.21795;,
 -1.10220;-0.85600;-4.21795;,
 -0.59269;-0.36026;-2.67704;,
 -0.28697;-0.49206;-2.83928;,
 -0.64021;-0.70754;-2.62103;,
 -0.59269;-0.36026;-2.67704;,
 -1.10220;-0.85600;-4.21795;,
 -0.38561;-0.76634;-2.76041;,
 -0.64021;-0.70754;-2.62103;,
 -1.10220;-0.85600;-4.21795;,
 0.08418;-0.75569;-2.06576;,
 -0.17403;-0.84182;-1.91219;,
 0.08418;-0.75569;-2.06576;,
 0.05011;-0.47414;-2.07002;,
 -0.28697;-0.49206;-2.83928;,
 -0.27085;-0.49904;-1.88602;,
 0.05011;-0.47414;-2.07002;,
 -0.27085;-0.49904;-1.88602;,
 -0.17403;-0.84182;-1.91219;,
 -0.17403;-0.84182;-1.91219;,
 0.25192;-0.58713;-1.30522;,
 -0.04236;-0.46243;-1.14885;,
 0.01837;-0.70234;-1.16320;,
 0.12283;-0.26026;-1.25941;,
 -0.04236;-0.46243;-1.14885;,
 0.25192;-0.58713;-1.30522;,
 -0.17403;-0.84182;-1.91219;,
 0.08418;-0.75569;-2.06576;,
 0.08418;-0.75569;-2.06576;,
 0.05011;-0.47414;-2.07002;,
 -0.27085;-0.49904;-1.88602;,
 0.12283;-0.26026;-1.25941;,
 0.05011;-0.47414;-2.07002;,
 -0.04236;-0.46243;-1.14885;,
 -0.17403;-0.84182;-1.91219;,
 -0.04236;-0.46243;-1.14885;,
 -0.27085;-0.49904;-1.88602;,
 0.01837;-0.70234;-1.16320;,
 0.20789;0.40463;0.96737;,
 -0.09804;0.50667;0.78543;,
 -0.34871;0.41724;1.79039;,
 -0.23185;0.09227;1.88384;,
 0.20789;0.40463;0.96737;,
 0.16753;0.07104;0.97242;,
 -0.23185;0.09227;1.88384;,
 -0.23185;0.09227;1.88384;,
 -0.21274;0.10054;0.75441;,
 0.16753;0.07104;0.97242;,
 -0.59407;-0.06388;1.69161;,
 -0.65037;0.34757;1.62525;,
 -0.21274;0.10054;0.75441;,
 -0.59407;-0.06388;1.69161;,
 -0.09804;0.50667;0.78543;,
 -0.34871;0.41724;1.79039;,
 -0.09804;0.50667;0.78543;,
 -0.65037;0.34757;1.62525;,
 -0.23185;0.09227;1.88384;,
 -0.34871;0.41724;1.79039;,
 -1.19773;0.52348;3.51730;,
 -1.19773;0.52348;3.51730;,
 -0.59407;-0.06388;1.69161;,
 -0.23185;0.09227;1.88384;,
 -0.65037;0.34757;1.62525;,
 -0.59407;-0.06388;1.69161;,
 -1.19773;0.52348;3.51730;,
 -0.34871;0.41724;1.79039;,
 -0.65037;0.34757;1.62525;,
 -1.19773;0.52348;3.51730;,
 0.25369;-0.18236;0.01200;,
 0.05796;0.05717;-0.11899;,
 0.40664;0.20491;0.06628;,
 0.20789;0.40463;0.96737;,
 0.25369;-0.18236;0.01200;,
 0.40664;0.20491;0.06628;,
 -0.21274;0.10054;0.75441;,
 0.05796;0.05717;-0.11899;,
 0.25369;-0.18236;0.01200;,
 0.16753;0.07104;0.97242;,
 0.25369;-0.18236;0.01200;,
 0.20789;0.40463;0.96737;,
 -0.21274;0.10054;0.75441;,
 0.25369;-0.18236;0.01200;,
 0.16753;0.07104;0.97242;,
 0.40664;0.20491;0.06628;,
 0.05796;0.05717;-0.11899;,
 0.12992;0.34141;-0.10199;,
 -0.09804;0.50667;0.78543;,
 0.20789;0.40463;0.96737;,
 0.40664;0.20491;0.06628;,
 -0.09804;0.50667;0.78543;,
 -0.09804;0.50667;0.78543;,
 0.05796;0.05717;-0.11899;,
 -0.21274;0.10054;0.75441;,
 0.12992;0.34141;-0.10199;,
 -2.27285;2.43604;-0.52097;,
 -2.36560;2.09801;-0.27721;,
 -4.10674;2.59076;0.03166;,
 -4.10674;2.59076;0.03166;,
 -2.21388;2.65093;0.01487;,
 -2.27285;2.43604;-0.52097;,
 -2.33448;2.21145;0.18046;,
 -2.21388;2.65093;0.01487;,
 -4.10674;2.59076;0.03166;,
 -2.36560;2.09801;-0.27721;,
 -2.33448;2.21145;0.18046;,
 -4.10674;2.59076;0.03166;,
 -1.50715;1.71169;-0.11889;,
 -0.48292;1.74278;-0.48188;,
 -0.39810;1.62934;-0.02422;,
 -1.48729;1.78408;-0.61564;,
 -1.48729;1.78408;-0.61564;,
 -0.24189;2.18226;-0.31629;,
 -0.48292;1.74278;-0.48188;,
 -1.38656;2.15118;-0.61564;,
 -2.27285;2.43604;-0.52097;,
 -1.38226;2.16685;-0.01655;,
 -0.24189;2.18226;-0.31629;,
 -1.38656;2.15118;-0.61564;,
 -0.11689;1.94684;0.03442;,
 -1.50715;1.71169;-0.11889;,
 -0.11689;1.94684;0.03442;,
 -1.38226;2.16685;-0.01655;,
 -0.39810;1.62934;-0.02422;,
 -1.50715;1.71169;-0.11889;,
 1.47401;0.99377;0.81053;,
 0.64826;1.02485;0.28000;,
 0.92626;0.91142;-0.01580;,
 1.18210;1.06616;1.14403;,
 1.99247;1.38009;1.68985;,
 1.79053;1.71811;1.77930;,
 1.18210;1.06616;1.14403;,
 1.11088;1.43325;1.05399;,
 1.79053;1.71811;1.77930;,
 1.44293;1.44893;0.62653;,
 0.65560;1.46434;0.05511;,
 1.11088;1.43325;1.05399;,
 1.79053;1.71811;1.77930;,
 2.04856;1.93301;1.34770;,
 0.89745;1.22892;-0.13514;,
 1.47401;0.99377;0.81053;,
 0.89745;1.22892;-0.13514;,
 1.44293;1.44893;0.62653;,
 0.92626;0.91142;-0.01580;,
 -0.13136;3.91041;-0.14972;,
 0.21336;4.08179;-0.19020;,
 0.17125;3.81515;-0.09994;,
 -0.01704;4.27950;-0.27157;,
 0.21336;4.08179;-0.19020;,
 -0.13136;3.91041;-0.14972;,
 0.07730;3.88431;0.79764;,
 -0.25167;3.94511;0.75838;,
 -0.25167;3.94511;0.75838;,
 -0.24798;4.25340;0.65154;,
 0.14979;4.26656;0.66892;,
 -0.01704;4.27950;-0.27157;,
 -0.24798;4.25340;0.65154;,
 0.21336;4.08179;-0.19020;,
 0.07730;3.88431;0.79764;,
 0.21336;4.08179;-0.19020;,
 0.14979;4.26656;0.66892;,
 0.17125;3.81515;-0.09994;,
 -0.21761;4.49263;1.59506;,
 -0.05922;4.20875;1.70238;,
 0.08199;4.62257;3.56045;,
 0.08199;4.62257;3.56045;,
 0.14019;4.67310;1.55215;,
 -0.21761;4.49263;1.59506;,
 0.24566;4.30402;1.68613;,
 0.14019;4.67310;1.55215;,
 0.08199;4.62257;3.56045;,
 -0.05922;4.20875;1.70238;,
 0.24566;4.30402;1.68613;,
 0.08199;4.62257;3.56045;,
 -0.25167;3.94511;0.75838;,
 0.07730;3.88431;0.79764;,
 -0.25167;3.94511;0.75838;,
 -0.24798;4.25340;0.65154;,
 -0.21761;4.49263;1.59506;,
 0.14979;4.26656;0.66892;,
 -0.24798;4.25340;0.65154;,
 0.14979;4.26656;0.66892;,
 0.07730;3.88431;0.79764;,
 0.07730;3.88431;0.79764;,
 0.15981;3.30749;-0.76746;,
 -0.10659;3.47886;-1.04698;,
 -0.02633;3.21222;-1.07317;,
 0.01082;3.67657;-0.78349;,
 -0.10659;3.47886;-1.04698;,
 0.15981;3.30749;-0.76746;,
 0.54217;3.28138;-1.62387;,
 0.75282;3.34218;-1.30204;,
 0.75282;3.34218;-1.30204;,
 0.69045;3.65047;-1.22979;,
 0.41891;3.66363;-1.59765;,
 0.01082;3.67657;-0.78349;,
 0.69045;3.65047;-1.22979;,
 -0.10659;3.47886;-1.04698;,
 0.54217;3.28138;-1.62387;,
 -0.10659;3.47886;-1.04698;,
 0.41891;3.66363;-1.59765;,
 -0.02633;3.21222;-1.07317;,
 0.92009;3.70109;-2.40263;,
 0.41891;3.66363;-1.59765;,
 0.91973;4.07018;-2.21360;,
 0.54217;3.28138;-1.62387;,
 0.64826;1.02485;0.28000;,
 0.89745;1.22892;-0.13514;,
 0.92626;0.91142;-0.01580;,
 0.65560;1.46434;0.05511;,
 0.89745;1.22892;-0.13514;,
 0.64826;1.02485;0.28000;,
 1.18210;1.06616;1.14403;,
 1.11088;1.43325;1.05399;,
 0.21444;1.71524;-0.92781;,
 -0.08793;1.83994;-1.05721;,
 -0.03492;1.60003;-1.01708;,
 0.09375;2.04210;-1.00164;,
 -0.08793;1.83994;-1.05721;,
 0.21444;1.71524;-0.92781;,
 0.21357;1.46054;-1.73922;,
 0.48745;1.54668;-1.63794;,
 0.48745;1.54668;-1.63794;,
 0.21357;1.46054;-1.73922;,
 -0.03492;1.60003;-1.01708;,
 -0.08793;1.83994;-1.05721;,
 0.46417;1.82822;-1.66967;,
 0.09375;2.04210;-1.00164;,
 0.48745;1.54668;-1.63794;,
 0.12734;1.80333;-1.80071;,
 0.09375;2.04210;-1.00164;,
 0.46417;1.82822;-1.66967;,
 -0.08793;1.83994;-1.05721;,
 0.21357;1.46054;-1.73922;,
 -0.08793;1.83994;-1.05721;,
 0.12734;1.80333;-1.80071;,
 0.21444;1.71524;-0.92781;,
 -0.08793;1.83994;-1.05721;,
 -0.03492;1.60003;-1.01708;,
 0.09375;2.04210;-1.00164;,
 -0.08793;1.83994;-1.05721;,
 0.21444;1.71524;-0.92781;,
 0.21357;1.46054;-1.73922;,
 0.48745;1.54668;-1.63794;,
 0.48745;1.54668;-1.63794;,
 0.21357;1.46054;-1.73922;,
 -0.03492;1.60003;-1.01708;,
 -0.08793;1.83994;-1.05721;,
 0.46417;1.82822;-1.66967;,
 0.09375;2.04210;-1.00164;,
 0.48745;1.54668;-1.63794;,
 0.12734;1.80333;-1.80071;,
 0.09375;2.04210;-1.00164;,
 0.46417;1.82822;-1.66967;,
 -0.08793;1.83994;-1.05721;,
 0.21357;1.46054;-1.73922;,
 -0.08793;1.83994;-1.05721;,
 0.12734;1.80333;-1.80071;,
 0.48745;1.54668;-1.63794;,
 0.21357;1.46054;-1.73922;,
 0.49971;1.53603;-2.55172;,
 0.61492;1.81031;-2.52817;,
 0.48745;1.54668;-1.63794;,
 0.46417;1.82822;-1.66967;,
 0.61492;1.81031;-2.52817;,
 0.61492;1.81031;-2.52817;,
 0.12734;1.80333;-1.80071;,
 0.46417;1.82822;-1.66967;,
 0.30091;1.94211;-2.66274;,
 0.23596;1.59483;-2.66060;,
 0.12734;1.80333;-1.80071;,
 0.30091;1.94211;-2.66274;,
 0.21357;1.46054;-1.73922;,
 0.49971;1.53603;-2.55172;,
 0.21357;1.46054;-1.73922;,
 0.23596;1.59483;-2.66060;,
 0.92707;4.25335;5.28253;,
 1.38378;3.01168;-0.38607;,
 -0.63944;5.45989;-1.38698;,
 -0.67080;6.23453;4.58442;,
 0.27216;6.08189;4.79028;,
 0.81737;5.49692;-1.03281;,
 -1.07224;2.83204;-0.77419;,
 -1.25730;3.98750;5.09349;,
 -2.68820;5.67090;-2.91780;,
 0.46051;4.61916;-1.58402;,
 -0.38597;4.59760;1.30726;,
 -3.42100;5.65614;-0.64636;,
 -1.16479;5.17841;-1.06325;,
 -2.22183;5.53902;-1.36785;,
 -1.05820;5.38830;-1.17090;,
 -1.11408;5.51727;-0.83636;,
 -1.05820;5.38830;-1.17090;,
 -2.22183;5.53902;-1.36785;,
 -1.11408;5.51727;-0.83636;,
 -2.22183;5.53902;-1.36785;,
 -1.22557;5.24537;-0.78469;,
 -1.22557;5.24537;-0.78469;,
 -2.22183;5.53902;-1.36785;,
 -1.16479;5.17841;-1.06325;,
 -0.70299;4.90902;-0.73532;,
 -0.60060;4.95683;-1.01769;,
 -0.60060;4.95683;-1.01769;,
 -1.05820;5.38830;-1.17090;,
 -0.53223;5.18306;-0.98017;,
 -0.63653;5.18885;-0.62910;,
 -0.53223;5.18306;-0.98017;,
 -0.63653;5.18885;-0.62910;,
 -0.70299;4.90902;-0.73532;,
 -0.70299;4.90902;-0.73532;,
 -3.39572;5.30503;-1.03452;,
 -0.38228;4.21032;0.68709;,
 0.73604;6.02566;-0.80963;,
 -2.56252;6.77689;-2.23720;,
 -2.90738;6.65864;-1.44939;,
 0.19167;6.04706;0.40667;,
 0.41525;4.09314;-1.41656;,
 -2.77682;5.12645;-2.94570;,
 -5.51796;2.71054;-1.94030;,
 -0.13888;1.29487;-2.22564;,
 -0.07930;1.31420;2.70085;,
 -5.57221;2.72464;1.97950;,
 -5.68333;2.15112;1.39197;,
 -0.32542;0.67263;1.78438;,
 0.51137;3.58778;-1.31021;,
 -5.10939;4.51016;-1.04723;,
 -5.25413;4.32841;0.38153;,
 0.25375;3.63188;0.89899;,
 -0.08775;0.45873;-1.92925;,
 -5.61889;1.83457;-1.90280;,
 -2.17961;-1.62508;-4.99487;,
 -0.69697;-1.40537;-0.10576;,
 0.69285;1.02997;-1.06063;,
 -1.11746;0.31700;-5.83268;,
 -1.88817;0.06688;-5.46950;,
 -0.56221;0.86318;-0.60428;,
 1.38337;-1.26974;-1.00071;,
 -0.35226;-1.62868;-5.87944;,
 -2.47426;1.43468;4.43778;,
 -0.71762;1.17436;-1.35485;,
 0.92904;-1.71104;-0.22350;,
 -1.21582;-0.86630;5.43042;,
 -0.83472;10.34516;-1.90499;,
 -0.02889;2.92238;-3.58754;,
 -0.98538;2.04209;2.92079;,
 -1.64500;9.77377;3.28694;,
 -2.08140;9.76358;2.76287;,
 -1.50297;2.22870;1.95377;,
 3.17480;2.93703;-1.09381;,
 1.64232;10.45761;0.39688;,
 4.28594;0.21410;-4.71749;,
 -0.18750;-0.15389;-2.18831;,
 1.27329;0.17283;1.72801;,
 5.52288;0.50392;-1.65185;,
 2.28516;-0.04835;-1.80354;,
 3.80919;0.05789;-2.45336;,
 2.24200;-0.37331;-1.96961;,
 2.42477;-0.52947;-1.53003;,
 2.24200;-0.37331;-1.96961;,
 3.80919;0.05789;-2.45336;,
 2.42477;-0.52947;-1.53003;,
 3.80919;0.05789;-2.45336;,
 2.43483;-0.11802;-1.43355;,
 2.43483;-0.11802;-1.43355;,
 3.80919;0.05789;-2.45336;,
 2.28516;-0.04835;-1.80354;,
 0.83481;-0.26068;-1.08056;,
 0.96366;-0.12418;-0.72820;,
 1.58607;0.04109;-1.22965;,
 1.44156;-0.06096;-1.61605;,
 1.44156;-0.06096;-1.61605;,
 0.92552;-0.64795;-0.91569;,
 0.83481;-0.26068;-1.08056;,
 1.47524;-0.39454;-1.58748;,
 2.24200;-0.37331;-1.96961;,
 0.92552;-0.64795;-0.91569;,
 1.47524;-0.39454;-1.58748;,
 1.65898;-0.36505;-1.11348;,
 1.01064;-0.40842;-0.65723;,
 1.01064;-0.40842;-0.65723;,
 1.65898;-0.36505;-1.11348;,
 1.58607;0.04109;-1.22965;,
 0.96366;-0.12418;-0.72820;,
 1.58607;0.04109;-1.22965;,
 5.25734;0.96910;-2.13716;,
 0.98726;0.70878;0.92004;,
 0.28590;-2.17662;-1.27702;,
 4.78575;-1.33189;-3.91503;,
 5.27384;-1.03555;-2.84874;,
 1.16125;-1.97901;0.33590;,
 -0.38112;0.54809;-1.88011;,
 4.11407;0.97335;-4.68680;,
 -0.57051;1.94684;0.03442;,
 -0.65764;1.62934;-0.02422;,
 -0.62651;1.74278;-0.48188;,
 -0.57051;1.94684;0.03442;,
 -0.62651;1.74278;-0.48188;,
 -0.50591;2.18226;-0.31629;,
 1.05428;10.32755;1.54757;,
 2.65700;2.92004;1.19323;,
 -0.89922;2.44567;-3.75531;,
 -1.77320;10.08771;-2.40960;,
 0.74824;-2.68323;-0.70780;,
 0.14872;-2.68323;-0.15716;,
 0.14872;-2.68323;-1.14219;,
 0.88977;-2.68323;0.14723;,
 0.14872;-2.68323;-0.15716;,
 0.74824;-2.68323;-0.70780;,
 0.60671;-2.68323;0.63975;,
 0.14872;-2.68323;-0.15716;,
 0.14872;-2.68323;0.82787;,
 0.14872;-2.68323;-0.15716;,
 -0.45081;-2.68323;0.39349;,
 0.14872;-2.68323;-0.15716;,
 -0.59234;-2.68323;-0.46155;,
 0.14872;-2.68323;-0.15716;,
 -0.45081;-2.68323;0.39349;,
 -0.30928;-2.68323;-0.95406;,
 0.14872;-2.68323;-0.15716;,
 0.14872;-2.68323;-1.14219;,
 0.14872;-2.68323;-0.15716;,
 -0.17673;3.72075;-1.06486;,
 0.03239;7.48363;0.05885;,
 0.55099;3.72075;-1.03330;,
 0.55099;3.72075;-1.03330;,
 0.03239;7.48363;0.05885;,
 0.55099;3.72075;-0.29434;,
 0.55099;3.72075;-0.29434;,
 0.03239;7.48363;0.05885;,
 -0.05242;3.72075;-0.14861;,
 -0.05242;3.72075;-0.14861;,
 0.03239;7.48363;0.05885;,
 -0.17673;3.72075;-1.06486;,
 0.60671;1.37009;-0.95406;,
 -0.08028;1.37009;-1.04812;,
 0.88977;1.37009;-0.46155;,
 0.88977;1.37009;0.14723;,
 0.60671;1.37009;0.63975;,
 0.14872;1.37009;0.82787;,
 -0.05242;3.72075;-0.14861;,
 -0.45081;1.37009;0.39349;,
 -0.59234;1.37009;-0.46155;,
 -0.45081;1.37009;0.39349;,
 -0.08028;1.37009;-1.04812;,
 0.99040;-0.75848;-1.25154;,
 0.16187;-0.75848;-1.59186;,
 0.99040;-0.75848;-1.25154;,
 1.13192;-0.75848;-0.39650;,
 0.84887;-0.75848;0.09601;,
 0.39087;-0.75848;0.28414;,
 -0.06713;-0.75848;0.09601;,
 -0.35019;-0.75848;-0.39650;,
 -0.35019;-0.75848;-1.00529;,
 0.16187;-0.75848;-1.59186;,
 0.16187;-0.75848;-1.59186;,
 -0.31695;8.59113;-4.28723;,
 -0.54410;7.67788;0.40396;,
 1.30490;5.72755;-0.08231;,
 1.17081;7.07069;-4.75611;,
 0.47521;8.84578;-4.30151;,
 0.70676;7.83957;0.41674;,
 -0.80860;5.54134;0.05766;,
 -0.71419;6.98519;-4.51136;,
 1.12222;7.68651;-4.69205;,
 1.40536;6.35013;-0.16928;,
 -1.37667;5.89093;0.33672;,
 -1.09139;7.32710;-4.37488;;
 
 373;
 4;0,1,2,3;,
 4;4,5,6,7;,
 4;8,9,10,11;,
 4;12,13,14,15;,
 4;16,17,18,19;,
 4;20,21,22,23;,
 4;24,25,26,27;,
 4;28,29,30,31;,
 4;32,33,34,35;,
 4;36,37,38,39;,
 4;40,41,42,43;,
 4;44,45,46,47;,
 4;48,49,50,51;,
 3;52,53,54;,
 3;55,56,57;,
 3;58,59,60;,
 3;61,62,63;,
 3;64,65,53;,
 3;52,66,53;,
 3;67,66,68;,
 3;57,69,70;,
 3;56,69,57;,
 3;61,71,62;,
 3;72,73,74;,
 3;75,76,77;,
 3;78,79,80;,
 3;81,82,83;,
 3;78,84,79;,
 3;85,84,78;,
 3;81,86,82;,
 3;87,88,89;,
 3;90,91,92;,
 3;93,94,95;,
 3;96,97,98;,
 3;99,100,101;,
 3;102,103,104;,
 3;105,99,101;,
 3;106,99,105;,
 3;107,102,104;,
 3;108,102,107;,
 3;109,110,111;,
 3;109,112,110;,
 3;113,114,115;,
 3;113,116,114;,
 3;117,118,119;,
 3;120,121,122;,
 3;123,124,125;,
 3;126,127,128;,
 3;129,130,118;,
 3;117,131,118;,
 3;132,131,133;,
 3;122,134,135;,
 3;121,134,122;,
 3;123,136,124;,
 3;137,136,123;,
 3;126,138,127;,
 3;139,140,141;,
 3;142,143,144;,
 3;145,139,141;,
 3;146,139,145;,
 3;147,142,144;,
 3;148,142,147;,
 3;149,150,151;,
 3;149,152,150;,
 3;153,154,155;,
 3;153,156,154;,
 3;157,158,159;,
 3;160,161,159;,
 3;162,161,163;,
 3;164,165,166;,
 3;167,165,164;,
 3;168,169,170;,
 3;171,169,168;,
 3;172,173,174;,
 3;175,176,177;,
 3;178,179,180;,
 3;181,182,183;,
 3;184,185,186;,
 3;187,188,189;,
 3;190,191,192;,
 3;193,194,195;,
 3;196,197,198;,
 3;199,200,201;,
 3;202,203,204;,
 3;205,202,204;,
 3;206,207,208;,
 3;209,210,211;,
 3;209,212,210;,
 3;213,214,215;,
 3;216,217,218;,
 3;219,220,221;,
 3;222,223,224;,
 3;225,226,227;,
 3;228,226,225;,
 3;228,225,214;,
 3;213,229,214;,
 3;229,230,231;,
 3;232,230,229;,
 3;232,229,233;,
 3;234,235,236;,
 3;218,234,236;,
 3;217,234,218;,
 3;234,237,235;,
 3;238,239,240;,
 3;219,240,220;,
 3;238,240,219;,
 3;238,241,239;,
 3;222,242,223;,
 3;243,244,245;,
 3;246,244,243;,
 3;246,243,247;,
 3;248,249,247;,
 3;250,249,251;,
 3;252,253,254;,
 3;255,252,254;,
 3;256,252,255;,
 3;252,257,253;,
 3;258,259,260;,
 3;258,261,259;,
 3;262,263,264;,
 3;265,266,267;,
 3;268,262,264;,
 3;269,262,268;,
 3;270,265,267;,
 3;271,265,270;,
 3;272,273,274;,
 3;272,275,273;,
 3;276,277,278;,
 3;276,279,277;,
 3;280,281,282;,
 3;283,284,285;,
 3;286,287,288;,
 3;289,290,291;,
 3;292,293,281;,
 3;280,294,281;,
 3;295,294,296;,
 3;285,297,298;,
 3;284,297,285;,
 3;286,299,287;,
 3;300,299,286;,
 3;289,301,290;,
 3;302,303,304;,
 3;305,306,307;,
 3;308,302,304;,
 3;309,302,308;,
 3;310,305,307;,
 3;311,305,310;,
 3;312,313,314;,
 3;312,315,313;,
 3;316,317,318;,
 3;316,319,317;,
 3;320,321,322;,
 3;323,321,320;,
 3;324,325,326;,
 3;327,328,329;,
 3;330,327,329;,
 3;331,327,330;,
 3;332,333,334;,
 3;335,336,337;,
 3;338,332,334;,
 3;339,332,338;,
 3;340,335,337;,
 3;341,342,343;,
 3;344,345,346;,
 3;347,348,349;,
 3;347,350,348;,
 3;351,352,353;,
 3;354,355,356;,
 3;357,358,359;,
 3;360,354,356;,
 3;361,354,360;,
 3;362,357,359;,
 3;363,364,365;,
 3;366,367,368;,
 3;369,370,371;,
 3;369,372,370;,
 3;373,374,375;,
 3;376,377,378;,
 3;379,380,378;,
 3;381,380,382;,
 3;383,384,385;,
 3;386,384,383;,
 3;387,388,389;,
 3;390,388,387;,
 3;391,392,393;,
 4;394,395,396,397;,
 4;397,396,395,394;,
 4;398,399,400,401;,
 4;401,400,399,398;,
 4;402,403,404,405;,
 4;405,404,403,402;,
 3;406,407,408;,
 3;409,410,411;,
 3;412,413,414;,
 3;415,416,417;,
 3;418,406,419;,
 3;420,406,408;,
 3;420,421,422;,
 3;423,424,410;,
 3;423,410,409;,
 3;425,412,414;,
 3;425,414,426;,
 3;427,415,417;,
 4;428,429,430,431;,
 4;431,430,429,428;,
 4;432,433,434,435;,
 4;435,434,433,432;,
 4;436,437,438,439;,
 4;439,438,437,436;,
 4;440,441,442,443;,
 4;443,442,441,440;,
 4;444,445,446,447;,
 4;447,446,445,444;,
 4;448,449,450,451;,
 4;452,453,454,455;,
 4;455,454,453,452;,
 4;456,457,458,459;,
 4;394,395,396,397;,
 4;398,399,400,401;,
 4;402,403,404,405;,
 3;408,407,406;,
 3;411,410,409;,
 3;414,413,412;,
 3;417,416,415;,
 3;419,406,418;,
 3;408,406,420;,
 3;422,421,420;,
 3;410,424,423;,
 3;409,410,423;,
 3;414,412,425;,
 3;426,414,425;,
 3;417,415,427;,
 4;428,429,430,431;,
 4;432,433,434,435;,
 4;436,437,438,439;,
 4;440,441,442,443;,
 4;444,445,446,447;,
 4;451,450,449,448;,
 4;452,453,454,455;,
 4;459,458,457,456;,
 4;460,461,462,463;,
 4;463,462,461,460;,
 4;460,461,462,463;,
 4;463,462,461,460;,
 4;464,465,466,467;,
 4;467,466,465,464;,
 4;464,465,466,467;,
 4;468,469,470,471;,
 4;471,470,469,468;,
 3;472,473,474;,
 3;475,476,477;,
 3;478,479,480;,
 3;481,482,483;,
 3;484,485,486;,
 3;484,486,487;,
 3;486,472,487;,
 3;488,472,474;,
 3;489,490,488;,
 3;489,488,491;,
 3;488,492,491;,
 3;493,494,495;,
 3;495,494,476;,
 3;495,476,475;,
 3;496,493,495;,
 3;497,498,499;,
 3;498,478,480;,
 3;498,480,499;,
 3;500,497,499;,
 3;501,481,483;,
 4;502,503,504,505;,
 4;506,507,508,509;,
 4;509,508,507,506;,
 4;468,469,470,471;,
 3;474,473,472;,
 3;477,476,475;,
 3;480,479,478;,
 3;483,482,481;,
 3;486,485,484;,
 3;487,486,484;,
 3;487,472,486;,
 3;474,472,488;,
 3;488,490,489;,
 3;491,488,489;,
 3;491,492,488;,
 3;495,494,493;,
 3;476,494,495;,
 3;475,476,495;,
 3;495,493,496;,
 3;499,498,497;,
 3;480,478,498;,
 3;499,480,498;,
 3;499,497,500;,
 3;483,481,501;,
 4;505,504,503,502;,
 4;506,507,508,509;,
 3;510,511,512;,
 3;513,514,515;,
 3;512,511,510;,
 3;515,514,513;,
 4;516,517,518,519;,
 4;23,22,21,20;,
 4;27,26,25,24;,
 4;19,18,17,16;,
 4;35,34,33,32;,
 4;39,38,37,36;,
 4;31,30,29,28;,
 4;11,10,9,8;,
 4;15,14,13,12;,
 4;7,6,5,4;,
 4;47,46,45,44;,
 4;51,50,49,48;,
 3;520,521,522;,
 3;523,524,525;,
 3;526,527,523;,
 3;528,529,526;,
 3;530,531,528;,
 3;532,533,534;,
 3;535,536,532;,
 3;537,538,535;,
 3;539,540,541;,
 3;542,543,544;,
 3;545,546,547;,
 3;548,549,550;,
 3;551,552,539;,
 3;551,539,541;,
 3;553,551,541;,
 3;554,553,542;,
 3;554,542,544;,
 3;555,554,544;,
 3;547,556,555;,
 3;547,555,545;,
 3;557,558,556;,
 3;559,560,548;,
 3;559,548,550;,
 3;561,559,550;,
 3;562,520,522;,
 3;562,522,563;,
 3;562,563,552;,
 3;562,552,551;,
 3;564,551,553;,
 3;565,523,525;,
 3;565,525,564;,
 3;565,564,553;,
 3;565,553,554;,
 3;566,526,523;,
 3;566,523,565;,
 3;566,565,554;,
 3;566,554,555;,
 3;567,528,526;,
 3;567,526,566;,
 3;567,566,555;,
 3;567,555,556;,
 3;568,530,528;,
 3;568,528,567;,
 3;568,567,556;,
 3;568,556,558;,
 3;569,530,568;,
 3;569,568,558;,
 3;570,532,534;,
 3;570,534,569;,
 3;570,569,560;,
 3;570,560,559;,
 3;571,535,532;,
 3;571,532,570;,
 3;571,570,559;,
 3;571,559,561;,
 3;572,537,535;,
 4;573,574,575,576;,
 4;576,575,574,573;,
 4;577,578,579,580;,
 4;580,579,578,577;,
 4;581,582,583,584;,
 4;584,583,582,581;;
 
 MeshMaterialList {
  3;
  373;
  1,
  1,
  1,
  1,
  1,
  1,
  1,
  1,
  1,
  1,
  1,
  1,
  1,
  0,
  0,
  0,
  0,
  0,
  0,
  0,
  0,
  0,
  0,
  0,
  0,
  0,
  0,
  0,
  0,
  0,
  0,
  0,
  0,
  0,
  0,
  0,
  0,
  0,
  0,
  0,
  0,
  0,
  0,
  0,
  0,
  0,
  0,
  0,
  0,
  0,
  0,
  0,
  0,
  0,
  0,
  0,
  0,
  0,
  0,
  0,
  0,
  0,
  0,
  0,
  0,
  0,
  0,
  0,
  0,
  0,
  0,
  0,
  0,
  0,
  0,
  0,
  0,
  0,
  0,
  0,
  0,
  0,
  0,
  0,
  0,
  0,
  0,
  0,
  0,
  0,
  0,
  0,
  0,
  0,
  0,
  0,
  0,
  0,
  0,
  0,
  0,
  0,
  0,
  0,
  0,
  0,
  0,
  0,
  0,
  0,
  0,
  0,
  0,
  0,
  0,
  0,
  0,
  0,
  0,
  0,
  0,
  0,
  0,
  0,
  0,
  0,
  0,
  0,
  0,
  0,
  0,
  0,
  0,
  0,
  0,
  0,
  0,
  0,
  0,
  0,
  0,
  0,
  0,
  0,
  0,
  0,
  0,
  0,
  0,
  0,
  0,
  0,
  0,
  0,
  0,
  0,
  0,
  0,
  0,
  0,
  0,
  0,
  0,
  0,
  0,
  0,
  0,
  0,
  0,
  0,
  0,
  0,
  0,
  0,
  0,
  0,
  0,
  0,
  0,
  0,
  0,
  0,
  0,
  0,
  0,
  1,
  1,
  1,
  1,
  1,
  1,
  0,
  0,
  0,
  0,
  0,
  0,
  0,
  0,
  0,
  0,
  0,
  0,
  1,
  1,
  1,
  1,
  1,
  1,
  1,
  1,
  1,
  1,
  1,
  1,
  1,
  1,
  1,
  1,
  1,
  0,
  0,
  0,
  0,
  0,
  0,
  0,
  0,
  0,
  0,
  0,
  0,
  1,
  1,
  1,
  1,
  1,
  1,
  1,
  1,
  1,
  1,
  1,
  1,
  1,
  1,
  1,
  1,
  1,
  0,
  0,
  0,
  0,
  0,
  0,
  0,
  0,
  0,
  0,
  0,
  0,
  0,
  0,
  0,
  0,
  0,
  0,
  0,
  0,
  1,
  1,
  1,
  1,
  0,
  0,
  0,
  0,
  0,
  0,
  0,
  0,
  0,
  0,
  0,
  0,
  0,
  0,
  0,
  0,
  0,
  0,
  0,
  0,
  1,
  1,
  0,
  0,
  0,
  0,
  1,
  1,
  1,
  1,
  1,
  1,
  1,
  1,
  1,
  1,
  1,
  1,
  0,
  0,
  0,
  0,
  0,
  0,
  0,
  0,
  0,
  0,
  0,
  0,
  0,
  0,
  0,
  0,
  0,
  0,
  0,
  0,
  0,
  0,
  0,
  0,
  0,
  0,
  0,
  0,
  0,
  0,
  0,
  0,
  0,
  0,
  0,
  0,
  0,
  0,
  0,
  0,
  0,
  0,
  0,
  0,
  0,
  0,
  0,
  0,
  0,
  0,
  0,
  0,
  0,
  0,
  0,
  0,
  1,
  1,
  1,
  1,
  1,
  1;;
  Material {
   0.800000;0.800000;0.800000;1.000000;;
   6.000000;
   1.000000;1.000000;1.000000;;
   0.000000;0.000000;0.000000;;
   TextureFilename {
    "Data\\Graphics\\XFileTexture\\BarkDecidious0099_1_S.jpg";
   }
  }
  Material {
   0.800000;0.800000;0.800000;1.000000;;
   5.000000;
   0.280000;0.280000;0.280000;;
   0.000000;0.000000;0.000000;;
   TextureFilename {
    "Data\\Graphics\\XFileTexture\\Branches0002_S.png";
   }
  }
  Material {
   1.000000;0.878000;0.255000;1.000000;;
   15.080000;
   1.000000;1.000000;1.000000;;
   0.910000;0.798980;0.232050;;
   TextureFilename {
    "Data\\Graphics\\XFileTexture\\GorldApple.png";
   }
  }
 }
 MeshNormals {
  413;
  -0.006682;-0.979516;0.201254;,
  0.183462;-0.973335;-0.137697;,
  -0.650020;0.642365;-0.406005;,
  0.497613;0.623354;0.603168;,
  0.182289;-0.973316;0.139381;,
  0.501961;0.666203;-0.551551;,
  -0.702108;0.590826;0.397454;,
  0.074002;-0.994091;0.079417;,
  -0.796606;0.546516;-0.258340;,
  0.736461;0.663444;0.132163;,
  0.121563;-0.992378;0.020189;,
  0.121564;0.992378;-0.020188;,
  0.675752;-0.676694;0.292307;,
  0.801983;-0.448796;0.394215;,
  0.640474;-0.766540;0.047007;,
  0.854147;-0.277861;0.439576;,
  0.161767;0.899465;0.405949;,
  -0.716252;0.317560;-0.621401;,
  0.268284;-0.925408;-0.267664;,
  0.813585;-0.493650;0.307230;,
  0.803930;0.023373;0.594265;,
  -0.112411;0.921956;0.370622;,
  -0.505218;-0.489833;0.710506;,
  -0.301387;0.913142;0.274478;,
  0.706564;0.119413;-0.697502;,
  0.659924;-0.242442;-0.711141;,
  0.671874;0.016102;-0.740491;,
  0.908069;-0.393705;0.142853;,
  0.439229;0.884212;-0.158895;,
  -0.935964;0.173168;-0.306568;,
  0.906847;-0.319650;0.274688;,
  0.906847;-0.319650;0.274688;,
  0.906847;-0.319649;0.274688;,
  0.005261;-0.975703;-0.219033;,
  0.001507;-0.986052;-0.166433;,
  0.676210;-0.082956;-0.732023;,
  -0.015822;0.947668;0.318865;,
  0.828973;-0.408083;-0.382454;,
  0.661567;-0.649412;-0.374957;,
  0.860593;-0.248705;-0.444438;,
  0.305286;0.934361;-0.183764;,
  -0.918345;0.030126;0.394633;,
  -0.002032;-0.996106;-0.088138;,
  0.754948;-0.506064;-0.417076;,
  0.910061;0.104046;-0.401203;,
  0.166479;0.986035;0.004402;,
  0.491804;0.072628;0.867672;,
  0.491806;0.072635;0.867670;,
  0.491802;0.072621;0.867673;,
  0.421633;-0.902960;0.083004;,
  0.377715;-0.918090;0.120173;,
  0.985866;0.117483;-0.119443;,
  -0.489298;0.871765;-0.024786;,
  0.294037;0.918541;0.264243;,
  0.866769;0.162813;0.471384;,
  0.395901;-0.918293;-0.000024;,
  -0.887705;0.043261;-0.458375;,
  -0.002031;0.996106;0.088137;,
  0.754947;0.506065;0.417077;,
  0.910060;-0.104045;0.401205;,
  0.166479;-0.986035;-0.004400;,
  0.828973;0.408084;0.382453;,
  0.201784;-0.910952;0.359791;,
  -0.950471;-0.171841;-0.258989;,
  0.491809;-0.072616;-0.867670;,
  0.878998;-0.386322;0.279496;,
  -0.708636;-0.680660;-0.185842;,
  0.985866;-0.117483;0.119441;,
  -0.206845;-0.950417;0.232211;,
  0.491813;-0.072632;-0.867666;,
  0.464059;0.884633;-0.045538;,
  0.377709;0.918092;-0.120175;,
  -0.925188;0.251228;-0.284449;,
  -0.919130;0.265892;-0.290692;,
  -0.912804;0.280478;-0.296850;,
  -0.036931;-0.981425;-0.188256;,
  0.199562;0.108004;-0.973915;,
  -0.052413;-0.971519;-0.231091;,
  0.125708;0.843856;0.521636;,
  -0.287629;-0.507012;-0.812532;,
  -0.449245;-0.783213;-0.429833;,
  -0.293018;-0.319296;-0.901216;,
  0.218621;0.897144;-0.383846;,
  0.135113;0.134138;0.981708;,
  -0.231393;-0.970146;-0.072624;,
  -0.317131;-0.862250;-0.394910;,
  0.079596;-0.021841;-0.996588;,
  0.233234;0.972086;0.025490;,
  -0.141427;-0.976451;0.162915;,
  0.196809;0.949188;-0.245579;,
  -0.170534;-0.962929;0.209011;,
  0.374356;0.784329;-0.494657;,
  -0.130810;-0.762990;0.633036;,
  -0.582855;-0.218640;0.782609;,
  -0.630922;0.775793;0.009090;,
  -0.047508;-0.974270;0.220320;,
  -0.128836;-0.875376;0.465959;,
  -0.734173;0.023985;0.678539;,
  -0.139062;0.976012;-0.167516;,
  0.052071;-0.327563;-0.943394;,
  0.052072;-0.327565;-0.943393;,
  0.052070;-0.327561;-0.943394;,
  -0.245242;-0.969077;0.027312;,
  -0.183248;-0.982977;0.013275;,
  -0.967029;-0.072975;-0.243988;,
  0.343536;0.937910;-0.048035;,
  -0.886533;-0.432720;0.163748;,
  -0.720307;-0.637053;0.274447;,
  -0.948259;-0.272222;0.163403;,
  -0.460200;0.867810;-0.187409;,
  0.992912;0.107350;-0.051006;,
  0.045277;-0.938151;0.343253;,
  -0.824794;-0.510508;0.243099;,
  -0.999416;0.021248;0.026777;,
  -0.244179;0.915308;-0.320293;,
  -0.775231;-0.288527;0.561934;,
  -0.775231;-0.288528;0.561933;,
  -0.775230;-0.288525;0.561935;,
  0.198700;-0.972885;0.118373;,
  0.141800;-0.985484;0.093353;,
  0.544611;-0.085352;0.834335;,
  -0.291786;0.942795;-0.161241;,
  -0.825837;0.256424;-0.502235;,
  -0.849122;0.014082;-0.528009;,
  -0.821514;-0.229104;-0.522136;,
  -0.750306;-0.291170;-0.593515;,
  -0.750306;-0.291170;-0.593515;,
  -0.750307;-0.291170;-0.593515;,
  -0.881423;0.098073;0.462033;,
  -0.908243;-0.075261;0.411619;,
  -0.366321;0.074222;0.927524;,
  -0.366318;0.074230;0.927524;,
  -0.366324;0.074214;0.927523;,
  0.251909;-0.923408;0.289584;,
  0.186091;-0.937491;0.294075;,
  0.884103;0.123881;0.450572;,
  -0.930790;0.233803;-0.281008;,
  -0.926093;-0.278608;-0.254419;,
  -0.353339;0.892156;-0.281442;,
  0.414697;-0.908860;-0.044726;,
  0.984071;-0.149153;0.096737;,
  0.300390;0.930354;0.210257;,
  -0.992508;-0.037649;-0.116238;,
  0.070824;-0.995201;-0.067520;,
  0.867430;-0.491122;0.079781;,
  0.980326;0.100223;0.170050;,
  0.122485;0.988237;0.091572;,
  0.786035;0.613844;-0.073102;,
  -0.811912;0.567842;-0.135479;,
  -0.277724;-0.956232;-0.092137;,
  0.247633;-0.414636;-0.875645;,
  -0.259384;-0.775086;-0.576161;,
  0.122199;-0.300195;-0.946018;,
  0.405738;0.873507;-0.269001;,
  -0.311763;0.108592;0.943934;,
  -0.448612;-0.888336;-0.098012;,
  -0.232759;-0.725775;-0.647359;,
  0.356666;0.046967;-0.933051;,
  0.484779;0.872842;-0.055990;,
  -0.157638;0.680516;0.715575;,
  0.490107;0.626999;-0.605530;,
  -0.252030;-0.967713;0.003387;,
  0.143840;0.697385;0.702114;,
  0.154949;0.651469;-0.742684;,
  -0.808803;0.543992;0.223405;,
  0.675753;0.676694;-0.292308;,
  -0.808803;-0.543992;-0.223405;,
  -0.984616;-0.074105;-0.158242;,
  0.546407;-0.050683;0.835985;,
  -0.110090;0.992875;-0.045611;,
  -0.393902;0.906977;-0.149108;,
  -0.639020;-0.288819;-0.712908;,
  -0.399175;0.894659;-0.200608;,
  0.425737;-0.729265;0.535650;,
  -0.495304;0.333763;-0.802045;,
  -0.126822;0.840719;-0.526410;,
  -0.353750;0.281616;-0.891938;,
  -0.090120;-0.949708;-0.299890;,
  0.454327;-0.035668;0.890121;,
  -0.168533;0.979307;-0.112048;,
  -0.239947;0.866285;-0.438150;,
  -0.602321;-0.128286;-0.787878;,
  0.139237;-0.986756;0.083225;,
  0.488111;-0.597430;0.636259;,
  -0.308848;-0.729786;-0.609939;,
  0.964351;-0.264625;-0.000002;,
  0.964352;-0.264623;-0.000003;,
  0.964351;-0.264628;-0.000001;,
  0.789786;0.195999;-0.581225;,
  0.332237;0.909680;0.249200;,
  0.038980;0.940457;0.337671;,
  -0.048762;-0.951068;-0.305111;,
  0.033777;-0.929152;-0.368152;,
  -0.202413;0.961891;0.183834;,
  0.694772;0.295092;-0.655905;,
  0.745946;0.314353;-0.587151;,
  0.447753;-0.894107;0.009502;,
  0.373259;-0.926352;-0.050501;,
  0.517684;-0.852752;0.069409;,
  -0.225909;-0.973916;0.021268;,
  0.009000;-0.962537;-0.271001;,
  0.629804;0.109919;-0.768938;,
  0.557754;0.298318;-0.774543;,
  0.029287;0.999541;-0.007801;,
  -0.059167;0.790192;0.609997;,
  -0.534400;-0.168492;0.828267;,
  -0.529312;-0.188296;0.827269;,
  -0.539265;-0.148618;0.828919;,
  0.201778;0.910954;-0.359789;,
  0.181335;0.975916;-0.121269;,
  -0.926836;0.179978;0.329520;,
  -0.950472;0.171837;0.258990;,
  -0.196357;-0.979025;0.054356;,
  -0.152192;-0.979080;0.135054;,
  -0.072467;0.997334;0.008526;,
  -0.887705;-0.043263;0.458375;,
  -0.826980;-0.271179;0.492510;,
  0.464059;-0.884633;0.045541;,
  0.945440;0.255415;-0.202252;,
  0.879000;0.386318;-0.279495;,
  -0.206846;0.950417;-0.232213;,
  -0.956001;0.055922;0.287983;,
  -0.919132;-0.265886;0.290692;,
  -0.912804;-0.280476;0.296852;,
  -0.925191;-0.251219;0.284448;,
  -0.072471;-0.997334;-0.008525;,
  -0.898010;-0.187115;-0.398203;,
  -0.826979;0.271181;-0.492512;,
  -0.238857;0.970685;0.026802;,
  -0.152189;0.979081;-0.135054;,
  -0.032798;0.928887;-0.368909;,
  0.251363;0.930490;-0.266467;,
  0.102555;0.325952;0.939807;,
  -0.002930;0.353280;0.935513;,
  -0.222636;-0.942623;0.248787;,
  -0.330959;-0.910426;0.248174;,
  0.100407;0.081492;-0.991604;,
  0.138046;0.282006;-0.949429;,
  0.055119;0.964232;0.259265;,
  0.143386;0.989301;-0.026912;,
  0.005894;-0.189998;0.981767;,
  -0.083161;-0.150572;0.985095;,
  0.109882;-0.058329;0.992232;,
  -0.092086;-0.101380;0.990577;,
  -0.123788;0.990503;-0.059840;,
  -0.447595;0.891240;-0.073147;,
  0.828321;-0.145196;-0.541112;,
  0.823818;-0.163216;-0.542848;,
  0.832536;-0.127124;-0.539188;,
  -0.306197;-0.951075;0.041233;,
  -0.976976;0.090691;-0.193116;,
  -0.958128;0.251684;-0.136553;,
  -0.033923;0.999229;0.019766;,
  0.983926;0.173892;0.040628;,
  0.984937;-0.134404;0.108791;,
  0.982922;-0.150987;0.105198;,
  0.986663;-0.117783;0.112351;,
  -0.449428;0.893266;0.009455;,
  -0.319420;0.923634;-0.211830;,
  0.964056;0.263700;-0.032529;,
  0.957496;0.286321;0.034952;,
  0.300084;-0.913519;0.274652;,
  0.302067;-0.935103;0.185303;,
  -0.021358;0.969270;-0.245072;,
  0.995446;0.013786;-0.094329;,
  0.973469;-0.212876;-0.083911;,
  0.254801;-0.956374;0.142917;,
  0.600465;0.102621;0.793039;,
  0.632205;0.286472;0.719896;,
  0.041662;0.999119;0.005000;,
  -0.726424;0.355122;-0.588385;,
  -0.682280;-0.153008;-0.714900;,
  -0.683306;-0.171674;-0.709663;,
  -0.680998;-0.134284;-0.719868;,
  -0.825248;0.268141;0.497058;,
  0.316580;-0.905124;0.283775;,
  0.888500;0.384608;0.250289;,
  -0.929258;-0.250705;-0.271341;,
  0.039907;0.957834;-0.284536;,
  -0.061433;0.997611;-0.031609;,
  -0.969473;0.180300;-0.166175;,
  -0.965395;-0.253696;-0.060429;,
  -0.157401;-0.976657;-0.146170;,
  -0.786035;-0.613844;0.073102;,
  0.811912;-0.567842;0.135479;,
  0.277724;0.956232;0.092137;,
  0.387747;0.909284;-0.151176;,
  0.268372;0.933383;-0.238271;,
  -0.314310;0.300031;0.900661;,
  -0.247633;0.414636;0.875645;,
  -0.453346;-0.884066;0.113599;,
  -0.268372;-0.933383;0.238271;,
  -0.356460;-0.923127;0.144129;,
  0.335574;0.938243;0.084208;,
  -0.256111;-0.008259;0.966612;,
  -0.270254;-0.284898;0.919671;,
  0.157638;-0.680516;-0.715575;,
  -0.490107;-0.626999;0.605530;,
  0.252030;0.967713;-0.003387;,
  -0.143840;-0.697385;-0.702114;,
  -0.154949;-0.651469;0.742684;,
  -0.675753;-0.676694;0.292308;,
  -0.122199;0.300195;0.946018;,
  0.259384;0.775086;0.576161;,
  -0.387747;-0.909284;0.151176;,
  -0.405738;-0.873507;0.269001;,
  0.311763;-0.108592;-0.943934;,
  0.314310;-0.300031;-0.900661;,
  0.356460;0.923127;-0.144129;,
  0.453346;0.884066;-0.113599;,
  0.232759;0.725775;0.647359;,
  0.448612;0.888336;0.098012;,
  -0.356666;-0.046967;0.933051;,
  -0.335574;-0.938243;-0.084208;,
  -0.484779;-0.872842;0.055990;,
  0.256111;0.008259;-0.966612;,
  0.270254;0.284898;-0.919671;,
  0.808803;-0.543992;-0.223405;,
  0.808803;0.543992;0.223405;,
  0.984616;0.074105;0.158242;,
  -0.546407;0.050683;-0.835985;,
  0.110090;-0.992875;0.045611;,
  -0.043487;-0.981540;-0.186249;,
  0.063170;-0.956895;-0.283483;,
  0.517923;-0.207273;0.829936;,
  0.495304;-0.333763;0.802045;,
  0.108272;0.984001;0.141488;,
  -0.063170;0.956895;0.283483;,
  0.008874;0.983338;0.181572;,
  -0.510951;-0.435252;-0.741272;,
  -0.578299;-0.234641;-0.781354;,
  0.405576;-0.880884;0.244033;,
  0.197821;-0.980112;-0.015693;,
  0.542413;0.303316;0.783446;,
  0.429327;0.143456;0.891683;,
  0.458230;0.308481;0.833586;,
  0.553720;0.286723;0.781782;,
  0.308848;0.729786;0.609939;,
  0.353750;-0.281616;0.891938;,
  0.126822;-0.840719;0.526410;,
  0.043487;0.981540;0.186249;,
  0.090120;0.949708;0.299890;,
  -0.454327;0.035668;-0.890121;,
  -0.517923;0.207273;-0.829936;,
  -0.008874;-0.983338;-0.181572;,
  -0.108272;-0.984001;-0.141488;,
  0.168533;-0.979307;0.112048;,
  0.399175;-0.894659;0.200608;,
  0.393902;-0.906977;0.149108;,
  0.239947;-0.866285;0.438150;,
  0.578299;0.234641;0.781354;,
  0.510951;0.435252;0.741272;,
  0.639020;0.288819;0.712908;,
  0.602321;0.128286;0.787878;,
  -0.139237;0.986756;-0.083225;,
  -0.197821;0.980112;0.015693;,
  -0.405576;0.880884;-0.244033;,
  -0.425737;0.729265;-0.535650;,
  -0.458230;-0.308481;-0.833586;,
  -0.429327;-0.143456;-0.891683;,
  -0.542413;-0.303316;-0.783446;,
  -0.553720;-0.286723;-0.781782;,
  -0.488111;0.597430;-0.636259;,
  -0.964351;0.264625;0.000002;,
  -0.964351;0.264628;0.000001;,
  -0.964352;0.264623;0.000003;,
  -0.501961;-0.666203;0.551551;,
  0.702108;-0.590826;-0.397454;,
  -0.182289;0.973316;-0.139381;,
  0.796606;-0.546516;0.258340;,
  -0.736461;-0.663444;-0.132163;,
  -0.074002;0.994091;-0.079417;,
  0.650020;-0.642365;0.406005;,
  -0.497613;-0.623354;-0.603168;,
  -0.183462;0.973335;0.137697;,
  -0.121564;-0.992378;0.020188;,
  -0.675752;0.676694;-0.292307;,
  0.563656;0.769561;0.300113;,
  0.148174;-0.716089;-0.682101;,
  0.661057;-0.692320;-0.289304;,
  0.766916;-0.596502;0.236698;,
  0.501098;-0.482732;0.718241;,
  -0.192232;-0.431423;0.881431;,
  -0.867994;-0.334161;0.367319;,
  -0.773435;-0.560379;-0.296266;,
  -0.432953;-0.756231;-0.490578;,
  0.000000;-1.000000;-0.000000;,
  -0.595107;0.103659;-0.796933;,
  0.838731;0.144718;-0.524964;,
  0.796100;0.193843;0.573280;,
  -0.541640;0.279476;0.792792;,
  0.454746;0.078757;-0.887132;,
  0.964112;0.120888;-0.236377;,
  0.961681;0.096033;0.256802;,
  0.550476;0.100909;0.828730;,
  -0.181510;-0.002980;0.983385;,
  -0.900163;-0.028847;0.434597;,
  -0.957171;0.070822;-0.280728;,
  -0.202478;0.110766;-0.973002;,
  -0.470444;-0.005606;-0.882412;,
  0.696668;0.014140;-0.717254;,
  0.995730;-0.019901;0.090147;,
  0.741962;0.004457;0.670427;,
  0.139411;0.011846;0.990164;,
  -0.635630;0.012430;0.771894;,
  -0.967057;0.007090;0.254462;,
  -0.983940;0.002177;-0.178488;,
  0.733007;0.659546;0.166433;,
  0.838254;-0.523999;-0.150852;,
  0.109375;-0.951946;-0.286071;,
  -0.733007;-0.659546;-0.166433;,
  -0.838254;0.523999;0.150852;,
  -0.109375;0.951946;0.286071;;
  373;
  4;0,0,0,0;,
  4;1,1,1,1;,
  4;2,2,2,2;,
  4;3,3,3,3;,
  4;4,4,4,4;,
  4;5,5,5,5;,
  4;6,6,6,6;,
  4;7,7,7,7;,
  4;8,8,8,8;,
  4;9,9,9,9;,
  4;10,10,10,10;,
  4;11,11,11,11;,
  4;12,12,12,12;,
  3;15,14,13;,
  3;189,16,190;,
  3;17,17,17;,
  3;191,192,191;,
  3;19,18,14;,
  3;15,19,14;,
  3;20,19,15;,
  3;190,21,193;,
  3;16,21,190;,
  3;14,18,192;,
  3;22,22,22;,
  3;23,23,23;,
  3;24,194,195;,
  3;196,196,197;,
  3;24,26,194;,
  3;25,26,24;,
  3;196,198,196;,
  3;27,27,27;,
  3;28,28,28;,
  3;29,29,29;,
  3;199,199,199;,
  3;30,30,32;,
  3;31,30,30;,
  3;33,33,200;,
  3;34,33,33;,
  3;201,201,202;,
  3;35,201,201;,
  3;36,36,203;,
  3;36,204,36;,
  3;205,205,206;,
  3;205,207,205;,
  3;39,38,37;,
  3;208,40,209;,
  3;41,210,211;,
  3;212,212,213;,
  3;43,42,38;,
  3;39,43,38;,
  3;44,43,39;,
  3;209,45,214;,
  3;40,45,209;,
  3;41,215,210;,
  3;216,215,41;,
  3;212,42,212;,
  3;46,46,48;,
  3;47,46,46;,
  3;49,49,217;,
  3;50,49,49;,
  3;218,218,219;,
  3;51,218,218;,
  3;52,52,220;,
  3;52,221,52;,
  3;222,221,223;,
  3;222,224,221;,
  3;58,57,53;,
  3;54,58,53;,
  3;59,58,54;,
  3;60,60,225;,
  3;55,60,60;,
  3;56,56,226;,
  3;227,56,56;,
  3;53,57,228;,
  3;61,61,61;,
  3;62,62,62;,
  3;63,63,63;,
  3;229,229,229;,
  3;64,64,64;,
  3;65,65,65;,
  3;66,66,66;,
  3;67,67,67;,
  3;68,68,68;,
  3;69,69,69;,
  3;70,70,70;,
  3;71,71,71;,
  3;73,73,74;,
  3;73,72,73;,
  3;81,80,79;,
  3;230,82,231;,
  3;83,232,233;,
  3;234,235,234;,
  3;84,75,77;,
  3;85,75,84;,
  3;85,84,80;,
  3;81,85,80;,
  3;236,76,237;,
  3;86,76,236;,
  3;86,236,81;,
  3;87,238,239;,
  3;231,87,239;,
  3;82,87,231;,
  3;87,78,238;,
  3;240,241,242;,
  3;83,242,232;,
  3;240,242,83;,
  3;240,243,241;,
  3;80,84,235;,
  3;95,88,90;,
  3;96,88,95;,
  3;96,95,92;,
  3;93,96,92;,
  3;97,97,93;,
  3;98,89,244;,
  3;245,98,244;,
  3;94,98,245;,
  3;98,91,89;,
  3;246,246,247;,
  3;246,248,246;,
  3;99,99,101;,
  3;100,99,99;,
  3;102,102,249;,
  3;103,102,102;,
  3;250,250,251;,
  3;104,250,250;,
  3;105,105,252;,
  3;105,253,105;,
  3;254,253,255;,
  3;254,256,253;,
  3;108,107,106;,
  3;257,109,258;,
  3;110,259,260;,
  3;261,261,262;,
  3;112,111,107;,
  3;108,112,107;,
  3;113,112,108;,
  3;258,114,263;,
  3;109,114,258;,
  3;110,264,259;,
  3;265,264,110;,
  3;261,111,261;,
  3;115,115,117;,
  3;116,115,115;,
  3;118,118,266;,
  3;119,118,118;,
  3;267,267,268;,
  3;120,267,267;,
  3;121,121,269;,
  3;121,270,121;,
  3;271,272,272;,
  3;271,273,270;,
  3;123,123,122;,
  3;124,123,123;,
  3;125,125,127;,
  3;126,125,125;,
  3;128,128,274;,
  3;129,128,128;,
  3;130,130,132;,
  3;131,130,130;,
  3;133,133,275;,
  3;134,133,133;,
  3;276,276,276;,
  3;277,277,277;,
  3;135,135,135;,
  3;138,138,278;,
  3;138,136,138;,
  3;137,136,137;,
  3;130,130,132;,
  3;131,130,130;,
  3;133,133,275;,
  3;134,133,133;,
  3;276,276,276;,
  3;277,277,277;,
  3;135,135,135;,
  3;138,138,278;,
  3;138,136,138;,
  3;137,136,137;,
  3;144,143,139;,
  3;140,144,139;,
  3;145,144,140;,
  3;146,146,279;,
  3;141,146,146;,
  3;142,142,280;,
  3;281,142,142;,
  3;139,143,282;,
  4;147,147,147,147;,
  4;283,283,283,283;,
  4;148,148,148,148;,
  4;284,284,284,284;,
  4;149,149,149,149;,
  4;285,285,285,285;,
  3;151,150,152;,
  3;153,286,287;,
  3;288,289,154;,
  3;290,291,292;,
  3;155,151,156;,
  3;156,151,152;,
  3;157,152,157;,
  3;158,293,286;,
  3;158,286,153;,
  3;294,288,154;,
  3;294,154,295;,
  3;155,290,151;,
  4;159,159,159,159;,
  4;296,296,296,296;,
  4;160,160,160,160;,
  4;297,297,297,297;,
  4;161,161,161,161;,
  4;298,298,298,298;,
  4;162,162,162,162;,
  4;299,299,299,299;,
  4;163,163,163,163;,
  4;300,300,300,300;,
  4;164,164,164,164;,
  4;165,165,165,165;,
  4;301,301,301,301;,
  4;166,166,166,166;,
  4;147,147,147,147;,
  4;148,148,148,148;,
  4;149,149,149,149;,
  3;302,289,303;,
  3;291,304,305;,
  3;306,150,307;,
  3;308,287,309;,
  3;310,303,311;,
  3;302,303,310;,
  3;312,302,312;,
  3;304,313,314;,
  3;305,304,314;,
  3;306,307,315;,
  3;316,306,315;,
  3;303,309,311;,
  4;159,159,159,159;,
  4;160,160,160,160;,
  4;161,161,161,161;,
  4;162,162,162,162;,
  4;163,163,163,163;,
  4;317,317,317,317;,
  4;165,165,165,165;,
  4;318,318,318,318;,
  4;167,167,167,167;,
  4;319,319,319,319;,
  4;167,167,167,167;,
  4;319,319,319,319;,
  4;168,168,168,168;,
  4;320,320,320,320;,
  4;168,168,168,168;,
  4;169,169,169,169;,
  4;321,321,321,321;,
  3;175,174,176;,
  3;177,322,323;,
  3;324,325,178;,
  3;326,327,328;,
  3;170,172,179;,
  3;170,179,180;,
  3;179,175,180;,
  3;180,175,176;,
  3;171,329,330;,
  3;171,330,181;,
  3;330,176,181;,
  3;331,332,182;,
  3;182,332,322;,
  3;182,322,177;,
  3;173,331,182;,
  3;333,334,335;,
  3;334,324,178;,
  3;334,178,335;,
  3;336,333,335;,
  3;179,326,175;,
  4;183,183,183,183;,
  4;184,184,184,184;,
  4;337,337,337,337;,
  4;169,169,169,169;,
  3;338,325,339;,
  3;327,340,341;,
  3;342,174,343;,
  3;344,323,345;,
  3;346,347,348;,
  3;349,346,348;,
  3;349,339,346;,
  3;338,339,349;,
  3;350,351,352;,
  3;353,350,352;,
  3;353,338,350;,
  3;354,355,356;,
  3;340,355,354;,
  3;341,340,354;,
  3;354,356,357;,
  3;358,359,360;,
  3;342,343,359;,
  3;358,342,359;,
  3;358,360,361;,
  3;339,345,346;,
  4;362,362,362,362;,
  4;184,184,184,184;,
  3;185,187,185;,
  3;185,185,186;,
  3;363,364,363;,
  3;365,363,363;,
  4;188,188,188,188;,
  4;366,366,366,366;,
  4;367,367,367,367;,
  4;368,368,368,368;,
  4;369,369,369,369;,
  4;370,370,370,370;,
  4;371,371,371,371;,
  4;372,372,372,372;,
  4;373,373,373,373;,
  4;374,374,374,374;,
  4;375,375,375,375;,
  4;376,376,376,376;,
  3;379,386,378;,
  3;380,386,379;,
  3;381,386,380;,
  3;382,386,381;,
  3;383,386,382;,
  3;384,386,383;,
  3;385,386,384;,
  3;378,386,385;,
  3;387,377,388;,
  3;388,377,389;,
  3;389,377,390;,
  3;390,377,387;,
  3;391,398,387;,
  3;391,387,388;,
  3;392,391,388;,
  3;393,392,388;,
  3;393,388,389;,
  3;394,393,389;,
  3;390,395,394;,
  3;390,394,389;,
  3;390,396,395;,
  3;397,396,390;,
  3;397,390,387;,
  3;398,397,387;,
  3;400,379,378;,
  3;400,378,399;,
  3;400,399,398;,
  3;400,398,391;,
  3;400,391,392;,
  3;401,380,379;,
  3;401,379,400;,
  3;401,400,392;,
  3;401,392,393;,
  3;402,381,380;,
  3;402,380,401;,
  3;402,401,393;,
  3;402,393,394;,
  3;403,382,381;,
  3;403,381,402;,
  3;403,402,394;,
  3;403,394,395;,
  3;404,383,382;,
  3;404,382,403;,
  3;404,403,395;,
  3;404,395,396;,
  3;405,383,404;,
  3;405,404,396;,
  3;406,384,383;,
  3;406,383,405;,
  3;406,405,396;,
  3;406,396,397;,
  3;399,385,384;,
  3;399,384,406;,
  3;399,406,397;,
  3;399,397,398;,
  3;399,378,385;,
  4;407,407,407,407;,
  4;410,410,410,410;,
  4;408,408,408,408;,
  4;411,411,411,411;,
  4;409,409,409,409;,
  4;412,412,412,412;;
 }
 MeshTextureCoords {
  585;
  0.000000;0.000000;,
  1.000000;0.000000;,
  1.000000;1.000000;,
  0.000000;1.000000;,
  0.000000;0.000000;,
  1.000000;0.000000;,
  1.000000;1.000000;,
  0.000000;1.000000;,
  0.000000;0.000000;,
  1.000000;0.000000;,
  1.000000;1.000000;,
  0.000000;1.000000;,
  0.000000;0.000000;,
  1.000000;0.000000;,
  1.000000;1.000000;,
  0.000000;1.000000;,
  0.000000;0.000000;,
  1.000000;0.000000;,
  1.000000;1.000000;,
  0.000000;1.000000;,
  0.000000;0.000000;,
  1.000000;0.000000;,
  1.000000;1.000000;,
  0.000000;1.000000;,
  0.000000;0.000000;,
  1.000000;0.000000;,
  1.000000;1.000000;,
  0.000000;1.000000;,
  0.000000;0.000000;,
  1.000000;0.000000;,
  1.000000;1.000000;,
  0.000000;1.000000;,
  0.000000;0.000000;,
  1.000000;0.000000;,
  1.000000;1.000000;,
  0.000000;1.000000;,
  0.000000;0.000000;,
  1.000000;0.000000;,
  1.000000;1.000000;,
  0.000000;1.000000;,
  0.000000;0.000000;,
  1.000000;0.000000;,
  1.000000;1.000000;,
  0.000000;1.000000;,
  0.000000;0.000000;,
  1.000000;0.000000;,
  1.000000;1.000000;,
  0.000000;1.000000;,
  0.000000;0.000000;,
  1.000000;0.000000;,
  1.000000;1.000000;,
  0.000000;1.000000;,
  0.200000;0.421250;,
  0.100000;0.421250;,
  0.200000;0.204540;,
  0.400000;0.204540;,
  0.500000;0.421250;,
  0.400000;0.421250;,
  0.800000;0.421250;,
  0.700000;0.421250;,
  0.800000;0.204540;,
  1.000000;0.421250;,
  0.900000;0.421250;,
  1.000000;0.204540;,
  0.100000;0.738390;,
  0.000000;0.738390;,
  0.200000;0.738390;,
  0.300000;0.738390;,
  0.300000;0.421250;,
  0.500000;0.738390;,
  0.400000;0.738390;,
  0.900000;0.738390;,
  0.200000;0.421250;,
  0.100000;0.421250;,
  0.200000;0.204540;,
  0.400000;0.204540;,
  0.500000;0.421250;,
  0.400000;0.421250;,
  0.800000;0.421250;,
  0.700000;0.421250;,
  0.800000;0.204540;,
  1.000000;0.421250;,
  0.900000;0.421250;,
  1.000000;0.204540;,
  0.700000;0.738390;,
  0.800000;0.738390;,
  0.900000;0.738390;,
  0.200000;0.421250;,
  0.100000;0.421250;,
  0.200000;0.204540;,
  0.400000;0.204540;,
  0.500000;0.421250;,
  0.400000;0.421250;,
  0.800000;0.421250;,
  0.700000;0.421250;,
  0.800000;0.204540;,
  1.000000;0.421250;,
  0.900000;0.421250;,
  1.000000;0.204540;,
  0.100000;1.000000;,
  0.050000;1.000000;,
  0.000000;1.000000;,
  0.300000;1.000000;,
  0.250000;1.000000;,
  0.200000;1.000000;,
  0.000000;0.738390;,
  0.100000;0.738390;,
  0.200000;0.738390;,
  0.300000;0.738390;,
  0.500000;0.738390;,
  0.500000;1.000000;,
  0.400000;0.738390;,
  0.600000;1.000000;,
  0.800000;0.738390;,
  0.800000;1.000000;,
  0.700000;0.738390;,
  0.900000;1.000000;,
  0.200000;0.421250;,
  0.100000;0.421250;,
  0.200000;0.204540;,
  0.400000;0.204540;,
  0.500000;0.421250;,
  0.400000;0.421250;,
  0.800000;0.421250;,
  0.700000;0.421250;,
  0.800000;0.204540;,
  1.000000;0.421250;,
  0.900000;0.421250;,
  1.000000;0.204540;,
  0.100000;0.738390;,
  0.000000;0.738390;,
  0.200000;0.738390;,
  0.300000;0.738390;,
  0.300000;0.421250;,
  0.500000;0.738390;,
  0.400000;0.738390;,
  0.700000;0.738390;,
  0.800000;0.738390;,
  0.900000;0.738390;,
  0.100000;1.000000;,
  0.050000;1.000000;,
  0.000000;1.000000;,
  0.300000;1.000000;,
  0.250000;1.000000;,
  0.200000;1.000000;,
  0.000000;0.738390;,
  0.100000;0.738390;,
  0.200000;0.738390;,
  0.300000;0.738390;,
  0.500000;0.738390;,
  0.500000;1.000000;,
  0.400000;0.738390;,
  0.600000;1.000000;,
  0.800000;0.738390;,
  0.800000;1.000000;,
  0.700000;0.738390;,
  0.900000;1.000000;,
  0.100000;0.738390;,
  0.000000;0.738390;,
  0.100000;0.421250;,
  0.200000;0.421250;,
  0.200000;0.738390;,
  0.300000;0.738390;,
  0.300000;0.421250;,
  0.400000;0.421250;,
  0.500000;0.738390;,
  0.400000;0.738390;,
  0.500000;0.421250;,
  0.800000;0.421250;,
  0.700000;0.738390;,
  0.700000;0.421250;,
  0.800000;0.738390;,
  1.000000;0.421250;,
  0.900000;0.738390;,
  0.900000;0.421250;,
  0.200000;0.421250;,
  0.100000;0.421250;,
  0.200000;0.204540;,
  0.400000;0.204540;,
  0.500000;0.421250;,
  0.400000;0.421250;,
  0.800000;0.421250;,
  0.700000;0.421250;,
  0.800000;0.204540;,
  1.000000;0.421250;,
  0.900000;0.421250;,
  1.000000;0.204540;,
  0.300000;1.000000;,
  0.250000;1.000000;,
  0.200000;1.000000;,
  0.200000;0.738390;,
  0.300000;1.000000;,
  0.200000;1.000000;,
  0.500000;0.738390;,
  0.600000;1.000000;,
  0.500000;1.000000;,
  0.300000;0.738390;,
  0.300000;1.000000;,
  0.200000;0.738390;,
  0.500000;0.738390;,
  0.500000;1.000000;,
  0.400000;0.738390;,
  0.100000;1.000000;,
  0.050000;1.000000;,
  0.000000;1.000000;,
  0.000000;0.738390;,
  0.100000;0.738390;,
  0.100000;1.000000;,
  0.000000;0.738390;,
  0.800000;0.738390;,
  0.800000;1.000000;,
  0.700000;0.738390;,
  0.900000;1.000000;,
  0.200000;0.421250;,
  0.100000;0.421250;,
  0.200000;0.204540;,
  0.400000;0.204540;,
  0.500000;0.421250;,
  0.400000;0.421250;,
  0.800000;0.421250;,
  0.700000;0.421250;,
  0.800000;0.204540;,
  1.000000;0.421250;,
  0.900000;0.421250;,
  1.000000;0.204540;,
  0.000000;0.738390;,
  0.100000;1.000000;,
  0.000000;1.000000;,
  0.100000;0.738390;,
  0.200000;0.738390;,
  0.300000;1.000000;,
  0.200000;1.000000;,
  0.300000;0.738390;,
  0.300000;0.421250;,
  0.500000;0.738390;,
  0.500000;1.000000;,
  0.400000;0.738390;,
  0.600000;1.000000;,
  0.800000;0.738390;,
  0.800000;1.000000;,
  0.700000;0.738390;,
  0.900000;1.000000;,
  0.900000;0.738390;,
  0.000000;0.738390;,
  0.100000;1.000000;,
  0.000000;1.000000;,
  0.100000;0.738390;,
  0.100000;0.421250;,
  0.200000;0.421250;,
  0.200000;0.738390;,
  0.300000;0.738390;,
  0.300000;0.421250;,
  0.500000;0.738390;,
  0.500000;1.000000;,
  0.400000;0.738390;,
  0.400000;0.421250;,
  0.500000;0.421250;,
  0.600000;1.000000;,
  0.800000;0.738390;,
  0.800000;1.000000;,
  0.700000;0.738390;,
  0.900000;1.000000;,
  0.100000;1.000000;,
  0.050000;1.000000;,
  0.000000;1.000000;,
  0.300000;1.000000;,
  0.250000;1.000000;,
  0.200000;1.000000;,
  0.000000;0.738390;,
  0.100000;0.738390;,
  0.200000;0.738390;,
  0.300000;0.738390;,
  0.500000;0.738390;,
  0.500000;1.000000;,
  0.400000;0.738390;,
  0.600000;1.000000;,
  0.800000;0.738390;,
  0.800000;1.000000;,
  0.700000;0.738390;,
  0.900000;1.000000;,
  0.200000;0.421250;,
  0.100000;0.421250;,
  0.200000;0.204540;,
  0.400000;0.204540;,
  0.500000;0.421250;,
  0.400000;0.421250;,
  0.800000;0.421250;,
  0.700000;0.421250;,
  0.800000;0.204540;,
  1.000000;0.421250;,
  0.900000;0.421250;,
  1.000000;0.204540;,
  0.100000;0.738390;,
  0.000000;0.738390;,
  0.200000;0.738390;,
  0.300000;0.738390;,
  0.300000;0.421250;,
  0.500000;0.738390;,
  0.400000;0.738390;,
  0.700000;0.738390;,
  0.800000;0.738390;,
  0.900000;0.738390;,
  0.100000;1.000000;,
  0.050000;1.000000;,
  0.000000;1.000000;,
  0.300000;1.000000;,
  0.250000;1.000000;,
  0.200000;1.000000;,
  0.000000;0.738390;,
  0.100000;0.738390;,
  0.200000;0.738390;,
  0.300000;0.738390;,
  0.500000;0.738390;,
  0.500000;1.000000;,
  0.400000;0.738390;,
  0.600000;1.000000;,
  0.800000;0.738390;,
  0.800000;1.000000;,
  0.700000;0.738390;,
  0.900000;1.000000;,
  0.800000;0.421250;,
  0.700000;0.738390;,
  0.700000;0.421250;,
  0.800000;0.738390;,
  0.100000;1.000000;,
  0.050000;1.000000;,
  0.000000;1.000000;,
  0.300000;1.000000;,
  0.250000;1.000000;,
  0.200000;1.000000;,
  0.200000;0.738390;,
  0.300000;0.738390;,
  0.100000;1.000000;,
  0.050000;1.000000;,
  0.000000;1.000000;,
  0.300000;1.000000;,
  0.250000;1.000000;,
  0.200000;1.000000;,
  0.000000;0.738390;,
  0.100000;0.738390;,
  0.200000;0.738390;,
  0.800000;0.738390;,
  0.900000;1.000000;,
  0.800000;1.000000;,
  0.300000;0.738390;,
  0.300000;1.000000;,
  0.200000;0.738390;,
  0.500000;0.738390;,
  0.500000;1.000000;,
  0.400000;0.738390;,
  0.600000;1.000000;,
  0.800000;0.738390;,
  0.800000;1.000000;,
  0.700000;0.738390;,
  0.100000;1.000000;,
  0.050000;1.000000;,
  0.000000;1.000000;,
  0.300000;1.000000;,
  0.250000;1.000000;,
  0.200000;1.000000;,
  0.000000;0.738390;,
  0.100000;0.738390;,
  0.200000;0.738390;,
  0.800000;0.738390;,
  0.900000;1.000000;,
  0.800000;1.000000;,
  0.300000;0.738390;,
  0.300000;1.000000;,
  0.200000;0.738390;,
  0.500000;0.738390;,
  0.500000;1.000000;,
  0.400000;0.738390;,
  0.600000;1.000000;,
  0.800000;0.738390;,
  0.800000;1.000000;,
  0.700000;0.738390;,
  0.100000;0.738390;,
  0.000000;0.738390;,
  0.100000;0.421250;,
  0.200000;0.421250;,
  0.200000;0.738390;,
  0.300000;0.738390;,
  0.300000;0.421250;,
  0.400000;0.421250;,
  0.500000;0.738390;,
  0.400000;0.738390;,
  0.500000;0.421250;,
  0.800000;0.421250;,
  0.700000;0.738390;,
  0.700000;0.421250;,
  0.800000;0.738390;,
  1.000000;0.421250;,
  0.900000;0.738390;,
  0.900000;0.421250;,
  0.000000;0.000000;,
  1.000000;0.000000;,
  1.000000;1.000000;,
  0.000000;1.000000;,
  0.000000;0.000000;,
  1.000000;0.000000;,
  1.000000;1.000000;,
  0.000000;1.000000;,
  0.000000;0.000000;,
  1.000000;0.000000;,
  1.000000;1.000000;,
  0.000000;1.000000;,
  0.100000;0.421250;,
  0.200000;0.204540;,
  0.200000;0.421250;,
  0.500000;0.421250;,
  0.400000;0.421250;,
  0.400000;0.204540;,
  0.700000;0.421250;,
  0.800000;0.204540;,
  0.800000;0.421250;,
  0.900000;0.421250;,
  1.000000;0.204540;,
  1.000000;0.421250;,
  0.000000;0.738390;,
  0.100000;0.738390;,
  0.200000;0.738390;,
  0.300000;0.421250;,
  0.300000;0.738390;,
  0.500000;0.738390;,
  0.400000;0.738390;,
  0.700000;0.738390;,
  0.800000;0.738390;,
  0.900000;0.738390;,
  0.000000;0.000000;,
  1.000000;0.000000;,
  1.000000;1.000000;,
  0.000000;1.000000;,
  0.000000;0.000000;,
  1.000000;0.000000;,
  1.000000;1.000000;,
  0.000000;1.000000;,
  0.000000;0.000000;,
  1.000000;0.000000;,
  1.000000;1.000000;,
  0.000000;1.000000;,
  0.000000;0.000000;,
  1.000000;0.000000;,
  1.000000;1.000000;,
  0.000000;1.000000;,
  0.000000;0.000000;,
  1.000000;0.000000;,
  1.000000;1.000000;,
  0.000000;1.000000;,
  0.000000;0.000000;,
  1.000000;0.000000;,
  1.000000;1.000000;,
  0.000000;1.000000;,
  0.000000;0.000000;,
  1.000000;0.000000;,
  1.000000;1.000000;,
  0.000000;1.000000;,
  0.000000;0.000000;,
  1.000000;0.000000;,
  1.000000;1.000000;,
  0.000000;1.000000;,
  0.000000;0.000000;,
  1.000000;0.000000;,
  1.000000;1.000000;,
  0.000000;1.000000;,
  0.000000;0.000000;,
  1.000000;0.000000;,
  1.000000;1.000000;,
  0.000000;1.000000;,
  0.000000;0.000000;,
  1.000000;0.000000;,
  1.000000;1.000000;,
  0.000000;1.000000;,
  0.100000;0.421250;,
  0.200000;0.204540;,
  0.200000;0.421250;,
  0.500000;0.421250;,
  0.400000;0.421250;,
  0.400000;0.204540;,
  0.700000;0.421250;,
  0.800000;0.204540;,
  0.800000;0.421250;,
  0.900000;0.421250;,
  1.000000;0.204540;,
  1.000000;0.421250;,
  0.100000;1.000000;,
  0.000000;1.000000;,
  0.000000;0.738390;,
  0.100000;0.738390;,
  0.200000;0.738390;,
  0.300000;1.000000;,
  0.200000;1.000000;,
  0.300000;0.738390;,
  0.300000;0.421250;,
  0.500000;1.000000;,
  0.400000;0.738390;,
  0.500000;0.738390;,
  0.600000;1.000000;,
  0.800000;1.000000;,
  0.700000;0.738390;,
  0.800000;0.738390;,
  0.900000;1.000000;,
  0.900000;0.738390;,
  0.000000;0.000000;,
  1.000000;0.000000;,
  1.000000;1.000000;,
  0.000000;1.000000;,
  0.000000;0.000000;,
  1.000000;0.000000;,
  1.000000;1.000000;,
  0.000000;1.000000;,
  0.050000;1.000000;,
  0.000000;1.000000;,
  0.100000;1.000000;,
  0.250000;1.000000;,
  0.200000;1.000000;,
  0.300000;1.000000;,
  0.000000;0.000000;,
  1.000000;0.000000;,
  1.000000;1.000000;,
  0.000000;1.000000;,
  0.100000;1.000000;,
  0.050000;1.000000;,
  0.000000;1.000000;,
  0.300000;1.000000;,
  0.250000;1.000000;,
  0.200000;1.000000;,
  0.400000;1.000000;,
  0.350000;1.000000;,
  0.500000;1.000000;,
  0.450000;1.000000;,
  0.600000;1.000000;,
  0.550000;1.000000;,
  0.800000;1.000000;,
  0.750000;1.000000;,
  0.700000;1.000000;,
  0.900000;1.000000;,
  0.850000;1.000000;,
  1.000000;1.000000;,
  0.950000;1.000000;,
  0.000000;0.204540;,
  0.050000;0.000000;,
  0.100000;0.204540;,
  0.200000;0.204540;,
  0.250000;0.000000;,
  0.300000;0.204540;,
  0.400000;0.204540;,
  0.450000;0.000000;,
  0.500000;0.204540;,
  0.700000;0.204540;,
  0.750000;0.000000;,
  0.800000;0.204540;,
  0.100000;0.421250;,
  0.000000;0.421250;,
  0.200000;0.421250;,
  0.300000;0.421250;,
  0.400000;0.421250;,
  0.500000;0.421250;,
  0.600000;0.204540;,
  0.600000;0.421250;,
  0.800000;0.421250;,
  0.700000;0.421250;,
  0.900000;0.421250;,
  0.100000;0.738390;,
  0.000000;0.738390;,
  0.200000;0.738390;,
  0.300000;0.738390;,
  0.400000;0.738390;,
  0.500000;0.738390;,
  0.600000;0.738390;,
  0.700000;0.738390;,
  0.800000;0.738390;,
  0.900000;0.738390;,
  1.000000;0.738390;,
  0.000000;0.000000;,
  1.000000;0.000000;,
  1.000000;1.000000;,
  0.000000;1.000000;,
  0.000000;1.000000;,
  1.000000;1.000000;,
  1.000000;0.000000;,
  0.000000;0.000000;,
  0.000000;0.000000;,
  1.000000;0.000000;,
  1.000000;1.000000;,
  0.000000;1.000000;;
 }
 MeshVertexColors {
  585;
  0;1.000000;1.000000;1.000000;1.000000;,
  1;1.000000;1.000000;1.000000;1.000000;,
  2;1.000000;1.000000;1.000000;1.000000;,
  3;1.000000;1.000000;1.000000;1.000000;,
  4;1.000000;1.000000;1.000000;1.000000;,
  5;1.000000;1.000000;1.000000;1.000000;,
  6;1.000000;1.000000;1.000000;1.000000;,
  7;1.000000;1.000000;1.000000;1.000000;,
  8;1.000000;1.000000;1.000000;1.000000;,
  9;1.000000;1.000000;1.000000;1.000000;,
  10;1.000000;1.000000;1.000000;1.000000;,
  11;1.000000;1.000000;1.000000;1.000000;,
  12;1.000000;1.000000;1.000000;1.000000;,
  13;1.000000;1.000000;1.000000;1.000000;,
  14;1.000000;1.000000;1.000000;1.000000;,
  15;1.000000;1.000000;1.000000;1.000000;,
  16;1.000000;1.000000;1.000000;1.000000;,
  17;1.000000;1.000000;1.000000;1.000000;,
  18;1.000000;1.000000;1.000000;1.000000;,
  19;1.000000;1.000000;1.000000;1.000000;,
  20;1.000000;1.000000;1.000000;1.000000;,
  21;1.000000;1.000000;1.000000;1.000000;,
  22;1.000000;1.000000;1.000000;1.000000;,
  23;1.000000;1.000000;1.000000;1.000000;,
  24;1.000000;1.000000;1.000000;1.000000;,
  25;1.000000;1.000000;1.000000;1.000000;,
  26;1.000000;1.000000;1.000000;1.000000;,
  27;1.000000;1.000000;1.000000;1.000000;,
  28;1.000000;1.000000;1.000000;1.000000;,
  29;1.000000;1.000000;1.000000;1.000000;,
  30;1.000000;1.000000;1.000000;1.000000;,
  31;1.000000;1.000000;1.000000;1.000000;,
  32;1.000000;1.000000;1.000000;1.000000;,
  33;1.000000;1.000000;1.000000;1.000000;,
  34;1.000000;1.000000;1.000000;1.000000;,
  35;1.000000;1.000000;1.000000;1.000000;,
  36;1.000000;1.000000;1.000000;1.000000;,
  37;1.000000;1.000000;1.000000;1.000000;,
  38;1.000000;1.000000;1.000000;1.000000;,
  39;1.000000;1.000000;1.000000;1.000000;,
  40;1.000000;1.000000;1.000000;1.000000;,
  41;1.000000;1.000000;1.000000;1.000000;,
  42;1.000000;1.000000;1.000000;1.000000;,
  43;1.000000;1.000000;1.000000;1.000000;,
  44;1.000000;1.000000;1.000000;1.000000;,
  45;1.000000;1.000000;1.000000;1.000000;,
  46;1.000000;1.000000;1.000000;1.000000;,
  47;1.000000;1.000000;1.000000;1.000000;,
  48;1.000000;1.000000;1.000000;1.000000;,
  49;1.000000;1.000000;1.000000;1.000000;,
  50;1.000000;1.000000;1.000000;1.000000;,
  51;1.000000;1.000000;1.000000;1.000000;,
  52;1.000000;1.000000;1.000000;1.000000;,
  53;1.000000;1.000000;1.000000;1.000000;,
  54;1.000000;1.000000;1.000000;1.000000;,
  55;1.000000;1.000000;1.000000;1.000000;,
  56;1.000000;1.000000;1.000000;1.000000;,
  57;1.000000;1.000000;1.000000;1.000000;,
  58;1.000000;1.000000;1.000000;1.000000;,
  59;1.000000;1.000000;1.000000;1.000000;,
  60;1.000000;1.000000;1.000000;1.000000;,
  61;1.000000;1.000000;1.000000;1.000000;,
  62;1.000000;1.000000;1.000000;1.000000;,
  63;1.000000;1.000000;1.000000;1.000000;,
  64;1.000000;1.000000;1.000000;1.000000;,
  65;1.000000;1.000000;1.000000;1.000000;,
  66;1.000000;1.000000;1.000000;1.000000;,
  67;1.000000;1.000000;1.000000;1.000000;,
  68;1.000000;1.000000;1.000000;1.000000;,
  69;1.000000;1.000000;1.000000;1.000000;,
  70;1.000000;1.000000;1.000000;1.000000;,
  71;1.000000;1.000000;1.000000;1.000000;,
  72;1.000000;1.000000;1.000000;1.000000;,
  73;1.000000;1.000000;1.000000;1.000000;,
  74;1.000000;1.000000;1.000000;1.000000;,
  75;1.000000;1.000000;1.000000;1.000000;,
  76;1.000000;1.000000;1.000000;1.000000;,
  77;1.000000;1.000000;1.000000;1.000000;,
  78;1.000000;1.000000;1.000000;1.000000;,
  79;1.000000;1.000000;1.000000;1.000000;,
  80;1.000000;1.000000;1.000000;1.000000;,
  81;1.000000;1.000000;1.000000;1.000000;,
  82;1.000000;1.000000;1.000000;1.000000;,
  83;1.000000;1.000000;1.000000;1.000000;,
  84;1.000000;1.000000;1.000000;1.000000;,
  85;1.000000;1.000000;1.000000;1.000000;,
  86;1.000000;1.000000;1.000000;1.000000;,
  87;1.000000;1.000000;1.000000;1.000000;,
  88;1.000000;1.000000;1.000000;1.000000;,
  89;1.000000;1.000000;1.000000;1.000000;,
  90;1.000000;1.000000;1.000000;1.000000;,
  91;1.000000;1.000000;1.000000;1.000000;,
  92;1.000000;1.000000;1.000000;1.000000;,
  93;1.000000;1.000000;1.000000;1.000000;,
  94;1.000000;1.000000;1.000000;1.000000;,
  95;1.000000;1.000000;1.000000;1.000000;,
  96;1.000000;1.000000;1.000000;1.000000;,
  97;1.000000;1.000000;1.000000;1.000000;,
  98;1.000000;1.000000;1.000000;1.000000;,
  99;1.000000;1.000000;1.000000;1.000000;,
  100;1.000000;1.000000;1.000000;1.000000;,
  101;1.000000;1.000000;1.000000;1.000000;,
  102;1.000000;1.000000;1.000000;1.000000;,
  103;1.000000;1.000000;1.000000;1.000000;,
  104;1.000000;1.000000;1.000000;1.000000;,
  105;1.000000;1.000000;1.000000;1.000000;,
  106;1.000000;1.000000;1.000000;1.000000;,
  107;1.000000;1.000000;1.000000;1.000000;,
  108;1.000000;1.000000;1.000000;1.000000;,
  109;1.000000;1.000000;1.000000;1.000000;,
  110;1.000000;1.000000;1.000000;1.000000;,
  111;1.000000;1.000000;1.000000;1.000000;,
  112;1.000000;1.000000;1.000000;1.000000;,
  113;1.000000;1.000000;1.000000;1.000000;,
  114;1.000000;1.000000;1.000000;1.000000;,
  115;1.000000;1.000000;1.000000;1.000000;,
  116;1.000000;1.000000;1.000000;1.000000;,
  117;1.000000;1.000000;1.000000;1.000000;,
  118;1.000000;1.000000;1.000000;1.000000;,
  119;1.000000;1.000000;1.000000;1.000000;,
  120;1.000000;1.000000;1.000000;1.000000;,
  121;1.000000;1.000000;1.000000;1.000000;,
  122;1.000000;1.000000;1.000000;1.000000;,
  123;1.000000;1.000000;1.000000;1.000000;,
  124;1.000000;1.000000;1.000000;1.000000;,
  125;1.000000;1.000000;1.000000;1.000000;,
  126;1.000000;1.000000;1.000000;1.000000;,
  127;1.000000;1.000000;1.000000;1.000000;,
  128;1.000000;1.000000;1.000000;1.000000;,
  129;1.000000;1.000000;1.000000;1.000000;,
  130;1.000000;1.000000;1.000000;1.000000;,
  131;1.000000;1.000000;1.000000;1.000000;,
  132;1.000000;1.000000;1.000000;1.000000;,
  133;1.000000;1.000000;1.000000;1.000000;,
  134;1.000000;1.000000;1.000000;1.000000;,
  135;1.000000;1.000000;1.000000;1.000000;,
  136;1.000000;1.000000;1.000000;1.000000;,
  137;1.000000;1.000000;1.000000;1.000000;,
  138;1.000000;1.000000;1.000000;1.000000;,
  139;1.000000;1.000000;1.000000;1.000000;,
  140;1.000000;1.000000;1.000000;1.000000;,
  141;1.000000;1.000000;1.000000;1.000000;,
  142;1.000000;1.000000;1.000000;1.000000;,
  143;1.000000;1.000000;1.000000;1.000000;,
  144;1.000000;1.000000;1.000000;1.000000;,
  145;1.000000;1.000000;1.000000;1.000000;,
  146;1.000000;1.000000;1.000000;1.000000;,
  147;1.000000;1.000000;1.000000;1.000000;,
  148;1.000000;1.000000;1.000000;1.000000;,
  149;1.000000;1.000000;1.000000;1.000000;,
  150;1.000000;1.000000;1.000000;1.000000;,
  151;1.000000;1.000000;1.000000;1.000000;,
  152;1.000000;1.000000;1.000000;1.000000;,
  153;1.000000;1.000000;1.000000;1.000000;,
  154;1.000000;1.000000;1.000000;1.000000;,
  155;1.000000;1.000000;1.000000;1.000000;,
  156;1.000000;1.000000;1.000000;1.000000;,
  157;1.000000;1.000000;1.000000;1.000000;,
  158;1.000000;1.000000;1.000000;1.000000;,
  159;1.000000;1.000000;1.000000;1.000000;,
  160;1.000000;1.000000;1.000000;1.000000;,
  161;1.000000;1.000000;1.000000;1.000000;,
  162;1.000000;1.000000;1.000000;1.000000;,
  163;1.000000;1.000000;1.000000;1.000000;,
  164;1.000000;1.000000;1.000000;1.000000;,
  165;1.000000;1.000000;1.000000;1.000000;,
  166;1.000000;1.000000;1.000000;1.000000;,
  167;1.000000;1.000000;1.000000;1.000000;,
  168;1.000000;1.000000;1.000000;1.000000;,
  169;1.000000;1.000000;1.000000;1.000000;,
  170;1.000000;1.000000;1.000000;1.000000;,
  171;1.000000;1.000000;1.000000;1.000000;,
  172;1.000000;1.000000;1.000000;1.000000;,
  173;1.000000;1.000000;1.000000;1.000000;,
  174;1.000000;1.000000;1.000000;1.000000;,
  175;1.000000;1.000000;1.000000;1.000000;,
  176;1.000000;1.000000;1.000000;1.000000;,
  177;1.000000;1.000000;1.000000;1.000000;,
  178;1.000000;1.000000;1.000000;1.000000;,
  179;1.000000;1.000000;1.000000;1.000000;,
  180;1.000000;1.000000;1.000000;1.000000;,
  181;1.000000;1.000000;1.000000;1.000000;,
  182;1.000000;1.000000;1.000000;1.000000;,
  183;1.000000;1.000000;1.000000;1.000000;,
  184;1.000000;1.000000;1.000000;1.000000;,
  185;1.000000;1.000000;1.000000;1.000000;,
  186;1.000000;1.000000;1.000000;1.000000;,
  187;1.000000;1.000000;1.000000;1.000000;,
  188;1.000000;1.000000;1.000000;1.000000;,
  189;1.000000;1.000000;1.000000;1.000000;,
  190;1.000000;1.000000;1.000000;1.000000;,
  191;1.000000;1.000000;1.000000;1.000000;,
  192;1.000000;1.000000;1.000000;1.000000;,
  193;1.000000;1.000000;1.000000;1.000000;,
  194;1.000000;1.000000;1.000000;1.000000;,
  195;1.000000;1.000000;1.000000;1.000000;,
  196;1.000000;1.000000;1.000000;1.000000;,
  197;1.000000;1.000000;1.000000;1.000000;,
  198;1.000000;1.000000;1.000000;1.000000;,
  199;1.000000;1.000000;1.000000;1.000000;,
  200;1.000000;1.000000;1.000000;1.000000;,
  201;1.000000;1.000000;1.000000;1.000000;,
  202;1.000000;1.000000;1.000000;1.000000;,
  203;1.000000;1.000000;1.000000;1.000000;,
  204;1.000000;1.000000;1.000000;1.000000;,
  205;1.000000;1.000000;1.000000;1.000000;,
  206;1.000000;1.000000;1.000000;1.000000;,
  207;1.000000;1.000000;1.000000;1.000000;,
  208;1.000000;1.000000;1.000000;1.000000;,
  209;1.000000;1.000000;1.000000;1.000000;,
  210;1.000000;1.000000;1.000000;1.000000;,
  211;1.000000;1.000000;1.000000;1.000000;,
  212;1.000000;1.000000;1.000000;1.000000;,
  213;1.000000;1.000000;1.000000;1.000000;,
  214;1.000000;1.000000;1.000000;1.000000;,
  215;1.000000;1.000000;1.000000;1.000000;,
  216;1.000000;1.000000;1.000000;1.000000;,
  217;1.000000;1.000000;1.000000;1.000000;,
  218;1.000000;1.000000;1.000000;1.000000;,
  219;1.000000;1.000000;1.000000;1.000000;,
  220;1.000000;1.000000;1.000000;1.000000;,
  221;1.000000;1.000000;1.000000;1.000000;,
  222;1.000000;1.000000;1.000000;1.000000;,
  223;1.000000;1.000000;1.000000;1.000000;,
  224;1.000000;1.000000;1.000000;1.000000;,
  225;1.000000;1.000000;1.000000;1.000000;,
  226;1.000000;1.000000;1.000000;1.000000;,
  227;1.000000;1.000000;1.000000;1.000000;,
  228;1.000000;1.000000;1.000000;1.000000;,
  229;1.000000;1.000000;1.000000;1.000000;,
  230;1.000000;1.000000;1.000000;1.000000;,
  231;1.000000;1.000000;1.000000;1.000000;,
  232;1.000000;1.000000;1.000000;1.000000;,
  233;1.000000;1.000000;1.000000;1.000000;,
  234;1.000000;1.000000;1.000000;1.000000;,
  235;1.000000;1.000000;1.000000;1.000000;,
  236;1.000000;1.000000;1.000000;1.000000;,
  237;1.000000;1.000000;1.000000;1.000000;,
  238;1.000000;1.000000;1.000000;1.000000;,
  239;1.000000;1.000000;1.000000;1.000000;,
  240;1.000000;1.000000;1.000000;1.000000;,
  241;1.000000;1.000000;1.000000;1.000000;,
  242;1.000000;1.000000;1.000000;1.000000;,
  243;1.000000;1.000000;1.000000;1.000000;,
  244;1.000000;1.000000;1.000000;1.000000;,
  245;1.000000;1.000000;1.000000;1.000000;,
  246;1.000000;1.000000;1.000000;1.000000;,
  247;1.000000;1.000000;1.000000;1.000000;,
  248;1.000000;1.000000;1.000000;1.000000;,
  249;1.000000;1.000000;1.000000;1.000000;,
  250;1.000000;1.000000;1.000000;1.000000;,
  251;1.000000;1.000000;1.000000;1.000000;,
  252;1.000000;1.000000;1.000000;1.000000;,
  253;1.000000;1.000000;1.000000;1.000000;,
  254;1.000000;1.000000;1.000000;1.000000;,
  255;1.000000;1.000000;1.000000;1.000000;,
  256;1.000000;1.000000;1.000000;1.000000;,
  257;1.000000;1.000000;1.000000;1.000000;,
  258;1.000000;1.000000;1.000000;1.000000;,
  259;1.000000;1.000000;1.000000;1.000000;,
  260;1.000000;1.000000;1.000000;1.000000;,
  261;1.000000;1.000000;1.000000;1.000000;,
  262;1.000000;1.000000;1.000000;1.000000;,
  263;1.000000;1.000000;1.000000;1.000000;,
  264;1.000000;1.000000;1.000000;1.000000;,
  265;1.000000;1.000000;1.000000;1.000000;,
  266;1.000000;1.000000;1.000000;1.000000;,
  267;1.000000;1.000000;1.000000;1.000000;,
  268;1.000000;1.000000;1.000000;1.000000;,
  269;1.000000;1.000000;1.000000;1.000000;,
  270;1.000000;1.000000;1.000000;1.000000;,
  271;1.000000;1.000000;1.000000;1.000000;,
  272;1.000000;1.000000;1.000000;1.000000;,
  273;1.000000;1.000000;1.000000;1.000000;,
  274;1.000000;1.000000;1.000000;1.000000;,
  275;1.000000;1.000000;1.000000;1.000000;,
  276;1.000000;1.000000;1.000000;1.000000;,
  277;1.000000;1.000000;1.000000;1.000000;,
  278;1.000000;1.000000;1.000000;1.000000;,
  279;1.000000;1.000000;1.000000;1.000000;,
  280;1.000000;1.000000;1.000000;1.000000;,
  281;1.000000;1.000000;1.000000;1.000000;,
  282;1.000000;1.000000;1.000000;1.000000;,
  283;1.000000;1.000000;1.000000;1.000000;,
  284;1.000000;1.000000;1.000000;1.000000;,
  285;1.000000;1.000000;1.000000;1.000000;,
  286;1.000000;1.000000;1.000000;1.000000;,
  287;1.000000;1.000000;1.000000;1.000000;,
  288;1.000000;1.000000;1.000000;1.000000;,
  289;1.000000;1.000000;1.000000;1.000000;,
  290;1.000000;1.000000;1.000000;1.000000;,
  291;1.000000;1.000000;1.000000;1.000000;,
  292;1.000000;1.000000;1.000000;1.000000;,
  293;1.000000;1.000000;1.000000;1.000000;,
  294;1.000000;1.000000;1.000000;1.000000;,
  295;1.000000;1.000000;1.000000;1.000000;,
  296;1.000000;1.000000;1.000000;1.000000;,
  297;1.000000;1.000000;1.000000;1.000000;,
  298;1.000000;1.000000;1.000000;1.000000;,
  299;1.000000;1.000000;1.000000;1.000000;,
  300;1.000000;1.000000;1.000000;1.000000;,
  301;1.000000;1.000000;1.000000;1.000000;,
  302;1.000000;1.000000;1.000000;1.000000;,
  303;1.000000;1.000000;1.000000;1.000000;,
  304;1.000000;1.000000;1.000000;1.000000;,
  305;1.000000;1.000000;1.000000;1.000000;,
  306;1.000000;1.000000;1.000000;1.000000;,
  307;1.000000;1.000000;1.000000;1.000000;,
  308;1.000000;1.000000;1.000000;1.000000;,
  309;1.000000;1.000000;1.000000;1.000000;,
  310;1.000000;1.000000;1.000000;1.000000;,
  311;1.000000;1.000000;1.000000;1.000000;,
  312;1.000000;1.000000;1.000000;1.000000;,
  313;1.000000;1.000000;1.000000;1.000000;,
  314;1.000000;1.000000;1.000000;1.000000;,
  315;1.000000;1.000000;1.000000;1.000000;,
  316;1.000000;1.000000;1.000000;1.000000;,
  317;1.000000;1.000000;1.000000;1.000000;,
  318;1.000000;1.000000;1.000000;1.000000;,
  319;1.000000;1.000000;1.000000;1.000000;,
  320;1.000000;1.000000;1.000000;1.000000;,
  321;1.000000;1.000000;1.000000;1.000000;,
  322;1.000000;1.000000;1.000000;1.000000;,
  323;1.000000;1.000000;1.000000;1.000000;,
  324;1.000000;1.000000;1.000000;1.000000;,
  325;1.000000;1.000000;1.000000;1.000000;,
  326;1.000000;1.000000;1.000000;1.000000;,
  327;1.000000;1.000000;1.000000;1.000000;,
  328;1.000000;1.000000;1.000000;1.000000;,
  329;1.000000;1.000000;1.000000;1.000000;,
  330;1.000000;1.000000;1.000000;1.000000;,
  331;1.000000;1.000000;1.000000;1.000000;,
  332;1.000000;1.000000;1.000000;1.000000;,
  333;1.000000;1.000000;1.000000;1.000000;,
  334;1.000000;1.000000;1.000000;1.000000;,
  335;1.000000;1.000000;1.000000;1.000000;,
  336;1.000000;1.000000;1.000000;1.000000;,
  337;1.000000;1.000000;1.000000;1.000000;,
  338;1.000000;1.000000;1.000000;1.000000;,
  339;1.000000;1.000000;1.000000;1.000000;,
  340;1.000000;1.000000;1.000000;1.000000;,
  341;1.000000;1.000000;1.000000;1.000000;,
  342;1.000000;1.000000;1.000000;1.000000;,
  343;1.000000;1.000000;1.000000;1.000000;,
  344;1.000000;1.000000;1.000000;1.000000;,
  345;1.000000;1.000000;1.000000;1.000000;,
  346;1.000000;1.000000;1.000000;1.000000;,
  347;1.000000;1.000000;1.000000;1.000000;,
  348;1.000000;1.000000;1.000000;1.000000;,
  349;1.000000;1.000000;1.000000;1.000000;,
  350;1.000000;1.000000;1.000000;1.000000;,
  351;1.000000;1.000000;1.000000;1.000000;,
  352;1.000000;1.000000;1.000000;1.000000;,
  353;1.000000;1.000000;1.000000;1.000000;,
  354;1.000000;1.000000;1.000000;1.000000;,
  355;1.000000;1.000000;1.000000;1.000000;,
  356;1.000000;1.000000;1.000000;1.000000;,
  357;1.000000;1.000000;1.000000;1.000000;,
  358;1.000000;1.000000;1.000000;1.000000;,
  359;1.000000;1.000000;1.000000;1.000000;,
  360;1.000000;1.000000;1.000000;1.000000;,
  361;1.000000;1.000000;1.000000;1.000000;,
  362;1.000000;1.000000;1.000000;1.000000;,
  363;1.000000;1.000000;1.000000;1.000000;,
  364;1.000000;1.000000;1.000000;1.000000;,
  365;1.000000;1.000000;1.000000;1.000000;,
  366;1.000000;1.000000;1.000000;1.000000;,
  367;1.000000;1.000000;1.000000;1.000000;,
  368;1.000000;1.000000;1.000000;1.000000;,
  369;1.000000;1.000000;1.000000;1.000000;,
  370;1.000000;1.000000;1.000000;1.000000;,
  371;1.000000;1.000000;1.000000;1.000000;,
  372;1.000000;1.000000;1.000000;1.000000;,
  373;1.000000;1.000000;1.000000;1.000000;,
  374;1.000000;1.000000;1.000000;1.000000;,
  375;1.000000;1.000000;1.000000;1.000000;,
  376;1.000000;1.000000;1.000000;1.000000;,
  377;1.000000;1.000000;1.000000;1.000000;,
  378;1.000000;1.000000;1.000000;1.000000;,
  379;1.000000;1.000000;1.000000;1.000000;,
  380;1.000000;1.000000;1.000000;1.000000;,
  381;1.000000;1.000000;1.000000;1.000000;,
  382;1.000000;1.000000;1.000000;1.000000;,
  383;1.000000;1.000000;1.000000;1.000000;,
  384;1.000000;1.000000;1.000000;1.000000;,
  385;1.000000;1.000000;1.000000;1.000000;,
  386;1.000000;1.000000;1.000000;1.000000;,
  387;1.000000;1.000000;1.000000;1.000000;,
  388;1.000000;1.000000;1.000000;1.000000;,
  389;1.000000;1.000000;1.000000;1.000000;,
  390;1.000000;1.000000;1.000000;1.000000;,
  391;1.000000;1.000000;1.000000;1.000000;,
  392;1.000000;1.000000;1.000000;1.000000;,
  393;1.000000;1.000000;1.000000;1.000000;,
  394;1.000000;1.000000;1.000000;1.000000;,
  395;1.000000;1.000000;1.000000;1.000000;,
  396;1.000000;1.000000;1.000000;1.000000;,
  397;1.000000;1.000000;1.000000;1.000000;,
  398;1.000000;1.000000;1.000000;1.000000;,
  399;1.000000;1.000000;1.000000;1.000000;,
  400;1.000000;1.000000;1.000000;1.000000;,
  401;1.000000;1.000000;1.000000;1.000000;,
  402;1.000000;1.000000;1.000000;1.000000;,
  403;1.000000;1.000000;1.000000;1.000000;,
  404;1.000000;1.000000;1.000000;1.000000;,
  405;1.000000;1.000000;1.000000;1.000000;,
  406;1.000000;1.000000;1.000000;1.000000;,
  407;1.000000;1.000000;1.000000;1.000000;,
  408;1.000000;1.000000;1.000000;1.000000;,
  409;1.000000;1.000000;1.000000;1.000000;,
  410;1.000000;1.000000;1.000000;1.000000;,
  411;1.000000;1.000000;1.000000;1.000000;,
  412;1.000000;1.000000;1.000000;1.000000;,
  413;1.000000;1.000000;1.000000;1.000000;,
  414;1.000000;1.000000;1.000000;1.000000;,
  415;1.000000;1.000000;1.000000;1.000000;,
  416;1.000000;1.000000;1.000000;1.000000;,
  417;1.000000;1.000000;1.000000;1.000000;,
  418;1.000000;1.000000;1.000000;1.000000;,
  419;1.000000;1.000000;1.000000;1.000000;,
  420;1.000000;1.000000;1.000000;1.000000;,
  421;1.000000;1.000000;1.000000;1.000000;,
  422;1.000000;1.000000;1.000000;1.000000;,
  423;1.000000;1.000000;1.000000;1.000000;,
  424;1.000000;1.000000;1.000000;1.000000;,
  425;1.000000;1.000000;1.000000;1.000000;,
  426;1.000000;1.000000;1.000000;1.000000;,
  427;1.000000;1.000000;1.000000;1.000000;,
  428;1.000000;1.000000;1.000000;1.000000;,
  429;1.000000;1.000000;1.000000;1.000000;,
  430;1.000000;1.000000;1.000000;1.000000;,
  431;1.000000;1.000000;1.000000;1.000000;,
  432;1.000000;1.000000;1.000000;1.000000;,
  433;1.000000;1.000000;1.000000;1.000000;,
  434;1.000000;1.000000;1.000000;1.000000;,
  435;1.000000;1.000000;1.000000;1.000000;,
  436;1.000000;1.000000;1.000000;1.000000;,
  437;1.000000;1.000000;1.000000;1.000000;,
  438;1.000000;1.000000;1.000000;1.000000;,
  439;1.000000;1.000000;1.000000;1.000000;,
  440;1.000000;1.000000;1.000000;1.000000;,
  441;1.000000;1.000000;1.000000;1.000000;,
  442;1.000000;1.000000;1.000000;1.000000;,
  443;1.000000;1.000000;1.000000;1.000000;,
  444;1.000000;1.000000;1.000000;1.000000;,
  445;1.000000;1.000000;1.000000;1.000000;,
  446;1.000000;1.000000;1.000000;1.000000;,
  447;1.000000;1.000000;1.000000;1.000000;,
  448;1.000000;1.000000;1.000000;1.000000;,
  449;1.000000;1.000000;1.000000;1.000000;,
  450;1.000000;1.000000;1.000000;1.000000;,
  451;1.000000;1.000000;1.000000;1.000000;,
  452;1.000000;1.000000;1.000000;1.000000;,
  453;1.000000;1.000000;1.000000;1.000000;,
  454;1.000000;1.000000;1.000000;1.000000;,
  455;1.000000;1.000000;1.000000;1.000000;,
  456;1.000000;1.000000;1.000000;1.000000;,
  457;1.000000;1.000000;1.000000;1.000000;,
  458;1.000000;1.000000;1.000000;1.000000;,
  459;1.000000;1.000000;1.000000;1.000000;,
  460;1.000000;1.000000;1.000000;1.000000;,
  461;1.000000;1.000000;1.000000;1.000000;,
  462;1.000000;1.000000;1.000000;1.000000;,
  463;1.000000;1.000000;1.000000;1.000000;,
  464;1.000000;1.000000;1.000000;1.000000;,
  465;1.000000;1.000000;1.000000;1.000000;,
  466;1.000000;1.000000;1.000000;1.000000;,
  467;1.000000;1.000000;1.000000;1.000000;,
  468;1.000000;1.000000;1.000000;1.000000;,
  469;1.000000;1.000000;1.000000;1.000000;,
  470;1.000000;1.000000;1.000000;1.000000;,
  471;1.000000;1.000000;1.000000;1.000000;,
  472;1.000000;1.000000;1.000000;1.000000;,
  473;1.000000;1.000000;1.000000;1.000000;,
  474;1.000000;1.000000;1.000000;1.000000;,
  475;1.000000;1.000000;1.000000;1.000000;,
  476;1.000000;1.000000;1.000000;1.000000;,
  477;1.000000;1.000000;1.000000;1.000000;,
  478;1.000000;1.000000;1.000000;1.000000;,
  479;1.000000;1.000000;1.000000;1.000000;,
  480;1.000000;1.000000;1.000000;1.000000;,
  481;1.000000;1.000000;1.000000;1.000000;,
  482;1.000000;1.000000;1.000000;1.000000;,
  483;1.000000;1.000000;1.000000;1.000000;,
  484;1.000000;1.000000;1.000000;1.000000;,
  485;1.000000;1.000000;1.000000;1.000000;,
  486;1.000000;1.000000;1.000000;1.000000;,
  487;1.000000;1.000000;1.000000;1.000000;,
  488;1.000000;1.000000;1.000000;1.000000;,
  489;1.000000;1.000000;1.000000;1.000000;,
  490;1.000000;1.000000;1.000000;1.000000;,
  491;1.000000;1.000000;1.000000;1.000000;,
  492;1.000000;1.000000;1.000000;1.000000;,
  493;1.000000;1.000000;1.000000;1.000000;,
  494;1.000000;1.000000;1.000000;1.000000;,
  495;1.000000;1.000000;1.000000;1.000000;,
  496;1.000000;1.000000;1.000000;1.000000;,
  497;1.000000;1.000000;1.000000;1.000000;,
  498;1.000000;1.000000;1.000000;1.000000;,
  499;1.000000;1.000000;1.000000;1.000000;,
  500;1.000000;1.000000;1.000000;1.000000;,
  501;1.000000;1.000000;1.000000;1.000000;,
  502;1.000000;1.000000;1.000000;1.000000;,
  503;1.000000;1.000000;1.000000;1.000000;,
  504;1.000000;1.000000;1.000000;1.000000;,
  505;1.000000;1.000000;1.000000;1.000000;,
  506;1.000000;1.000000;1.000000;1.000000;,
  507;1.000000;1.000000;1.000000;1.000000;,
  508;1.000000;1.000000;1.000000;1.000000;,
  509;1.000000;1.000000;1.000000;1.000000;,
  510;1.000000;1.000000;1.000000;1.000000;,
  511;1.000000;1.000000;1.000000;1.000000;,
  512;1.000000;1.000000;1.000000;1.000000;,
  513;1.000000;1.000000;1.000000;1.000000;,
  514;1.000000;1.000000;1.000000;1.000000;,
  515;1.000000;1.000000;1.000000;1.000000;,
  516;1.000000;1.000000;1.000000;1.000000;,
  517;1.000000;1.000000;1.000000;1.000000;,
  518;1.000000;1.000000;1.000000;1.000000;,
  519;1.000000;1.000000;1.000000;1.000000;,
  520;1.000000;1.000000;1.000000;1.000000;,
  521;1.000000;1.000000;1.000000;1.000000;,
  522;1.000000;1.000000;1.000000;1.000000;,
  523;1.000000;1.000000;1.000000;1.000000;,
  524;1.000000;1.000000;1.000000;1.000000;,
  525;1.000000;1.000000;1.000000;1.000000;,
  526;1.000000;1.000000;1.000000;1.000000;,
  527;1.000000;1.000000;1.000000;1.000000;,
  528;1.000000;1.000000;1.000000;1.000000;,
  529;1.000000;1.000000;1.000000;1.000000;,
  530;1.000000;1.000000;1.000000;1.000000;,
  531;1.000000;1.000000;1.000000;1.000000;,
  532;1.000000;1.000000;1.000000;1.000000;,
  533;1.000000;1.000000;1.000000;1.000000;,
  534;1.000000;1.000000;1.000000;1.000000;,
  535;1.000000;1.000000;1.000000;1.000000;,
  536;1.000000;1.000000;1.000000;1.000000;,
  537;1.000000;1.000000;1.000000;1.000000;,
  538;1.000000;1.000000;1.000000;1.000000;,
  539;1.000000;1.000000;1.000000;1.000000;,
  540;1.000000;1.000000;1.000000;1.000000;,
  541;1.000000;1.000000;1.000000;1.000000;,
  542;1.000000;1.000000;1.000000;1.000000;,
  543;1.000000;1.000000;1.000000;1.000000;,
  544;1.000000;1.000000;1.000000;1.000000;,
  545;1.000000;1.000000;1.000000;1.000000;,
  546;1.000000;1.000000;1.000000;1.000000;,
  547;1.000000;1.000000;1.000000;1.000000;,
  548;1.000000;1.000000;1.000000;1.000000;,
  549;1.000000;1.000000;1.000000;1.000000;,
  550;1.000000;1.000000;1.000000;1.000000;,
  551;1.000000;1.000000;1.000000;1.000000;,
  552;1.000000;1.000000;1.000000;1.000000;,
  553;1.000000;1.000000;1.000000;1.000000;,
  554;1.000000;1.000000;1.000000;1.000000;,
  555;1.000000;1.000000;1.000000;1.000000;,
  556;1.000000;1.000000;1.000000;1.000000;,
  557;1.000000;1.000000;1.000000;1.000000;,
  558;1.000000;1.000000;1.000000;1.000000;,
  559;1.000000;1.000000;1.000000;1.000000;,
  560;1.000000;1.000000;1.000000;1.000000;,
  561;1.000000;1.000000;1.000000;1.000000;,
  562;1.000000;1.000000;1.000000;1.000000;,
  563;1.000000;1.000000;1.000000;1.000000;,
  564;1.000000;1.000000;1.000000;1.000000;,
  565;1.000000;1.000000;1.000000;1.000000;,
  566;1.000000;1.000000;1.000000;1.000000;,
  567;1.000000;1.000000;1.000000;1.000000;,
  568;1.000000;1.000000;1.000000;1.000000;,
  569;1.000000;1.000000;1.000000;1.000000;,
  570;1.000000;1.000000;1.000000;1.000000;,
  571;1.000000;1.000000;1.000000;1.000000;,
  572;1.000000;1.000000;1.000000;1.000000;,
  573;1.000000;1.000000;1.000000;1.000000;,
  574;1.000000;1.000000;1.000000;1.000000;,
  575;1.000000;1.000000;1.000000;1.000000;,
  576;1.000000;1.000000;1.000000;1.000000;,
  577;1.000000;1.000000;1.000000;1.000000;,
  578;1.000000;1.000000;1.000000;1.000000;,
  579;1.000000;1.000000;1.000000;1.000000;,
  580;1.000000;1.000000;1.000000;1.000000;,
  581;1.000000;1.000000;1.000000;1.000000;,
  582;1.000000;1.000000;1.000000;1.000000;,
  583;1.000000;1.000000;1.000000;1.000000;,
  584;1.000000;1.000000;1.000000;1.000000;;
 }
}
