xof 0302txt 0064
template Header {
 <3D82AB43-62DA-11cf-AB39-0020AF71E433>
 WORD major;
 WORD minor;
 DWORD flags;
}

template Vector {
 <3D82AB5E-62DA-11cf-AB39-0020AF71E433>
 FLOAT x;
 FLOAT y;
 FLOAT z;
}

template Coords2d {
 <F6F23F44-7686-11cf-8F52-0040333594A3>
 FLOAT u;
 FLOAT v;
}

template Matrix4x4 {
 <F6F23F45-7686-11cf-8F52-0040333594A3>
 array FLOAT matrix[16];
}

template ColorRGBA {
 <35FF44E0-6C7C-11cf-8F52-0040333594A3>
 FLOAT red;
 FLOAT green;
 FLOAT blue;
 FLOAT alpha;
}

template ColorRGB {
 <D3E16E81-7835-11cf-8F52-0040333594A3>
 FLOAT red;
 FLOAT green;
 FLOAT blue;
}

template IndexedColor {
 <1630B820-7842-11cf-8F52-0040333594A3>
 DWORD index;
 ColorRGBA indexColor;
}

template Boolean {
 <4885AE61-78E8-11cf-8F52-0040333594A3>
 WORD truefalse;
}

template Boolean2d {
 <4885AE63-78E8-11cf-8F52-0040333594A3>
 Boolean u;
 Boolean v;
}

template MaterialWrap {
 <4885AE60-78E8-11cf-8F52-0040333594A3>
 Boolean u;
 Boolean v;
}

template TextureFilename {
 <A42790E1-7810-11cf-8F52-0040333594A3>
 STRING filename;
}

template Material {
 <3D82AB4D-62DA-11cf-AB39-0020AF71E433>
 ColorRGBA faceColor;
 FLOAT power;
 ColorRGB specularColor;
 ColorRGB emissiveColor;
 [...]
}

template MeshFace {
 <3D82AB5F-62DA-11cf-AB39-0020AF71E433>
 DWORD nFaceVertexIndices;
 array DWORD faceVertexIndices[nFaceVertexIndices];
}

template MeshFaceWraps {
 <4885AE62-78E8-11cf-8F52-0040333594A3>
 DWORD nFaceWrapValues;
 Boolean2d faceWrapValues;
}

template MeshTextureCoords {
 <F6F23F40-7686-11cf-8F52-0040333594A3>
 DWORD nTextureCoords;
 array Coords2d textureCoords[nTextureCoords];
}

template MeshMaterialList {
 <F6F23F42-7686-11cf-8F52-0040333594A3>
 DWORD nMaterials;
 DWORD nFaceIndexes;
 array DWORD faceIndexes[nFaceIndexes];
 [Material]
}

template MeshNormals {
 <F6F23F43-7686-11cf-8F52-0040333594A3>
 DWORD nNormals;
 array Vector normals[nNormals];
 DWORD nFaceNormals;
 array MeshFace faceNormals[nFaceNormals];
}

template MeshVertexColors {
 <1630B821-7842-11cf-8F52-0040333594A3>
 DWORD nVertexColors;
 array IndexedColor vertexColors[nVertexColors];
}

template Mesh {
 <3D82AB44-62DA-11cf-AB39-0020AF71E433>
 DWORD nVertices;
 array Vector vertices[nVertices];
 DWORD nFaces;
 array MeshFace faces[nFaces];
 [...]
}

Header{
1;
0;
1;
}

Mesh {
 573;
 -0.63925;2.36158;2.49253;,
 -0.63541;1.76713;-0.36540;,
 1.00053;1.77524;-0.30677;,
 0.66054;2.36750;2.59309;,
 1.92153;2.06012;-1.68644;,
 0.32025;1.46566;0.33100;,
 -0.80373;1.47378;-1.17283;,
 1.05870;2.06604;-2.91942;,
 1.22495;1.82521;-2.77739;,
 -0.52188;1.20437;-0.97737;,
 -0.08649;2.42848;0.28079;,
 1.59463;2.81580;-1.81640;,
 1.31882;2.73948;-2.31064;,
 -0.50249;2.44700;-0.49555;,
 0.23791;1.11456;0.25758;,
 1.94437;1.69229;-1.73424;,
 1.64564;0.99631;2.84187;,
 -0.33595;0.28848;0.53857;,
 1.02079;0.29814;-1.22984;,
 2.76108;1.00336;1.48026;,
 2.63605;0.71660;1.73764;,
 0.85149;-0.02265;-0.79582;,
 -0.30983;1.43493;-0.07572;,
 1.75095;1.89612;2.34351;,
 2.20171;1.80524;1.90306;,
 0.39910;1.45698;-0.74165;,
 -0.27114;-0.12959;0.41092;,
 1.69181;0.55833;2.87372;,
 1.07854;0.65726;-2.52249;,
 0.53996;0.81255;0.00164;,
 -0.84775;0.67467;-0.50954;,
 -0.01391;0.53495;-2.97188;,
 0.16364;0.33864;-2.86400;,
 -0.56247;0.44850;-0.41216;,
 0.20824;1.66617;-0.18764;,
 0.78096;1.30968;-2.73288;,
 0.39717;1.18463;-2.91967;,
 -0.38135;1.58277;-0.54240;,
 0.45112;0.51631;0.12401;,
 1.07977;0.33685;-2.42990;,
 -0.22558;-0.49393;-3.00804;,
 0.69408;-0.33863;-0.66642;,
 -0.61319;-0.47651;0.11316;,
 -1.27933;-0.61623;-2.42951;,
 -0.21319;0.33984;2.82386;,
 0.87643;0.15585;0.04950;,
 -0.67243;0.31921;-0.87415;,
 -1.46167;0.48475;2.13841;,
 -1.06448;-0.28498;2.50006;,
 -0.27898;-0.75671;-0.38210;,
 0.87359;0.50684;-0.14725;,
 -0.15460;0.71947;2.74291;,
 0.59837;1.94485;-0.96206;,
 0.57238;1.80291;-1.07079;,
 1.04211;2.00982;-1.79083;,
 1.04211;2.00982;-1.79083;,
 0.45987;2.03509;-1.10680;,
 0.59837;1.94485;-0.96206;,
 0.46004;1.85054;-1.20131;,
 0.45987;2.03509;-1.10680;,
 1.04211;2.00982;-1.79083;,
 0.57238;1.80291;-1.07079;,
 0.46004;1.85054;-1.20131;,
 1.04211;2.00982;-1.79083;,
 0.37641;1.67109;-0.65102;,
 0.27109;1.64069;-0.81194;,
 0.37641;1.67109;-0.65102;,
 0.34523;1.82523;-0.61490;,
 0.59837;1.94485;-0.96206;,
 0.20945;1.83182;-0.79883;,
 0.34523;1.82523;-0.61490;,
 0.27109;1.64069;-0.81194;,
 0.89527;0.85906;0.88965;,
 0.99623;0.69004;0.84493;,
 1.69820;0.93642;1.51393;,
 1.69820;0.93642;1.51393;,
 1.02428;0.96650;0.67385;,
 0.89527;0.85906;0.88965;,
 1.11322;0.74676;0.66920;,
 1.02428;0.96650;0.67385;,
 1.69820;0.93642;1.51393;,
 0.99623;0.69004;0.84493;,
 1.11322;0.74676;0.66920;,
 1.69820;0.93642;1.51393;,
 0.72147;0.72446;0.31326;,
 0.73700;0.49689;0.40527;,
 0.73700;0.49689;0.40527;,
 0.30746;0.90515;-1.26408;,
 0.24986;0.76801;-1.27586;,
 0.36350;0.72318;-2.12181;,
 0.36350;0.72318;-2.12181;,
 0.15046;0.97105;-1.33137;,
 0.30746;0.90515;-1.26408;,
 0.11798;0.79742;-1.33030;,
 0.15046;0.97105;-1.33137;,
 0.36350;0.72318;-2.12181;,
 0.24986;0.76801;-1.27586;,
 0.11798;0.79742;-1.33030;,
 0.36350;0.72318;-2.12181;,
 -0.06198;2.45156;-0.34758;,
 -0.08918;2.51278;-0.18656;,
 -0.11350;2.41513;-0.21989;,
 -0.03587;2.58645;-0.27682;,
 -0.08918;2.51278;-0.18656;,
 -0.06198;2.45156;-0.34758;,
 -0.35150;2.45451;-0.36766;,
 -0.30030;2.47842;-0.50885;,
 -0.30030;2.47842;-0.50885;,
 -0.26611;2.59153;-0.49009;,
 -0.31827;2.59443;-0.31455;,
 -0.03587;2.58645;-0.27682;,
 -0.26611;2.59153;-0.49009;,
 -0.08918;2.51278;-0.18656;,
 -0.35150;2.45451;-0.36766;,
 -0.08918;2.51278;-0.18656;,
 -0.31827;2.59443;-0.31455;,
 -0.11350;2.41513;-0.21989;,
 -0.14349;-0.24603;-1.41964;,
 -0.19280;-0.38317;-1.38021;,
 -0.55110;-0.42800;-2.10898;,
 -0.55110;-0.42800;-2.10898;,
 -0.29635;-0.18013;-1.33852;,
 -0.14349;-0.24603;-1.41964;,
 -0.32011;-0.35377;-1.31051;,
 -0.29635;-0.18013;-1.33852;,
 -0.55110;-0.42800;-2.10898;,
 -0.19280;-0.38317;-1.38021;,
 -0.32011;-0.35377;-1.31051;,
 -0.55110;-0.42800;-2.10898;,
 0.04209;-0.37785;-1.03288;,
 -0.08702;-0.42091;-0.95610;,
 0.04209;-0.37785;-1.03288;,
 0.02505;-0.23707;-1.03501;,
 -0.14349;-0.24603;-1.41964;,
 -0.13542;-0.24952;-0.94301;,
 0.02505;-0.23707;-1.03501;,
 -0.13542;-0.24952;-0.94301;,
 -0.08702;-0.42091;-0.95610;,
 -0.08702;-0.42091;-0.95610;,
 0.12596;-0.29357;-0.65261;,
 -0.02118;-0.23122;-0.57443;,
 0.00919;-0.35117;-0.58160;,
 0.06142;-0.13013;-0.62970;,
 -0.02118;-0.23122;-0.57443;,
 0.12596;-0.29357;-0.65261;,
 -0.08702;-0.42091;-0.95610;,
 0.04209;-0.37785;-1.03288;,
 0.04209;-0.37785;-1.03288;,
 0.02505;-0.23707;-1.03501;,
 -0.13542;-0.24952;-0.94301;,
 0.06142;-0.13013;-0.62970;,
 0.02505;-0.23707;-1.03501;,
 -0.02118;-0.23122;-0.57443;,
 -0.08702;-0.42091;-0.95610;,
 -0.02118;-0.23122;-0.57443;,
 -0.13542;-0.24952;-0.94301;,
 0.00919;-0.35117;-0.58160;,
 0.10395;0.20231;0.48368;,
 -0.04902;0.25334;0.39271;,
 -0.17436;0.20862;0.89520;,
 -0.11592;0.04614;0.94192;,
 0.10395;0.20231;0.48368;,
 0.08376;0.03552;0.48621;,
 -0.11592;0.04614;0.94192;,
 -0.11592;0.04614;0.94192;,
 -0.10637;0.05027;0.37720;,
 0.08376;0.03552;0.48621;,
 -0.29703;-0.03194;0.84581;,
 -0.32519;0.17379;0.81262;,
 -0.10637;0.05027;0.37720;,
 -0.29703;-0.03194;0.84581;,
 -0.04902;0.25334;0.39271;,
 -0.17436;0.20862;0.89520;,
 -0.04902;0.25334;0.39271;,
 -0.32519;0.17379;0.81262;,
 -0.11592;0.04614;0.94192;,
 -0.17436;0.20862;0.89520;,
 -0.59887;0.26174;1.75865;,
 -0.59887;0.26174;1.75865;,
 -0.29703;-0.03194;0.84581;,
 -0.11592;0.04614;0.94192;,
 -0.32519;0.17379;0.81262;,
 -0.29703;-0.03194;0.84581;,
 -0.59887;0.26174;1.75865;,
 -0.17436;0.20862;0.89520;,
 -0.32519;0.17379;0.81262;,
 -0.59887;0.26174;1.75865;,
 0.12684;-0.09118;0.00600;,
 0.02898;0.02858;-0.05949;,
 0.20332;0.10246;0.03314;,
 0.10395;0.20231;0.48368;,
 0.12684;-0.09118;0.00600;,
 0.20332;0.10246;0.03314;,
 -0.10637;0.05027;0.37720;,
 0.02898;0.02858;-0.05949;,
 0.12684;-0.09118;0.00600;,
 0.08376;0.03552;0.48621;,
 0.12684;-0.09118;0.00600;,
 0.10395;0.20231;0.48368;,
 -0.10637;0.05027;0.37720;,
 0.12684;-0.09118;0.00600;,
 0.08376;0.03552;0.48621;,
 0.20332;0.10246;0.03314;,
 0.02898;0.02858;-0.05949;,
 0.06496;0.17070;-0.05100;,
 -0.04902;0.25334;0.39271;,
 0.10395;0.20231;0.48368;,
 0.20332;0.10246;0.03314;,
 -0.04902;0.25334;0.39271;,
 -0.04902;0.25334;0.39271;,
 0.02898;0.02858;-0.05949;,
 -0.10637;0.05027;0.37720;,
 0.06496;0.17070;-0.05100;,
 -1.13642;1.21802;-0.26048;,
 -1.18280;1.04900;-0.13860;,
 -2.05337;1.29538;0.01583;,
 -2.05337;1.29538;0.01583;,
 -1.10694;1.32546;0.00744;,
 -1.13642;1.21802;-0.26048;,
 -1.16724;1.10572;0.09023;,
 -1.10694;1.32546;0.00744;,
 -2.05337;1.29538;0.01583;,
 -1.18280;1.04900;-0.13860;,
 -1.16724;1.10572;0.09023;,
 -2.05337;1.29538;0.01583;,
 -0.75358;0.85585;-0.05944;,
 -0.24146;0.87139;-0.24094;,
 -0.19905;0.81467;-0.01211;,
 -0.74364;0.89204;-0.30782;,
 -0.74364;0.89204;-0.30782;,
 -0.12094;1.09113;-0.15815;,
 -0.24146;0.87139;-0.24094;,
 -0.69328;1.07559;-0.30782;,
 -1.13642;1.21802;-0.26048;,
 -0.69113;1.08342;-0.00828;,
 -0.12094;1.09113;-0.15815;,
 -0.69328;1.07559;-0.30782;,
 -0.05845;0.97342;0.01721;,
 -0.75358;0.85585;-0.05944;,
 -0.05845;0.97342;0.01721;,
 -0.69113;1.08342;-0.00828;,
 -0.19905;0.81467;-0.01211;,
 -0.75358;0.85585;-0.05944;,
 0.73700;0.49689;0.40527;,
 0.32413;0.51243;0.14000;,
 0.46313;0.45571;-0.00790;,
 0.59105;0.53308;0.57202;,
 0.99623;0.69004;0.84493;,
 0.89527;0.85906;0.88965;,
 0.59105;0.53308;0.57202;,
 0.55544;0.71663;0.52699;,
 0.89527;0.85906;0.88965;,
 0.72147;0.72446;0.31326;,
 0.32780;0.73217;0.02755;,
 0.55544;0.71663;0.52699;,
 0.89527;0.85906;0.88965;,
 1.02428;0.96650;0.67385;,
 0.44873;0.61446;-0.06757;,
 0.73700;0.49689;0.40527;,
 0.44873;0.61446;-0.06757;,
 0.72147;0.72446;0.31326;,
 0.46313;0.45571;-0.00790;,
 -0.06568;1.95521;-0.07486;,
 0.10668;2.04089;-0.09510;,
 0.08563;1.90757;-0.04997;,
 -0.00852;2.13975;-0.13578;,
 0.10668;2.04089;-0.09510;,
 -0.06568;1.95521;-0.07486;,
 0.03865;1.94215;0.39882;,
 -0.12583;1.97255;0.37919;,
 -0.12583;1.97255;0.37919;,
 -0.12399;2.12670;0.32577;,
 0.07490;2.13328;0.33446;,
 -0.00852;2.13975;-0.13578;,
 -0.12399;2.12670;0.32577;,
 0.10668;2.04089;-0.09510;,
 0.03865;1.94215;0.39882;,
 0.10668;2.04089;-0.09510;,
 0.07490;2.13328;0.33446;,
 0.08563;1.90757;-0.04997;,
 -0.10880;2.24632;0.79753;,
 -0.02961;2.10437;0.85119;,
 0.04099;2.31128;1.78023;,
 0.04099;2.31128;1.78023;,
 0.07009;2.33655;0.77608;,
 -0.10880;2.24632;0.79753;,
 0.12283;2.15201;0.84306;,
 0.07009;2.33655;0.77608;,
 0.04099;2.31128;1.78023;,
 -0.02961;2.10437;0.85119;,
 0.12283;2.15201;0.84306;,
 0.04099;2.31128;1.78023;,
 -0.12583;1.97255;0.37919;,
 0.03865;1.94215;0.39882;,
 -0.12583;1.97255;0.37919;,
 -0.12399;2.12670;0.32577;,
 -0.10880;2.24632;0.79753;,
 0.07490;2.13328;0.33446;,
 -0.12399;2.12670;0.32577;,
 0.07490;2.13328;0.33446;,
 0.03865;1.94215;0.39882;,
 0.03865;1.94215;0.39882;,
 0.07990;1.65375;-0.38373;,
 -0.05329;1.73943;-0.52349;,
 -0.01316;1.60611;-0.53658;,
 0.00541;1.83829;-0.39175;,
 -0.05329;1.73943;-0.52349;,
 0.07990;1.65375;-0.38373;,
 0.27109;1.64069;-0.81194;,
 0.37641;1.67109;-0.65102;,
 0.37641;1.67109;-0.65102;,
 0.34523;1.82523;-0.61490;,
 0.20945;1.83182;-0.79883;,
 0.00541;1.83829;-0.39175;,
 0.34523;1.82523;-0.61490;,
 -0.05329;1.73943;-0.52349;,
 0.27109;1.64069;-0.81194;,
 -0.05329;1.73943;-0.52349;,
 0.20945;1.83182;-0.79883;,
 -0.01316;1.60611;-0.53658;,
 0.46004;1.85054;-1.20131;,
 0.20945;1.83182;-0.79883;,
 0.45987;2.03509;-1.10680;,
 0.27109;1.64069;-0.81194;,
 0.32413;0.51243;0.14000;,
 0.44873;0.61446;-0.06757;,
 0.46313;0.45571;-0.00790;,
 0.32780;0.73217;0.02755;,
 0.44873;0.61446;-0.06757;,
 0.32413;0.51243;0.14000;,
 0.59105;0.53308;0.57202;,
 0.55544;0.71663;0.52699;,
 0.10722;0.85762;-0.46391;,
 -0.04396;0.91997;-0.52861;,
 -0.01746;0.80002;-0.50854;,
 0.04687;1.02105;-0.50082;,
 -0.04396;0.91997;-0.52861;,
 0.10722;0.85762;-0.46391;,
 0.10679;0.73027;-0.86961;,
 0.24373;0.77334;-0.81897;,
 0.24373;0.77334;-0.81897;,
 0.10679;0.73027;-0.86961;,
 -0.01746;0.80002;-0.50854;,
 -0.04396;0.91997;-0.52861;,
 0.23209;0.91411;-0.83483;,
 0.04687;1.02105;-0.50082;,
 0.24373;0.77334;-0.81897;,
 0.06367;0.90166;-0.90035;,
 0.04687;1.02105;-0.50082;,
 0.23209;0.91411;-0.83483;,
 -0.04396;0.91997;-0.52861;,
 0.10679;0.73027;-0.86961;,
 -0.04396;0.91997;-0.52861;,
 0.06367;0.90166;-0.90035;,
 0.10722;0.85762;-0.46391;,
 -0.04396;0.91997;-0.52861;,
 -0.01746;0.80002;-0.50854;,
 0.04687;1.02105;-0.50082;,
 -0.04396;0.91997;-0.52861;,
 0.10722;0.85762;-0.46391;,
 0.10679;0.73027;-0.86961;,
 0.24373;0.77334;-0.81897;,
 0.24373;0.77334;-0.81897;,
 0.10679;0.73027;-0.86961;,
 -0.01746;0.80002;-0.50854;,
 -0.04396;0.91997;-0.52861;,
 0.23209;0.91411;-0.83483;,
 0.04687;1.02105;-0.50082;,
 0.24373;0.77334;-0.81897;,
 0.06367;0.90166;-0.90035;,
 0.04687;1.02105;-0.50082;,
 0.23209;0.91411;-0.83483;,
 -0.04396;0.91997;-0.52861;,
 0.10679;0.73027;-0.86961;,
 -0.04396;0.91997;-0.52861;,
 0.06367;0.90166;-0.90035;,
 0.24373;0.77334;-0.81897;,
 0.10679;0.73027;-0.86961;,
 0.24986;0.76801;-1.27586;,
 0.30746;0.90515;-1.26408;,
 0.24373;0.77334;-0.81897;,
 0.23209;0.91411;-0.83483;,
 0.30746;0.90515;-1.26408;,
 0.30746;0.90515;-1.26408;,
 0.06367;0.90166;-0.90035;,
 0.23209;0.91411;-0.83483;,
 0.15046;0.97105;-1.33137;,
 0.11798;0.79742;-1.33030;,
 0.06367;0.90166;-0.90035;,
 0.15046;0.97105;-1.33137;,
 0.10679;0.73027;-0.86961;,
 0.24986;0.76801;-1.27586;,
 0.10679;0.73027;-0.86961;,
 0.11798;0.79742;-1.33030;,
 0.46353;2.12667;2.64127;,
 0.69189;1.50584;-0.19303;,
 -0.31972;2.72995;-0.69349;,
 -0.33540;3.11726;2.29221;,
 0.13608;3.04095;2.39514;,
 0.40868;2.74846;-0.51640;,
 -0.53612;1.41602;-0.38710;,
 -0.62865;1.99375;2.54675;,
 -1.34410;2.83545;-1.45890;,
 0.23026;2.30958;-0.79201;,
 -0.19299;2.29880;0.65363;,
 -1.71050;2.82807;-0.32318;,
 -0.58239;2.58920;-0.53162;,
 -1.11091;2.76951;-0.68393;,
 -0.52910;2.69415;-0.58545;,
 -0.55704;2.75864;-0.41818;,
 -0.52910;2.69415;-0.58545;,
 -1.11091;2.76951;-0.68393;,
 -0.55704;2.75864;-0.41818;,
 -1.11091;2.76951;-0.68393;,
 -0.61279;2.62268;-0.39234;,
 -0.61279;2.62268;-0.39234;,
 -1.11091;2.76951;-0.68393;,
 -0.58239;2.58920;-0.53162;,
 -0.35150;2.45451;-0.36766;,
 -0.30030;2.47842;-0.50885;,
 -0.30030;2.47842;-0.50885;,
 -0.52910;2.69415;-0.58545;,
 -0.26611;2.59153;-0.49009;,
 -0.31827;2.59443;-0.31455;,
 -0.26611;2.59153;-0.49009;,
 -0.31827;2.59443;-0.31455;,
 -0.35150;2.45451;-0.36766;,
 -0.35150;2.45451;-0.36766;,
 -1.69786;2.65251;-0.51726;,
 -0.19114;2.10516;0.34354;,
 0.36802;3.01283;-0.40481;,
 -1.28126;3.38845;-1.11860;,
 -1.45369;3.32932;-0.72469;,
 0.09584;3.02353;0.20333;,
 0.20762;2.04657;-0.70828;,
 -1.38841;2.56322;-1.47285;,
 -2.75898;1.35527;-0.97015;,
 -0.06944;0.64744;-1.11282;,
 -0.03965;0.65710;1.35043;,
 -2.78610;1.36232;0.98975;,
 -2.84167;1.07556;0.69598;,
 -0.16271;0.33631;0.89219;,
 0.25568;1.79389;-0.65511;,
 -2.55470;2.25508;-0.52361;,
 -2.62707;2.16421;0.19076;,
 0.12688;1.81594;0.44949;,
 -0.04387;0.22937;-0.96463;,
 -2.80945;0.91729;-0.95140;,
 -1.08981;-0.81254;-2.49743;,
 -0.34849;-0.70268;-0.05288;,
 0.34642;0.51498;-0.53032;,
 -0.55873;0.15850;-2.91634;,
 -0.94408;0.03344;-2.73475;,
 -0.28111;0.43159;-0.30214;,
 0.69168;-0.63487;-0.50036;,
 -0.17613;-0.81434;-2.93972;,
 -1.23713;0.71734;2.21889;,
 -0.35881;0.58718;-0.67742;,
 0.46452;-0.85552;-0.11175;,
 -0.60791;-0.43315;2.71521;,
 -0.41736;5.17258;-0.95250;,
 -0.01445;1.46119;-1.79377;,
 -0.49269;1.02104;1.46040;,
 -0.82250;4.88688;1.64347;,
 -1.04070;4.88179;1.38143;,
 -0.75149;1.11435;0.97689;,
 1.58740;1.46852;-0.54690;,
 0.82116;5.22881;0.19844;,
 2.14297;0.10705;-2.35874;,
 -0.09375;-0.07695;-1.09416;,
 0.63665;0.08642;0.86400;,
 2.76144;0.25196;-0.82593;,
 1.14258;-0.02417;-0.90177;,
 1.90460;0.02894;-1.22668;,
 1.12100;-0.18666;-0.98481;,
 1.21239;-0.26473;-0.76501;,
 1.12100;-0.18666;-0.98481;,
 1.90460;0.02894;-1.22668;,
 1.21239;-0.26473;-0.76501;,
 1.90460;0.02894;-1.22668;,
 1.21742;-0.05901;-0.71677;,
 1.21742;-0.05901;-0.71677;,
 1.90460;0.02894;-1.22668;,
 1.14258;-0.02417;-0.90177;,
 0.41741;-0.13034;-0.54028;,
 0.48183;-0.06209;-0.36410;,
 0.79304;0.02054;-0.61483;,
 0.72078;-0.03048;-0.80802;,
 0.72078;-0.03048;-0.80802;,
 0.46276;-0.32397;-0.45784;,
 0.41741;-0.13034;-0.54028;,
 0.73762;-0.19727;-0.79374;,
 1.12100;-0.18666;-0.98481;,
 0.46276;-0.32397;-0.45784;,
 0.73762;-0.19727;-0.79374;,
 0.82949;-0.18252;-0.55674;,
 0.50532;-0.20421;-0.32861;,
 0.50532;-0.20421;-0.32861;,
 0.82949;-0.18252;-0.55674;,
 0.79304;0.02054;-0.61483;,
 0.48183;-0.06209;-0.36410;,
 0.79304;0.02054;-0.61483;,
 2.62867;0.48455;-1.06858;,
 0.49363;0.35439;0.46002;,
 0.14295;-1.08831;-0.63851;,
 2.39288;-0.66594;-1.95752;,
 2.63692;-0.51778;-1.42437;,
 0.58062;-0.98950;0.16795;,
 -0.19056;0.27404;-0.94006;,
 2.05703;0.48667;-2.34340;,
 -0.28526;0.97342;0.01721;,
 -0.32882;0.81467;-0.01211;,
 -0.31326;0.87139;-0.24094;,
 -0.28526;0.97342;0.01721;,
 -0.31326;0.87139;-0.24094;,
 -0.25296;1.09113;-0.15815;,
 0.52714;5.16377;0.77378;,
 1.32850;1.46002;0.59661;,
 -0.44961;1.22283;-1.87765;,
 -0.88660;5.04385;-1.20480;,
 0.37412;-1.34161;-0.35390;,
 0.07436;-1.34161;-0.07858;,
 0.07436;-1.34161;-0.57109;,
 0.44489;-1.34161;0.07362;,
 0.07436;-1.34161;-0.07858;,
 0.37412;-1.34161;-0.35390;,
 0.30336;-1.34161;0.31988;,
 0.07436;-1.34161;-0.07858;,
 0.07436;-1.34161;0.41394;,
 0.07436;-1.34161;-0.07858;,
 -0.22541;-1.34161;0.19675;,
 0.07436;-1.34161;-0.07858;,
 -0.29617;-1.34161;-0.23077;,
 0.07436;-1.34161;-0.07858;,
 -0.22541;-1.34161;0.19675;,
 -0.15464;-1.34161;-0.47703;,
 0.07436;-1.34161;-0.07858;,
 0.07436;-1.34161;-0.57109;,
 0.07436;-1.34161;-0.07858;,
 -0.08837;1.86038;-0.53243;,
 0.01620;3.74182;0.02942;,
 0.27550;1.86038;-0.51665;,
 0.27550;1.86038;-0.51665;,
 0.01620;3.74182;0.02942;,
 0.27550;1.86038;-0.14717;,
 0.27550;1.86038;-0.14717;,
 0.01620;3.74182;0.02942;,
 -0.02621;1.86038;-0.07431;,
 -0.02621;1.86038;-0.07431;,
 0.01620;3.74182;0.02942;,
 -0.08837;1.86038;-0.53243;,
 0.30336;0.68504;-0.47703;,
 -0.04014;0.68504;-0.52406;,
 0.44489;0.68504;-0.23077;,
 0.44489;0.68504;0.07362;,
 0.30336;0.68504;0.31988;,
 0.07436;0.68504;0.41394;,
 -0.02621;1.86038;-0.07431;,
 -0.22541;0.68504;0.19675;,
 -0.29617;0.68504;-0.23077;,
 -0.22541;0.68504;0.19675;,
 -0.04014;0.68504;-0.52406;,
 0.49520;-0.37924;-0.62577;,
 0.08094;-0.37924;-0.79593;,
 0.49520;-0.37924;-0.62577;,
 0.56596;-0.37924;-0.19825;,
 0.42443;-0.37924;0.04801;,
 0.19543;-0.37924;0.14207;,
 -0.03356;-0.37924;0.04801;,
 -0.17509;-0.37924;-0.19825;,
 -0.17509;-0.37924;-0.50264;,
 0.08094;-0.37924;-0.79593;,
 0.08094;-0.37924;-0.79593;;
 
 367;
 4;0,1,2,3;,
 4;4,5,6,7;,
 4;8,9,10,11;,
 4;12,13,14,15;,
 4;16,17,18,19;,
 4;20,21,22,23;,
 4;24,25,26,27;,
 4;28,29,30,31;,
 4;32,33,34,35;,
 4;36,37,38,39;,
 4;40,41,42,43;,
 4;44,45,46,47;,
 4;48,49,50,51;,
 3;52,53,54;,
 3;55,56,57;,
 3;58,59,60;,
 3;61,62,63;,
 3;64,65,53;,
 3;52,66,53;,
 3;67,66,68;,
 3;57,69,70;,
 3;56,69,57;,
 3;61,71,62;,
 3;72,73,74;,
 3;75,76,77;,
 3;78,79,80;,
 3;81,82,83;,
 3;78,84,79;,
 3;85,84,78;,
 3;81,86,82;,
 3;87,88,89;,
 3;90,91,92;,
 3;93,94,95;,
 3;96,97,98;,
 3;99,100,101;,
 3;102,103,104;,
 3;105,99,101;,
 3;106,99,105;,
 3;107,102,104;,
 3;108,102,107;,
 3;109,110,111;,
 3;109,112,110;,
 3;113,114,115;,
 3;113,116,114;,
 3;117,118,119;,
 3;120,121,122;,
 3;123,124,125;,
 3;126,127,128;,
 3;129,130,118;,
 3;117,131,118;,
 3;132,131,133;,
 3;122,134,135;,
 3;121,134,122;,
 3;123,136,124;,
 3;137,136,123;,
 3;126,138,127;,
 3;139,140,141;,
 3;142,143,144;,
 3;145,139,141;,
 3;146,139,145;,
 3;147,142,144;,
 3;148,142,147;,
 3;149,150,151;,
 3;149,152,150;,
 3;153,154,155;,
 3;153,156,154;,
 3;157,158,159;,
 3;160,161,159;,
 3;162,161,163;,
 3;164,165,166;,
 3;167,165,164;,
 3;168,169,170;,
 3;171,169,168;,
 3;172,173,174;,
 3;175,176,177;,
 3;178,179,180;,
 3;181,182,183;,
 3;184,185,186;,
 3;187,188,189;,
 3;190,191,192;,
 3;193,194,195;,
 3;196,197,198;,
 3;199,200,201;,
 3;202,203,204;,
 3;205,202,204;,
 3;206,207,208;,
 3;209,210,211;,
 3;209,212,210;,
 3;213,214,215;,
 3;216,217,218;,
 3;219,220,221;,
 3;222,223,224;,
 3;225,226,227;,
 3;228,226,225;,
 3;228,225,214;,
 3;213,229,214;,
 3;229,230,231;,
 3;232,230,229;,
 3;232,229,233;,
 3;234,235,236;,
 3;218,234,236;,
 3;217,234,218;,
 3;234,237,235;,
 3;238,239,240;,
 3;219,240,220;,
 3;238,240,219;,
 3;238,241,239;,
 3;222,242,223;,
 3;243,244,245;,
 3;246,244,243;,
 3;246,243,247;,
 3;248,249,247;,
 3;250,249,251;,
 3;252,253,254;,
 3;255,252,254;,
 3;256,252,255;,
 3;252,257,253;,
 3;258,259,260;,
 3;258,261,259;,
 3;262,263,264;,
 3;265,266,267;,
 3;268,262,264;,
 3;269,262,268;,
 3;270,265,267;,
 3;271,265,270;,
 3;272,273,274;,
 3;272,275,273;,
 3;276,277,278;,
 3;276,279,277;,
 3;280,281,282;,
 3;283,284,285;,
 3;286,287,288;,
 3;289,290,291;,
 3;292,293,281;,
 3;280,294,281;,
 3;295,294,296;,
 3;285,297,298;,
 3;284,297,285;,
 3;286,299,287;,
 3;300,299,286;,
 3;289,301,290;,
 3;302,303,304;,
 3;305,306,307;,
 3;308,302,304;,
 3;309,302,308;,
 3;310,305,307;,
 3;311,305,310;,
 3;312,313,314;,
 3;312,315,313;,
 3;316,317,318;,
 3;316,319,317;,
 3;320,321,322;,
 3;323,321,320;,
 3;324,325,326;,
 3;327,328,329;,
 3;330,327,329;,
 3;331,327,330;,
 3;332,333,334;,
 3;335,336,337;,
 3;338,332,334;,
 3;339,332,338;,
 3;340,335,337;,
 3;341,342,343;,
 3;344,345,346;,
 3;347,348,349;,
 3;347,350,348;,
 3;351,352,353;,
 3;354,355,356;,
 3;357,358,359;,
 3;360,354,356;,
 3;361,354,360;,
 3;362,357,359;,
 3;363,364,365;,
 3;366,367,368;,
 3;369,370,371;,
 3;369,372,370;,
 3;373,374,375;,
 3;376,377,378;,
 3;379,380,378;,
 3;381,380,382;,
 3;383,384,385;,
 3;386,384,383;,
 3;387,388,389;,
 3;390,388,387;,
 3;391,392,393;,
 4;394,395,396,397;,
 4;397,396,395,394;,
 4;398,399,400,401;,
 4;401,400,399,398;,
 4;402,403,404,405;,
 4;405,404,403,402;,
 3;406,407,408;,
 3;409,410,411;,
 3;412,413,414;,
 3;415,416,417;,
 3;418,406,419;,
 3;420,406,408;,
 3;420,421,422;,
 3;423,424,410;,
 3;423,410,409;,
 3;425,412,414;,
 3;425,414,426;,
 3;427,415,417;,
 4;428,429,430,431;,
 4;431,430,429,428;,
 4;432,433,434,435;,
 4;435,434,433,432;,
 4;436,437,438,439;,
 4;439,438,437,436;,
 4;440,441,442,443;,
 4;443,442,441,440;,
 4;444,445,446,447;,
 4;447,446,445,444;,
 4;448,449,450,451;,
 4;452,453,454,455;,
 4;455,454,453,452;,
 4;456,457,458,459;,
 4;394,395,396,397;,
 4;398,399,400,401;,
 4;402,403,404,405;,
 3;408,407,406;,
 3;411,410,409;,
 3;414,413,412;,
 3;417,416,415;,
 3;419,406,418;,
 3;408,406,420;,
 3;422,421,420;,
 3;410,424,423;,
 3;409,410,423;,
 3;414,412,425;,
 3;426,414,425;,
 3;417,415,427;,
 4;428,429,430,431;,
 4;432,433,434,435;,
 4;436,437,438,439;,
 4;440,441,442,443;,
 4;444,445,446,447;,
 4;451,450,449,448;,
 4;452,453,454,455;,
 4;459,458,457,456;,
 4;460,461,462,463;,
 4;463,462,461,460;,
 4;460,461,462,463;,
 4;463,462,461,460;,
 4;464,465,466,467;,
 4;467,466,465,464;,
 4;464,465,466,467;,
 4;468,469,470,471;,
 4;471,470,469,468;,
 3;472,473,474;,
 3;475,476,477;,
 3;478,479,480;,
 3;481,482,483;,
 3;484,485,486;,
 3;484,486,487;,
 3;486,472,487;,
 3;488,472,474;,
 3;489,490,488;,
 3;489,488,491;,
 3;488,492,491;,
 3;493,494,495;,
 3;495,494,476;,
 3;495,476,475;,
 3;496,493,495;,
 3;497,498,499;,
 3;498,478,480;,
 3;498,480,499;,
 3;500,497,499;,
 3;501,481,483;,
 4;502,503,504,505;,
 4;506,507,508,509;,
 4;509,508,507,506;,
 4;468,469,470,471;,
 3;474,473,472;,
 3;477,476,475;,
 3;480,479,478;,
 3;483,482,481;,
 3;486,485,484;,
 3;487,486,484;,
 3;487,472,486;,
 3;474,472,488;,
 3;488,490,489;,
 3;491,488,489;,
 3;491,492,488;,
 3;495,494,493;,
 3;476,494,495;,
 3;475,476,495;,
 3;495,493,496;,
 3;499,498,497;,
 3;480,478,498;,
 3;499,480,498;,
 3;499,497,500;,
 3;483,481,501;,
 4;505,504,503,502;,
 4;506,507,508,509;,
 3;510,511,512;,
 3;513,514,515;,
 3;512,511,510;,
 3;515,514,513;,
 4;516,517,518,519;,
 4;23,22,21,20;,
 4;27,26,25,24;,
 4;19,18,17,16;,
 4;35,34,33,32;,
 4;39,38,37,36;,
 4;31,30,29,28;,
 4;11,10,9,8;,
 4;15,14,13,12;,
 4;7,6,5,4;,
 4;47,46,45,44;,
 4;51,50,49,48;,
 3;520,521,522;,
 3;523,524,525;,
 3;526,527,523;,
 3;528,529,526;,
 3;530,531,528;,
 3;532,533,534;,
 3;535,536,532;,
 3;537,538,535;,
 3;539,540,541;,
 3;542,543,544;,
 3;545,546,547;,
 3;548,549,550;,
 3;551,552,539;,
 3;551,539,541;,
 3;553,551,541;,
 3;554,553,542;,
 3;554,542,544;,
 3;555,554,544;,
 3;547,556,555;,
 3;547,555,545;,
 3;557,558,556;,
 3;559,560,548;,
 3;559,548,550;,
 3;561,559,550;,
 3;562,520,522;,
 3;562,522,563;,
 3;562,563,552;,
 3;562,552,551;,
 3;564,551,553;,
 3;565,523,525;,
 3;565,525,564;,
 3;565,564,553;,
 3;565,553,554;,
 3;566,526,523;,
 3;566,523,565;,
 3;566,565,554;,
 3;566,554,555;,
 3;567,528,526;,
 3;567,526,566;,
 3;567,566,555;,
 3;567,555,556;,
 3;568,530,528;,
 3;568,528,567;,
 3;568,567,556;,
 3;568,556,558;,
 3;569,530,568;,
 3;569,568,558;,
 3;570,532,534;,
 3;570,534,569;,
 3;570,569,560;,
 3;570,560,559;,
 3;571,535,532;,
 3;571,532,570;,
 3;571,570,559;,
 3;571,559,561;,
 3;572,537,535;;
 
 MeshMaterialList {
  2;
  367;
  1,
  1,
  1,
  1,
  1,
  1,
  1,
  1,
  1,
  1,
  1,
  1,
  1,
  0,
  0,
  0,
  0,
  0,
  0,
  0,
  0,
  0,
  0,
  0,
  0,
  0,
  0,
  0,
  0,
  0,
  0,
  0,
  0,
  0,
  0,
  0,
  0,
  0,
  0,
  0,
  0,
  0,
  0,
  0,
  0,
  0,
  0,
  0,
  0,
  0,
  0,
  0,
  0,
  0,
  0,
  0,
  0,
  0,
  0,
  0,
  0,
  0,
  0,
  0,
  0,
  0,
  0,
  0,
  0,
  0,
  0,
  0,
  0,
  0,
  0,
  0,
  0,
  0,
  0,
  0,
  0,
  0,
  0,
  0,
  0,
  0,
  0,
  0,
  0,
  0,
  0,
  0,
  0,
  0,
  0,
  0,
  0,
  0,
  0,
  0,
  0,
  0,
  0,
  0,
  0,
  0,
  0,
  0,
  0,
  0,
  0,
  0,
  0,
  0,
  0,
  0,
  0,
  0,
  0,
  0,
  0,
  0,
  0,
  0,
  0,
  0,
  0,
  0,
  0,
  0,
  0,
  0,
  0,
  0,
  0,
  0,
  0,
  0,
  0,
  0,
  0,
  0,
  0,
  0,
  0,
  0,
  0,
  0,
  0,
  0,
  0,
  0,
  0,
  0,
  0,
  0,
  0,
  0,
  0,
  0,
  0,
  0,
  0,
  0,
  0,
  0,
  0,
  0,
  0,
  0,
  0,
  0,
  0,
  0,
  0,
  0,
  0,
  0,
  0,
  0,
  0,
  0,
  0,
  0,
  0,
  1,
  1,
  1,
  1,
  1,
  1,
  0,
  0,
  0,
  0,
  0,
  0,
  0,
  0,
  0,
  0,
  0,
  0,
  1,
  1,
  1,
  1,
  1,
  1,
  1,
  1,
  1,
  1,
  1,
  1,
  1,
  1,
  1,
  1,
  1,
  0,
  0,
  0,
  0,
  0,
  0,
  0,
  0,
  0,
  0,
  0,
  0,
  1,
  1,
  1,
  1,
  1,
  1,
  1,
  1,
  1,
  1,
  1,
  1,
  1,
  1,
  1,
  1,
  1,
  0,
  0,
  0,
  0,
  0,
  0,
  0,
  0,
  0,
  0,
  0,
  0,
  0,
  0,
  0,
  0,
  0,
  0,
  0,
  0,
  1,
  1,
  1,
  1,
  0,
  0,
  0,
  0,
  0,
  0,
  0,
  0,
  0,
  0,
  0,
  0,
  0,
  0,
  0,
  0,
  0,
  0,
  0,
  0,
  1,
  1,
  0,
  0,
  0,
  0,
  1,
  1,
  1,
  1,
  1,
  1,
  1,
  1,
  1,
  1,
  1,
  1,
  0,
  0,
  0,
  0,
  0,
  0,
  0,
  0,
  0,
  0,
  0,
  0,
  0,
  0,
  0,
  0,
  0,
  0,
  0,
  0,
  0,
  0,
  0,
  0,
  0,
  0,
  0,
  0,
  0,
  0,
  0,
  0,
  0,
  0,
  0,
  0,
  0,
  0,
  0,
  0,
  0,
  0,
  0,
  0,
  0,
  0,
  0,
  0,
  0,
  0,
  0,
  0,
  0,
  0,
  0,
  0;;
  Material {
   0.800000;0.800000;0.800000;1.000000;;
   5.000000;
   0.000000;0.000000;0.000000;;
   0.000000;0.000000;0.000000;;
   TextureFilename {
    "Data\\Graphics\\XFileTexture\\BarkDecidious0099_1_S.jpg";
   }
  }
  Material {
   0.800000;0.800000;0.800000;1.000000;;
   5.000000;
   0.000000;0.000000;0.000000;;
   0.000000;0.000000;0.000000;;
   TextureFilename {
    "Data\\Graphics\\XFileTexture\\Branches0002_S.png";
   }
  }
 }
 MeshNormals {
  407;
  -0.006681;-0.979516;0.201254;,
  0.183462;-0.973335;-0.137697;,
  -0.650021;0.642365;-0.406005;,
  0.497613;0.623354;0.603168;,
  0.182289;-0.973316;0.139381;,
  0.501961;0.666203;-0.551551;,
  -0.702108;0.590826;0.397454;,
  0.074002;-0.994091;0.079417;,
  -0.796606;0.546516;-0.258340;,
  0.736461;0.663444;0.132162;,
  0.121564;-0.992378;0.020188;,
  0.121564;0.992378;-0.020188;,
  0.675753;-0.676694;0.292307;,
  0.801983;-0.448795;0.394216;,
  0.640475;-0.766539;0.047007;,
  0.854147;-0.277861;0.439576;,
  0.161768;0.899464;0.405950;,
  -0.716251;0.317559;-0.621401;,
  0.268284;-0.925408;-0.267665;,
  0.813585;-0.493650;0.307229;,
  0.803931;0.023370;0.594263;,
  -0.112409;0.921956;0.370622;,
  -0.505218;-0.489832;0.710506;,
  -0.301387;0.913142;0.274478;,
  0.706564;0.119413;-0.697501;,
  0.659924;-0.242440;-0.711142;,
  0.671874;0.016103;-0.740491;,
  0.908071;-0.393701;0.142852;,
  0.439227;0.884213;-0.158896;,
  -0.935964;0.173168;-0.306567;,
  0.906846;-0.319650;0.274689;,
  0.906846;-0.319651;0.274689;,
  0.906846;-0.319650;0.274689;,
  0.005260;-0.975704;-0.219032;,
  0.001506;-0.986052;-0.166432;,
  0.676210;-0.082961;-0.732023;,
  -0.015820;0.947667;0.318867;,
  0.828972;-0.408086;-0.382454;,
  0.661566;-0.649413;-0.374957;,
  0.860593;-0.248706;-0.444439;,
  0.305287;0.934361;-0.183764;,
  -0.918345;0.030128;0.394633;,
  -0.002030;-0.996106;-0.088140;,
  0.754948;-0.506064;-0.417077;,
  0.910061;0.104049;-0.401203;,
  0.166479;0.986035;0.004401;,
  0.491804;0.072628;0.867672;,
  0.491804;0.072631;0.867671;,
  0.491803;0.072626;0.867672;,
  0.421633;-0.902959;0.083003;,
  0.377716;-0.918090;0.120171;,
  0.985865;0.117487;-0.119445;,
  -0.489300;0.871763;-0.024785;,
  0.294038;0.918541;0.264244;,
  0.866769;0.162815;0.471384;,
  0.395896;-0.918295;-0.000024;,
  -0.887705;0.043263;-0.458375;,
  -0.002029;0.996106;0.088138;,
  0.754947;0.506066;0.417077;,
  0.910060;-0.104043;0.401205;,
  0.166477;-0.986036;-0.004401;,
  0.828973;0.408086;0.382453;,
  0.201781;-0.910953;0.359789;,
  -0.950471;-0.171839;-0.258990;,
  0.491808;-0.072618;-0.867670;,
  0.878998;-0.386322;0.279496;,
  -0.708636;-0.680660;-0.185842;,
  0.985866;-0.117482;0.119440;,
  -0.206846;-0.950417;0.232210;,
  0.491812;-0.072630;-0.867667;,
  0.464062;0.884632;-0.045537;,
  0.377712;0.918091;-0.120175;,
  -0.925190;0.251223;-0.284447;,
  -0.919131;0.265890;-0.290692;,
  -0.912804;0.280480;-0.296852;,
  -0.036932;-0.981425;-0.188256;,
  0.199562;0.108004;-0.973915;,
  -0.052414;-0.971519;-0.231092;,
  0.125708;0.843855;0.521637;,
  -0.287629;-0.507014;-0.812531;,
  -0.449246;-0.783213;-0.429832;,
  -0.293018;-0.319297;-0.901216;,
  0.218621;0.897143;-0.383849;,
  0.135113;0.134137;0.981708;,
  -0.231393;-0.970146;-0.072624;,
  -0.317131;-0.862250;-0.394909;,
  0.079596;-0.021841;-0.996588;,
  0.233234;0.972086;0.025490;,
  -0.141426;-0.976451;0.162915;,
  0.196808;0.949188;-0.245579;,
  -0.170534;-0.962929;0.209011;,
  0.374355;0.784330;-0.494657;,
  -0.130809;-0.762990;0.633036;,
  -0.582855;-0.218639;0.782609;,
  -0.630922;0.775793;0.009089;,
  -0.047507;-0.974270;0.220320;,
  -0.128835;-0.875376;0.465959;,
  -0.734173;0.023985;0.678539;,
  -0.139063;0.976012;-0.167516;,
  0.052070;-0.327563;-0.943393;,
  0.052070;-0.327562;-0.943394;,
  0.052071;-0.327565;-0.943393;,
  -0.245240;-0.969078;0.027311;,
  -0.183247;-0.982977;0.013274;,
  -0.967029;-0.072975;-0.243987;,
  0.343534;0.937911;-0.048035;,
  -0.886532;-0.432721;0.163748;,
  -0.720306;-0.637054;0.274447;,
  -0.948258;-0.272223;0.163404;,
  -0.460203;0.867808;-0.187409;,
  0.992912;0.107349;-0.051006;,
  0.045276;-0.938151;0.343253;,
  -0.824793;-0.510508;0.243100;,
  -0.999416;0.021248;0.026777;,
  -0.244182;0.915307;-0.320293;,
  -0.775231;-0.288528;0.561933;,
  -0.775230;-0.288526;0.561934;,
  -0.775231;-0.288530;0.561932;,
  0.198699;-0.972886;0.118374;,
  0.141798;-0.985484;0.093354;,
  0.544611;-0.085355;0.834334;,
  -0.291785;0.942796;-0.161239;,
  -0.825836;0.256425;-0.502236;,
  -0.849122;0.014084;-0.528009;,
  -0.821515;-0.229101;-0.522137;,
  -0.750306;-0.291169;-0.593517;,
  -0.750306;-0.291168;-0.593517;,
  -0.750305;-0.291170;-0.593517;,
  -0.881423;0.098072;0.462033;,
  -0.908243;-0.075262;0.411620;,
  -0.366323;0.074221;0.927523;,
  -0.366320;0.074228;0.927523;,
  -0.366326;0.074214;0.927522;,
  0.251908;-0.923409;0.289584;,
  0.186087;-0.937492;0.294075;,
  0.884102;0.123879;0.450574;,
  -0.930791;0.233800;-0.281006;,
  -0.926093;-0.278611;-0.254417;,
  -0.353340;0.892155;-0.281443;,
  0.414695;-0.908860;-0.044726;,
  0.984071;-0.149152;0.096737;,
  0.300388;0.930354;0.210256;,
  -0.992507;-0.037650;-0.116239;,
  0.070820;-0.995201;-0.067520;,
  0.867430;-0.491122;0.079781;,
  0.980326;0.100222;0.170049;,
  0.122483;0.988237;0.091571;,
  0.786035;0.613844;-0.073102;,
  -0.811912;0.567842;-0.135479;,
  -0.277724;-0.956232;-0.092137;,
  0.247634;-0.414636;-0.875645;,
  -0.259383;-0.775087;-0.576160;,
  0.122199;-0.300197;-0.946017;,
  0.405738;0.873508;-0.268999;,
  -0.311764;0.108591;0.943934;,
  -0.448611;-0.888337;-0.098011;,
  -0.232760;-0.725777;-0.647357;,
  0.356665;0.046963;-0.933051;,
  0.484779;0.872843;-0.055989;,
  -0.157638;0.680516;0.715575;,
  0.490107;0.626999;-0.605531;,
  -0.252030;-0.967713;0.003387;,
  0.143841;0.697385;0.702114;,
  0.154949;0.651469;-0.742684;,
  -0.808803;0.543992;0.223405;,
  0.675753;0.676694;-0.292308;,
  -0.808804;-0.543992;-0.223405;,
  -0.984616;-0.074105;-0.158242;,
  0.546407;-0.050683;0.835985;,
  -0.110090;0.992875;-0.045611;,
  -0.393902;0.906978;-0.149107;,
  -0.639021;-0.288818;-0.712907;,
  -0.399175;0.894660;-0.200607;,
  0.425736;-0.729266;0.535649;,
  -0.495305;0.333765;-0.802044;,
  -0.126821;0.840721;-0.526408;,
  -0.353750;0.281621;-0.891936;,
  -0.090120;-0.949707;-0.299891;,
  0.454327;-0.035669;0.890121;,
  -0.168532;0.979307;-0.112047;,
  -0.239946;0.866286;-0.438148;,
  -0.602322;-0.128284;-0.787878;,
  0.139237;-0.986755;0.083225;,
  0.488111;-0.597430;0.636259;,
  -0.308849;-0.729786;-0.609939;,
  0.964351;-0.264626;-0.000004;,
  0.964352;-0.264625;-0.000004;,
  0.964351;-0.264627;-0.000003;,
  0.789786;0.195999;-0.581225;,
  0.332238;0.909679;0.249201;,
  0.038982;0.940456;0.337672;,
  -0.048764;-0.951067;-0.305112;,
  0.033776;-0.929152;-0.368153;,
  -0.202412;0.961891;0.183835;,
  0.694773;0.295092;-0.655905;,
  0.745947;0.314353;-0.587151;,
  0.447752;-0.894107;0.009504;,
  0.373259;-0.926352;-0.050500;,
  0.517683;-0.852752;0.069410;,
  -0.225910;-0.973916;0.021267;,
  0.008998;-0.962538;-0.270999;,
  0.629803;0.109919;-0.768938;,
  0.557751;0.298324;-0.774543;,
  0.029288;0.999541;-0.007798;,
  -0.059165;0.790190;0.609999;,
  -0.534400;-0.168491;0.828268;,
  -0.529311;-0.188298;0.827269;,
  -0.539265;-0.148614;0.828919;,
  0.201779;0.910954;-0.359788;,
  0.181335;0.975916;-0.121269;,
  -0.926835;0.179981;0.329519;,
  -0.950471;0.171840;0.258990;,
  -0.196356;-0.979025;0.054355;,
  -0.152190;-0.979081;0.135053;,
  -0.072469;0.997334;0.008526;,
  -0.887706;-0.043262;0.458375;,
  -0.826979;-0.271180;0.492510;,
  0.464058;-0.884633;0.045540;,
  0.945439;0.255417;-0.202253;,
  0.879000;0.386319;-0.279495;,
  -0.206849;0.950416;-0.232213;,
  -0.956001;0.055921;0.287983;,
  -0.919131;-0.265886;0.290692;,
  -0.912804;-0.280478;0.296853;,
  -0.925192;-0.251218;0.284447;,
  -0.072472;-0.997334;-0.008526;,
  -0.898010;-0.187114;-0.398203;,
  -0.826978;0.271182;-0.492511;,
  -0.238856;0.970685;0.026803;,
  -0.152186;0.979081;-0.135052;,
  -0.032798;0.928886;-0.368912;,
  0.251363;0.930490;-0.266468;,
  0.102555;0.325950;0.939808;,
  -0.002931;0.353277;0.935514;,
  -0.222636;-0.942623;0.248787;,
  -0.330959;-0.910426;0.248174;,
  0.100406;0.081492;-0.991604;,
  0.138046;0.282005;-0.949429;,
  0.055118;0.964232;0.259266;,
  0.143386;0.989301;-0.026911;,
  0.005894;-0.189997;0.981767;,
  -0.083160;-0.150572;0.985095;,
  0.109882;-0.058329;0.992232;,
  -0.092085;-0.101380;0.990577;,
  -0.123789;0.990503;-0.059839;,
  -0.447596;0.891239;-0.073148;,
  0.828321;-0.145193;-0.541113;,
  0.823818;-0.163215;-0.542849;,
  0.832536;-0.127121;-0.539189;,
  -0.306195;-0.951075;0.041232;,
  -0.976976;0.090689;-0.193116;,
  -0.958128;0.251681;-0.136553;,
  -0.033925;0.999229;0.019766;,
  0.983926;0.173892;0.040628;,
  0.984937;-0.134404;0.108791;,
  0.982922;-0.150991;0.105198;,
  0.986664;-0.117779;0.112353;,
  -0.449432;0.893265;0.009455;,
  -0.319423;0.923633;-0.211830;,
  0.964056;0.263700;-0.032529;,
  0.957496;0.286321;0.034952;,
  0.300082;-0.913519;0.274652;,
  0.302065;-0.935104;0.185303;,
  -0.021360;0.969270;-0.245071;,
  0.995446;0.013785;-0.094328;,
  0.973469;-0.212880;-0.083910;,
  0.254800;-0.956374;0.142919;,
  0.600465;0.102619;0.793039;,
  0.632205;0.286471;0.719896;,
  0.041661;0.999119;0.005001;,
  -0.726424;0.355123;-0.588384;,
  -0.682281;-0.153008;-0.714900;,
  -0.683306;-0.171671;-0.709663;,
  -0.680999;-0.134287;-0.719867;,
  -0.825248;0.268140;0.497059;,
  0.316582;-0.905123;0.283775;,
  0.888500;0.384610;0.250287;,
  -0.929259;-0.250704;-0.271340;,
  0.039907;0.957834;-0.284537;,
  -0.061434;0.997611;-0.031609;,
  -0.969473;0.180301;-0.166176;,
  -0.965394;-0.253698;-0.060429;,
  -0.157403;-0.976657;-0.146169;,
  -0.786035;-0.613844;0.073102;,
  0.811912;-0.567842;0.135479;,
  0.277724;0.956232;0.092137;,
  0.387746;0.909285;-0.151174;,
  0.268372;0.933384;-0.238268;,
  -0.314311;0.300029;0.900661;,
  -0.247634;0.414636;0.875645;,
  -0.453345;-0.884067;0.113597;,
  -0.268372;-0.933384;0.238268;,
  -0.356460;-0.923127;0.144126;,
  0.335573;0.938243;0.084209;,
  -0.256113;-0.008260;0.966612;,
  -0.270255;-0.284899;0.919671;,
  0.157638;-0.680516;-0.715575;,
  -0.490107;-0.626999;0.605531;,
  0.252030;0.967713;-0.003387;,
  -0.143841;-0.697385;-0.702114;,
  -0.154949;-0.651469;0.742684;,
  -0.675753;-0.676694;0.292308;,
  -0.122199;0.300197;0.946017;,
  0.259383;0.775087;0.576160;,
  -0.387746;-0.909285;0.151174;,
  -0.405738;-0.873508;0.268999;,
  0.311764;-0.108591;-0.943934;,
  0.314311;-0.300029;-0.900661;,
  0.356460;0.923127;-0.144126;,
  0.453345;0.884067;-0.113597;,
  0.232760;0.725777;0.647357;,
  0.448611;0.888337;0.098011;,
  -0.356665;-0.046963;0.933051;,
  -0.335573;-0.938243;-0.084209;,
  -0.484779;-0.872843;0.055989;,
  0.256113;0.008260;-0.966612;,
  0.270255;0.284899;-0.919671;,
  0.808803;-0.543992;-0.223405;,
  0.808804;0.543992;0.223405;,
  0.984616;0.074105;0.158242;,
  -0.546407;0.050683;-0.835985;,
  0.110090;-0.992875;0.045611;,
  -0.043487;-0.981540;-0.186250;,
  0.063171;-0.956894;-0.283483;,
  0.517923;-0.207273;0.829936;,
  0.495305;-0.333765;0.802044;,
  0.108272;0.984001;0.141487;,
  -0.063171;0.956894;0.283483;,
  0.008873;0.983338;0.181571;,
  -0.510952;-0.435251;-0.741272;,
  -0.578300;-0.234640;-0.781354;,
  0.405575;-0.880884;0.244033;,
  0.197822;-0.980112;-0.015693;,
  0.542411;0.303317;0.783447;,
  0.429328;0.143454;0.891683;,
  0.458229;0.308481;0.833586;,
  0.553716;0.286728;0.781784;,
  0.308849;0.729786;0.609939;,
  0.353750;-0.281621;0.891936;,
  0.126821;-0.840721;0.526408;,
  0.043487;0.981540;0.186250;,
  0.090120;0.949707;0.299891;,
  -0.454327;0.035669;-0.890121;,
  -0.517923;0.207273;-0.829936;,
  -0.008873;-0.983338;-0.181571;,
  -0.108272;-0.984001;-0.141487;,
  0.168532;-0.979307;0.112047;,
  0.399175;-0.894660;0.200607;,
  0.393902;-0.906978;0.149107;,
  0.239946;-0.866286;0.438148;,
  0.578300;0.234640;0.781354;,
  0.510952;0.435251;0.741272;,
  0.639021;0.288818;0.712907;,
  0.602322;0.128284;0.787878;,
  -0.139237;0.986755;-0.083225;,
  -0.197822;0.980112;0.015693;,
  -0.405575;0.880884;-0.244033;,
  -0.425736;0.729266;-0.535649;,
  -0.458229;-0.308481;-0.833586;,
  -0.429328;-0.143454;-0.891683;,
  -0.542411;-0.303317;-0.783447;,
  -0.553716;-0.286728;-0.781784;,
  -0.488111;0.597430;-0.636259;,
  -0.964351;0.264626;0.000004;,
  -0.964351;0.264627;0.000003;,
  -0.964352;0.264625;0.000004;,
  -0.501961;-0.666203;0.551551;,
  0.702108;-0.590826;-0.397454;,
  -0.182289;0.973316;-0.139381;,
  0.796606;-0.546516;0.258340;,
  -0.736461;-0.663444;-0.132162;,
  -0.074002;0.994091;-0.079417;,
  0.650021;-0.642365;0.406005;,
  -0.497613;-0.623354;-0.603168;,
  -0.183462;0.973335;0.137697;,
  -0.121564;-0.992378;0.020188;,
  -0.675753;0.676694;-0.292307;,
  0.563657;0.769560;0.300113;,
  0.148174;-0.716089;-0.682101;,
  0.661057;-0.692320;-0.289304;,
  0.766916;-0.596501;0.236699;,
  0.501098;-0.482731;0.718242;,
  -0.192233;-0.431423;0.881431;,
  -0.867994;-0.334161;0.367319;,
  -0.773435;-0.560379;-0.296266;,
  -0.432953;-0.756231;-0.490578;,
  0.000000;-1.000000;-0.000000;,
  -0.595108;0.103659;-0.796933;,
  0.838731;0.144718;-0.524964;,
  0.796100;0.193843;0.573280;,
  -0.541640;0.279476;0.792792;,
  0.454746;0.078757;-0.887132;,
  0.964112;0.120888;-0.236377;,
  0.961681;0.096033;0.256802;,
  0.550476;0.100909;0.828730;,
  -0.181510;-0.002980;0.983384;,
  -0.900163;-0.028847;0.434597;,
  -0.957171;0.070822;-0.280728;,
  -0.202479;0.110766;-0.973002;,
  -0.470444;-0.005606;-0.882412;,
  0.696668;0.014140;-0.717254;,
  0.995730;-0.019900;0.090147;,
  0.741962;0.004457;0.670427;,
  0.139411;0.011846;0.990164;,
  -0.635630;0.012431;0.771894;,
  -0.967057;0.007090;0.254462;,
  -0.983940;0.002177;-0.178489;;
  367;
  4;0,0,0,0;,
  4;1,1,1,1;,
  4;2,2,2,2;,
  4;3,3,3,3;,
  4;4,4,4,4;,
  4;5,5,5,5;,
  4;6,6,6,6;,
  4;7,7,7,7;,
  4;8,8,8,8;,
  4;9,9,9,9;,
  4;10,10,10,10;,
  4;11,11,11,11;,
  4;12,12,12,12;,
  3;15,14,13;,
  3;189,16,190;,
  3;17,17,17;,
  3;191,192,191;,
  3;19,18,14;,
  3;15,19,14;,
  3;20,19,15;,
  3;190,21,193;,
  3;16,21,190;,
  3;14,18,192;,
  3;22,22,22;,
  3;23,23,23;,
  3;24,194,195;,
  3;196,196,197;,
  3;24,26,194;,
  3;25,26,24;,
  3;196,198,196;,
  3;27,27,27;,
  3;28,28,28;,
  3;29,29,29;,
  3;199,199,199;,
  3;30,30,32;,
  3;31,30,30;,
  3;33,33,200;,
  3;34,33,33;,
  3;201,201,202;,
  3;35,201,201;,
  3;36,36,203;,
  3;36,204,36;,
  3;205,205,206;,
  3;205,207,205;,
  3;39,38,37;,
  3;208,40,209;,
  3;41,210,211;,
  3;212,212,213;,
  3;43,42,38;,
  3;39,43,38;,
  3;44,43,39;,
  3;209,45,214;,
  3;40,45,209;,
  3;41,215,210;,
  3;216,215,41;,
  3;212,42,212;,
  3;46,46,48;,
  3;47,46,46;,
  3;49,49,217;,
  3;50,49,49;,
  3;218,218,219;,
  3;51,218,218;,
  3;52,52,220;,
  3;52,221,52;,
  3;222,221,223;,
  3;222,224,221;,
  3;58,57,53;,
  3;54,58,53;,
  3;59,58,54;,
  3;60,60,225;,
  3;55,60,60;,
  3;56,56,226;,
  3;227,56,56;,
  3;53,57,228;,
  3;61,61,61;,
  3;62,62,62;,
  3;63,63,63;,
  3;229,229,229;,
  3;64,64,64;,
  3;65,65,65;,
  3;66,66,66;,
  3;67,67,67;,
  3;68,68,68;,
  3;69,69,69;,
  3;70,70,70;,
  3;71,71,71;,
  3;73,73,74;,
  3;73,72,73;,
  3;81,80,79;,
  3;230,82,231;,
  3;83,232,233;,
  3;234,235,234;,
  3;84,75,77;,
  3;85,75,84;,
  3;85,84,80;,
  3;81,85,80;,
  3;236,76,237;,
  3;86,76,236;,
  3;86,236,81;,
  3;87,238,239;,
  3;231,87,239;,
  3;82,87,231;,
  3;87,78,238;,
  3;240,241,242;,
  3;83,242,232;,
  3;240,242,83;,
  3;240,243,241;,
  3;80,84,235;,
  3;95,88,90;,
  3;96,88,95;,
  3;96,95,92;,
  3;93,96,92;,
  3;97,97,93;,
  3;98,89,244;,
  3;245,98,244;,
  3;94,98,245;,
  3;98,91,89;,
  3;246,246,247;,
  3;246,248,246;,
  3;99,99,101;,
  3;100,99,99;,
  3;102,102,249;,
  3;103,102,102;,
  3;250,250,251;,
  3;104,250,250;,
  3;105,105,252;,
  3;105,253,105;,
  3;254,253,255;,
  3;254,256,253;,
  3;108,107,106;,
  3;257,109,258;,
  3;110,259,260;,
  3;261,261,262;,
  3;112,111,107;,
  3;108,112,107;,
  3;113,112,108;,
  3;258,114,263;,
  3;109,114,258;,
  3;110,264,259;,
  3;265,264,110;,
  3;261,111,261;,
  3;115,115,117;,
  3;116,115,115;,
  3;118,118,266;,
  3;119,118,118;,
  3;267,267,268;,
  3;120,267,267;,
  3;121,121,269;,
  3;121,270,121;,
  3;271,272,272;,
  3;271,273,270;,
  3;123,123,122;,
  3;124,123,123;,
  3;125,125,127;,
  3;126,125,125;,
  3;128,128,274;,
  3;129,128,128;,
  3;130,130,132;,
  3;131,130,130;,
  3;133,133,275;,
  3;134,133,133;,
  3;276,276,276;,
  3;277,277,277;,
  3;135,135,135;,
  3;138,138,278;,
  3;138,136,138;,
  3;137,136,137;,
  3;130,130,132;,
  3;131,130,130;,
  3;133,133,275;,
  3;134,133,133;,
  3;276,276,276;,
  3;277,277,277;,
  3;135,135,135;,
  3;138,138,278;,
  3;138,136,138;,
  3;137,136,137;,
  3;144,143,139;,
  3;140,144,139;,
  3;145,144,140;,
  3;146,146,279;,
  3;141,146,146;,
  3;142,142,280;,
  3;281,142,142;,
  3;139,143,282;,
  4;147,147,147,147;,
  4;283,283,283,283;,
  4;148,148,148,148;,
  4;284,284,284,284;,
  4;149,149,149,149;,
  4;285,285,285,285;,
  3;151,150,152;,
  3;153,286,287;,
  3;288,289,154;,
  3;290,291,292;,
  3;155,151,156;,
  3;156,151,152;,
  3;157,152,157;,
  3;158,293,286;,
  3;158,286,153;,
  3;294,288,154;,
  3;294,154,295;,
  3;155,290,151;,
  4;159,159,159,159;,
  4;296,296,296,296;,
  4;160,160,160,160;,
  4;297,297,297,297;,
  4;161,161,161,161;,
  4;298,298,298,298;,
  4;162,162,162,162;,
  4;299,299,299,299;,
  4;163,163,163,163;,
  4;300,300,300,300;,
  4;164,164,164,164;,
  4;165,165,165,165;,
  4;301,301,301,301;,
  4;166,166,166,166;,
  4;147,147,147,147;,
  4;148,148,148,148;,
  4;149,149,149,149;,
  3;302,289,303;,
  3;291,304,305;,
  3;306,150,307;,
  3;308,287,309;,
  3;310,303,311;,
  3;302,303,310;,
  3;312,302,312;,
  3;304,313,314;,
  3;305,304,314;,
  3;306,307,315;,
  3;316,306,315;,
  3;303,309,311;,
  4;159,159,159,159;,
  4;160,160,160,160;,
  4;161,161,161,161;,
  4;162,162,162,162;,
  4;163,163,163,163;,
  4;317,317,317,317;,
  4;165,165,165,165;,
  4;318,318,318,318;,
  4;167,167,167,167;,
  4;319,319,319,319;,
  4;167,167,167,167;,
  4;319,319,319,319;,
  4;168,168,168,168;,
  4;320,320,320,320;,
  4;168,168,168,168;,
  4;169,169,169,169;,
  4;321,321,321,321;,
  3;175,174,176;,
  3;177,322,323;,
  3;324,325,178;,
  3;326,327,328;,
  3;170,172,179;,
  3;170,179,180;,
  3;179,175,180;,
  3;180,175,176;,
  3;171,329,330;,
  3;171,330,181;,
  3;330,176,181;,
  3;331,332,182;,
  3;182,332,322;,
  3;182,322,177;,
  3;173,331,182;,
  3;333,334,335;,
  3;334,324,178;,
  3;334,178,335;,
  3;336,333,335;,
  3;179,326,175;,
  4;183,183,183,183;,
  4;184,184,184,184;,
  4;337,337,337,337;,
  4;169,169,169,169;,
  3;338,325,339;,
  3;327,340,341;,
  3;342,174,343;,
  3;344,323,345;,
  3;346,347,348;,
  3;349,346,348;,
  3;349,339,346;,
  3;338,339,349;,
  3;350,351,352;,
  3;353,350,352;,
  3;353,338,350;,
  3;354,355,356;,
  3;340,355,354;,
  3;341,340,354;,
  3;354,356,357;,
  3;358,359,360;,
  3;342,343,359;,
  3;358,342,359;,
  3;358,360,361;,
  3;339,345,346;,
  4;362,362,362,362;,
  4;184,184,184,184;,
  3;185,187,185;,
  3;185,185,186;,
  3;363,364,363;,
  3;365,363,363;,
  4;188,188,188,188;,
  4;366,366,366,366;,
  4;367,367,367,367;,
  4;368,368,368,368;,
  4;369,369,369,369;,
  4;370,370,370,370;,
  4;371,371,371,371;,
  4;372,372,372,372;,
  4;373,373,373,373;,
  4;374,374,374,374;,
  4;375,375,375,375;,
  4;376,376,376,376;,
  3;379,386,378;,
  3;380,386,379;,
  3;381,386,380;,
  3;382,386,381;,
  3;383,386,382;,
  3;384,386,383;,
  3;385,386,384;,
  3;378,386,385;,
  3;387,377,388;,
  3;388,377,389;,
  3;389,377,390;,
  3;390,377,387;,
  3;391,398,387;,
  3;391,387,388;,
  3;392,391,388;,
  3;393,392,388;,
  3;393,388,389;,
  3;394,393,389;,
  3;390,395,394;,
  3;390,394,389;,
  3;390,396,395;,
  3;397,396,390;,
  3;397,390,387;,
  3;398,397,387;,
  3;400,379,378;,
  3;400,378,399;,
  3;400,399,398;,
  3;400,398,391;,
  3;400,391,392;,
  3;401,380,379;,
  3;401,379,400;,
  3;401,400,392;,
  3;401,392,393;,
  3;402,381,380;,
  3;402,380,401;,
  3;402,401,393;,
  3;402,393,394;,
  3;403,382,381;,
  3;403,381,402;,
  3;403,402,394;,
  3;403,394,395;,
  3;404,383,382;,
  3;404,382,403;,
  3;404,403,395;,
  3;404,395,396;,
  3;405,383,404;,
  3;405,404,396;,
  3;406,384,383;,
  3;406,383,405;,
  3;406,405,396;,
  3;406,396,397;,
  3;399,385,384;,
  3;399,384,406;,
  3;399,406,397;,
  3;399,397,398;,
  3;399,378,385;;
 }
 MeshTextureCoords {
  573;
  0.000000;0.000000;,
  1.000000;0.000000;,
  1.000000;1.000000;,
  0.000000;1.000000;,
  0.000000;0.000000;,
  1.000000;0.000000;,
  1.000000;1.000000;,
  0.000000;1.000000;,
  0.000000;0.000000;,
  1.000000;0.000000;,
  1.000000;1.000000;,
  0.000000;1.000000;,
  0.000000;0.000000;,
  1.000000;0.000000;,
  1.000000;1.000000;,
  0.000000;1.000000;,
  0.000000;0.000000;,
  1.000000;0.000000;,
  1.000000;1.000000;,
  0.000000;1.000000;,
  0.000000;0.000000;,
  1.000000;0.000000;,
  1.000000;1.000000;,
  0.000000;1.000000;,
  0.000000;0.000000;,
  1.000000;0.000000;,
  1.000000;1.000000;,
  0.000000;1.000000;,
  0.000000;0.000000;,
  1.000000;0.000000;,
  1.000000;1.000000;,
  0.000000;1.000000;,
  0.000000;0.000000;,
  1.000000;0.000000;,
  1.000000;1.000000;,
  0.000000;1.000000;,
  0.000000;0.000000;,
  1.000000;0.000000;,
  1.000000;1.000000;,
  0.000000;1.000000;,
  0.000000;0.000000;,
  1.000000;0.000000;,
  1.000000;1.000000;,
  0.000000;1.000000;,
  0.000000;0.000000;,
  1.000000;0.000000;,
  1.000000;1.000000;,
  0.000000;1.000000;,
  0.000000;0.000000;,
  1.000000;0.000000;,
  1.000000;1.000000;,
  0.000000;1.000000;,
  0.200000;0.421250;,
  0.100000;0.421250;,
  0.200000;0.204540;,
  0.400000;0.204540;,
  0.500000;0.421250;,
  0.400000;0.421250;,
  0.800000;0.421250;,
  0.700000;0.421250;,
  0.800000;0.204540;,
  1.000000;0.421250;,
  0.900000;0.421250;,
  1.000000;0.204540;,
  0.100000;0.738390;,
  0.000000;0.738390;,
  0.200000;0.738390;,
  0.300000;0.738390;,
  0.300000;0.421250;,
  0.500000;0.738390;,
  0.400000;0.738390;,
  0.900000;0.738390;,
  0.200000;0.421250;,
  0.100000;0.421250;,
  0.200000;0.204540;,
  0.400000;0.204540;,
  0.500000;0.421250;,
  0.400000;0.421250;,
  0.800000;0.421250;,
  0.700000;0.421250;,
  0.800000;0.204540;,
  1.000000;0.421250;,
  0.900000;0.421250;,
  1.000000;0.204540;,
  0.700000;0.738390;,
  0.800000;0.738390;,
  0.900000;0.738390;,
  0.200000;0.421250;,
  0.100000;0.421250;,
  0.200000;0.204540;,
  0.400000;0.204540;,
  0.500000;0.421250;,
  0.400000;0.421250;,
  0.800000;0.421250;,
  0.700000;0.421250;,
  0.800000;0.204540;,
  1.000000;0.421250;,
  0.900000;0.421250;,
  1.000000;0.204540;,
  0.100000;1.000000;,
  0.050000;1.000000;,
  0.000000;1.000000;,
  0.300000;1.000000;,
  0.250000;1.000000;,
  0.200000;1.000000;,
  0.000000;0.738390;,
  0.100000;0.738390;,
  0.200000;0.738390;,
  0.300000;0.738390;,
  0.500000;0.738390;,
  0.500000;1.000000;,
  0.400000;0.738390;,
  0.600000;1.000000;,
  0.800000;0.738390;,
  0.800000;1.000000;,
  0.700000;0.738390;,
  0.900000;1.000000;,
  0.200000;0.421250;,
  0.100000;0.421250;,
  0.200000;0.204540;,
  0.400000;0.204540;,
  0.500000;0.421250;,
  0.400000;0.421250;,
  0.800000;0.421250;,
  0.700000;0.421250;,
  0.800000;0.204540;,
  1.000000;0.421250;,
  0.900000;0.421250;,
  1.000000;0.204540;,
  0.100000;0.738390;,
  0.000000;0.738390;,
  0.200000;0.738390;,
  0.300000;0.738390;,
  0.300000;0.421250;,
  0.500000;0.738390;,
  0.400000;0.738390;,
  0.700000;0.738390;,
  0.800000;0.738390;,
  0.900000;0.738390;,
  0.100000;1.000000;,
  0.050000;1.000000;,
  0.000000;1.000000;,
  0.300000;1.000000;,
  0.250000;1.000000;,
  0.200000;1.000000;,
  0.000000;0.738390;,
  0.100000;0.738390;,
  0.200000;0.738390;,
  0.300000;0.738390;,
  0.500000;0.738390;,
  0.500000;1.000000;,
  0.400000;0.738390;,
  0.600000;1.000000;,
  0.800000;0.738390;,
  0.800000;1.000000;,
  0.700000;0.738390;,
  0.900000;1.000000;,
  0.100000;0.738390;,
  0.000000;0.738390;,
  0.100000;0.421250;,
  0.200000;0.421250;,
  0.200000;0.738390;,
  0.300000;0.738390;,
  0.300000;0.421250;,
  0.400000;0.421250;,
  0.500000;0.738390;,
  0.400000;0.738390;,
  0.500000;0.421250;,
  0.800000;0.421250;,
  0.700000;0.738390;,
  0.700000;0.421250;,
  0.800000;0.738390;,
  1.000000;0.421250;,
  0.900000;0.738390;,
  0.900000;0.421250;,
  0.200000;0.421250;,
  0.100000;0.421250;,
  0.200000;0.204540;,
  0.400000;0.204540;,
  0.500000;0.421250;,
  0.400000;0.421250;,
  0.800000;0.421250;,
  0.700000;0.421250;,
  0.800000;0.204540;,
  1.000000;0.421250;,
  0.900000;0.421250;,
  1.000000;0.204540;,
  0.300000;1.000000;,
  0.250000;1.000000;,
  0.200000;1.000000;,
  0.200000;0.738390;,
  0.300000;1.000000;,
  0.200000;1.000000;,
  0.500000;0.738390;,
  0.600000;1.000000;,
  0.500000;1.000000;,
  0.300000;0.738390;,
  0.300000;1.000000;,
  0.200000;0.738390;,
  0.500000;0.738390;,
  0.500000;1.000000;,
  0.400000;0.738390;,
  0.100000;1.000000;,
  0.050000;1.000000;,
  0.000000;1.000000;,
  0.000000;0.738390;,
  0.100000;0.738390;,
  0.100000;1.000000;,
  0.000000;0.738390;,
  0.800000;0.738390;,
  0.800000;1.000000;,
  0.700000;0.738390;,
  0.900000;1.000000;,
  0.200000;0.421250;,
  0.100000;0.421250;,
  0.200000;0.204540;,
  0.400000;0.204540;,
  0.500000;0.421250;,
  0.400000;0.421250;,
  0.800000;0.421250;,
  0.700000;0.421250;,
  0.800000;0.204540;,
  1.000000;0.421250;,
  0.900000;0.421250;,
  1.000000;0.204540;,
  0.000000;0.738390;,
  0.100000;1.000000;,
  0.000000;1.000000;,
  0.100000;0.738390;,
  0.200000;0.738390;,
  0.300000;1.000000;,
  0.200000;1.000000;,
  0.300000;0.738390;,
  0.300000;0.421250;,
  0.500000;0.738390;,
  0.500000;1.000000;,
  0.400000;0.738390;,
  0.600000;1.000000;,
  0.800000;0.738390;,
  0.800000;1.000000;,
  0.700000;0.738390;,
  0.900000;1.000000;,
  0.900000;0.738390;,
  0.000000;0.738390;,
  0.100000;1.000000;,
  0.000000;1.000000;,
  0.100000;0.738390;,
  0.100000;0.421250;,
  0.200000;0.421250;,
  0.200000;0.738390;,
  0.300000;0.738390;,
  0.300000;0.421250;,
  0.500000;0.738390;,
  0.500000;1.000000;,
  0.400000;0.738390;,
  0.400000;0.421250;,
  0.500000;0.421250;,
  0.600000;1.000000;,
  0.800000;0.738390;,
  0.800000;1.000000;,
  0.700000;0.738390;,
  0.900000;1.000000;,
  0.100000;1.000000;,
  0.050000;1.000000;,
  0.000000;1.000000;,
  0.300000;1.000000;,
  0.250000;1.000000;,
  0.200000;1.000000;,
  0.000000;0.738390;,
  0.100000;0.738390;,
  0.200000;0.738390;,
  0.300000;0.738390;,
  0.500000;0.738390;,
  0.500000;1.000000;,
  0.400000;0.738390;,
  0.600000;1.000000;,
  0.800000;0.738390;,
  0.800000;1.000000;,
  0.700000;0.738390;,
  0.900000;1.000000;,
  0.200000;0.421250;,
  0.100000;0.421250;,
  0.200000;0.204540;,
  0.400000;0.204540;,
  0.500000;0.421250;,
  0.400000;0.421250;,
  0.800000;0.421250;,
  0.700000;0.421250;,
  0.800000;0.204540;,
  1.000000;0.421250;,
  0.900000;0.421250;,
  1.000000;0.204540;,
  0.100000;0.738390;,
  0.000000;0.738390;,
  0.200000;0.738390;,
  0.300000;0.738390;,
  0.300000;0.421250;,
  0.500000;0.738390;,
  0.400000;0.738390;,
  0.700000;0.738390;,
  0.800000;0.738390;,
  0.900000;0.738390;,
  0.100000;1.000000;,
  0.050000;1.000000;,
  0.000000;1.000000;,
  0.300000;1.000000;,
  0.250000;1.000000;,
  0.200000;1.000000;,
  0.000000;0.738390;,
  0.100000;0.738390;,
  0.200000;0.738390;,
  0.300000;0.738390;,
  0.500000;0.738390;,
  0.500000;1.000000;,
  0.400000;0.738390;,
  0.600000;1.000000;,
  0.800000;0.738390;,
  0.800000;1.000000;,
  0.700000;0.738390;,
  0.900000;1.000000;,
  0.800000;0.421250;,
  0.700000;0.738390;,
  0.700000;0.421250;,
  0.800000;0.738390;,
  0.100000;1.000000;,
  0.050000;1.000000;,
  0.000000;1.000000;,
  0.300000;1.000000;,
  0.250000;1.000000;,
  0.200000;1.000000;,
  0.200000;0.738390;,
  0.300000;0.738390;,
  0.100000;1.000000;,
  0.050000;1.000000;,
  0.000000;1.000000;,
  0.300000;1.000000;,
  0.250000;1.000000;,
  0.200000;1.000000;,
  0.000000;0.738390;,
  0.100000;0.738390;,
  0.200000;0.738390;,
  0.800000;0.738390;,
  0.900000;1.000000;,
  0.800000;1.000000;,
  0.300000;0.738390;,
  0.300000;1.000000;,
  0.200000;0.738390;,
  0.500000;0.738390;,
  0.500000;1.000000;,
  0.400000;0.738390;,
  0.600000;1.000000;,
  0.800000;0.738390;,
  0.800000;1.000000;,
  0.700000;0.738390;,
  0.100000;1.000000;,
  0.050000;1.000000;,
  0.000000;1.000000;,
  0.300000;1.000000;,
  0.250000;1.000000;,
  0.200000;1.000000;,
  0.000000;0.738390;,
  0.100000;0.738390;,
  0.200000;0.738390;,
  0.800000;0.738390;,
  0.900000;1.000000;,
  0.800000;1.000000;,
  0.300000;0.738390;,
  0.300000;1.000000;,
  0.200000;0.738390;,
  0.500000;0.738390;,
  0.500000;1.000000;,
  0.400000;0.738390;,
  0.600000;1.000000;,
  0.800000;0.738390;,
  0.800000;1.000000;,
  0.700000;0.738390;,
  0.100000;0.738390;,
  0.000000;0.738390;,
  0.100000;0.421250;,
  0.200000;0.421250;,
  0.200000;0.738390;,
  0.300000;0.738390;,
  0.300000;0.421250;,
  0.400000;0.421250;,
  0.500000;0.738390;,
  0.400000;0.738390;,
  0.500000;0.421250;,
  0.800000;0.421250;,
  0.700000;0.738390;,
  0.700000;0.421250;,
  0.800000;0.738390;,
  1.000000;0.421250;,
  0.900000;0.738390;,
  0.900000;0.421250;,
  0.000000;0.000000;,
  1.000000;0.000000;,
  1.000000;1.000000;,
  0.000000;1.000000;,
  0.000000;0.000000;,
  1.000000;0.000000;,
  1.000000;1.000000;,
  0.000000;1.000000;,
  0.000000;0.000000;,
  1.000000;0.000000;,
  1.000000;1.000000;,
  0.000000;1.000000;,
  0.100000;0.421250;,
  0.200000;0.204540;,
  0.200000;0.421250;,
  0.500000;0.421250;,
  0.400000;0.421250;,
  0.400000;0.204540;,
  0.700000;0.421250;,
  0.800000;0.204540;,
  0.800000;0.421250;,
  0.900000;0.421250;,
  1.000000;0.204540;,
  1.000000;0.421250;,
  0.000000;0.738390;,
  0.100000;0.738390;,
  0.200000;0.738390;,
  0.300000;0.421250;,
  0.300000;0.738390;,
  0.500000;0.738390;,
  0.400000;0.738390;,
  0.700000;0.738390;,
  0.800000;0.738390;,
  0.900000;0.738390;,
  0.000000;0.000000;,
  1.000000;0.000000;,
  1.000000;1.000000;,
  0.000000;1.000000;,
  0.000000;0.000000;,
  1.000000;0.000000;,
  1.000000;1.000000;,
  0.000000;1.000000;,
  0.000000;0.000000;,
  1.000000;0.000000;,
  1.000000;1.000000;,
  0.000000;1.000000;,
  0.000000;0.000000;,
  1.000000;0.000000;,
  1.000000;1.000000;,
  0.000000;1.000000;,
  0.000000;0.000000;,
  1.000000;0.000000;,
  1.000000;1.000000;,
  0.000000;1.000000;,
  0.000000;0.000000;,
  1.000000;0.000000;,
  1.000000;1.000000;,
  0.000000;1.000000;,
  0.000000;0.000000;,
  1.000000;0.000000;,
  1.000000;1.000000;,
  0.000000;1.000000;,
  0.000000;0.000000;,
  1.000000;0.000000;,
  1.000000;1.000000;,
  0.000000;1.000000;,
  0.000000;0.000000;,
  1.000000;0.000000;,
  1.000000;1.000000;,
  0.000000;1.000000;,
  0.000000;0.000000;,
  1.000000;0.000000;,
  1.000000;1.000000;,
  0.000000;1.000000;,
  0.000000;0.000000;,
  1.000000;0.000000;,
  1.000000;1.000000;,
  0.000000;1.000000;,
  0.100000;0.421250;,
  0.200000;0.204540;,
  0.200000;0.421250;,
  0.500000;0.421250;,
  0.400000;0.421250;,
  0.400000;0.204540;,
  0.700000;0.421250;,
  0.800000;0.204540;,
  0.800000;0.421250;,
  0.900000;0.421250;,
  1.000000;0.204540;,
  1.000000;0.421250;,
  0.100000;1.000000;,
  0.000000;1.000000;,
  0.000000;0.738390;,
  0.100000;0.738390;,
  0.200000;0.738390;,
  0.300000;1.000000;,
  0.200000;1.000000;,
  0.300000;0.738390;,
  0.300000;0.421250;,
  0.500000;1.000000;,
  0.400000;0.738390;,
  0.500000;0.738390;,
  0.600000;1.000000;,
  0.800000;1.000000;,
  0.700000;0.738390;,
  0.800000;0.738390;,
  0.900000;1.000000;,
  0.900000;0.738390;,
  0.000000;0.000000;,
  1.000000;0.000000;,
  1.000000;1.000000;,
  0.000000;1.000000;,
  0.000000;0.000000;,
  1.000000;0.000000;,
  1.000000;1.000000;,
  0.000000;1.000000;,
  0.050000;1.000000;,
  0.000000;1.000000;,
  0.100000;1.000000;,
  0.250000;1.000000;,
  0.200000;1.000000;,
  0.300000;1.000000;,
  0.000000;0.000000;,
  1.000000;0.000000;,
  1.000000;1.000000;,
  0.000000;1.000000;,
  0.100000;1.000000;,
  0.050000;1.000000;,
  0.000000;1.000000;,
  0.300000;1.000000;,
  0.250000;1.000000;,
  0.200000;1.000000;,
  0.400000;1.000000;,
  0.350000;1.000000;,
  0.500000;1.000000;,
  0.450000;1.000000;,
  0.600000;1.000000;,
  0.550000;1.000000;,
  0.800000;1.000000;,
  0.750000;1.000000;,
  0.700000;1.000000;,
  0.900000;1.000000;,
  0.850000;1.000000;,
  1.000000;1.000000;,
  0.950000;1.000000;,
  0.000000;0.204540;,
  0.050000;0.000000;,
  0.100000;0.204540;,
  0.200000;0.204540;,
  0.250000;0.000000;,
  0.300000;0.204540;,
  0.400000;0.204540;,
  0.450000;0.000000;,
  0.500000;0.204540;,
  0.700000;0.204540;,
  0.750000;0.000000;,
  0.800000;0.204540;,
  0.100000;0.421250;,
  0.000000;0.421250;,
  0.200000;0.421250;,
  0.300000;0.421250;,
  0.400000;0.421250;,
  0.500000;0.421250;,
  0.600000;0.204540;,
  0.600000;0.421250;,
  0.800000;0.421250;,
  0.700000;0.421250;,
  0.900000;0.421250;,
  0.100000;0.738390;,
  0.000000;0.738390;,
  0.200000;0.738390;,
  0.300000;0.738390;,
  0.400000;0.738390;,
  0.500000;0.738390;,
  0.600000;0.738390;,
  0.700000;0.738390;,
  0.800000;0.738390;,
  0.900000;0.738390;,
  1.000000;0.738390;;
 }
 MeshVertexColors {
  573;
  0;1.000000;1.000000;1.000000;1.000000;,
  1;1.000000;1.000000;1.000000;1.000000;,
  2;1.000000;1.000000;1.000000;1.000000;,
  3;1.000000;1.000000;1.000000;1.000000;,
  4;1.000000;1.000000;1.000000;1.000000;,
  5;1.000000;1.000000;1.000000;1.000000;,
  6;1.000000;1.000000;1.000000;1.000000;,
  7;1.000000;1.000000;1.000000;1.000000;,
  8;1.000000;1.000000;1.000000;1.000000;,
  9;1.000000;1.000000;1.000000;1.000000;,
  10;1.000000;1.000000;1.000000;1.000000;,
  11;1.000000;1.000000;1.000000;1.000000;,
  12;1.000000;1.000000;1.000000;1.000000;,
  13;1.000000;1.000000;1.000000;1.000000;,
  14;1.000000;1.000000;1.000000;1.000000;,
  15;1.000000;1.000000;1.000000;1.000000;,
  16;1.000000;1.000000;1.000000;1.000000;,
  17;1.000000;1.000000;1.000000;1.000000;,
  18;1.000000;1.000000;1.000000;1.000000;,
  19;1.000000;1.000000;1.000000;1.000000;,
  20;1.000000;1.000000;1.000000;1.000000;,
  21;1.000000;1.000000;1.000000;1.000000;,
  22;1.000000;1.000000;1.000000;1.000000;,
  23;1.000000;1.000000;1.000000;1.000000;,
  24;1.000000;1.000000;1.000000;1.000000;,
  25;1.000000;1.000000;1.000000;1.000000;,
  26;1.000000;1.000000;1.000000;1.000000;,
  27;1.000000;1.000000;1.000000;1.000000;,
  28;1.000000;1.000000;1.000000;1.000000;,
  29;1.000000;1.000000;1.000000;1.000000;,
  30;1.000000;1.000000;1.000000;1.000000;,
  31;1.000000;1.000000;1.000000;1.000000;,
  32;1.000000;1.000000;1.000000;1.000000;,
  33;1.000000;1.000000;1.000000;1.000000;,
  34;1.000000;1.000000;1.000000;1.000000;,
  35;1.000000;1.000000;1.000000;1.000000;,
  36;1.000000;1.000000;1.000000;1.000000;,
  37;1.000000;1.000000;1.000000;1.000000;,
  38;1.000000;1.000000;1.000000;1.000000;,
  39;1.000000;1.000000;1.000000;1.000000;,
  40;1.000000;1.000000;1.000000;1.000000;,
  41;1.000000;1.000000;1.000000;1.000000;,
  42;1.000000;1.000000;1.000000;1.000000;,
  43;1.000000;1.000000;1.000000;1.000000;,
  44;1.000000;1.000000;1.000000;1.000000;,
  45;1.000000;1.000000;1.000000;1.000000;,
  46;1.000000;1.000000;1.000000;1.000000;,
  47;1.000000;1.000000;1.000000;1.000000;,
  48;1.000000;1.000000;1.000000;1.000000;,
  49;1.000000;1.000000;1.000000;1.000000;,
  50;1.000000;1.000000;1.000000;1.000000;,
  51;1.000000;1.000000;1.000000;1.000000;,
  52;1.000000;1.000000;1.000000;1.000000;,
  53;1.000000;1.000000;1.000000;1.000000;,
  54;1.000000;1.000000;1.000000;1.000000;,
  55;1.000000;1.000000;1.000000;1.000000;,
  56;1.000000;1.000000;1.000000;1.000000;,
  57;1.000000;1.000000;1.000000;1.000000;,
  58;1.000000;1.000000;1.000000;1.000000;,
  59;1.000000;1.000000;1.000000;1.000000;,
  60;1.000000;1.000000;1.000000;1.000000;,
  61;1.000000;1.000000;1.000000;1.000000;,
  62;1.000000;1.000000;1.000000;1.000000;,
  63;1.000000;1.000000;1.000000;1.000000;,
  64;1.000000;1.000000;1.000000;1.000000;,
  65;1.000000;1.000000;1.000000;1.000000;,
  66;1.000000;1.000000;1.000000;1.000000;,
  67;1.000000;1.000000;1.000000;1.000000;,
  68;1.000000;1.000000;1.000000;1.000000;,
  69;1.000000;1.000000;1.000000;1.000000;,
  70;1.000000;1.000000;1.000000;1.000000;,
  71;1.000000;1.000000;1.000000;1.000000;,
  72;1.000000;1.000000;1.000000;1.000000;,
  73;1.000000;1.000000;1.000000;1.000000;,
  74;1.000000;1.000000;1.000000;1.000000;,
  75;1.000000;1.000000;1.000000;1.000000;,
  76;1.000000;1.000000;1.000000;1.000000;,
  77;1.000000;1.000000;1.000000;1.000000;,
  78;1.000000;1.000000;1.000000;1.000000;,
  79;1.000000;1.000000;1.000000;1.000000;,
  80;1.000000;1.000000;1.000000;1.000000;,
  81;1.000000;1.000000;1.000000;1.000000;,
  82;1.000000;1.000000;1.000000;1.000000;,
  83;1.000000;1.000000;1.000000;1.000000;,
  84;1.000000;1.000000;1.000000;1.000000;,
  85;1.000000;1.000000;1.000000;1.000000;,
  86;1.000000;1.000000;1.000000;1.000000;,
  87;1.000000;1.000000;1.000000;1.000000;,
  88;1.000000;1.000000;1.000000;1.000000;,
  89;1.000000;1.000000;1.000000;1.000000;,
  90;1.000000;1.000000;1.000000;1.000000;,
  91;1.000000;1.000000;1.000000;1.000000;,
  92;1.000000;1.000000;1.000000;1.000000;,
  93;1.000000;1.000000;1.000000;1.000000;,
  94;1.000000;1.000000;1.000000;1.000000;,
  95;1.000000;1.000000;1.000000;1.000000;,
  96;1.000000;1.000000;1.000000;1.000000;,
  97;1.000000;1.000000;1.000000;1.000000;,
  98;1.000000;1.000000;1.000000;1.000000;,
  99;1.000000;1.000000;1.000000;1.000000;,
  100;1.000000;1.000000;1.000000;1.000000;,
  101;1.000000;1.000000;1.000000;1.000000;,
  102;1.000000;1.000000;1.000000;1.000000;,
  103;1.000000;1.000000;1.000000;1.000000;,
  104;1.000000;1.000000;1.000000;1.000000;,
  105;1.000000;1.000000;1.000000;1.000000;,
  106;1.000000;1.000000;1.000000;1.000000;,
  107;1.000000;1.000000;1.000000;1.000000;,
  108;1.000000;1.000000;1.000000;1.000000;,
  109;1.000000;1.000000;1.000000;1.000000;,
  110;1.000000;1.000000;1.000000;1.000000;,
  111;1.000000;1.000000;1.000000;1.000000;,
  112;1.000000;1.000000;1.000000;1.000000;,
  113;1.000000;1.000000;1.000000;1.000000;,
  114;1.000000;1.000000;1.000000;1.000000;,
  115;1.000000;1.000000;1.000000;1.000000;,
  116;1.000000;1.000000;1.000000;1.000000;,
  117;1.000000;1.000000;1.000000;1.000000;,
  118;1.000000;1.000000;1.000000;1.000000;,
  119;1.000000;1.000000;1.000000;1.000000;,
  120;1.000000;1.000000;1.000000;1.000000;,
  121;1.000000;1.000000;1.000000;1.000000;,
  122;1.000000;1.000000;1.000000;1.000000;,
  123;1.000000;1.000000;1.000000;1.000000;,
  124;1.000000;1.000000;1.000000;1.000000;,
  125;1.000000;1.000000;1.000000;1.000000;,
  126;1.000000;1.000000;1.000000;1.000000;,
  127;1.000000;1.000000;1.000000;1.000000;,
  128;1.000000;1.000000;1.000000;1.000000;,
  129;1.000000;1.000000;1.000000;1.000000;,
  130;1.000000;1.000000;1.000000;1.000000;,
  131;1.000000;1.000000;1.000000;1.000000;,
  132;1.000000;1.000000;1.000000;1.000000;,
  133;1.000000;1.000000;1.000000;1.000000;,
  134;1.000000;1.000000;1.000000;1.000000;,
  135;1.000000;1.000000;1.000000;1.000000;,
  136;1.000000;1.000000;1.000000;1.000000;,
  137;1.000000;1.000000;1.000000;1.000000;,
  138;1.000000;1.000000;1.000000;1.000000;,
  139;1.000000;1.000000;1.000000;1.000000;,
  140;1.000000;1.000000;1.000000;1.000000;,
  141;1.000000;1.000000;1.000000;1.000000;,
  142;1.000000;1.000000;1.000000;1.000000;,
  143;1.000000;1.000000;1.000000;1.000000;,
  144;1.000000;1.000000;1.000000;1.000000;,
  145;1.000000;1.000000;1.000000;1.000000;,
  146;1.000000;1.000000;1.000000;1.000000;,
  147;1.000000;1.000000;1.000000;1.000000;,
  148;1.000000;1.000000;1.000000;1.000000;,
  149;1.000000;1.000000;1.000000;1.000000;,
  150;1.000000;1.000000;1.000000;1.000000;,
  151;1.000000;1.000000;1.000000;1.000000;,
  152;1.000000;1.000000;1.000000;1.000000;,
  153;1.000000;1.000000;1.000000;1.000000;,
  154;1.000000;1.000000;1.000000;1.000000;,
  155;1.000000;1.000000;1.000000;1.000000;,
  156;1.000000;1.000000;1.000000;1.000000;,
  157;1.000000;1.000000;1.000000;1.000000;,
  158;1.000000;1.000000;1.000000;1.000000;,
  159;1.000000;1.000000;1.000000;1.000000;,
  160;1.000000;1.000000;1.000000;1.000000;,
  161;1.000000;1.000000;1.000000;1.000000;,
  162;1.000000;1.000000;1.000000;1.000000;,
  163;1.000000;1.000000;1.000000;1.000000;,
  164;1.000000;1.000000;1.000000;1.000000;,
  165;1.000000;1.000000;1.000000;1.000000;,
  166;1.000000;1.000000;1.000000;1.000000;,
  167;1.000000;1.000000;1.000000;1.000000;,
  168;1.000000;1.000000;1.000000;1.000000;,
  169;1.000000;1.000000;1.000000;1.000000;,
  170;1.000000;1.000000;1.000000;1.000000;,
  171;1.000000;1.000000;1.000000;1.000000;,
  172;1.000000;1.000000;1.000000;1.000000;,
  173;1.000000;1.000000;1.000000;1.000000;,
  174;1.000000;1.000000;1.000000;1.000000;,
  175;1.000000;1.000000;1.000000;1.000000;,
  176;1.000000;1.000000;1.000000;1.000000;,
  177;1.000000;1.000000;1.000000;1.000000;,
  178;1.000000;1.000000;1.000000;1.000000;,
  179;1.000000;1.000000;1.000000;1.000000;,
  180;1.000000;1.000000;1.000000;1.000000;,
  181;1.000000;1.000000;1.000000;1.000000;,
  182;1.000000;1.000000;1.000000;1.000000;,
  183;1.000000;1.000000;1.000000;1.000000;,
  184;1.000000;1.000000;1.000000;1.000000;,
  185;1.000000;1.000000;1.000000;1.000000;,
  186;1.000000;1.000000;1.000000;1.000000;,
  187;1.000000;1.000000;1.000000;1.000000;,
  188;1.000000;1.000000;1.000000;1.000000;,
  189;1.000000;1.000000;1.000000;1.000000;,
  190;1.000000;1.000000;1.000000;1.000000;,
  191;1.000000;1.000000;1.000000;1.000000;,
  192;1.000000;1.000000;1.000000;1.000000;,
  193;1.000000;1.000000;1.000000;1.000000;,
  194;1.000000;1.000000;1.000000;1.000000;,
  195;1.000000;1.000000;1.000000;1.000000;,
  196;1.000000;1.000000;1.000000;1.000000;,
  197;1.000000;1.000000;1.000000;1.000000;,
  198;1.000000;1.000000;1.000000;1.000000;,
  199;1.000000;1.000000;1.000000;1.000000;,
  200;1.000000;1.000000;1.000000;1.000000;,
  201;1.000000;1.000000;1.000000;1.000000;,
  202;1.000000;1.000000;1.000000;1.000000;,
  203;1.000000;1.000000;1.000000;1.000000;,
  204;1.000000;1.000000;1.000000;1.000000;,
  205;1.000000;1.000000;1.000000;1.000000;,
  206;1.000000;1.000000;1.000000;1.000000;,
  207;1.000000;1.000000;1.000000;1.000000;,
  208;1.000000;1.000000;1.000000;1.000000;,
  209;1.000000;1.000000;1.000000;1.000000;,
  210;1.000000;1.000000;1.000000;1.000000;,
  211;1.000000;1.000000;1.000000;1.000000;,
  212;1.000000;1.000000;1.000000;1.000000;,
  213;1.000000;1.000000;1.000000;1.000000;,
  214;1.000000;1.000000;1.000000;1.000000;,
  215;1.000000;1.000000;1.000000;1.000000;,
  216;1.000000;1.000000;1.000000;1.000000;,
  217;1.000000;1.000000;1.000000;1.000000;,
  218;1.000000;1.000000;1.000000;1.000000;,
  219;1.000000;1.000000;1.000000;1.000000;,
  220;1.000000;1.000000;1.000000;1.000000;,
  221;1.000000;1.000000;1.000000;1.000000;,
  222;1.000000;1.000000;1.000000;1.000000;,
  223;1.000000;1.000000;1.000000;1.000000;,
  224;1.000000;1.000000;1.000000;1.000000;,
  225;1.000000;1.000000;1.000000;1.000000;,
  226;1.000000;1.000000;1.000000;1.000000;,
  227;1.000000;1.000000;1.000000;1.000000;,
  228;1.000000;1.000000;1.000000;1.000000;,
  229;1.000000;1.000000;1.000000;1.000000;,
  230;1.000000;1.000000;1.000000;1.000000;,
  231;1.000000;1.000000;1.000000;1.000000;,
  232;1.000000;1.000000;1.000000;1.000000;,
  233;1.000000;1.000000;1.000000;1.000000;,
  234;1.000000;1.000000;1.000000;1.000000;,
  235;1.000000;1.000000;1.000000;1.000000;,
  236;1.000000;1.000000;1.000000;1.000000;,
  237;1.000000;1.000000;1.000000;1.000000;,
  238;1.000000;1.000000;1.000000;1.000000;,
  239;1.000000;1.000000;1.000000;1.000000;,
  240;1.000000;1.000000;1.000000;1.000000;,
  241;1.000000;1.000000;1.000000;1.000000;,
  242;1.000000;1.000000;1.000000;1.000000;,
  243;1.000000;1.000000;1.000000;1.000000;,
  244;1.000000;1.000000;1.000000;1.000000;,
  245;1.000000;1.000000;1.000000;1.000000;,
  246;1.000000;1.000000;1.000000;1.000000;,
  247;1.000000;1.000000;1.000000;1.000000;,
  248;1.000000;1.000000;1.000000;1.000000;,
  249;1.000000;1.000000;1.000000;1.000000;,
  250;1.000000;1.000000;1.000000;1.000000;,
  251;1.000000;1.000000;1.000000;1.000000;,
  252;1.000000;1.000000;1.000000;1.000000;,
  253;1.000000;1.000000;1.000000;1.000000;,
  254;1.000000;1.000000;1.000000;1.000000;,
  255;1.000000;1.000000;1.000000;1.000000;,
  256;1.000000;1.000000;1.000000;1.000000;,
  257;1.000000;1.000000;1.000000;1.000000;,
  258;1.000000;1.000000;1.000000;1.000000;,
  259;1.000000;1.000000;1.000000;1.000000;,
  260;1.000000;1.000000;1.000000;1.000000;,
  261;1.000000;1.000000;1.000000;1.000000;,
  262;1.000000;1.000000;1.000000;1.000000;,
  263;1.000000;1.000000;1.000000;1.000000;,
  264;1.000000;1.000000;1.000000;1.000000;,
  265;1.000000;1.000000;1.000000;1.000000;,
  266;1.000000;1.000000;1.000000;1.000000;,
  267;1.000000;1.000000;1.000000;1.000000;,
  268;1.000000;1.000000;1.000000;1.000000;,
  269;1.000000;1.000000;1.000000;1.000000;,
  270;1.000000;1.000000;1.000000;1.000000;,
  271;1.000000;1.000000;1.000000;1.000000;,
  272;1.000000;1.000000;1.000000;1.000000;,
  273;1.000000;1.000000;1.000000;1.000000;,
  274;1.000000;1.000000;1.000000;1.000000;,
  275;1.000000;1.000000;1.000000;1.000000;,
  276;1.000000;1.000000;1.000000;1.000000;,
  277;1.000000;1.000000;1.000000;1.000000;,
  278;1.000000;1.000000;1.000000;1.000000;,
  279;1.000000;1.000000;1.000000;1.000000;,
  280;1.000000;1.000000;1.000000;1.000000;,
  281;1.000000;1.000000;1.000000;1.000000;,
  282;1.000000;1.000000;1.000000;1.000000;,
  283;1.000000;1.000000;1.000000;1.000000;,
  284;1.000000;1.000000;1.000000;1.000000;,
  285;1.000000;1.000000;1.000000;1.000000;,
  286;1.000000;1.000000;1.000000;1.000000;,
  287;1.000000;1.000000;1.000000;1.000000;,
  288;1.000000;1.000000;1.000000;1.000000;,
  289;1.000000;1.000000;1.000000;1.000000;,
  290;1.000000;1.000000;1.000000;1.000000;,
  291;1.000000;1.000000;1.000000;1.000000;,
  292;1.000000;1.000000;1.000000;1.000000;,
  293;1.000000;1.000000;1.000000;1.000000;,
  294;1.000000;1.000000;1.000000;1.000000;,
  295;1.000000;1.000000;1.000000;1.000000;,
  296;1.000000;1.000000;1.000000;1.000000;,
  297;1.000000;1.000000;1.000000;1.000000;,
  298;1.000000;1.000000;1.000000;1.000000;,
  299;1.000000;1.000000;1.000000;1.000000;,
  300;1.000000;1.000000;1.000000;1.000000;,
  301;1.000000;1.000000;1.000000;1.000000;,
  302;1.000000;1.000000;1.000000;1.000000;,
  303;1.000000;1.000000;1.000000;1.000000;,
  304;1.000000;1.000000;1.000000;1.000000;,
  305;1.000000;1.000000;1.000000;1.000000;,
  306;1.000000;1.000000;1.000000;1.000000;,
  307;1.000000;1.000000;1.000000;1.000000;,
  308;1.000000;1.000000;1.000000;1.000000;,
  309;1.000000;1.000000;1.000000;1.000000;,
  310;1.000000;1.000000;1.000000;1.000000;,
  311;1.000000;1.000000;1.000000;1.000000;,
  312;1.000000;1.000000;1.000000;1.000000;,
  313;1.000000;1.000000;1.000000;1.000000;,
  314;1.000000;1.000000;1.000000;1.000000;,
  315;1.000000;1.000000;1.000000;1.000000;,
  316;1.000000;1.000000;1.000000;1.000000;,
  317;1.000000;1.000000;1.000000;1.000000;,
  318;1.000000;1.000000;1.000000;1.000000;,
  319;1.000000;1.000000;1.000000;1.000000;,
  320;1.000000;1.000000;1.000000;1.000000;,
  321;1.000000;1.000000;1.000000;1.000000;,
  322;1.000000;1.000000;1.000000;1.000000;,
  323;1.000000;1.000000;1.000000;1.000000;,
  324;1.000000;1.000000;1.000000;1.000000;,
  325;1.000000;1.000000;1.000000;1.000000;,
  326;1.000000;1.000000;1.000000;1.000000;,
  327;1.000000;1.000000;1.000000;1.000000;,
  328;1.000000;1.000000;1.000000;1.000000;,
  329;1.000000;1.000000;1.000000;1.000000;,
  330;1.000000;1.000000;1.000000;1.000000;,
  331;1.000000;1.000000;1.000000;1.000000;,
  332;1.000000;1.000000;1.000000;1.000000;,
  333;1.000000;1.000000;1.000000;1.000000;,
  334;1.000000;1.000000;1.000000;1.000000;,
  335;1.000000;1.000000;1.000000;1.000000;,
  336;1.000000;1.000000;1.000000;1.000000;,
  337;1.000000;1.000000;1.000000;1.000000;,
  338;1.000000;1.000000;1.000000;1.000000;,
  339;1.000000;1.000000;1.000000;1.000000;,
  340;1.000000;1.000000;1.000000;1.000000;,
  341;1.000000;1.000000;1.000000;1.000000;,
  342;1.000000;1.000000;1.000000;1.000000;,
  343;1.000000;1.000000;1.000000;1.000000;,
  344;1.000000;1.000000;1.000000;1.000000;,
  345;1.000000;1.000000;1.000000;1.000000;,
  346;1.000000;1.000000;1.000000;1.000000;,
  347;1.000000;1.000000;1.000000;1.000000;,
  348;1.000000;1.000000;1.000000;1.000000;,
  349;1.000000;1.000000;1.000000;1.000000;,
  350;1.000000;1.000000;1.000000;1.000000;,
  351;1.000000;1.000000;1.000000;1.000000;,
  352;1.000000;1.000000;1.000000;1.000000;,
  353;1.000000;1.000000;1.000000;1.000000;,
  354;1.000000;1.000000;1.000000;1.000000;,
  355;1.000000;1.000000;1.000000;1.000000;,
  356;1.000000;1.000000;1.000000;1.000000;,
  357;1.000000;1.000000;1.000000;1.000000;,
  358;1.000000;1.000000;1.000000;1.000000;,
  359;1.000000;1.000000;1.000000;1.000000;,
  360;1.000000;1.000000;1.000000;1.000000;,
  361;1.000000;1.000000;1.000000;1.000000;,
  362;1.000000;1.000000;1.000000;1.000000;,
  363;1.000000;1.000000;1.000000;1.000000;,
  364;1.000000;1.000000;1.000000;1.000000;,
  365;1.000000;1.000000;1.000000;1.000000;,
  366;1.000000;1.000000;1.000000;1.000000;,
  367;1.000000;1.000000;1.000000;1.000000;,
  368;1.000000;1.000000;1.000000;1.000000;,
  369;1.000000;1.000000;1.000000;1.000000;,
  370;1.000000;1.000000;1.000000;1.000000;,
  371;1.000000;1.000000;1.000000;1.000000;,
  372;1.000000;1.000000;1.000000;1.000000;,
  373;1.000000;1.000000;1.000000;1.000000;,
  374;1.000000;1.000000;1.000000;1.000000;,
  375;1.000000;1.000000;1.000000;1.000000;,
  376;1.000000;1.000000;1.000000;1.000000;,
  377;1.000000;1.000000;1.000000;1.000000;,
  378;1.000000;1.000000;1.000000;1.000000;,
  379;1.000000;1.000000;1.000000;1.000000;,
  380;1.000000;1.000000;1.000000;1.000000;,
  381;1.000000;1.000000;1.000000;1.000000;,
  382;1.000000;1.000000;1.000000;1.000000;,
  383;1.000000;1.000000;1.000000;1.000000;,
  384;1.000000;1.000000;1.000000;1.000000;,
  385;1.000000;1.000000;1.000000;1.000000;,
  386;1.000000;1.000000;1.000000;1.000000;,
  387;1.000000;1.000000;1.000000;1.000000;,
  388;1.000000;1.000000;1.000000;1.000000;,
  389;1.000000;1.000000;1.000000;1.000000;,
  390;1.000000;1.000000;1.000000;1.000000;,
  391;1.000000;1.000000;1.000000;1.000000;,
  392;1.000000;1.000000;1.000000;1.000000;,
  393;1.000000;1.000000;1.000000;1.000000;,
  394;1.000000;1.000000;1.000000;1.000000;,
  395;1.000000;1.000000;1.000000;1.000000;,
  396;1.000000;1.000000;1.000000;1.000000;,
  397;1.000000;1.000000;1.000000;1.000000;,
  398;1.000000;1.000000;1.000000;1.000000;,
  399;1.000000;1.000000;1.000000;1.000000;,
  400;1.000000;1.000000;1.000000;1.000000;,
  401;1.000000;1.000000;1.000000;1.000000;,
  402;1.000000;1.000000;1.000000;1.000000;,
  403;1.000000;1.000000;1.000000;1.000000;,
  404;1.000000;1.000000;1.000000;1.000000;,
  405;1.000000;1.000000;1.000000;1.000000;,
  406;1.000000;1.000000;1.000000;1.000000;,
  407;1.000000;1.000000;1.000000;1.000000;,
  408;1.000000;1.000000;1.000000;1.000000;,
  409;1.000000;1.000000;1.000000;1.000000;,
  410;1.000000;1.000000;1.000000;1.000000;,
  411;1.000000;1.000000;1.000000;1.000000;,
  412;1.000000;1.000000;1.000000;1.000000;,
  413;1.000000;1.000000;1.000000;1.000000;,
  414;1.000000;1.000000;1.000000;1.000000;,
  415;1.000000;1.000000;1.000000;1.000000;,
  416;1.000000;1.000000;1.000000;1.000000;,
  417;1.000000;1.000000;1.000000;1.000000;,
  418;1.000000;1.000000;1.000000;1.000000;,
  419;1.000000;1.000000;1.000000;1.000000;,
  420;1.000000;1.000000;1.000000;1.000000;,
  421;1.000000;1.000000;1.000000;1.000000;,
  422;1.000000;1.000000;1.000000;1.000000;,
  423;1.000000;1.000000;1.000000;1.000000;,
  424;1.000000;1.000000;1.000000;1.000000;,
  425;1.000000;1.000000;1.000000;1.000000;,
  426;1.000000;1.000000;1.000000;1.000000;,
  427;1.000000;1.000000;1.000000;1.000000;,
  428;1.000000;1.000000;1.000000;1.000000;,
  429;1.000000;1.000000;1.000000;1.000000;,
  430;1.000000;1.000000;1.000000;1.000000;,
  431;1.000000;1.000000;1.000000;1.000000;,
  432;1.000000;1.000000;1.000000;1.000000;,
  433;1.000000;1.000000;1.000000;1.000000;,
  434;1.000000;1.000000;1.000000;1.000000;,
  435;1.000000;1.000000;1.000000;1.000000;,
  436;1.000000;1.000000;1.000000;1.000000;,
  437;1.000000;1.000000;1.000000;1.000000;,
  438;1.000000;1.000000;1.000000;1.000000;,
  439;1.000000;1.000000;1.000000;1.000000;,
  440;1.000000;1.000000;1.000000;1.000000;,
  441;1.000000;1.000000;1.000000;1.000000;,
  442;1.000000;1.000000;1.000000;1.000000;,
  443;1.000000;1.000000;1.000000;1.000000;,
  444;1.000000;1.000000;1.000000;1.000000;,
  445;1.000000;1.000000;1.000000;1.000000;,
  446;1.000000;1.000000;1.000000;1.000000;,
  447;1.000000;1.000000;1.000000;1.000000;,
  448;1.000000;1.000000;1.000000;1.000000;,
  449;1.000000;1.000000;1.000000;1.000000;,
  450;1.000000;1.000000;1.000000;1.000000;,
  451;1.000000;1.000000;1.000000;1.000000;,
  452;1.000000;1.000000;1.000000;1.000000;,
  453;1.000000;1.000000;1.000000;1.000000;,
  454;1.000000;1.000000;1.000000;1.000000;,
  455;1.000000;1.000000;1.000000;1.000000;,
  456;1.000000;1.000000;1.000000;1.000000;,
  457;1.000000;1.000000;1.000000;1.000000;,
  458;1.000000;1.000000;1.000000;1.000000;,
  459;1.000000;1.000000;1.000000;1.000000;,
  460;1.000000;1.000000;1.000000;1.000000;,
  461;1.000000;1.000000;1.000000;1.000000;,
  462;1.000000;1.000000;1.000000;1.000000;,
  463;1.000000;1.000000;1.000000;1.000000;,
  464;1.000000;1.000000;1.000000;1.000000;,
  465;1.000000;1.000000;1.000000;1.000000;,
  466;1.000000;1.000000;1.000000;1.000000;,
  467;1.000000;1.000000;1.000000;1.000000;,
  468;1.000000;1.000000;1.000000;1.000000;,
  469;1.000000;1.000000;1.000000;1.000000;,
  470;1.000000;1.000000;1.000000;1.000000;,
  471;1.000000;1.000000;1.000000;1.000000;,
  472;1.000000;1.000000;1.000000;1.000000;,
  473;1.000000;1.000000;1.000000;1.000000;,
  474;1.000000;1.000000;1.000000;1.000000;,
  475;1.000000;1.000000;1.000000;1.000000;,
  476;1.000000;1.000000;1.000000;1.000000;,
  477;1.000000;1.000000;1.000000;1.000000;,
  478;1.000000;1.000000;1.000000;1.000000;,
  479;1.000000;1.000000;1.000000;1.000000;,
  480;1.000000;1.000000;1.000000;1.000000;,
  481;1.000000;1.000000;1.000000;1.000000;,
  482;1.000000;1.000000;1.000000;1.000000;,
  483;1.000000;1.000000;1.000000;1.000000;,
  484;1.000000;1.000000;1.000000;1.000000;,
  485;1.000000;1.000000;1.000000;1.000000;,
  486;1.000000;1.000000;1.000000;1.000000;,
  487;1.000000;1.000000;1.000000;1.000000;,
  488;1.000000;1.000000;1.000000;1.000000;,
  489;1.000000;1.000000;1.000000;1.000000;,
  490;1.000000;1.000000;1.000000;1.000000;,
  491;1.000000;1.000000;1.000000;1.000000;,
  492;1.000000;1.000000;1.000000;1.000000;,
  493;1.000000;1.000000;1.000000;1.000000;,
  494;1.000000;1.000000;1.000000;1.000000;,
  495;1.000000;1.000000;1.000000;1.000000;,
  496;1.000000;1.000000;1.000000;1.000000;,
  497;1.000000;1.000000;1.000000;1.000000;,
  498;1.000000;1.000000;1.000000;1.000000;,
  499;1.000000;1.000000;1.000000;1.000000;,
  500;1.000000;1.000000;1.000000;1.000000;,
  501;1.000000;1.000000;1.000000;1.000000;,
  502;1.000000;1.000000;1.000000;1.000000;,
  503;1.000000;1.000000;1.000000;1.000000;,
  504;1.000000;1.000000;1.000000;1.000000;,
  505;1.000000;1.000000;1.000000;1.000000;,
  506;1.000000;1.000000;1.000000;1.000000;,
  507;1.000000;1.000000;1.000000;1.000000;,
  508;1.000000;1.000000;1.000000;1.000000;,
  509;1.000000;1.000000;1.000000;1.000000;,
  510;1.000000;1.000000;1.000000;1.000000;,
  511;1.000000;1.000000;1.000000;1.000000;,
  512;1.000000;1.000000;1.000000;1.000000;,
  513;1.000000;1.000000;1.000000;1.000000;,
  514;1.000000;1.000000;1.000000;1.000000;,
  515;1.000000;1.000000;1.000000;1.000000;,
  516;1.000000;1.000000;1.000000;1.000000;,
  517;1.000000;1.000000;1.000000;1.000000;,
  518;1.000000;1.000000;1.000000;1.000000;,
  519;1.000000;1.000000;1.000000;1.000000;,
  520;1.000000;1.000000;1.000000;1.000000;,
  521;1.000000;1.000000;1.000000;1.000000;,
  522;1.000000;1.000000;1.000000;1.000000;,
  523;1.000000;1.000000;1.000000;1.000000;,
  524;1.000000;1.000000;1.000000;1.000000;,
  525;1.000000;1.000000;1.000000;1.000000;,
  526;1.000000;1.000000;1.000000;1.000000;,
  527;1.000000;1.000000;1.000000;1.000000;,
  528;1.000000;1.000000;1.000000;1.000000;,
  529;1.000000;1.000000;1.000000;1.000000;,
  530;1.000000;1.000000;1.000000;1.000000;,
  531;1.000000;1.000000;1.000000;1.000000;,
  532;1.000000;1.000000;1.000000;1.000000;,
  533;1.000000;1.000000;1.000000;1.000000;,
  534;1.000000;1.000000;1.000000;1.000000;,
  535;1.000000;1.000000;1.000000;1.000000;,
  536;1.000000;1.000000;1.000000;1.000000;,
  537;1.000000;1.000000;1.000000;1.000000;,
  538;1.000000;1.000000;1.000000;1.000000;,
  539;1.000000;1.000000;1.000000;1.000000;,
  540;1.000000;1.000000;1.000000;1.000000;,
  541;1.000000;1.000000;1.000000;1.000000;,
  542;1.000000;1.000000;1.000000;1.000000;,
  543;1.000000;1.000000;1.000000;1.000000;,
  544;1.000000;1.000000;1.000000;1.000000;,
  545;1.000000;1.000000;1.000000;1.000000;,
  546;1.000000;1.000000;1.000000;1.000000;,
  547;1.000000;1.000000;1.000000;1.000000;,
  548;1.000000;1.000000;1.000000;1.000000;,
  549;1.000000;1.000000;1.000000;1.000000;,
  550;1.000000;1.000000;1.000000;1.000000;,
  551;1.000000;1.000000;1.000000;1.000000;,
  552;1.000000;1.000000;1.000000;1.000000;,
  553;1.000000;1.000000;1.000000;1.000000;,
  554;1.000000;1.000000;1.000000;1.000000;,
  555;1.000000;1.000000;1.000000;1.000000;,
  556;1.000000;1.000000;1.000000;1.000000;,
  557;1.000000;1.000000;1.000000;1.000000;,
  558;1.000000;1.000000;1.000000;1.000000;,
  559;1.000000;1.000000;1.000000;1.000000;,
  560;1.000000;1.000000;1.000000;1.000000;,
  561;1.000000;1.000000;1.000000;1.000000;,
  562;1.000000;1.000000;1.000000;1.000000;,
  563;1.000000;1.000000;1.000000;1.000000;,
  564;1.000000;1.000000;1.000000;1.000000;,
  565;1.000000;1.000000;1.000000;1.000000;,
  566;1.000000;1.000000;1.000000;1.000000;,
  567;1.000000;1.000000;1.000000;1.000000;,
  568;1.000000;1.000000;1.000000;1.000000;,
  569;1.000000;1.000000;1.000000;1.000000;,
  570;1.000000;1.000000;1.000000;1.000000;,
  571;1.000000;1.000000;1.000000;1.000000;,
  572;1.000000;1.000000;1.000000;1.000000;;
 }
}
